<?xml version="1.0" encoding="utf-8"?>
<!-- Generator: Adobe Illustrator 24.0.0, SVG Export Plug-In . SVG Version: 6.00 Build 0)  -->
<svg version="1.1" id="Layer_1" xmlns="http://www.w3.org/2000/svg" xmlns:xlink="http://www.w3.org/1999/xlink" x="0px" y="0px"
	 viewBox="0 0 274.1 274.1" style="enable-background:new 0 0 274.1 274.1;" xml:space="preserve">
<style type="text/css">
	.st0{fill:#F94343;}
</style>
<title>Artboard 4_1</title>
<path class="st0" d="M180.2,212.5l-2.8,1.4c-0.3-1.2-0.5-2.6-0.8-4.1l-2.1,3l-0.8-0.5l-0.4-3.7l-2.2,2.1c-2.1-1-1.7-5.1-5.2-3.9
	c-0.6-6-4.4-9.5-10.6-10.4c-13.5-1.7-27.2-2.1-40.8-1.2c-1,0.1-2,0.4-3,0.6c-1,0.2-1.9,0-2.8-0.4c1.5-0.9,3-1.8,4.4-2.8
	c1.1-0.9,3.8-1.3,1.8-3.9c-1.6,4.6-2.7-0.8-4.4-0.1l-0.8,2.3l-3.1-1.9l-1.5,2.6l-3,1c-1-1.8-1.8-3.5-2.7-5l-1,0.4
	c0.1,0.4,0.1,0.9,0.3,1.3c0.1,0.5,0.3,0.9,0.6,1.3l-4.4,1.2l-0.1-0.5l2.8-1.5l-0.1-0.8l-3.6,0.2c-0.9-1-1.5-4.1-4.2-1.2
	c-1.5-2-2.8-3.9-4-5.7l-0.8,0.4c0.3,0.9,0.6,1.7,0.9,2.8l-2,0.5c-0.3-1.2-0.7-2.5-1.1-3.7c-1.4-3-2.8-5.9-4.2-8.9
	c-0.2-0.4,0-1,0-1.9c3,2.6,7.2-1.7,9.2,1.7l4.9,2.9c-0.2-0.6-0.3-1.2-0.7-2.1l5.7-1.1c-0.1-0.2-0.1-1-0.3-1.1
	c-27.2-9.5-51.5-25.1-78.1-37c-0.4,2.4-0.7,4.1-1,6.4l7.7-0.8L26,141l-3.3,1.1l1.7,1.9l-0.6,0.9l-2.9-1.6l0.3-1l-5.8,1.5l0.6,2.3
	l-0.5,0.3l-3.6-4.8l-0.8,0.5l3,5.5c-4.1-4.5-7.3-10-8.8-16l1-0.6c0.5,1.4,0.9,2.8,1.6,5l7.8-13.2l8.6,0.7c-0.6,1.2-1,2.2-1.7,3.7
	c11.2-1,21.1-4.7,30.7-9.3c12.6-6.1,24.9-12.8,37.7-18.7c9.7-4.6,20-6.1,30.6-2.4c4.9,1.7,9.9,3.7,15,4.4c4.8,0.6,9.8,0,14.6-0.7
	c5.5-0.8,10.8-2.6,16.2-3.6c8.8-1.5,16.2,2.3,23.2,6.8c12.4,7.7,24.5,15.9,37,23.4c4.5,2.8,9.7,4.4,14.6,6.4c2.3,0.8,2-1.6,2.6-2.6
	c0.5-0.9,0.3-2.1,0.3-3l5.7-0.7l1.1,2.3c1.2,2.4,0.5,5.5,3.2,7.5c0.8,0.6-0.1,3.4-0.2,5.3c0.5-0.1,1.3-0.7,1.8-0.6
	c0.9,0.3,1.7,0.9,2.2,1.8c0.2,0.5-0.6,1.5-1.1,2.1c-1.5,1.7-3,3.4-4.8,5.5l-2.3-0.8c0.5,1.2,0.8,2.1,1.1,2.8l-5,2.3l-0.4-0.4
	l1.9-2.3c-0.7-1.5-2.1-3-1.9-4.3c0.1-1.5,1.5-2.9,2.6-4.8c-2.8,1-5.5,1.8-7.9,3c-6.9,3.5-13.9,7-20.7,10.8c-3.5,1.9-6.5,4.6-9.7,6.8
	c-0.8,0.6-1.9,0.9-2.9,1c-2.8,0.1-3.5,1.9-3.9,4.2c-0.1,0.3-0.4,0.7-0.8,1.2l-1.7-2.4l-6.4,5c-1.5-1.1-2.7,0.1-3.8,2.3l-0.7-3
	l-0.6-0.1c-0.4,1.5-0.9,3-1.5,4.7l-7-1.7l-1.9,1.8L178,176l-2.3,3.9c-0.3-1.5-0.5-2.4-0.7-3.5c-2.6-1.1-0.7,5.3-5,1.5l0.7,1.7
	l10.6,2.9c2.4-3.2,5.4-2,8.4,0.1l0.6-1l-3.1-2.3c4.8,0.2,6.1,1.1,6.2,4.4c2.1-1.5,2.1-1.5,0.8-5.3l3.3,0.7c-0.1,2.9,1.8,5.8-1.5,8.6
	c0.1-1.5,0.2-2.5,0.3-4.4l-3.9,6.1l-0.7-0.3c-0.1-1.7-0.3-3.5-0.4-5.7c-3.7,3,0.3,5.7-0.9,8.4l-2-0.4c-0.2,0.8-0.4,1.7-0.8,3
	l-2.1-3.4c-1.7,4.1,0.6,7.7,0.5,11.4c0,1.5-0.6,2.8-1,4.3l0.1,0.1v-7h-0.8c-1.2,3-2.4,6.1-3.5,9.1c-0.3,1-0.6,1.9-0.8,2.9
	L180.2,212.5z M124.9,119.4L124.9,119.4v4.1c2.5-3.6,5.9-4.8,10.1-3.8c1.2,0.3,2.3,1.6,3.1,2.1c1-0.6,2.1-1.2,3.3-1.7
	c0.6-0.2,1.3,0.2,1.9,0.1c3.8-0.5,4.6-5,4-8.6c-0.1-0.9-1.3-1.6-2-2.3c-0.8,0.7-1.5,1.4-2.3,2.1c-0.6,0.6-1.2,1-1.8,1.5v-5l5,1
	l0.3-1l-2.8-2c3.6-0.2,5,0.8,5.1,3.5c0,2.4-0.2,4.8-0.3,7.5l6.1-0.8l-3.2-1.9c2.4-0.3,5.3-2.7,4.6,2.8l1-0.6c0.3-1.5,0.6-2.8,1-4.8
	l-6.3,0.7v-6.9l1.1-0.1c0.1,1.8,0.3,3.5,0.5,5.9l5-1.7c2.1,1.2,2.4,3.5,1.3,6.6c1-0.4,1.7-0.6,1.8-0.8c0.4-4.3,0.7-8.5,1-12.9
	c2.2-0.2,2.5,1.5,2.3,3c-0.1,2.3-0.6,4.6-1,6.9l1.3,0.3c0.3-1.5,0.6-2.9,0.8-3.6h7.6l2.8,6.6h0.8v-12.4h1.5c0.5,4,0.8,8-0.1,12.5
	h4.1v-10.6c2.9,5.3,1.2,10,1.3,15.2l7.6-0.4v-9l2.1,1.2c-1.4,1.6,1.5,3.8-0.8,5.5c-0.5,0.3-0.3,1.9-0.1,2.7c0.3,0.8,1.2,1.2,1.8,1.9
	c0.5-0.6,0.9-1.2,1.2-1.8c0.3-0.6,0.6-1.3,0.8-1.9c0.6,2.1,0.5,4.1,0.6,6.1c0.1,0.6,0.8,1,1.2,1.6c0.5-0.5,1.4-0.9,1.4-1.4
	c0.1-2.8,0.1-5.7,0.1-9.3l3.2,1.7l-1,0.3c-0.3,3.3-0.7,6.6-1,9.9l1.2,0.3l1.9-3.3c0.5,1.2,0.8,2.1,1.2,3.1l0.9-0.3l2.1-7.2l1.1,0.3
	c-0.4,2.6-0.8,5.3-1.2,7.9c2.5,0.5,2.5-1,2.5-2.6c0.1-1.3,0.3-2.7,0.7-3.9h1.2v8.3h1c0.5-1.9,0.9-3.7,1.4-5.6
	c3.4,0.4,0.8,2.6,1.1,3.9l2.8-0.6l0.5,3.9l0.6,0.5c0.8-1.3,1.5-2.7,2.3-4l0.6,0.1c0.1,1.5,0.2,3,0.3,4.5l0.9-0.1l1.9-3.3
	c0.3,2.1,0.5,3.2,0.7,4.7l2.3-1.2c2.9,3.3,8.5,0.8,10.2,4.4l6.1,1c-0.8-1-1.9-1.9-3.1-2.3c-5-2.2-10.4-3.9-15.2-6.7
	c-6.6-3.9-12.8-8.6-19.3-12.7c-8.3-5.2-16.5-9.6-24.5-14.4c-5.9-3.5-12.1-3.9-18.5-2.6c-7.2,1.4-14.2,3.4-21.4,4.3s-14-1.5-20.7-4.2
	c-7.3-3.1-15.4-3.6-23-1.5c-10.8,2.9-20.4,8.6-30.3,13.4c-10.3,5-20,11.2-31.3,14.1c-0.6,0.1-1,0.7-1.5,1c4.1,1.9,6.7-1.6,9.9-2.4
	c3.2-0.8,6.4-1.6,9.7-2.5l0.3,1.3l4-0.6l-2.3-3.7l5.6,1.9l-0.6,2c1-0.8,1.4-1.1,1.7-1.5c0.2-0.6,0.4-1.2,0.5-1.8l2.6,1.1
	c0.6-0.8,1-1.5,1.2-1.9l3.7,2.1v-2.9l6.8,1c0.3-1,0.6-1.9,1-3.4l1.8,2.2l5.5-3.9l-4-6.5l0.2-0.8c1.1,0.4,2.7,0.6,3.2,1.3
	c1.2,2.1,1.9,4.6,2.8,6.9l0.6-0.1l0.6-2.9c2.2-1.7,0.7,4.7,3.6,1.5l-1.1-3.3c-2.7,0.3-4.1-0.8-4.7-3.9c-0.1-0.6,0.3-1.3,0.6-2.4
	c1.8,3,2.2,6.2,6.1,5.2c0.3,1,0.4,1.7,0.8,3.1c0.8-1.9,1.2-3,1.7-4.1l0.8,0.3c0.4,1.5,0.8,3,1.2,4.6l0.8,0.1l1.1-4.9l0.7-0.3
	l1.5,2.8c0.5-1.7,0.8-3.7,2.6-2.5l1,3c1.4-1.2,2.8-2.1,3.5-3.2c1.5-2.5-0.1-6.1-3.2-7.7c0.3,2,0.5,4,0.8,6l-1.1,0.6
	c-0.8-2.5-1.5-4.9-2.6-8.6c4.3,1.3,7.7,2.3,11.1,3.5c0.3,0.1,0.6,1,0.7,1.6c0.2,2.1,0.4,4.1,0.5,6.2c-0.1,0.6-0.3,1.2-0.6,1.9
	l-0.8-0.1c-0.1-1.1-0.1-2.1-0.1-3.2s0.2-2.3-0.1-3.3c-0.4-1.1-1.4-1.9-2.1-2.9c-0.4,1-0.7,1.9-0.9,2.9c-0.1,1.2,0.2,2.5,0.1,3.7
	c-0.1,0.6-0.4,1.2-0.8,1.7c-0.5,1-1,1.9-1.5,2.9l0.8,0.3c2.2-1.8,4-1.5,6.8,1.2l-2.6,4.4c1.9-0.3,3.7-0.8,3.8-0.7
	C120.8,120.4,123.1,119.1,124.9,119.4z M164.3,149.7c-0.7-0.3-1.7-0.5-2-1c-1-2.1-2.1-4.4-2.3-6.7c-0.4-3.3-3.9-2.8-5.3-4.9
	c-0.1-0.1-1.1,0.3-2.1,0.8l2.6,2c-0.6,0.4-1.2,1-1.2,1c-2.3-1.9-4.6-4-6.9-6l-0.6,0.3l4.1,8l-0.6,0.7l-3.6-2.6
	c0.2,1.3,0.4,2.5,0.6,3.6l2.6,0.6c-1,1.6-1.7,2.9-2.8,4.8c-0.6-2.6-0.9-4.6-1.6-6.4c-1.2-3.3-6.7-7-7.1-4.9l2.6,1.5
	c-5,2-5-3.7-8-4.5c0.4,1.3,1,2.6,1.8,3.7c0.1,0.4,0.2,0.8,0.2,1.3c-0.6,0-1.3,0.2-1.5-0.1c-0.9-1-1.7-1.9-2.4-3
	c-0.2,1.7-0.3,3-0.5,4.4l2.1-0.3c-0.4,1-1,1.9-1.6,2.8c-0.1,0.1-1.5-0.4-1.9-1c-1.7-2.1-3.1-4.4-4.8-6.8c-0.6,1.5-1,2.6-1.8,4.7
	l-2-4.1c-1.5,1.8-2.3,2.8-3,3.7s-1.5,1.7-2.2,2.5c1.4-5,0.1-8.9-3.8-9.9l1.4,3.4c-3.5-1.6-6.4-1.3-8.7,1.7c-0.1,0.1-1.7-0.6-1.7-0.9
	c0.1-1.1,0.3-2.2,0.7-3.2c0.2-0.6,0.5-1.2,0.8-1.8l-1.1-0.4l-0.6,2.3c-0.6-0.8-1.3-1.7-2.1-2.3c-0.6-0.3-1.2-0.5-1.8-0.3
	c-1.5,1-2.8,2.1-4.4,3.1c-0.3,0.2-1.1-0.3-1.6-0.5c-0.6,0.6-1.2,1.4-1.9,2.1l-0.6-0.5l2.3-4.4c-0.6-0.3-1.2-0.4-1.9-0.5
	c-0.6,0.1-1.3,0.7-1.8,0.6c-4.7-1.2-7.3-0.8-9,2.9c-1.6,3.5-4.4,2.8-6.8,3.5l-0.5-0.9l5-2.8c0.1-1.2,0.2-3.5,0.3-5.9L63.8,132l3.2,1
	c-6.1,0.6-6.6,0.9-6.7,4.2l-4.2,1.6l-0.3-0.7c3.2-2,3.3-2.2,2.3-4.3l2.3-2c-0.6-0.3-1.2-0.3-1.8-0.3c-2.7,0.1-5.4,0.1-8.1,0.5
	c-1.7,0.3-3.3,1.4-5,1.9c-0.8,0.2-1.7,0.3-2.6,0.1c-0.3-0.1-0.5-0.9-0.8-1.4c-0.3,0.6-0.6,1.2-1.1,1.6c-0.9,0.6-1.8,1.1-2.8,1.6
	l0.8-2.6l-10.6,3.4l0.5,1.4l5.1-2l-1,3l4.3-1.2l-1.5,2.6l0.4,0.6l3.6-1.7l0.3,0.6l-1.9,2.8c1.7-0.3,2.8-0.5,3.9-0.8
	c0.8-0.2,1.6-0.5,2.4-0.7l0.7,1.2l-2.6,1l0.9,1.4c0.8-0.3,1.9-0.4,2.2-1c1.3-2.4,1.8-2.7,4.3-1.8l-2.6,1.6l0.2,0.8l9.8-1l0.1,0.9
	c-1.4-0.1-2.7-0.1-4.1,0.1c-2.3,0.4-2.9,3.2-1.2,4.8c0.6-3.1,1.2-3.5,3.9-2.2l-2.4,2.1l0.5,0.9l3.5-1.6l0.8,0.3
	c-0.5,1-0.9,2-1.5,3.1c1.5,1,2.6,0.9,3-1.5c0.1-0.7,1.1-1.2,1.7-1.9l0.6,0.6c-1.2,2.6-1,4.6,0.8,5.2c-0.4-2.6,0.7-3.6,2.8-3.4v5.3
	l2.8-2.9l0.6,0.6l-0.5,2.1h9.3l-3,2.2l0.4,0.8l10.8-0.5c-0.3,0.8-1,0.9-1.2,1.2c-0.8,1.2-1.4,2.5-1.9,3.8c-0.1,0.2,0.8,0.8,1.2,1.2
	c0.6-0.9,1.2-1.8,1.9-2.8c0.1-0.1,0.3-0.1,0.8-0.2c0.1,0.4,0.3,0.9,0.4,1.3c0.3,1,0.7,2.1,1.1,3.1c0.6-0.8,1-1.8,1.6-2.6
	c0.3-0.3,0.7-0.6,1.1-0.8c0.3,0.5,0.8,1.1,0.7,1.4c-0.3,0.7-0.9,1.2-2,2.6c1.7,0.1,3.3,0.6,3.5,0.3c0.5-0.9,0.3-2.1,0.5-3.5h2.5
	c-0.3,1.2-0.6,2.2-1,4l5.2-2.1l-1.5,3.6c-0.6-0.3-1.1-0.6-1.7-0.8c-0.6-0.1-1-0.2-1.6-0.2l-0.1,1c13.8,3.8,27.9,6.4,42.1,7.9
	c-0.1-2-0.2-3.2-0.3-4.4c1.5,0.8,2.6,1.5,2.9,2.3c0.6,1.9,0.3,2.1,1.5,2c8.4-0.4,16.7-0.8,25-1.3c0.6-0.1,1.1-0.4,1.6-0.8
	c-0.3-1.2-0.6-2.2-1-4c4.8,4.5,5.3,4.6,9.7,2.2c-0.5-1-1-1.9-1.5-2.8c1-0.3,1.9,0,2,0.4c0.5,2.3,2.2,2.3,3.9,2
	c1.3-0.3,2.6-0.7,3.8-1.2l-1.7-3.5l0.8-0.5l1.5,1.3l2,1.7c-0.1-0.8-0.1-1.6,0-2.4c0.1-0.6,0.3-1.2,0.5-1.8c1.1,1.2,1.9,2.1,2.8,3
	c0.1,0.1,1.1-0.8,1.1-0.8c-0.5-1.1-1.1-2.1-1.7-3.2c2.9-2,2.5,1.7,3.9,2.8l2.8-0.8l-1.8-4.1l1-0.4c0.7,1.2,1.3,2.6,2.1,4l46.6-24.5
	c-2.1-0.8-4.8,3.7-6.8-1.3c-0.3,1.7-0.4,2.6-0.6,3.7l-3.1-1.7c-0.1,0.8-0.1,1.5-0.1,2.6c-1.9-1-3.9-1.5-5.2-2.8
	c-2.7-2.6-2.1,0.1-2.7,1.5l-15.3-6.6l-2.1,0.7v-1.4l-4.5-1.1c0.3,1.6,0.5,3,0.7,4.6c-0.7,0.5-1.5,1-2.1,1.5l3.9,5.3
	c-2.4,1.1-4.8-0.2-5.2-3.2c-0.6-4.7-3.6-7.8-6.2-11.2l-0.8,0.4l2.1,3.5c-3-1-6.5,1.9-8.2-2.6c-0.1-0.3-1.2-0.3-1.9-0.4l-0.2,0.7
	l1.9,1.7l-2.2,1.1l2.4,1.7c-3.1,1.6,3.2,5.4-1.7,6.8h3.2l0.1,0.7l-3.5,2c-0.6-0.6-1.2-1.2-1.7-1.9c-1.9-3.4-4.1-6.6-5.6-10.2
	c-1.4-3.4-3.1-3.1-5.5-1.5c-1.8-1.4-2.6-4.4-5.7-3l2.8,5.1L167,135c-0.1,0.3-0.3,0.6-0.3,0.8l1.5,2.2c-3,2-3.3-4.6-6.3-1.9
	c1.1,3.5,2.1,6.8,3,9.5l-0.8,4.3L164.3,149.7z M180.6,207c1.5-4.2-0.2-8.3-3.5-9.1L180.6,207z M180.6,192.6l-0.9,0.3
	c0.8,2.5,1.6,4.9,2.6,8l1.4-3.6L180.6,192.6z M176.4,205.9c2.6-3.3-0.6-4.7-1.7-6.6l-0.9,0.2L176.4,205.9z M171.1,110.7
	c-1.6,0.2-3,0.1-3,0.4c-0.3,1.5-0.6,2.9-0.6,4.4l1,0.3L171.1,110.7z M82.3,160.2h-6.5C78.5,162.9,80.9,162.8,82.3,160.2z
	 M183.2,136.7l3.7,6.2C187.3,139.3,185.8,136.9,183.2,136.7L183.2,136.7z"/>
<path class="st0" d="M140,85.1c-1.7,0.7-2.1,1.5-1.4,3.5s0.6,4.3,0.8,7.3c-0.8-1.3-1.6-2.1-1.7-3.1c-0.4-2.9-1.1-5.5-3.9-7.3
	c-0.1,2.3-0.2,4.4-0.3,6.6l-1.4-0.1c0.2-3.6,0.4-7.1,0.6-9.9l2.1-3.9c2.1-0.2,0.1,5,3.5,2.8L140,85.1L140,85.1z"/>
<path class="st0" d="M127.2,70.3c-0.2,1.7-0.4,3.1-0.6,4.6l0.8,0.1l0.9-3.5c1.9,2.3,1.5,2.1,0.2,4.6c-1.2,2.2-1.3,5-2,7.6
	C122.7,78.4,122.9,72.8,127.2,70.3z"/>
<path class="st0" d="M79.8,183l-4-6.8c-0.3,1.7-0.4,2.6-0.6,3.4l-0.6,0.1L70,167.8l1.1-0.5l3.6,8.4l0.6-0.1
	c-0.4-2.1-0.8-4.1-1.2-6.3l0.6-0.1l5.8,13.3L79.8,183z"/>
<path class="st0" d="M128.7,91.8c-4.2-2.5-7.5-8-7.2-12.9L127,89l0.7-0.3c0.3-2.5,0.7-5,1-7.7c1.8-0.1,2.1,1,1.2,3.7
	C129.3,87,129.1,89.4,128.7,91.8z"/>
<path class="st0" d="M139.9,85.1l2.3-3.2c5.8,1.7,3.5,6.9,5.5,11c-3.9-2.3-0.8-7.5-5.7-9.4c0.4,3.8,0.8,7.1,1.1,10.4l-1.2,0.2
	L139.9,85.1L139.9,85.1z"/>
<path class="st0" d="M200.3,191.6c-1.2-4.6,2-10-3-13.7c2.1-0.5,4.2,0.5,4.2,1.9c0.1,3.9,0.1,7.9,0.1,11.9L200.3,191.6L200.3,191.6z
	"/>
<path class="st0" d="M205.1,181.4l-2.9-5.4l3.9-2.3C205.8,176.3,205.5,178.8,205.1,181.4z"/>
<path class="st0" d="M42.7,118.8c1.9-2.3,3.6-4.4,5.3-6.4C46.3,118.6,45,119.9,42.7,118.8z"/>
<path class="st0" d="M110.1,193.4L99.9,196l-0.3-1.1l10.4-2.6L110.1,193.4z"/>
<path class="st0" d="M185.2,207.6l-4.3,8.7l-1-0.4l0.3-3.3l-0.1,0.1c0.9-0.4,1.7-0.9,2.4-1.5C183.6,210,184.5,208.9,185.2,207.6
	L185.2,207.6z"/>
<path class="st0" d="M32.2,116.3c-1.9,3.1-3.7,6.2-5.5,9.3l-1-0.7c0.9-1.4,1.8-2.6,2.7-4c0.7-1.2,1.2-2.5,2-3.6
	C30.6,116.8,31.6,116.6,32.2,116.3L32.2,116.3z"/>
<path class="st0" d="M38.3,114.9c-1.8,2.3-3.6,4.7-5.4,7l-0.7-0.5l5.1-7.3L38.3,114.9z"/>
<path class="st0" d="M68.2,166c1.1,3.2,2.1,6,3.1,9C68.9,173.4,67.3,168.7,68.2,166z"/>
<path class="st0" d="M54.5,112.6c1.7-2.2,3.3-4.5,5-6.7l0.6,0.5c-2.1,1.9-1.9,5.5-4.7,6.9L54.5,112.6z"/>
<path class="st0" d="M66.7,102.3l-5.4,7.6l-0.8-0.6l5.6-7.5L66.7,102.3z"/>
<path class="st0" d="M32.2,116.4c0.4-1.3,0.8-2.6,1.4-4.5l3.2-1.5l0.1,0.5L32.2,116.4L32.2,116.4z"/>
<path class="st0" d="M216,108.6l0.4,6.6c-2.7-1.9,0-4.5-1.6-6.5L216,108.6z"/>
<path class="st0" d="M97.5,83.7L93.1,91l-0.9-0.6l4.8-7.2L97.5,83.7z"/>
<path class="st0" d="M234.5,119.1l5.4,3.3l-0.5,0.8l-5.6-3.2L234.5,119.1z"/>
<path class="st0" d="M128.3,153.2c0.1-7.7,0.1-7.7,2.8-7.5C131.1,152.3,131.9,153,128.3,153.2z"/>
<path class="st0" d="M122.6,170.6l1.4,2.6c-0.8,0.1-1.7,0.1-2.5,0c-1-0.2-2-0.4-3-0.7c-0.6-0.1-1.4-0.3-1.7-0.7
	c-0.1-0.6,0-1.1,0.3-1.5c0.4-0.3,1.2,0,1.7,0.1c1,0.2,2.1,0.5,3.2,0.8L122.6,170.6z"/>
<path class="st0" d="M216.4,147.7l7.3,1l1.8,3l-9-3.7L216.4,147.7z"/>
<path class="st0" d="M164.2,149.8l2.3-2c1.1,2.8-0.1,4.1-3.3,5.5C163.7,151.7,164,150.7,164.2,149.8L164.2,149.8z"/>
<path class="st0" d="M86.1,139.5c1.9,2.9,1.2,5.5-0.8,6.4C85.5,143.8,85.8,141.7,86.1,139.5z"/>
<path class="st0" d="M166.2,169.6c7.3-0.4,7.7-0.2,7.7,3.8C172.5,169.6,169.4,169.5,166.2,169.6z"/>
<path class="st0" d="M124.9,119.4c2.6-4.8,0.6-9.8,0.9-14.7c1.9,0.1,2.5,1,2.3,4c-0.2,3.2-0.4,6.5-0.6,10.2L124.9,119.4L124.9,119.4
	z"/>
<path class="st0" d="M120.2,101c2.8,0.3,4.1,5.9,1.7,11.5C121.2,108.1,120.7,104.5,120.2,101z"/>
<path class="st0" d="M167.9,107.9c-0.1-2.2-0.3-4.5-0.5-6.8C170.6,101.5,170.6,102.3,167.9,107.9z"/>
<path class="st0" d="M136.9,106.7c0.5,0.6,1.3,1.1,1.3,1.7c0.1,1.9,0.1,3.8,0,5.7c0,0.3-0.6,0.7-0.8,1c-0.3-0.3-1-0.6-1-0.9
	c-0.2-2.3-0.3-4.7-0.3-7L136.9,106.7z"/>
<path class="st0" d="M173.9,108.1c-0.5-0.3-1.3-0.6-1.3-1c-0.2-2.1-0.3-4.3-0.3-6.4l1.1-0.1c0.5,2.3,1,4.7,1.5,7L173.9,108.1z"/>
<path class="st0" d="M196.9,117.5c-1.4-1.7-1.9-3.2,0.6-4.8c0.2,1.7,0.3,3.2,0.6,4.8H196.9z"/>
<path class="st0" d="M273.9,129C270,57.1,214.2,4.5,136.3,0.2C51.2-4.4,4.2,63.1,0.4,133.4C-3.4,202.5,58.5,274.2,131,273.5
	C208,274.4,278.4,213.4,273.9,129z M262.3,155.8c-2.4,22-11.7,38.9-22.6,54.9c-1,5.2-4.1,8.8-7.9,10.8
	c-27.7,33.9-68.2,38.3-108.6,41.4c-18.5,1.4-34.7-9-50.2-18c-34.4-20-54.6-49.4-60.1-89.3c-0.7-4.9-0.6-8.1,0.1-10.2
	c-2.7-7.5-4.7-15.2-5.2-23.6C7.1,107.1,11,96.5,18.1,89.2c0.1-0.2,0.1-0.3,0.2-0.5C47.4,18.6,133.6-14.2,204,27.5
	c24.4,14.4,47,45.5,52.5,70.1c3.6,7.7,5.9,16.6,6.4,26.7c0.5,10.6,1.3,21.9-1.3,32C261.8,156.1,262,155.9,262.3,155.8z"/>
</svg>
