<?xml version="1.0" encoding="utf-8"?>
<!-- Generator: Adobe Illustrator 24.0.0, SVG Export Plug-In . SVG Version: 6.00 Build 0)  -->
<svg version="1.1" id="Layer_1" xmlns="http://www.w3.org/2000/svg" xmlns:xlink="http://www.w3.org/1999/xlink" x="0px" y="0px"
	 viewBox="0 0 349.3 163.6" style="enable-background:new 0 0 349.3 163.6;" xml:space="preserve">
<style type="text/css">
	.st0{fill:#80DEFF;}
</style>
<title>Artboard 6</title>
<title>Artboard 4_1</title>
<g>
	<path class="st0" d="M185.1,86.4c0.3,0,0.7,0.1,1.1,0.2c0.5,0.1,0.9,0.2,1.3,0.5c0.5,0.3,0.8,0.6,1.2,1c0.3,0.5,0.5,1,0.4,1.7
		c-0.9,0-2,0.2-3.2,1s-1.9,1.7-2,3.1c-0.1,1.1,0.2,2.1,0.8,2.6c0.6,0.6,1.5,0.9,2.5,1c1.1,0.1,2.2-0.2,3.5-0.9
		c1.1-0.6,1.8-1.8,1.9-3.4c0-0.9,0.1-1.8-0.1-2.9c-0.1-1.1-0.4-2.1-0.9-3.1c-0.5-1-1.2-1.8-2.2-2.4c-1-0.8-2.3-1.1-4.1-1.3
		c-2.7-0.2-5.4,0.8-7.8,3.1c-2.6,2.3-5,5.2-7.5,9c-2.5,3.7-5,8-7.6,12.5c-2.6,4.7-5.2,9.3-8,13.8c-2.4,3.9-4.8,7.9-7.2,11.8
		c-2.4,3.9-4.8,7.4-7.1,10.5c-2.3,3.1-4.4,5.6-6.3,7.5c-2,1.8-3.6,2.8-5.1,2.7c-2.2-0.1-3.2-1.3-3.1-3.3c0.1-1.3,0.6-2.9,1.5-4.9
		c0.9-2,2-4.3,3.4-6.8c1.3-2.5,2.8-5.3,4.3-8.3c1.5-2.9,3-6.1,4.4-9.4c1.4-3.3,2.6-6.7,3.6-10.2c1-3.5,1.6-7,2-10.7
		c0.2-3.6-0.3-6.9-1.7-10c-1.4-3.1-3.3-5.9-5.8-8.3c-2.5-2.4-5.3-4.3-8.7-5.8c-3.3-1.5-6.6-2.3-10.2-2.6c-3.8-0.2-7.5,0.2-11.1,1.5
		c-2.3-2.4-4.6-4.2-7.2-5.7c-2.5-1.5-5.3-2.3-8.3-2.5c-2.2-0.1-4.4,0.1-6.5,0.6c-2.2,0.5-4.2,1.4-6,2.6c-1.8,1.2-3.3,2.7-4.5,4.3
		c-1.1,1.7-1.8,3.7-1.9,5.8c-0.1,1.6,0.1,2.7,0.8,3.4c0.6,0.6,1.5,0.9,2.5,1.1c1.1,0.1,2-0.2,2.6-1c0.7-0.7,1-1.7,1.1-2.7
		c0-0.7-0.2-1.4-0.8-2.2c-0.6-0.8-1.6-1.2-3.3-1.4c1.4-2.6,3.3-4.5,5.6-5.6c2.3-1.1,4.7-1.5,7.2-1.4c2.8,0.2,5.4,1,7.9,2.5
		c2.5,1.5,4.3,3.2,5.4,5.3c-1.1,0.5-2.5,2-4.3,4.2c-1.7,2.3-3.5,4.9-5.3,8.1c-1.8,3.2-3.3,6.6-4.6,10.1c-1.3,3.6-2.1,7.1-2.4,10.4
		c-0.2,1.9-0.1,3.8,0.3,5.8c0.3,1.9,1,3.7,2,5.2s2.4,2.9,4.1,3.9c1.7,1,3.8,1.7,6.4,1.8c3.1,0.2,5.7-0.2,7.9-1.3
		c2.2-1.1,3.9-2.6,5.3-4.5c1.4-1.9,2.4-4.1,3.2-6.5s1.1-5,1.3-7.6c0.3-3.2,0.1-6.3-0.2-9.6c-0.3-3.2-0.9-6.3-1.7-9
		c-0.7-2.8-1.6-5.2-2.4-7.2c-0.9-2.1-1.7-3.5-2.4-4.2c2.7-0.9,5.3-1.3,8.1-1.1c2.8,0.2,5.4,0.9,7.9,2.2c2.4,1.3,4.6,3,6.4,5.2
		c1.8,2.2,3.1,4.9,4.1,7.9c1,3.1,1.3,6.6,1,10.5c-0.2,3.1-0.8,6.2-1.8,9.3c-1,3.1-2.1,6.2-3.5,9.2c-1.3,3-2.8,6-4.2,8.9
		c-1.5,2.9-2.9,5.6-4.2,8.2c-1.3,2.5-2.4,5-3.3,7.2c-0.9,2.2-1.4,4.1-1.6,5.8c-0.2,1.9,0.4,3.6,1.4,4.9c1.1,1.3,3.1,2,6.1,2.2
		c2.6,0.2,5.1-0.6,7.6-2.3c2.5-1.7,4.9-4,7.3-6.9c2.4-2.9,4.8-6.3,7.1-10.1s4.6-7.6,7-11.5c3.5-5.8,6.6-11.2,9.4-16.2
		c2.9-5,5.5-9.5,8.1-13.3c2.5-3.8,4.8-6.7,6.9-8.8C181.4,87.2,183.3,86.3,185.1,86.4z M107.6,92.1c0.5,2.6,0.9,5.4,1.1,8.4
		c0.3,3.1,0.2,6,0,9c-0.1,2.1-0.4,4.1-0.9,6c-0.4,2-1,3.6-1.8,5.1s-1.6,2.6-2.7,3.4c-1,0.9-2.4,1.2-3.9,1.1
		c-2.4-0.1-4.5-0.6-5.9-1.6c-1.5-0.8-2.7-2-3.5-3.3c-0.8-1.3-1.3-2.9-1.6-4.6c-0.2-1.6-0.2-3.4-0.2-5.2c0.2-3.1,0.9-6.3,2.2-9.6
		c1.3-3.3,2.6-6.3,4.2-9.1c1.6-2.7,3.2-5.1,4.8-7s2.9-3,3.8-3.4c0.7,0.6,1.4,1.9,2.2,3.9C106.3,87.3,107,89.5,107.6,92.1z"/>
	<path class="st0" d="M249.9,121.4c0.1-3.2-0.1-6.3-0.3-9.2c-0.2-3-0.4-5.6-0.5-8.1c-0.2-2.5-0.3-4.4-0.3-5.8
		c0.1-0.4-0.1-0.7-0.3-0.9c-0.2-0.3-0.4-0.5-0.8-0.5c-0.3,0-0.6,0-0.9,0.3c-0.6,0.3-0.7,0.8-0.7,1.3c0.1,4,0.3,8.1,0.5,12.6
		c0.3,4.5,0.3,8.6,0.2,12.6s-0.5,7.4-1.1,10.4c-0.6,2.9-1.8,5-3.4,6.1c-0.8,0.5-1.6,0.3-2.2-0.7c-0.5-0.8-1-2-1.4-3.6
		c-0.5-1.6-0.8-3.5-1.2-5.4c-0.4-2-0.8-4.2-1.2-6.5c-0.4-2.3-0.8-4.5-1.2-6.6c-0.4-2.1-0.9-4-1.4-5.7c-0.5-1.7-1-3-1.7-3.9
		c-0.8-1.2-1.7-1.8-2.6-1.8c-0.9,0.1-1.9,0.3-2.6,0.8c-1,0.7-1.7,1.4-2.3,2.1c-0.6,0.7-1.1,1.5-1.6,2.2c-0.5,0.7-0.9,1.4-1.4,2
		c-0.5,0.6-1.1,1.2-1.7,1.7c-0.7,0.4-1.3,0.8-2.1,1c-0.7,0.2-1.8,0.3-3.1,0c0-0.8,0.1-1.8-0.2-3.1c-0.1-1.2-0.4-2.4-0.8-3.7
		c-0.3-1.2-0.9-2.4-1.4-3.7c-0.5-1.3-1.1-2.4-1.7-3.3c-0.9-1.3-1.9-2.3-3-2.9c-1.1-0.6-2.4-0.3-3.7,0.5c-2.9,1.9-4.4,4.4-4.5,7.6
		c-0.1,3.1,0.9,6.5,3.2,10c1.1,1.6,2.2,2.7,3.6,3.6c1.3,0.8,2.8,1.2,4.2,1.3c0.1,0,0.3,0,0.4,0.1c-3.4,16.7-14.2,34.8-20.2,36.7
		c-2,0.6-3.7,0.2-3.7,0.2c-1.1-0.4-2.1-0.9-3-1.7c-0.9-0.8-1.7-1.9-2.4-3.1c-0.7-1.2-1.3-2.4-1.7-3.8c-0.3-0.8-0.5-1.5-0.7-2.2
		c-0.2-0.7-0.3-1.4-0.4-2.1c2.1-2.1,4.1-4.7,5.9-7.6c1.7-3,3.2-5.9,4.3-9c1.2-3.1,1.9-5.9,2.3-8.7c0.4-2.7,0.3-4.9-0.3-6.5
		c-0.4-1.2-1-2-2-2.4c-0.8-0.4-2.1-0.4-3.5,0.1c-3.1,1.1-5.8,3.2-7.9,6.2c-2.2,3.1-3.8,6.6-4.9,10.6c-1.1,4-1.6,8.1-1.6,12.4
		c0,4.2,0.6,8.2,1.9,11.6c0.7,2,1.6,3.8,2.7,5.2c1.1,1.6,2.4,2.8,4,3.7c1.6,0.9,3.3,1.4,5.2,1.5c0,0,3.3,0.3,6.6-1.2
		c0,0,13.3-3.6,22.1-40.5c0.4-0.1,0.9-0.2,1.4-0.4c1.5-0.5,3-1.3,4.5-2.2c2.5-1.7,4.6-3.8,6.3-6.4c0,1.8,0.2,3.9,0.6,6.5
		c0.3,2.5,0.8,5.1,1.4,7.7c0.6,2.6,1.3,5.2,2.2,7.7c0.9,2.4,1.9,4.6,3,6.3c1.3,2,2.8,3.3,4.6,4c1.7,0.7,3.7,0.2,5.9-1.3
		c1.8-1.2,3.2-3,4.1-5.3c0.9-2.3,1.6-4.9,2.1-7.9C249.7,127.6,249.9,124.6,249.9,121.4z M177.9,133.9c0.6-3.3,1.3-6.2,2.4-9
		c1-2.8,2.2-5.2,3.4-7.2c1.2-1.9,2.1-3,2.6-3.3c1-0.4,1.6,0,2,1c0.4,1.1,0.4,2.8,0.1,5.1c-0.3,2.3-1,4.7-2,7.4
		c-0.9,2.7-2.1,5.4-3.5,8s-2.9,4.9-4.7,6.7C177.6,140,177.4,137.1,177.9,133.9z M208.8,112.5c-1-0.9-1.9-1.8-2.5-2.8
		c-1-1.5-1.7-3-2-4.2c-0.4-1.4-0.3-2.3,0.4-2.7c0.8-0.5,1.5-0.7,2.2-0.4c0.7,0.3,1.3,0.8,1.8,1.6c0.5,0.7,0.9,1.6,1.3,2.7
		c0.5,1.1,0.7,2.1,1,3.2c0.3,1,0.4,2,0.6,2.9c0.2,0.9,0.2,1.6,0.1,2C210.8,114.1,209.8,113.4,208.8,112.5z"/>
</g>
</svg>
