<?xml version="1.0" encoding="utf-8"?>
<!-- Generator: Adobe Illustrator 24.0.0, SVG Export Plug-In . SVG Version: 6.00 Build 0)  -->
<svg version="1.1" id="Layer_1" xmlns="http://www.w3.org/2000/svg" xmlns:xlink="http://www.w3.org/1999/xlink" x="0px" y="0px"
	 viewBox="0 0 349.3 163.6" style="enable-background:new 0 0 349.3 163.6;" xml:space="preserve">
<style type="text/css">
	.st0{fill:#E3FA00;}
</style>
<title>Artboard 6</title>
<title>Artboard 4_1</title>
<g>
	<path class="st0" d="M114,88.8c1.6-0.7,2.8-1,3.8-0.9c0.3,0.1,0.6,0.2,0.9,0.3c0.1,0,0.1,0,0.2,0.1c0.2,0.1,0.5,0.2,0.7,0.2
		c1,0.4,2.1,0.7,3.2,1.1c4.1,1.4,7.8,2.7,11.2,4c3.3,1.3,5.9,2.4,7.7,3.4c0.6,0.3,1.2,0.7,1.8,1.1c0.6,0.4,1.2,0.9,1.6,1.4
		s0.7,1,0.8,1.6c0.1,0.5,0,1.1-0.3,1.7c-0.8-0.5-1.7-0.4-2.5,0.1c-0.9,0.5-1.4,1-1.7,1.5c-0.3,0.6-0.4,1-0.4,1.6
		c0,0.5,0.2,1,0.5,1.3c0.2,0.4,0.5,0.7,0.8,1c0.3,0.2,0.5,0.5,0.7,0.5c1.2,0.6,2.2,0.8,3,0.3c0.8-0.4,1.4-1,1.7-1.6
		c1.5-3,1.7-5.5,0.3-7.7c-1.3-2.2-3.5-4.1-6.6-5.7c-1.3-0.7-3.5-1.6-6.6-2.8c-3-1.2-6.6-2.4-10.6-3.8c-1.7-0.6-3.4-1.2-5.2-1.8
		c-0.1-0.1-0.2-0.1-0.4-0.3c-1.7-1.3-3.5-1.8-5.7-1.8c-0.5-0.2-0.9-0.3-1.3-0.4c-4.4-1.5-8.5-2.9-12.4-4.3
		c-3.9-1.4-7.4-2.6-10.4-3.8c-3-1.2-5.1-2-6.2-2.6c-0.9-0.5-1.8-1.1-2.7-1.9c-0.8-0.7-1.1-1.4-0.8-2c0.7,0.4,1.5,0.5,2.2,0.2
		c0.7-0.3,1.1-0.6,1.4-1.2c0.5-0.8,0.5-1.6,0.2-2.4c-0.4-0.7-1-1.3-1.9-1.9c-0.8-0.5-1.8-0.4-2.8-0.1c-1,0.4-2,1.5-2.9,3.2
		c-0.8,1.5-0.8,2.9-0.1,4.1c0.7,1.2,1.9,2.4,3.8,3.3c1.5,0.8,3.8,1.8,7,3c3.2,1.2,6.9,2.5,10.9,3.9c3.5,1.2,7.3,2.4,11.1,3.8
		c-1.8,0.6-3.7,1.5-5.7,2.6c-3.3,1.9-6.7,4.2-10.4,7c-3.6,2.8-7.3,5.7-11.1,8.6c-3.8,3-7.5,5.8-11.3,8.5c-3.7,2.7-7.4,4.9-10.8,6.6
		c-3.5,1.7-6.8,2.7-10,2.9c-3.1,0.3-5.9-0.5-8.4-2.4c-1.1-0.8-2.1-1.9-3-3.3c-1-1.3-1.8-3-2.6-4.8c2.6,0.3,5.5,0.1,8.4-0.4
		c2.9-0.6,5.8-1.4,8.7-2.5c2.8-1.1,5.5-2.6,8-4.3s4.5-3.7,6.2-5.7c1-1.2,1.8-2.7,2.5-4.2c0.7-1.5,1-3,1.1-4.5c0.1-1.5-0.2-3-0.8-4.4
		c-0.7-1.4-1.6-2.7-3.1-3.8c-2.4-1.9-4.9-3-7.5-3.3c-2.6-0.4-5.2-0.1-7.8,0.8c-2.5,0.9-5,2.2-7.2,4c-2.4,1.8-4.3,3.9-6.2,6.1
		c-2.2,2.9-4,6-5.2,9.2c-1.2,3.2-1.6,6.4-1.5,9.5c-1.4-0.1-2.6-0.6-3.9-1.2c-1.2-0.7-2.4-1.5-3.5-2.5c-1.6-1.2-3.1-2.7-4.3-4.3
		c-1.3-1.7-2.3-3.3-3-5.1c-0.7-1.8-0.9-3.5-0.9-5.3c0.1-1.8,0.7-3.4,1.8-4.9c0.9-1.2,1.9-2,3.1-2.7c0.2,1,0.7,1.8,1.3,2.2
		c0.9,0.7,1.9,0.9,2.9,0.9c1,0,2-0.6,2.8-1.5c0.4-0.6,0.6-1.3,0.6-2.2c0-0.9-0.7-1.8-1.9-2.7c-0.9-0.7-1.7-1-2.8-0.9
		c-1,0-2,0.3-3,0.7c-1,0.4-1.9,1-2.7,1.6c-0.8,0.7-1.5,1.4-2,1.9c-1.8,2.3-2.9,4.7-3.1,7.1s0.1,4.7,0.8,6.8c0.8,2.3,2,4.3,3.6,6.2
		c1.6,1.9,3.2,3.5,5,5c1.7,1.3,3.4,2.3,5.2,3.2c1.8,0.7,3.3,1.3,4.7,1.4c0.9,2.7,2.1,5,3.3,6.9c1.3,1.9,2.6,3.4,4.3,4.6
		c2.9,2.2,6,3.3,9.7,3.3c3.6,0,7.4-0.6,11.4-1.9c4-1.3,8-3.4,12.2-5.8c4.2-2.5,8.2-5.1,12.3-8s7.9-5.7,11.6-8.6
		c3.7-2.9,7-5.4,10.1-7.6C109.2,91.5,111.8,89.9,114,88.8z M34.7,98.3c1.2-2.9,3-5.8,5.2-8.6c1.6-2.1,3.3-3.8,5.1-5.3
		c1.9-1.5,3.8-2.6,5.9-3.3c2-0.7,4.1-0.9,6.1-0.6c2.1,0.3,4.1,1.1,6,2.7c1.4,1.1,1.9,2.3,1.7,3.7c-0.2,1.4-1.2,3-2.7,5.1
		c-1.5,2-3.4,3.9-5.7,5.7c-2.3,1.8-4.7,3.5-7.4,5c-2.6,1.5-5.2,2.6-7.9,3.5c-2.7,0.8-5.1,1.2-7.3,1.1
		C33.2,104.1,33.4,101.2,34.7,98.3z"/>
	<path class="st0" d="M278.8,91.3c-0.3-2.7-0.9-5.6-1.8-8.4c-0.8-2.9-1.6-5.7-2.6-8.3s-1.8-5-2.6-7.2c-0.8-2.2-1.3-3.9-1.7-5.2
		c0-0.3-0.2-0.6-0.5-0.8c-0.3-0.2-0.6-0.3-0.9-0.3c-0.3,0-0.5,0.2-0.8,0.5c-0.4,0.4-0.5,0.9-0.2,1.4c1.1,3.5,2.4,7.3,3.7,11.3
		c1.3,4,2.5,7.8,3.4,11.4c0.9,3.6,1.4,6.9,1.6,9.7c0.2,2.9-0.4,5-1.5,6.4c-0.5,0.7-1.3,0.6-2.2-0.1c-0.7-0.5-1.3-1.6-2.2-2.9
		c-0.8-1.4-1.6-2.9-2.5-4.6c-0.9-1.8-1.8-3.6-2.7-5.6c-1-2-1.8-3.9-2.8-5.7c-0.9-1.8-1.8-3.4-2.7-4.8c-0.9-1.4-1.7-2.4-2.5-3.1
		c-1.1-0.9-1.9-1.2-2.8-0.9c-0.9,0.3-1.6,0.7-2.2,1.4c-0.7,0.8-1.2,1.6-1.6,2.5c-0.4,0.9-0.7,1.6-0.9,2.4c-0.2,0.8-0.5,1.5-0.8,2.2
		c-0.2,0.8-0.6,1.3-1.2,1.9c-0.5,0.5-1,1-1.6,1.4c-0.6,0.4-1.5,0.6-2.9,0.7c0-0.1-0.1-0.2-0.1-0.2l0,0c-0.2-0.7-0.4-1.5-0.8-2.5
		c-0.4-1.1-0.9-2.1-1.6-3c-0.6-1-1.4-2-2.2-3c-0.8-1-1.6-1.8-2.4-2.6c-1.1-1-2.4-1.6-3.5-1.8c-1.2-0.2-2.3,0.3-3.2,1.4
		c-2.2,2.5-2.8,5.2-2.1,8c0.7,2.9,2.5,5.6,5.5,8.2c1.4,1.2,2.8,1.9,4.2,2.3c1.4,0.3,2.8,0.4,4.1,0.1c0.1,0,0.1-0.1,0.2-0.1
		c1,16-2.4,29.2-7,38.8c-0.3,0.6-1,2.5-2.9,3.6c-1.7,1-3,0.6-4.1-1.2c-0.8-1.3-1.3-3.2-1.7-5.5c-0.4-2.4-0.7-4.9-0.8-7.6
		c-0.1-2.7-0.3-5.3-0.2-7.9c0-2.5,0-4.8-0.1-6.5c0-0.7-0.2-1.3-0.5-1.8c-0.5-0.8-1.2-1.2-2-1.1c-0.9,0.1-1.9,0.4-2.8,0.9
		c-0.8,0.5-1.5,1.1-2.1,1.7c-0.6,0.6-1,1.2-1.1,1.7c-0.2,0.8-0.4,1.9-0.6,3.2c-0.1,1.4-0.3,3.1-0.5,4.8c-0.2,1.8-0.3,3.6-0.7,5.5
		c-0.2,1.9-0.7,3.7-1,5.4c-0.4,1.7-0.9,3.2-1.5,4.5c-0.6,1.3-1.3,2.2-2.2,2.7c-0.7,0.4-1.4,0.5-2.1,0.2c-0.8-0.2-1.4-0.9-1.9-1.8
		c-0.6-1.1-1.2-2.6-1.6-4.6c-0.5-1.9-0.8-4-1-6.2c-0.2-2.2-0.3-4.4-0.3-6.8c0-2.3,0.2-4.4,0.4-6.4c0.3-2,0.7-3.7,1.3-5.1
		c0.6-1.5,1.4-2.5,2.3-3c0.7-0.4,1.4-0.4,2,0.1c0.7,0.4,1.3,0.9,1.6,1.6c0.2,0.4,0.5,1,0.6,1.6c0.2,0.6,0,1-0.3,1.3
		c-0.2,0.1-0.5,0.1-0.9,0.1c-0.4,0-0.8,0.1-1.1,0.2c-0.8,0.5-1.2,1.1-1.4,2c-0.2,0.9,0,1.7,0.5,2.5c0.3,0.6,0.8,1,1.6,1.2
		c0.8,0.2,1.5,0.1,2.3-0.4c0.7-0.4,1.2-0.9,1.4-1.7c0.3-0.8,0.5-1.5,0.5-2.4s-0.1-1.8-0.3-2.8c-0.2-1-0.6-1.8-1.1-2.6
		c-0.8-1.3-1.7-2.2-2.9-2.9c-1.2-0.6-2.6-0.5-4.1,0.4c-0.6,0.3-1,0.6-1.6,1l0,0c-6.1,4.1-17.2,26.1-17.2,26.1
		c-1,2.3-2.3,4.9-3.8,7.9c-1.5,3-3.2,5.9-5.1,8.7s-3.9,5.3-6.1,7.4c-2.2,2.1-4.4,3.4-6.7,3.8s-4,0.1-5.1-0.9c-1.1-1-1.9-2.5-2.3-4.4
		c-0.3-1.8-0.4-3.8-0.2-6.3c0.1-2.5,0.5-5.1,1.1-7.8c0.5-2.8,1.2-5.5,2.1-8.2c0.8-2.7,1.7-5.2,2.8-7.3c1-2.3,2.1-4.1,3.3-5.5
		c1.2-1.4,2.3-2.2,3.5-2.5c0.3,0,0.6,0,0.9,0.1c0.3,0.2,0.7,0.2,1,0.4c-0.6,0.1-1,0.5-1.2,1.3c-0.2,0.8-0.2,1.4-0.1,1.9
		c0.1,0.9,0.6,1.6,1.3,2.2c0.7,0.5,1.5,0.7,2.5,0.4c0.6-0.1,1.3-0.5,1.8-1.1c0.6-0.6,0.8-1.5,0.6-2.6c-0.3-1.8-1.2-3.1-2.5-4.1
		c-1.4-1-2.9-1.3-4.7-1c-3.6,0.7-6.7,2.4-9.3,5.1c-0.7,0.7-1.4,1.5-2,2.3c-0.2,0.2-0.4,0.4-0.6,0.7c-7.3,11.5-14.8,15.9-15.8,16.5
		c-1,0.6-2.2,1.2-3.5,1.6c-1.3,0.5-2.8,0.7-4.2,0.9c-1.4,0.1-3,0.2-4.3,0c-0.7-0.1-1.3-0.2-1.9-0.3c-0.6-0.1-1.1-0.4-1.6-0.7
		c0.7-1,1.5-2.2,2.4-3.6c0.9-1.5,1.7-3.1,2.4-4.9c0.7-1.7,1.4-3.5,2.1-5.4c0.6-1.9,1.1-3.8,1.4-5.5c0.3-1.7,0.4-3.3,0.3-4.8
		c0-1.5-0.4-2.9-0.9-4.1c-0.6-1.2-1.4-2.3-2.5-3.1c-1.1-0.9-2.6-1.5-4.4-1.7c-2.8-0.4-5.5,0.5-8.2,2.7c-2.7,2.3-5,5.6-6.7,10.1
		c-0.3-0.2-0.8-0.2-1.5-0.4c-2.2-0.4-4.3,0.1-6.4,1.2c-2.1,1.1-4,2.7-5.7,4.9c-1.7,2.1-3.2,4.5-4.5,7.1c-1.3,2.7-2.1,5.3-2.6,8.1
		c-0.3,2-0.4,3.8-0.2,5.7c0.2,1.9,0.7,3.5,1.5,4.9c0.8,1.5,2,2.7,3.4,3.8c1.4,1.1,3.3,1.7,5.5,2.1c2.2,0.4,4.5,0.1,6.8-0.7
		c2.4-0.8,4.6-1.9,6.7-3.4c2.1-1.5,4-3,5.7-4.8c1.6-1.8,2.9-3.4,3.8-4.9c1,0.5,2.2,0.8,3.7,1c1.6,0.3,3.3,0.4,4.9,0.3
		c1.7-0.1,3.3-0.4,4.9-0.9c1.6-0.4,3.2-1.2,4.6-2c1-0.6,3.9-2.1,9.3-7.9c-0.7,2.5-1.4,4.9-1.8,7.6c-0.6,4.2-0.6,7.9,0,11.4
		c0.7,3.6,2.1,6.5,4.4,8.6c2.3,2.1,5.4,2.9,9.4,2.2c3.4-0.6,6.4-2,8.9-4.3c2.5-2.3,4.8-4.9,6.8-8c2-3.1,3.8-6.3,5.4-9.7
		c1.6-3.5,3.2-6.6,4.9-9.6c0.3-0.6,2.7-5.7,5.9-11.3c-0.1,0.3-0.1,0.7-0.2,1c-0.6,3.4-0.7,6.9-0.3,10.2c0.4,3.4,1.2,6.2,2.6,8.5
		c1.2,2.2,3,3.8,5.1,4.6c2.1,0.8,4.6,0.3,7.5-1.3c0.9-0.5,1.9-1.4,2.7-2.6s1.6-2.6,2-4c0.6-1.5,1-3,1.3-4.5c0.4-1.6,0.4-3,0.3-4.2
		c0.2,1,0.4,2.1,0.7,3.5c0.3,1.4,0.5,2.7,0.9,4.2s0.8,3,1.2,4.5c0.4,1.5,1,2.8,1.7,4c1,1.8,2.4,3.1,4,3.8c1.6,0.7,3.6,0.3,6-1.1
		c2.8-1.6,4.2-4.2,4.9-5.4c9.4-16.9,9.3-34.4,8.3-43.3c0.2-0.2,0.5-0.3,0.8-0.5c1.3-0.9,2.4-1.9,3.4-3.2c1.8-2.1,3.1-4.5,4.1-7.4
		c0.5,1.6,1.2,3.5,2.1,5.7c0.9,2.2,2,4.4,3.2,6.7c1.2,2.2,2.5,4.4,3.9,6.4c1.5,2,2.9,3.7,4.4,4.9c1.7,1.4,3.4,2.2,5.2,2.4
		c1.7,0.2,3.4-0.7,5.1-2.6c1.3-1.6,2.1-3.5,2.4-5.9C279.2,96.6,279.2,94.1,278.8,91.3z M119.1,139.8c-1.3,1.5-2.8,3-4.5,4.3
		c-1.8,1.4-3.7,2.5-5.9,3.3c-2.2,0.8-4.4,1.2-6.6,0.8c-2.3-0.4-3.8-1.4-4.5-3c-0.7-1.7-0.9-3.7-0.5-6.1c0.4-2.1,1-4.3,2-6.6
		c1-2.3,2.2-4.5,3.6-6.6s2.8-3.9,4.4-5.3c1.6-1.4,3.1-2.5,4.5-3.1c-0.6,4.2-0.1,7.8,1.7,11.2c1.8,3.3,4.7,5.8,8.6,7.5
		C121.3,137,120.4,138.3,119.1,139.8z M123.8,133.2c-1.2-0.8-2.2-1.8-3.1-3.2c-0.9-1.3-1.6-2.7-2.2-4.3c-0.5-1.5-1-3.2-1.2-4.9
		c-0.2-1.8-0.1-3.4,0.1-5c0.3-1.6,0.8-3.1,1.4-4.5c0.7-1.4,1.4-2.6,2.3-3.7c0.9-1.1,1.7-1.8,2.7-2.4c0.9-0.5,1.8-0.7,2.7-0.6
		c2.2,0.4,3.6,1.6,4.3,3.5c0.7,1.9,0.7,4.4,0.4,7.1c-0.3,1.6-0.7,3.1-1.2,4.8c-0.5,1.6-1.2,3.3-1.9,4.8c-0.7,1.6-1.5,3.1-2.1,4.6
		C125.2,130.9,124.5,132.1,123.8,133.2z M237.6,85.4c-1.1-0.5-2.1-1.2-3-1.9c-1.3-1.1-2.2-2.2-3-3.4c-0.7-1.1-0.8-2-0.3-2.5
		c0.5-0.7,1.2-1,1.9-0.9c0.7,0,1.4,0.3,2.1,1c0.6,0.5,1.2,1.2,1.9,2.1c0.7,0.8,1.2,1.7,1.7,2.6c0.5,0.9,0.9,1.7,1.3,2.5
		c0.4,0.8,0.6,1.4,0.7,1.8C239.8,86.3,238.8,85.9,237.6,85.4z"/>
</g>
</svg>
