<?xml version="1.0" encoding="utf-8"?>
<!-- Generator: Adobe Illustrator 24.0.0, SVG Export Plug-In . SVG Version: 6.00 Build 0)  -->
<svg version="1.1" id="Layer_1" xmlns="http://www.w3.org/2000/svg" xmlns:xlink="http://www.w3.org/1999/xlink" x="0px" y="0px"
	 viewBox="0 0 300 300" style="enable-background:new 0 0 300 300;" xml:space="preserve">
<style type="text/css">
	.st0{fill:#231F20;}
</style>
<path class="st0" d="M124.9,44.4c1,0,2-0.4,2.8-1.1c0.8-0.6,1.5-1.4,1.8-2.3c0.1-0.3,0.1-0.6,0.1-0.9c0.1-0.8-0.3-1.6-1-2.1
	s-1.5-0.7-2.4-0.7c-1,0-2,0.3-2.8,0.9c-0.9,0.6-1.3,1.7-1.3,2.7c-0.1,1,0.2,1.9,0.9,2.7C123.6,44.1,124.2,44.4,124.9,44.4z"/>
<path class="st0" d="M235.5,7.9c-0.2-0.1-0.5-0.1-0.7,0c-0.4,0.1-0.7,0.5-0.7,0.9c-0.6,3-1.1,6.1-1.7,9.5c-0.6,3.3-1.3,6.5-2,9.4
	c-0.6,2.6-1.5,5.1-2.6,7.6c-1,2.1-2.2,3.4-3.6,4c-0.7,0.3-1.2,0-1.5-0.9s-0.5-1.9-0.5-2.9c0-1.3,0-2.7,0-4.3s0.1-3.3,0.2-5
	c0.1-1.8,0.2-3.5,0.2-5.1s0-3.1-0.1-4.5c0-1.1-0.2-2.2-0.6-3.2c-0.2-0.8-0.8-1.5-1.6-1.8c-0.7-0.1-1.5-0.1-2.1,0.2
	c-0.8,0.3-1.5,0.7-2.1,1.2s-1.1,0.9-1.6,1.4s-1,0.9-1.4,1.3c-0.4,0.4-1,0.7-1.5,0.9s-1.1,0.4-1.7,0.4c-0.8,0-1.6-0.2-2.4-0.6
	c0.2-0.8,0.3-1.5,0.4-2.3c0.1-0.9,0.1-1.9,0-2.8c-0.1-1-0.2-2-0.4-3c-0.2-0.9-0.4-1.9-0.7-2.7c-0.3-1-1-1.9-1.8-2.6
	c-0.8-0.6-1.9-0.7-2.8-0.2c-2.3,0.7-4,2.6-4.7,4.9c-0.6,2.7-0.4,5.4,0.7,7.9c0.4,1.2,1.1,2.3,2.1,3.3c0.8,0.8,1.8,1.3,2.9,1.7
	c0.5,0.1,0.9,0.2,1.4,0.3c-0.1,1.1-0.3,2.5-0.5,4.1c-0.2,1.8-0.5,3.8-0.9,5.8c-0.3,2-0.7,4.1-1.2,6.2c-0.4,2-1,3.9-1.6,5.9
	c-0.5,1.6-1.2,3.2-2.1,4.6c-0.6,1.1-1.6,2-2.7,2.5c-1.5,0.6-2.5,0.1-3.2-1.5c-0.5-1.5-0.7-3.1-0.7-4.6c0-2.1,0.1-4.1,0.3-6.2
	c0.2-2.2,0.5-4.3,0.8-6.3c0.3-2.1,0.6-3.8,0.7-5.2c0.2-0.5,0.2-1,0.1-1.6c-0.2-0.7-0.8-1.1-1.5-1.1c-0.8,0-1.6,0.1-2.4,0.4
	c-0.7,0.3-1.3,0.6-1.9,1.1c-0.5,0.3-0.9,0.8-1.1,1.3c-0.3,0.8-0.6,1.7-0.9,2.5c-0.3,1.1-0.7,2.4-1,3.8s-0.8,2.8-1.2,4.3
	c-0.5,1.5-1,2.9-1.5,4.2c-0.5,1.2-1,2.3-1.7,3.4c-0.5,0.8-1.2,1.5-2.1,1.9c-0.6,0.2-1.2,0.2-1.7-0.1c-0.6-0.4-1.1-0.9-1.3-1.6
	c-0.4-1.2-0.7-2.5-0.8-3.9c-0.1-1.7-0.2-3.4-0.1-5.1c0.1-1.8,0.3-3.7,0.6-5.5c0.3-1.7,0.7-3.4,1.2-5.1c0.4-1.4,1-2.7,1.7-4
	c0.5-0.9,1.2-1.7,2.2-2.1c0.6-0.2,1.2-0.1,1.7,0.3c0.5,0.4,0.9,0.9,1.1,1.5c0.2,0.4,0.3,0.9,0.3,1.4c0.1,0.5-0.1,0.8-0.4,1
	c-0.3,0.1-0.5,0.1-0.8,0s-0.6-0.1-0.9,0c-0.6,0.2-1.1,0.7-1.4,1.4c-0.2,0.7-0.2,1.4,0.1,2.1c0.2,0.5,0.6,0.9,1.1,1.2
	c0.6,0.3,1.3,0.2,1.9,0c0.6-0.2,1.1-0.6,1.4-1.1c0.4-0.6,0.6-1.2,0.7-1.9c0.1-0.7,0.2-1.5,0.1-2.2c-0.1-0.8-0.2-1.5-0.5-2.2
	c-0.4-1.1-1.1-2-2-2.6c-1-0.7-2.3-0.8-3.4-0.3c-2.4,0.9-4.5,2.6-6,4.7c-1.7,2.2-3,4.7-3.9,7.3c-0.8,2.3-1.3,4.7-1.4,7.2
	c-0.4,2.3-0.9,4.7-1.3,7.3c-0.6,3.3-1.2,6.5-2,9.4c-0.6,2.6-1.5,5.1-2.6,7.6c-1,2.1-2.2,3.4-3.6,4c-0.7,0.3-1.2,0-1.5-0.9
	s-0.4-1.9-0.4-2.9c0-1.3,0-2.7,0-4.3c0.1-1.6,0.1-3.3,0.2-5c0.1-1.8,0.2-3.5,0.2-5.1s0-3.1-0.1-4.5c0-1.1-0.2-2.2-0.6-3.2
	c-0.2-0.8-0.8-1.5-1.6-1.8c-0.7-0.1-1.5-0.1-2.1,0.2c-0.8,0.3-1.5,0.7-2.1,1.2s-1.1,0.9-1.6,1.4s-0.9,0.9-1.4,1.3s-1,0.7-1.5,0.9
	c-0.5,0.2-1.1,0.4-1.6,0.5c-0.8,0-1.6-0.2-2.4-0.6c0.2-0.7,0.3-1.5,0.4-2.3c0.1-0.9,0.1-1.9,0-2.8c-0.1-1-0.2-2-0.4-3
	c-0.2-0.9-0.4-1.9-0.7-2.7c-0.3-1-1-1.9-1.8-2.7c-0.8-0.6-1.8-0.7-2.7-0.3c-2.3,0.7-4,2.6-4.7,4.9c-0.6,2.7-0.4,5.4,0.7,7.9
	c0.4,1.2,1.1,2.3,2.1,3.3c0.8,0.8,1.8,1.3,2.9,1.7c0.5,0.1,0.9,0.2,1.4,0.3c-0.3,2.3-0.7,4.8-1.2,7.8c-0.5,2.9-1.2,6-2,8.9
	c-0.7,2.6-1.6,5.1-2.8,7.6c-1,2.2-2.1,3.5-3.4,4c-0.4,0.1-0.7-0.1-0.9-0.8c-0.4-1.3-0.7-2.6-0.9-4c-0.2-1.8-0.4-3.8-0.5-6
	s-0.1-4.5-0.1-6.8s0.1-4.4,0.3-6.3c0-0.3,0-0.7-0.1-1c-0.3-0.7-0.8-1.1-1.6-1.3c-0.8-0.2-1.6-0.1-2.3,0.2c-0.6,0.2-1,0.6-1.4,1
	c-0.4,0.5-0.5,1-0.5,1.6c0,0.3,0,0.7,0,1.2l0,0c-0.3,2.2-0.7,4.8-1.4,7.6c-0.6,2.8-1.4,5.6-2.4,8.3c-0.9,2.5-2,4.9-3.4,7.1
	c-1,1.8-2.5,3.2-4.4,4c-0.9,0.4-1.9,0.5-2.8,0.2c-0.9-0.2-1.7-0.7-2.3-1.3c-0.8-0.6-1.4-1.4-1.9-2.3s-1-1.8-1.4-2.8
	c-0.2-0.6-0.4-1.1-0.5-1.6s-0.2-1-0.3-1.5c1.7-1.8,3.1-3.8,4.3-5.9c1.2-2.2,2.3-4.5,3.1-6.9c0.7-2.2,1.2-4.4,1.5-6.6
	c0.3-1.7,0.2-3.4-0.3-5c-0.3-0.8-0.8-1.4-1.5-1.8c-0.9-0.3-1.9-0.3-2.7,0.1c-2.5,1-4.5,2.7-5.9,4.9c-1.6,2.5-2.8,5.3-3.5,8.2
	c-0.7,3-1.1,6.1-1,9.2c-0.1,0.8-0.2,1.6-0.4,2.4c-0.3,2.1-0.7,4.2-1.2,6.4c-0.5,2.2-1,4.4-1.6,6.5c-0.5,2-1.1,3.9-1.8,5.8
	c-0.6,1.5-1.2,3-2,4.5c-0.4,0.9-1.1,1.7-2,2.2c-0.6,0.2-1.1,0-1.4-0.8c-0.4-1.5-0.6-3-0.4-4.5l0.1-6.7c0-2.4,0-4.9-0.1-7.3
	c0-2.1-0.4-4.1-1.1-6.1c-0.4-1.2-1.3-2.2-2.4-2.9c-1-0.6-2.4-0.6-4.1,0.1c-1.5,0.5-2.8,1.4-3.9,2.5s-2,2.4-2.8,3.7
	c-0.8,1.4-1.4,2.9-1.9,4.5s-0.9,3.2-1.2,4.8c-0.1-1-0.3-2.1-0.5-3.4c-0.2-1.2-0.3-2.4-0.5-3.6s-0.3-2.4-0.4-3.6S65,68.9,65,68
	c0.6-1.2,1-2.5,1.4-3.8c0.5-1.6,1-3.4,1.5-5.4s0.9-4.1,1.3-6.4s0.6-4.5,0.8-6.7c0.2-2.1,0.2-4.1,0.1-6.2c-0.1-1.7-0.4-3.3-0.9-4.9
	c-0.4-1.1-1.1-2.1-2-2.9c-0.9-0.6-2.1-0.6-3.1-0.1c-2.2,0.9-3.9,2.8-4.6,5.1c-1,3-1.6,6.2-1.7,9.4c-0.2,4.1-0.1,8.1,0.3,12.2
	c0.4,4.4,0.8,8.9,1.4,13.4c0.2,1.7,0.4,3.3,0.6,4.9c-0.5,2.3-1.1,4.6-1.9,6.8c-0.9,2.7-2,5.3-3.3,7.8c-1.1,2.3-2.5,4.5-4.1,6.6
	c-1.2,1.6-2.7,3-4.6,3.8c-2.5,0.9-4.5,1-6,0.2c-1.7-1.1-3-2.8-3.6-4.7c-0.7-1.9-1.2-3.8-1.4-5.8c-0.3-2.2-0.5-4.5-0.6-6.8
	s-0.1-4.7,0-7.1s0.2-4.6,0.4-6.6s0.4-3.9,0.6-5.5c0.2-1.6,0.4-2.8,0.6-3.7c0.6-0.1,1.2-0.3,1.8-0.5c0.7-0.3,1.3-0.5,1.9-0.7
	c2.1-0.8,4.1-1.9,6-3.1c2-1.2,3.8-2.7,5.4-4.4c1.4-1.5,2.6-3.3,3.3-5.3c0.7-1.8,0.7-3.8,0-5.6c-0.3-1-0.9-1.8-1.8-2.4
	c-0.8-0.5-1.6-0.9-2.5-1c-1-0.1-2-0.1-2.9,0.1c-1,0.2-2,0.4-2.9,0.8c-2.2,0.8-4.2,2-6,3.4c-1.7,1.4-3.2,3.1-4.4,5s-2.2,4-2.9,6.2
	c-0.7,2.3-1.3,4.6-1.6,7c-1.3,0.3-2.6,0.6-4,0.8c-1.6,0.3-3.2,0.8-4.7,1.4c-2.6,1-5.2,2.1-7.6,3.4c-2.2,1.1-4.2,2.6-6,4.2
	c-1.5,1.4-2.7,3.2-3.4,5.2c-0.6,2-0.5,4.2,0.3,6.2c0.2,0.7,0.7,1.3,1.4,1.6c0.6,0.2,1.3,0.2,2-0.1c0.6-0.2,1.1-0.7,1.3-1.3
	c0.3-0.6,0.3-1.4,0-2c-0.2-0.6-0.6-1.1-1.1-1.4c-0.7-0.4-1.5-0.4-2.3-0.1c-0.1-1.4,0.3-2.8,1.1-4c0.9-1.4,2-2.6,3.2-3.6
	c1.5-1.2,3.1-2.3,4.9-3.2c2-1,4-1.9,6.1-2.7c1.5-0.6,3.1-1,4.7-1.3c1.4-0.2,2.7-0.4,4-0.6c-0.4,1.8-0.7,4.1-1,6.9S28,76.2,28,79.4
	c0,3.2,0.1,6.3,0.5,9.5c0.3,2.9,1,5.8,2,8.5c0.6,1.5,1.4,3,2.4,4.3c2,2.5,4.9,3.9,8.1,3.8c2,0,3.9-0.4,5.7-1.1
	c1.5-0.6,2.9-1.5,4-2.6c1.3-1.3,2.5-2.8,3.6-4.4c1.2-1.7,2.2-3.6,3.1-5.5c1-1.9,1.8-3.9,2.5-5.9c0.1-0.4,0.4-1.1,0.7-2.1l0.2-0.8
	c0.1,0.5,0.1,1,0.2,1.6c0.5,3.7,0.7,7.3,0.8,11c0,0.2,0,0.5,0.1,0.7c0.2,0.6,0.8,1,1.5,1.1s1.5,0.1,2.2-0.2c0.4-0.2,0.8-0.4,1.1-0.7
	c0.3-0.3,0.5-0.7,0.5-1.1c0.2-1.9,0.4-4.2,0.7-6.8c0.3-2.6,0.7-5.2,1.2-7.8c0.5-2.3,1.2-4.6,2.1-6.7c0.6-1.6,1.8-3,3.4-3.7
	c1-0.4,1.8,0,2.3,1.3c0.5,1.5,0.7,3,0.6,4.5c0.1,1.9,0.1,4,0.1,6.1s0.1,4.3,0.3,6.5c0.1,1.9,0.5,3.7,1.1,5.5
	c0.4,1.3,1.2,2.3,2.4,3.1c1,0.6,2.4,0.6,4.2-0.1c1.4-0.6,2.5-1.7,3.3-3c1.1-1.6,2-3.4,2.7-5.2c0.8-2.1,1.5-4.3,2-6.6
	c0.6-2.4,1.1-4.7,1.6-7.1l0.4-2.1c0.2,0.8,0.4,1.5,0.7,2.3c0.5,1.4,1.3,2.8,2.2,4c0.8,1.1,1.9,2.1,3.1,2.7c1.2,0.7,2.6,1,4.1,1.1
	c1.7,0,3.4-0.3,5-1c2-0.8,3.7-2.2,4.9-4.1c1.4-2.2,2.6-4.5,3.5-7c1-2.8,1.9-5.7,2.6-8.6c0,2.1,0.2,4.2,0.4,6.4c0.2,2,0.6,4,1.3,5.9
	c0.4,1.2,1.1,2.2,2.2,2.8c1.2,0.6,2.5,0.6,3.7,0c1.7-0.7,3.1-1.9,4-3.4c1.3-1.9,2.3-3.9,3.1-6c0.9-2.4,1.7-4.8,2.2-7.3
	c0.6-2.6,1.1-4.9,1.5-7.1s0.6-4,0.8-5.5c0.1-0.9,0.1-1.5,0.1-1.9h0.1c1.3-0.2,2.5-0.5,3.7-0.9c2.1-0.8,4.1-2.1,5.7-3.7
	c-0.3,1.6-0.5,3.2-0.7,4.9c-0.2,1.9-0.3,3.9-0.3,6c0,2,0.1,4.1,0.3,6.1c0.2,1.8,0.6,3.5,1.2,5.2c0.5,1.5,1.5,2.8,2.7,3.7
	c1.2,0.8,2.7,0.8,4.7,0.1c1.6-0.6,3-1.8,4-3.2c1.2-1.7,2.1-3.5,2.8-5.5c0.8-2.2,1.5-4.4,2-6.7c0.6-2.4,1-4.7,1.4-6.9l0.1-0.8
	c0,0.1,0.1,0.2,0.1,0.3c0.6,1.8,1.9,3.3,3.5,4.3c1.6,0.9,3.7,0.9,6.3-0.1c0.9-0.4,1.8-1,2.5-1.8c0.8-0.9,1.6-1.9,2.2-3
	c0.6-1.1,1.2-2.3,1.6-3.5c0.4-1.1,0.7-2.2,0.8-3.3c0.1,0.8,0.1,1.8,0.2,2.9s0.1,2.3,0.2,3.5s0.2,2.5,0.4,3.8
	c0.2,1.2,0.5,2.3,0.9,3.4c0.5,1.4,1.4,2.7,2.7,3.5c1.2,0.7,2.8,0.7,4.9-0.1c1.9-0.8,3.5-2.1,4.6-3.8c1.4-2,2.5-4.2,3.4-6.5
	c0.9-2.5,1.7-5.2,2.2-7.8c0.5-2.7,0.9-5.3,1.2-7.8c0.2-1.6,0.4-3.2,0.6-4.7c0.1-0.9,0.2-1.8,0.1-2.7h0.2c1.3-0.2,2.5-0.5,3.7-0.9
	c2.1-0.8,4.1-2.1,5.7-3.7c-0.3,1.6-0.5,3.2-0.7,4.9c-0.2,1.9-0.3,3.9-0.3,6c0,2,0.1,4.1,0.3,6.1c0.2,1.8,0.6,3.5,1.2,5.2
	c0.5,1.5,1.4,2.8,2.7,3.7c1.1,0.8,2.7,0.8,4.7,0.1c1.6-0.6,3-1.8,4-3.2c1.2-1.7,2.1-3.6,2.9-5.5c0.8-2.2,1.5-4.4,2-6.7
	c0.6-2.4,1-4.7,1.4-6.9c0.3-2.2,0.7-4.3,0.9-6.1c0.3-1.9,0.5-3.3,0.8-4.3c0.1-0.3,0.1-0.5,0-0.8C235.9,8.2,235.8,8,235.5,7.9z
	 M99.7,60.3c0.3-2.4,0.9-4.7,1.6-6.9c0.6-1.9,1.4-3.8,2.4-5.6c0.9-1.5,1.5-2.4,1.9-2.5c0.7-0.3,1.2,0,1.5,0.7
	c0.3,1.2,0.4,2.6,0.1,3.8c-0.3,1.9-0.7,3.8-1.3,5.7c-0.7,2.1-1.5,4.2-2.5,6.2c-0.9,1.9-2.1,3.7-3.4,5.2
	C99.4,64.8,99.3,62.5,99.7,60.3z M63.6,57.8c-0.2-1.9-0.3-3.9-0.4-6c-0.1-2.1-0.2-4.2-0.2-6.4c0-2.1,0-4,0.1-5.8
	c0.1-1.4,0.2-2.9,0.5-4.3c0.2-1.2,0.6-1.8,1-1.9c0.9-0.4,1.7,0.2,2.2,1.6c0.5,1.7,0.8,3.4,0.7,5.2c0,2.4-0.1,4.9-0.4,7.3
	c-0.3,2.6-0.7,5.3-1.2,8c-0.5,2.4-1.1,4.8-1.9,7.1C64,61.3,63.8,59.8,63.6,57.8z M36.9,53.6c0.3-1.8,0.8-3.5,1.5-5.2
	c0.6-1.6,1.4-3.1,2.4-4.5c0.9-1.3,2.2-2.3,3.7-2.9c0.8-0.3,1.6-0.5,2.4-0.7c0.7-0.2,1.5-0.3,2.3-0.3c0.6,0,1.3,0.1,1.9,0.4
	c0.5,0.2,0.9,0.7,1.1,1.2c0.6,1.5,0.5,3.3-0.2,4.8c-0.8,1.7-1.9,3.3-3.2,4.6c-1.5,1.5-3.1,2.7-4.8,3.9c-1.5,1-3.2,1.9-4.9,2.6
	l-0.6,0.2c-0.3,0.1-0.6,0.2-0.9,0.4l-0.9,0.2l-0.6,0.1C36.3,57,36.5,55.4,36.9,53.6z M139.7,40.5c-0.6-0.7-1.2-1.4-1.8-2.2
	c-0.6-0.8-1.1-1.6-1.4-2.5c-0.5-1.1-0.7-2.3-0.8-3.5c0-1.1,0.2-1.7,0.8-1.9c0.6-0.3,1.2-0.2,1.7,0.1c0.5,0.4,0.9,0.9,1.1,1.5
	c0.3,0.7,0.4,1.5,0.5,2.2c0.1,0.8,0.2,1.7,0.2,2.5s0,1.5-0.1,2.3C139.9,39.5,139.8,40,139.7,40.5z M205.7,15.4
	c-0.6-0.7-1.2-1.4-1.8-2.2s-1.1-1.6-1.4-2.5c-0.5-1.1-0.7-2.3-0.8-3.5c0-1.1,0.2-1.7,0.8-1.9c0.6-0.3,1.2-0.2,1.7,0.1
	c0.5,0.4,0.9,0.9,1.1,1.5c0.3,0.7,0.4,1.5,0.5,2.2c0.1,0.8,0.2,1.7,0.2,2.5s0,1.6-0.1,2.3C205.9,14.3,205.8,14.9,205.7,15.4z"/>
</svg>
