<?xml version="1.0" encoding="utf-8"?>
<!-- Generator: Adobe Illustrator 24.0.0, SVG Export Plug-In . SVG Version: 6.00 Build 0)  -->
<svg version="1.1" id="Layer_1" xmlns="http://www.w3.org/2000/svg" xmlns:xlink="http://www.w3.org/1999/xlink" x="0px" y="0px"
	 viewBox="0 0 600 600" style="enable-background:new 0 0 600 600;" xml:space="preserve">
<style type="text/css">
	.st0{fill:#451577;}
</style>
<g>
	<g>
		<path class="st0" d="M363.7,190c4.6,16.8-4.9,35.3-22.8,40.8c-18.5,4.9-37-6.5-42.5-22.8c-5.8-17.7,4.6-36.1,22.9-41.1
			C339,162.2,358.2,173.9,363.7,190z"/>
	</g>
	<g>
		<path class="st0" d="M428.4,174.3c-2.5,0.7-5,1.3-7.7,2c-0.3-0.8-0.5-1.6-0.7-2.2c0-0.3,0.4-0.9,0.8-0.9c2.2-0.7,4.5-1.2,6.7-1.9
			C427.9,172.2,428,173.3,428.4,174.3z"/>
	</g>
	<g>
		<path class="st0" d="M409.4,179.1c-2.5,0.7-4.9,1.3-7.5,2c-0.3-1.1-0.5-2-0.9-3c2.5-0.7,5-1.2,7.5-2
			C408.8,177.1,409.1,178,409.4,179.1z"/>
	</g>
	<g>
		<path class="st0" d="M399.3,178.4c0.3,1.1,0.5,2,0.8,3c-2.4,0.7-4.9,1.2-7.4,1.9c-0.3-0.9-0.7-2-0.9-3
			C394.2,179.8,396.5,179.1,399.3,178.4z"/>
	</g>
	<g>
		<path class="st0" d="M390.6,183.9c-2.4,0.7-4.8,1.3-7.4,1.9c-0.3-1.1-0.7-2-0.9-3c2.4-0.5,4.8-1.2,7.4-1.9
			C390.1,181.9,390.3,182.9,390.6,183.9z"/>
	</g>
	<g>
		<path class="st0" d="M380.5,183.2c0.3,1.1,0.5,2,0.8,3c-2.4,0.7-5,1.3-7.4,1.9c-0.3-0.9-0.7-1.9-0.9-2.9
			C375.4,184.5,377.9,183.9,380.5,183.2z"/>
	</g>
	<g>
		<path class="st0" d="M422.9,189.6c-2.6,0.7-5.2,1.2-7.7,2c-0.4-0.9-0.7-2-0.9-3c2.4-0.7,4.8-1.2,7-1.7c0.3,0,0.8,0.4,0.8,0.7
			C422.5,188,422.6,188.6,422.9,189.6z"/>
	</g>
	<g>
		<path class="st0" d="M431.5,184c0.3,1.1,0.5,2,0.8,3c-2.5,0.7-4.9,1.3-7.5,2c-0.1-0.1-0.1-0.3-0.4-0.4c-0.8-2.5-0.8-2.5,1.9-3.3
			C427.9,184.9,429.5,184.5,431.5,184z"/>
	</g>
	<g>
		<path class="st0" d="M412.4,189c0.3,1.1,0.7,2,0.8,2.9c-2.5,0.7-4.9,1.3-7.5,2c-0.1-0.9-0.5-1.9-0.8-2.9
			C407.4,190.4,409.8,189.6,412.4,189z"/>
	</g>
	<g>
		<path class="st0" d="M387,198.7c-0.4-1.1-0.7-1.9-0.9-2.9c2.6-0.7,4.9-1.2,7.5-2c0.3,0.9,0.5,1.9,0.9,2.9
			C392,197.4,389.5,198,387,198.7z"/>
	</g>
	<g>
		<path class="st0" d="M384.1,196.2c0.4,1.1,0.5,1.9,0.9,2.9c-2.5,0.7-4.9,1.3-7.4,2c-0.4-0.9-0.5-2-0.9-2.9
			C379.2,197.4,381.6,196.7,384.1,196.2z"/>
	</g>
	<g>
		<path class="st0" d="M403,191.4c0.4,1.1,0.7,2,0.9,2.9c-2.5,0.7-5,1.3-7.5,1.9c-0.3-0.9-0.5-1.9-0.9-2.8
			C398,192.7,400.5,192.1,403,191.4z"/>
	</g>
	<g>
		<path class="st0" d="M419,206.8c-1.1-3.4,0.8-6.2,4.4-7.1c3-0.8,6,0.9,7,4.1c0.9,3.2-1.1,6.1-4.4,6.9
			C423,211.4,419.8,209.5,419,206.8z"/>
	</g>
	<g>
		<path class="st0" d="M395.6,218.5c-3.2,0.8-6.5-1.1-7.3-4.1c-1.1-2.9,0.8-5.8,4.1-6.9c3.2-0.8,6.2,0.9,7.3,4
			C400.5,214.6,398.8,217.7,395.6,218.5z"/>
	</g>
	<g>
		<path class="st0" d="M525.3,178.3c-1.4-12.9-4.8-25-8.7-37c-1.5,0.4-3.1,0.7-4.6,1.1c3.9,13.9,6.8,28,10.6,41.6
			c4.6,7.4,2.4,13-4.6,18.8c-1.5,0.9-5,1.1-6.5,0c-28.3,10.6-62.2,18.7-94.7,24.9c-33.5,9.9-70,18.8-99.8,26.2
			c-10.3,1.6-18.9-3.7-20.9-11c-6.6-25.8-14.8-51.3-23.9-74.4c2-9,3.7-17.5,10.8-20.8c46.6-8.3,87.7-21.6,127.2-32
			c18.2-3.6,34.8-7.4,50.7-11.2c-0.5-1.7-1.1-3.3-1.5-4.9c-23.7,7.4-49.7,13.2-75,17.9c-0.5,1.7-3,0.9-2.2-0.5
			c-6.6,5.3-18.7,6.6-29.1,7c-21.8,9.1-44.6,15.2-68.5,20.9c-10.7,0-13,5.4-16.9,10.3c-2,2.8-1.7,7.1,1.3,11.8
			c10.5,26.6,14.2,53.2,23.2,79.9c4.4,8.5,16.1,15.3,25.5,12.3c15.9-3.2,27.1-6.7,45.8-11.8c15.7-5,33.3-10.3,51.3-13.9
			c30-7.9,58.5-15.3,85.9-20.2c6.2-1.7,5-2.6,5.8-4.5c8.6,1.5,11.8-2,12.7-3.6c11-2.6,14.7-11.1,12.4-18
			C531.6,182.5,526.3,181.2,525.3,178.3z"/>
	</g>
	<g>
		<path class="st0" d="M381.1,167.1c-0.1,0-0.2-0.1-0.2-0.1C381,167.1,381.1,167.1,381.1,167.1z"/>
		<path class="st0" d="M521.7,183.2c-3.2-13.5-8.1-26.9-11.9-40.3c-1.7,0.4-3.5,0.8-5.2,1.3c1.7,2.5,3.1,5.2,4.1,8
			c6.6,21.4-6.2,41.7-27.1,47.5c-19.2,4.6-41.1-5.7-48.4-27.8c-5.3-19.5,6.2-39.6,26.5-44.7c2.4-0.6,4.7-1,7.1-1.1
			c-1.5-4.9-2.9-10-4.4-15.7c0.5,1.3,1.2,1,0.6,0.9c-0.5-1.6-1-3.1-1.5-4.6c-15.1,3-29.4,6.7-44.6,10c-18.7,5.2-39,9.4-56.5,13.6
			c-26.2,6.1-49.1,12.8-73,20.4c0.5-0.4-1.6-0.5-4.4-0.7c-3.4,3.6-8.5,8.9-8.3,14.2c2.1,5,4,5.8,2,11.1
			c6.9,20.6,17.1,45.3,20.8,66.3c1.7,0.7,4,2.6,0.9,4.8c4.5,5.3,12.4,8.9,18.9,4.8c32.9-6.6,65.5-16.3,97-23
			c35.7-9.7,66.2-18.3,99.9-27.5c3.7-1.3,9.5-4.5,7-7.1C523.7,189.4,523.2,186.6,521.7,183.2z M419.4,150.7
			c0.9,2.9,1.9,6.6,2.5,10.1c-16.8,4-33.2,8.5-50,12.2c-0.8-3.4-2.4-7.4-3.4-12.3c1.2,0.8,1.9,1.7,2.4,2.1c1.6,0.7,1.6,2.2,3.2,3.3
			c1.3,1.2,2.4,0.8,2.8-0.8c0.4-1.5,0.1-2.8-0.8-3.7c0.3-3.3-0.9-5.8-1.7-8.9c0.3,0.1,0.4-0.4,0.5-0.7c0.5,1.6,2,3,2.1,5.4
			c2.1,2.6,2.5,6.2,4.1,9.1c0.1,0.3,0.1,0.5,0.1,0.5c0.8,0.5,1.7,1,2.3,1.7c-0.1-1.1,0.4-1.5,0.1-2.1c-0.9-3.2-1.6-6.6-1.7-9.7
			c0-0.3,0-1.3,0.4-1.9c0.8,2.4,1.7,4.2,2.2,6c0.8,1.1,1.3,2.5,2.4,4.1c0.3,0.7,0.5,0.7,1.1,0.7c0.8,0.1,0.8-0.5,0.5-1.3
			c0.3-1.2,0.3-3-0.1-4.9c-1.7-3.3-2-5.8-3-8.9c-0.1-0.8-0.1-1.2,0.5-1.6c1.1,1.2,0.7,2.4,1.5,3.6c1.6,2.5,3.2,5.7,4.2,8.5
			c0.1,0.3-0.8,0.4,0,0.3c0.3,0.4,0.9,1.3,1.6,1.5c1.5-0.3,0.8-1.6,0.3-1.9c0.4-2.8-0.8-5.3-1.5-7.9c0.8,0,0.4-1.1-0.4-1.5
			c0.9,0.1,1.1,0.1,1.2,0.1c0.8,1.3,0.7,3.3,1.3,4.9c1.6,1.2,1.6,3,2.2,4.4c0.8,0.7,1.7,0.9,2.2,1.9c0.3-0.7,0.3-1.5,0.1-2.5
			c0.5-2.1-0.3-4.8-0.7-7.8c-0.3-1.1-0.8-2.4-1-3.8c1.1,2.2,1.9,4.5,2.6,6.7c1.2,2.5,1.6,4.9,3.2,7.4c0.3,0.7,0.3,0.5,1.2,1.2
			c0.1-0.8,1.1-0.8,0.9-1.6c0-2.5-0.5-5.2-1.2-7.1c-0.8-3-1.2-5.7-2-8.5c0.1,0.1,0-0.1,0.4-0.3c0.5,1.9,1.9,3.8,3,6.1
			c1.5,1.7,2.2,3.4,3,5c0.5,0.8,1.2,1.2,1.2,1.1c0.8,0.1,1.6-1.1,0.9-1.1c-0.3-3.3,0.1-5.6-1.1-8.7c-0.3-3-0.5-5.8-2-8.5
			c0.3-0.1,0.5,0,0.7-0.8c0,0.1,0.1,0.1,0.1,0.2c0,0,0,0-0.1,0.1c1.7,1.2,2.9,2.5,4.1,4.1c0.5,1.2,1.9,2.5,2.4,3
			c0.5,1.1,1.9,1.1,2.8,0.9C419,148.1,418.6,149.5,419.4,150.7z M396.8,147.9c0.1,0,0.4,0.1,0,0.3
			C396.8,148.1,396.8,148,396.8,147.9z M414,134.9c1.7,3.8,2.2,8.2,4,12c-0.1-0.3-0.4,0.1-0.8,0.3c-1.2-1.1-2.1-1.2-3.2-2.5
			c-1.1-0.9-2.6-2.6-3.6-4.5c-0.4-0.7-0.9-0.8-1.7-1.5c0-0.7-1.6-0.7-1.5-0.4c-0.4,0-1.1,0.8-0.9,1.5c0.5,2.2,0.8,4.9,0.5,7.5
			c1.5,2.6,1.6,6.1,2.1,9c0.1,0.3,0,0-0.3,0.1c-0.8-1.1-0.5-2-1.6-2.2c-0.8-3.4-3.2-6.1-4.5-9.1c0.1,0-0.5-0.5-1.1-1.2
			c-0.1-0.3-0.3-0.4-0.7-0.1c-0.5-0.3-0.9,0.8-1.1,1.2c0.1,3,0.7,6,1.7,9.1c0.4,1.3,0.8,2,1.2,3c-0.1,0.5-0.1,0.7-0.8,0.5
			c-0.3-1.3-0.9-2.5-1.1-3.4c-1.2-3.7-3-7.7-4.4-11.8c0.4,0.3-0.3-0.4-0.7-0.9c0,0.3-0.3,0-0.7-0.3c-1.2,0.1-1.2,0.9-1.5,1.3
			c0.5,2.9,1.2,6.1,2.1,9.4c0.9,2.1,0.5,4.1,0.9,6.2c-0.4-1.7-0.8-3.2-1.7-4.8c-0.7-1.6-2.4-3.3-2.5-5.2c-0.5-0.3-0.7-0.7-0.8-0.7
			c-0.3-0.5-0.9-0.8-1.7-0.7c0.7,0.3-0.5,0.8-0.7,1.1c1.1,2.1,1.2,3.2,0.8,4.8c1.1,1.9,1.5,3.6,1.5,5.6c-0.7-2.2-2.4-4-3.3-6
			c-0.1-2.5-1.9-4.5-3.2-6.7c0.4-0.5-0.3-0.9-0.9-0.9c-0.3,0.5-1.3,1.1-1.2,1.3c1.7,4.8,2.5,9,3.4,12.8c0,0.9-0.3,1.3-0.3,1.9
			c-0.8-1.1-0.7-2.1-2-2.6c-0.8-2.5-1.9-4.9-3.2-7.3c0-0.5-1.2-0.9-1.2-1.3c-0.1,0.8-1.2,1.2-0.8,2c0.3,2.9,1.3,6.6,1.9,9.5
			c0.4,0.1,0.4,0.3-0.1,1.2c-0.4-0.8-0.5-1.5-0.9-2.1c-1.7-3.7-3.6-7.7-5-11.6c-0.7-0.5-0.9-0.8-1.3-0.9c0.1,0.5-0.8,1.1-1.1,1.5
			c0.5,2.4,0.5,4.2,0.7,6.2c0.8,2.9,1.5,4.9,1.3,7.9c0.1,0,0.8,0.9,0.1,1.3c-2-2-2.6-5.2-7-5c-0.9-4-1.9-7.7-2.9-12.3
			C381.3,143.2,397.7,138.9,414,134.9z M341,234.5c-20,4.9-41.3-6.7-48.2-26.6c-5-19.6,7-39.2,28.1-45.8
			c20.5-4.4,42.1,7.1,47.4,27.8C374.8,209.4,362.7,230.4,341,234.5z M371.8,188.5c-1.1-4.6-0.7-4.5,3-5.6c8.5-2.1,17.1-4.1,25.4-6.5
			c0,0.1,0,0.1,0,0.1c9.6-2.5,18.4-4.8,27.4-7.3c0.4-0.1,0.8,0.3,1.3,0.5c0.1,1.5,0.9,3,1.5,4.6c0.8,1.1-0.3,1.2-1.5,1.3
			c-5.7,1.9-12.3,3.3-18.7,4.9c-11.6,3.3-23.4,6.1-36.1,9.4C372.3,190.4,373.1,190.5,371.8,188.5z M402.8,215
			c-0.3,0.5-0.5,0.8-0.5,1.5c-0.1-0.1,0.3,0.4,0.3,0.4c-0.9,1.1-2,2.2-3.2,3.6c-0.1-0.1-0.5-0.3-0.7-0.3c-1.2,1.7-3.3,0.9-4.8,1.3
			c-0.3,0-0.3,0.3-0.3,0.4c-0.3,0.1-4.1-1.9-4.6-2.1c-1.6-0.7-2.4-2.4-3.4-3.8c-0.1-0.3-0.1-1.1-0.4-1.3c0-0.4,0.5-0.5,0.3-0.8
			c-1.3-1.7,0.7-3,0.3-4.5c0-0.1,0-0.1,0.1-0.5c0.9-0.8,1.9-2,2.8-2.9c1.2,0.1,1.9-0.3,2.5-1.5c0.3-0.3,0.7-0.3,0.9,0
			c1.2,0.3,1.6,0.3,2.2-0.5c0.1,0,0.3-0.1,0.3,0.1c0.8,0.4,1.5,1.1,2.2,0.9c1.2,0.3,2.1-0.1,2.4,0.9c0,0.3-0.1,0.4,0,0.3
			c2,0.4,2.4,2.4,3,3.8c0.3,0,0.3,0,0.3,0C403.2,210.5,403,214.4,402.8,215z M433.8,206.8c-0.3,1.1-0.7,1.9-0.9,2.6
			c-0.5,1.2-1.5,2.6-2.9,3.3c-0.8,0.3-1.9,0.3-2.5,1.2c0,0.1-0.7,0.1-0.7,0.1c-1.1-0.5-2.4,0-2.9,0c-1.5-0.5-3-0.4-4.1-1.3
			c-0.7-0.7-1.3-1.3-2.1-1.7c-1.1-1.1-1.9-2.6-2-4c-0.1-0.8-0.4-1.9-0.3-2.6c-0.1-1.5,0.7-2.9,1.6-4c0.5-0.7,1.5-0.9,1.5-2
			c0.1,0,0.3-0.4,0.3-0.4c2,0.9,2.8-2.1,4.8-1.1c1.1,0.1,2.8-0.1,4,0.3c1.2,0.4,2.4,0.1,2.5,1.7c0.1,0.3,0.9,0.5,1.3,0.4
			c0.4,0.3,0.9,0.3,1.2,0.5c-0.5,1.3,0.1,2,0.5,2.8C434,204.1,434.2,205.8,433.8,206.8z M432.3,188.8c-8.1,2-16,4.4-24.2,6.1
			c-0.8,0.5-1.7,0.5-2.8,0.9c-8.5,2.2-17.6,4.4-26.9,7c-2.2,0.3-2,0.3-2.8-1.7c-0.3-0.9-0.8-1.9-0.8-2.8c-0.9-1.3,0-1.9,1.5-2
			c7.8-2,15.1-4,22.1-6c11.1-2.5,21.4-5.4,31.9-8.1c2.4-0.3,2.6-0.5,2.5,1.6c0.3,0.7,1.3,1.7,0.9,2.4
			C434.6,187.6,434.6,188.2,432.3,188.8z"/>
		<path class="st0" d="M400.2,176.6c-0.2,0-0.3,0.1-0.5,0.1C400,176.6,400.2,176.7,400.2,176.6z"/>
	</g>
	<g>
		<path class="st0" d="M468.2,130.5c-2-0.4-4,0.4-5.9,0.8c-17.3,5.2-31,23.2-22.6,43.5c6.4,15,22.5,25.3,40.9,19.8
			c18.4-5.3,28.8-23.3,22.6-40.5c-0.8-3.2-2.2-6.1-3.9-8.7C499.3,145.5,476.5,148.9,468.2,130.5z"/>
	</g>
</g>
<g>
	<path class="st0" d="M573,57.2c-0.4,0.5-0.1,2.7-1.2,2.6c-0.7,1.4-3.3,2.5-5.1,1.5c-3.5-3-7.5-5.1-12.2-6.7
		c-0.5-0.3-0.4-1.1-0.9-1.6c-2,1.9-2.4,5.1-4.2,7.2c-7.7,13-14.9,26.3-22.9,39.1c-1.1,2.9-1.5,3-3.6,1.7c-3.2-1.4-5.1-3.6-8.5-4
		c-1.4-2-1.3-2.7-0.3-4.3c8.3-15.4,17.8-29.8,26.7-45.7c-0.1-0.1,0.2-0.6,0,0.2c0.3-0.1,0.1-1.1,0-1.3c-0.5,0.5-0.1,0.6-0.8-0.1
		c-3.6-1.8-8.5-4.1-11.7-6.5c-2.9-2-3.4-3.8-2.3-5.8c0.8-0.1,1.2-1.8,2.4-1.9c9.6-2.1,20.1-5.1,31.4-8.3c0.9,0.8,2.6,1.1,3.5,1.9
		C566.7,36,569.6,47.3,573,57.2z"/>
</g>
<g>
	<path class="st0" d="M470.5,98.3c-2.9-8.9-5.5-16.7-6.7-23.3c-2.3-9,1.1-17.2,8.6-19.7c0.3-1.1,2.5-1.8,4-1.8
		c12.5-3.2,26.2-6.3,39.6-9.5c3.7-1.4,3.9-1.6,4,0.3c1.4,0.7,1.6,1.8,0.6,2.4c0.3,2.5,0.4,3.8-2.3,3.7c-12.8,2.7-26.9,7.1-41.3,11.3
		c-3.5,0.6-6.1,3.6-6.4,8.8c1,0.3-0.5,1.6,1,2.4c3.6,16,9.9,30.7,13.9,46.8c0.2,5.2,7.7,8.6,12.9,8c14.6-5.5,32.5-8.9,47.8-13.5
		c6.1-1.6,9.1-6.3,7.7-11.5c-1.1-6.7-4.2-10.9-4.7-17c-2-2.4-0.4-2.5,1.8-4.2c-0.5,0,1.2,0.6,1.8-1c1.9-0.1,2.2,1.6,2.5,2.4
		c1.6,7.2,3.8,13.9,5.9,20.2c3.3,7.2-3.5,14.9-10.2,18.1c-1.6-0.1-3.6,1-5.3,2.3c-14.3,3-30,6.9-45.5,10.7c-3,0.7-5.9,0.8-9.4,0.2
		c-7-1.3-11.5-4.9-13-11.5c-3.3-8.1-5.3-15.9-7.9-25.5C470.4,98.7,471.1,98.4,470.5,98.3z"/>
</g>
<g>
	<path class="st0" d="M569.9,180.1c-8.1-15.6-10.9-34.2-20.5-47.6c1.9,1.2-7.2,1-5.3,3.6c3.2,15.9,10.5,29.3,9.9,45
		c0.5,0.2,0.5,1.5,4.6,0.7c4,4.2-0.9,11.1,5.5,14.6c-1.5,5.9-4.8,17.8-9,21.4c-3.8-2.3-9.1,0.4-13.3,3.5c-5.5-1.7-6.3-2.4-4.3,1.3
		c-5-0.2-5.5-2.5-5-2.4c-4.5,1.5-4.7,2.3-7,4.6c4.9-2.6-36.6,5.9-33.2,8.8c-30.9,7.1-57.7,12.6-82.8,19.9
		c-17.2,2.1-28.4,6-37.6,11.3c-2.3-2.7-31.4,6.1-35.6,5.1c-5,4.4-10.9,5.3-14,3.8c-14.1,3.7-31.3,8.7-46.9,15.3
		c-14.2-0.2-20.9-4-25.9-14.6c-5.5-18.8-10.5-42.7-16.3-58.2c-4.7-17.9-7.9-35-13.6-51.9c-6.4-3.9-5.3-10-0.3-13.8
		c3.5-6.6,8.9-7.8,11.9-9.2c20.3-5.5,45.7-12.6,73.8-17c7.3-6,13.1-6.9,21.4-6.3c-1.3-2.3,45.5-14.2,47.3-15.2
		c0.7,3.5-1.4,0.8-1.6,1.7c-1.4-0.5,81.4-21.7,84.6-18.7c-3.3-1.1-6.2-10.5-9.4-9.6c2.1-0.9-121.2,32-120.7,28.6
		c-11.6,5.3-17.1,6.8-24.5,9.2c-25.9,4.2-48.3,10.4-72,19c-8.2-0.4-18.2,5.4-19.4,14.3c-1.4,8.2-8,13.4-4.4,21.8
		c3.6,15.7,11.8,33.4,12.4,48.2c9.6,18,12.6,36.6,18,59.8c6,15.4,22.7,24.9,43.9,20.5c10.3-4.9,28.2-9.7,45-11.6
		c5.4-1.5,12.3-5.5,16.2-6.1c-4.6-1,28.4-8.6,27.4-6.7c42.4-10.4,85.7-21.9,125.4-30.2c1.6-2.2,33.8-11.6,32.6-10.4
		c3.3-1.3,4.8-3.4,5.2-3.1c-0.7,3.7,1.4,0.6,5.2-0.5c-0.3,2.8-4.5-0.8-2.7,0.6c7.7-0.3,4.9-0.9,6.2-2.5c9.1,1.3,8.1-1.4,14.9-4
		c11.5-2.7,20.4-17.8,12.8-29.9c1.9-2.6,1-9.1,1.1-13.3C570.4,181,564.8,178.2,569.9,180.1z"/>
</g>
<g>
	<path class="st0" d="M267.2,245.2c1.5-0.4,2.6-0.4,3.4,0.1c0.8,0.5,1.3,1,1.6,1.4c0.3,0.4,0.7,1.8,1.4,4.2l8.9-2.6l1.5,5.1
		l-24.2,7.2l-1.5-5.2c-0.7-2.3-1-3.9-0.9-4.8c0.1-1.7,1.2-2.8,3.1-3.4L267.2,245.2z M268.3,250.5l-5.8,1.7c-0.6,0.2-0.9,0.5-1,1
		c0,0.3,0,0.7,0.2,1.2l8.4-2.5c-0.2-0.6-0.3-1-0.4-1.1C269.4,250.4,268.9,250.3,268.3,250.5z"/>
	<path class="st0" d="M275.8,226l1.5,5.2l-6.2,2.8l0.7,2.4l6.8-1l1.5,5.2l-25.3,3.2l-2-6.7L275.8,226z M268,235.5l-7,2.9l7.5-1.4
		L268,235.5z"/>
	<path class="st0" d="M271.7,212l1.6,5.3c-0.3,0.4-0.7,0.8-1.4,1.1c-0.6,0.3-1.6,0.7-2.8,1l-5.9,1.8c-0.6,0.2-0.9,0.4-1,0.8
		c0,0.3,0,0.8,0.2,1.3l11.6-3.4l1.6,5.3l-24.2,7.2l-1.9-6.6c-0.5-1.7-0.5-3.2,0-4.4c0.5-1.2,1.4-2,2.7-2.4l2.9-0.9
		c0.8-0.2,1.5-0.3,2-0.2c0.9,0.2,1.9,1,2.8,2.3c-0.1-1.5,0.2-2.5,0.8-3.3c0.4-0.5,1-0.8,1.9-1.1l5.2-1.5c0.8-0.3,1.5-0.5,1.9-0.7
		C270.8,213,271.5,212.5,271.7,212z M257.6,222.8l-3.9,1.2c-0.6,0.2-0.9,0.4-0.9,0.8c0,0.3,0,0.8,0.2,1.3l6.5-1.9
		c-0.2-0.6-0.3-0.9-0.4-1C258.7,222.7,258.2,222.6,257.6,222.8z"/>
	<path class="st0" d="M247.2,206.5l0.9,3l21.1-6.2l1.6,5.3l-21.1,6.2l0.9,3l-3.1,0.9l-3.3-11.2L247.2,206.5z"/>
	<path class="st0" d="M266.2,193.5l1.6,5.3l-24.2,7.2l-1.6-5.3L266.2,193.5z"/>
	<path class="st0" d="M256.7,180.2c1.3-0.4,2.6-0.3,3.7,0.4c1.3,0.7,2.2,1.9,2.7,3.7l2,6.7l-24.2,7.2l-2-6.7
		c-0.5-1.7-0.4-3.2,0.2-4.5c0.6-1.2,1.6-2,2.9-2.4L256.7,180.2z M258.7,185.4l-15.5,4.6c-0.6,0.2-0.9,0.5-1,0.9c0,0.2,0,0.6,0.2,1.1
		l18-5.3c-0.2-0.6-0.3-0.9-0.4-1C259.7,185.3,259.3,185.2,258.7,185.4z"/>
	<path class="st0" d="M256.9,163.4l1.5,5.2l-6.2,2.8l0.7,2.4l6.8-1l1.5,5.2l-25.3,3.2l-2-6.7L256.9,163.4z M249,172.9l-7,2.9
		l7.5-1.4L249,172.9z"/>
</g>
</svg>
