<?xml version="1.0" encoding="utf-8"?>
<!-- Generator: Adobe Illustrator 24.0.0, SVG Export Plug-In . SVG Version: 6.00 Build 0)  -->
<svg version="1.1" id="Layer_1" xmlns="http://www.w3.org/2000/svg" xmlns:xlink="http://www.w3.org/1999/xlink" x="0px" y="0px"
	 viewBox="0 0 600 600" style="enable-background:new 0 0 600 600;" xml:space="preserve">
<style type="text/css">
	.st0{fill:#A00008;}
</style>
<path class="st0" d="M529.9,324.2c0.3,0.2,0.6,0.4,0.9,0.7c1.3,1.3,2.5,2.7,3.7,4.1c0.5,0.6,0.8,1.3,1.3,1.8
	c0.9,0.7,1.8,1.3,2.4,2.3c0.2,0.3,0.3,0.7,0.6,0.9c0.3,0.2,0.8,0.5,1,0.4c1.1-0.4,1.6,0,2.1,0.9c-0.6,0-1.2,0.1-1.5,0.1
	c0,0.7,0,1.1,0,1.5c-0.3,0.1-0.8,0.3-0.9,0.2c-0.9-0.8-2-1.2-3.2-1.5c0.5-0.4,0.9-0.6,1.3-0.9c-0.5-0.3-0.9-0.5-1.3-0.8
	c-0.3,0.7-0.6,1.4-1,2.2c1.1,0.9-0.6,0.8-0.9,1.5c0.7,0.3,1.4,0.5,2,0.8c0.1-0.2,0.1-0.5,0.2-0.7c0.5,1.8,1.2,0.6,1.9,0.4
	c0,0.7,0,1.3,0,1.9c0.1,0,0.2,0,0.3,0c0.1-0.4,0.3-0.7,0.3-0.8c1,0.5,2,1,2.9,1.5c0.1-0.1,0.2-0.3,0.2-0.4c-0.2-0.2-0.5-0.4-0.7-0.6
	c-0.6-0.7-1.2-1.4-1.7-2.2c0,0,0.3-0.4,0.5-0.6c0.4-0.2,0.8-0.4,0.9-0.5c0.8,0.9,1.5,1.7,2.2,2.6c1-0.7,1.4-0.3,1.8,0.7
	c0.8,1.7,1.9,3.3,2.9,4.9c0.7,1.1,1.4,2.1,2.1,3.2c-0.2,0.2-0.4,0.6-0.7,1c-1.2-1.4-2.2-2.9-3.6-4c-1.3-1-1.7-3.1-3.6-3.4
	c0,0.8-0.2,1.5,0,2s0.8,0.8,1.2,1.2c0.1-0.1,0.2-0.1,0.2-0.2c0,0.6-0.1,1.1-0.1,1.8c-0.2,0.1-0.6,0.4-1,0.7c-1.1-0.6-2.1-1.3-3.4-2
	c0.1,0.7,0.2,1,0.3,1.4c0.2-0.2,0.4-0.5,0.7-0.8c0.5,0.7,0.9,1.3,1.3,2c-0.2,0.2-0.5,0.4-0.8,0.8c0.9,0.1,0.6,2.1,2.3,1.4
	c0.7,2.9,3.9,2.9,5.7,4.8c0.2-0.6,0.4-1,0.6-1.4c0.5,0.3,1.2,0.5,1.6,0.9c1.4,1.3,1.7,1.3,2.9,0c-1-1.5-2-3-3.1-4.6
	c2-0.2,2.5,1.3,3.2,2.4c1.4,2.1,2.7,4.3,3.9,6.5c0.3,0.5,0.4,1.1,0.6,1.8c-0.4,0.3-0.9,0.6-1.3,1c0.1,0.7,1.3,1.2,0.3,2.1v0.1
	c0,0.3-0.5,0.8-0.8,0.8c-0.5,0.1-1,0.2-1.5,0.3c0,0.1,0.1,0.2,0.1,0.4c0.3,0,0.7-0.1,0.8-0.1c0.5,0.8,1,1.4,1.3,1.9
	c-0.6-0.3,0,2.3-1.4,0.9c-1.1,1.2,0.4,2,0.6,3c0.8-0.1,1.4-1.4,2.2-0.4c-0.5,0.5-0.9,0.9-1.4,1.3c-0.2,0.1-0.6,0.1-0.8,0.1
	c-0.8-0.1-0.8-0.1-0.9,0.9c0.2-0.1,0.4-0.2,0.8-0.4c0,0.8-0.1,1.4-0.1,1.8c0.5,0.1,1.1,0.2,1.7,0.4c0.1,0,0,0.6,0,1
	c-0.1,0-0.2,0-0.3,0c0.1,0.2,0.2,0.4,0.4,0.5c1.2,1.2,1.2,1.3-0.4,2c-0.8,0.3-0.6,0.7-0.3,1.1c0.4,0.6,0.8,1.2,1.2,1.8
	c-1,1-0.2,1.9,0.3,2.5c0.7,0.8,1,2.2,2.6,1.9c0.1,0,0.2,0.5,0.3,0.8c-0.3,0.1-0.6,0.2-0.9,0.3c0,0.5-0.1,1.3-0.1,1.9
	c0.5,0.3,1,0.7,1.7,1.3c0.5,0,1.6-0.4,0.6,1.1c-0.1,0.2,0.3,0.8,0.5,1.3c-0.3,0.2-0.5,0.4-0.8,0.5c0,0.1,0,0.1,0,0.2
	c0.3-0.1,0.6-0.1,1-0.2c-0.1,0.7-0.3,1.3-0.4,2c-0.1,0-0.2,0-0.3,0c0.3,0.6,0.7,1.2,1,1.7c-0.8,0-1.5-0.1-2.4-0.1
	c0-0.3,0.1-0.9,0.1-1.8c-0.4,0.4-0.6,0.6-0.9,1c-0.4-0.5-0.7-1-1.1-1.4c-0.4-0.4-0.8-0.7-1.3-1c-0.9-0.4-1.3-1.9-0.7-2.5
	c-0.2-0.1-0.5-0.2-0.6-0.4c-0.7-1.7-1.4-3.4-2-5.1c-1-2.4-1.8-4.9-3-7.3c-1.7-3.5-3.5-6.9-5.3-10.3c-3.1-5.8-6.8-11.2-10.8-16.4
	c-4.7-6.2-10-11.8-15.6-17c-7.1-6.6-14.9-12.3-23.2-17.1c-5.6-3.3-11.5-6.2-17.6-8.6c-9.1-3.7-18.6-6.3-28.3-8
	c-1.7-0.3-3.4-0.8-5.2-0.9c-9.6-0.8-19.1-1.3-28.7-0.5c-8.8,0.8-17.4,2.3-25.8,4.7c-4.2,1.2-8.4,2.9-12.6,4.3
	c-0.4,0.1-1.1,0.2-1.4-0.1c-0.6-0.5-0.8-0.3-1,0.3c-0.1,0.2-0.3,0.4-0.6,0.4c-0.5,1.1-0.6,1.1-1.6,0.2v-0.1c0.4-0.3,0.7-0.6,1.2-0.8
	c1.1-0.5,1.3-1.3,0.5-2.3c-0.3,0.7-0.8,1-1.2,0.1c-0.2-0.4-0.3-0.9-0.6-1.2c-0.3-0.3-0.7-0.4-1.1-0.6c-0.2-0.1-0.5-0.3-0.7-0.3
	c-0.3-0.1-0.6-0.1-0.8,0c-0.8,0.5-1.2,0.4-1.6-0.4c-0.5-1.2-1-2.3-1.5-3.5c-0.1,0-0.2,0.1-0.3,0.1c0.1,0.2,0.1,0.3,0.2,0.5
	c-0.1,0-0.2,0-0.2,0.1c-0.1-0.3-0.1-0.6-0.3-1.3c1,0.7,1.6,1.1,2.3,1.7c0.2-0.7,0.4-1.3,0.6-2c0-0.1,0.4-0.1,0.6-0.2
	c0-0.1,0-0.2,0-0.3c-0.8,0.1-1.6,0.1-2.5,0.2c-0.1-0.2-0.3-0.5-0.6-1c1.8-0.8,3.5-1.6,5.2-2.3c4.9-1.7,9.7-3.6,14.7-5
	c9.4-2.7,18.9-4.5,28.7-5.2c4.1-0.3,8.2-0.3,12.4-0.4c0.3,0,0.7,0.4,1,0.7c0.6,0.7,1,1.5,1.5,2.2c0.1,0.2,0.1,0.6,0.2,0.8
	c0.3,0.8,0.4,1.7,1.7,1.5c0.3,0,0.7,0.6,1,0.9c0.2-0.2,0.5-0.5,0.8-0.8c0-0.7-1.4-1.2-0.4-2.1c-0.2-0.5-0.5-1-0.7-1.5
	c-0.1-0.2-0.4-0.4-0.6-0.7c-0.2-0.2-0.4-0.4-0.6-0.7l0.2-0.4c0.3,0.1,0.5,0.3,0.8,0.4c0.2,0.1,0.5,0.2,1,0.4
	c0.6,0.9,1.3,2.1,2.1,3.4c1-1.1-0.4-1.4-0.6-2.3c0.5,0.3,0.9,0.5,1.2,0.8c0.7,0.7,1.4,1.4,2.1,2c0.5,0.4,2.4,0.1,2.3-0.2
	c-0.4-1,0.5-1.3,0.7-1.8c-0.3-0.2-0.6-0.3-1.2-0.6c0,0.3,0,0.6,0,0.9c-0.3-0.2-0.7-0.4-0.9-0.7c-0.1-0.3,0-0.7,0.1-1
	c-0.4-0.2-0.8-0.4-1.3-0.6c0-0.1,0.1-0.3,0.1-0.4c1.8,0.2,3.6,0.3,5.4,0.5c3.5,0.4,7,0.9,10.5,1.5c9.6,1.7,18.9,4.4,27.9,8
	c8.6,3.4,16.9,7.4,24.6,12.6c4.9,3.2,9.6,6.6,14.3,10.2c2,1.5,3.5,3.7,5.3,5.6c-0.1,0-0.1,0.1-0.2,0.1c-0.6,0.1-1.4,0.4-1.7-0.4
	c-0.4-0.8-0.9-0.7-1.5-0.4c-0.4,0.2-0.7,0.3-1.1,0.4c0.4,0.6,0.9,1.3,1.4,2.1c-1,0.3-0.8,0.9-0.2,1.5c0.2-0.1,0.5-0.2,0.9-0.4
	c0.1,0.4,0.2,0.7,0.3,1.2c0.2-0.2,0.5-0.4,0.7-0.6c0.7,0.8,1.4,2.2,2,2.2c1.2,0,1.7,0.7,2.5,1.3c0-0.6,0.1-1.2-0.1-1.6
	c-0.2-0.5-0.8-0.8-1.1-1.2c-0.4-0.6-0.6-1.3-0.9-1.9C529.5,324.5,529.7,324.4,529.9,324.2z M551.9,364.6c-1.2,1-1.4-1.3-2.9-1
	c0.1,0.7,0.3,1.4,0.5,2.3c0,0-0.2,0.2-0.4,0.5c0.3,0.3,0.6,0.6,1.1,1.1c0.3-0.4,0.5-0.8,0.8-1.1
	C551.3,365.8,551.6,365.2,551.9,364.6z M556.5,381.6c0.3-3.3,0.3-3.3-1.2-4.2c0.3,1,0.5,1.7,0.8,2.6c0,0.1-0.3,0.4-0.5,0.7
	C555.9,381,556.1,381.3,556.5,381.6z M558,382.4c-0.6,0.1-1.2,0.1-1.8,0.2c0.2,1.2,0.2,1.2,1.6,1.4C557.8,383.5,557.9,383,558,382.4
	z M537.6,343.2c-0.2,0.2-0.4,0.4-0.5,0.6c0.4,0.4,0.9,0.8,1.3,1.3c0.2-0.2,0.5-0.6,0.5-0.6C538.6,344,538.1,343.6,537.6,343.2z"/>
<path class="st0" d="M429.7,344.4c0.1-0.1,0.1-0.1,0.2-0.2s0.3-0.2,0.4-0.2c0.3-0.2,0.5-0.3,0.8-0.4s0.5-0.1,0.8-0.1
	c0.1,1.4,1,0.6,1.6,0.7c0.3,0.1,0.8,0.1,1,0.3c0.7,0.6,1.2,0.5,1.8-0.1c0.2-0.2,0.6-0.1,1-0.2c0.2-0.5,0.9-1.2-0.1-2
	c-0.1-0.1,0.1-0.7,0.2-0.8c0.5-0.2,1.1-0.3,1.5-0.2c1.2,0.4,2.3,0.9,3.4,1.4c8.5,3.9,14.4,10.3,18.1,18.7c3.1,6.9,4.1,14.3,3.9,21.8
	c0,0.5-0.3,1.1-0.5,1.8c-0.6-0.6-1-1.1-1.6-0.3c0,0.1-0.7-0.4-1.1-0.6c0,0.2,0,0.3,0,0.5c-0.2-0.9-0.2-1.9-0.6-2.8
	c-0.1-0.3-0.8-0.3-1.2-0.4c-0.3,0.5-0.4,0.8-0.6,1.1c-0.3-0.4-0.6-0.8-1-1.3c-0.8,0-1.8,0-2.8-0.1c-1.1-0.1-2.3,0.7-2.7,1.8
	c0-0.4-0.1-0.8-0.2-1.3c-0.4-0.2-1-0.4-1.8-0.7c0,0.4,0,0.8,0,1.1c-0.7-0.1-1.4-0.2-2.1-0.3c0.1-0.7-0.2-1.9,1.5-1.8
	c0.2-0.7,0.3-1.4,0.5-2.1c-0.1,0-0.2-0.1-0.3-0.1c-0.4,0.4-0.9,0.7-1.1,1.2c-0.4,1.2-0.8,1.1-1.6,0.3c-0.2-0.2-0.4-0.4-0.7-0.5
	c-1.2-1.2-2.2-1.4-3.1-0.6c-0.5,0.2-1,0.4-1.5,0.6c-0.4-1.2-1.7-1.3-2.7-0.5c-0.5,0.4-1.4,0.3-2.2,0.4c0.4,0.9,1,1.8,1.3,2.8
	c0.7,2.1,1.2,4.4,1.9,6.5c0.5,1.3,1.3,2.4,2,3.6c0.1,0.1,0.5,0.1,0.8,0.1c0.4,0.1,0.8,0.3,1.2,0.4c0.6,0.2,1.2,0.4,1.8,0.5
	c0.2,0.2,0.4,0.4,0.5,0.6c0.2,0.2,0.3,0.5,0.4,0.8c-0.1,0.1-0.2,0.4-0.3,0.4c-1-0.1-2.1-0.3-3.1-0.4c-0.2,0-0.6,0.4-0.6,0.4
	c0.8,1.3-0.4,1.7-1,2.4c1.2,2.2,1.8,2.1,3.3,1.1c0.8,1.4,3-0.2,3.3,1.8c0.5-0.4,0.8-0.7,1-1h-0.1c0.2-0.3,0.4-0.5,0.4-0.8
	c0.1-0.4,0-0.8,0-1.4c1,0.4,1.7,0.6,2.5,0.9c-0.1,0.3-0.4,0.6-0.3,0.8c0,0.4,0.3,0.8,0.5,1.3c0.6,0.1,1.5,0.3,2.4,0.4
	c0-0.1-0.1-0.3-0.1-0.4c0.5-0.3,1-0.6,1.4-1c0.4-0.3,0.7-0.7,1-1.1c0.5,0.1,1,0.2,1.5,0.3c0,0.4-0.1,0.7-0.1,1.2
	c0.4-0.2,0.6-0.3,1-0.6c-0.2,0.5-0.2,1-0.3,1.1c-1.2,0.4-1.9,1.3-2.4,2.3c-0.1,0.1-0.3,0.1-0.5,0.2c0.1,0.3,0.3,0.6,0.4,1
	c0.2-0.3,0.4-0.6,0.7-1.1c0.2,0.5,0.4,1,0.8,1.7c0.3,0.5,0.8,1.2,1.4,2c0.5-0.6,0.9-1.1,1.2-1.6c0.1,0.1,0.2,0.1,0.4,0.2
	c-0.2,1.1-0.5,2.2-0.7,3.2c-0.7,3.1-1.6,6.1-2.1,9.2c-1,5.6-1.9,11.2-2.8,16.9c-0.7,4.5-1.3,9.1-0.9,13.7c0.5,5,2.2,9.8,4.4,14.3
	c1.4,3,3,5.8,4.6,8.7c0.7,1.2,0.6,1.5-0.7,2.1c-0.7,0.3-1.3,1.2-2.3,0.7c-0.1-0.1-0.7,0.5-0.6,0.6c0.5,1.2-0.7,1.2-1.2,1.6
	s-1.3,0.4-2,0.5h0.1c-0.6,0-1.2,0-1.8,0c-0.7-0.8-1.2-1.9-2.6-1.8c-0.1,0.3,0,0.7-0.2,1c-0.1,0.3-0.5,0.4-0.6,0.6
	c1.2,0.1,2.2,0.3,3.2,0.4c0.7,1.6,0.7,1.6-0.8,2.7c-0.7,0.5-1.4,0.9-2,1.4c-1.1-1.6-2.2-3-3-4.6c-2.5-5-5-9.9-7.3-15
	c-2.8-6.4-4.3-13.1-5.1-20c-1.1-9.6-1.4-19.2-1.8-28.8c-0.2-6.6-0.6-13.3-2.2-19.8c-0.5-1.8-1.1-3.6-1.6-5.3
	c0.4-0.4,0.8-0.8,1.2-1.1h-0.1c0.1,1,0.4,1.6,1.6,1.7c1,0.1,2,0.7,2.9,1.1c0,0.1,0-0.1,0.1-0.2c0.7,0.4,1.4,0.7,2.2,1.2
	c-0.1-1-0.1-1.6-0.2-2.2c-0.1-0.7-0.1-1.4-0.4-1.9c-0.5-1-0.8-2-1-3.1c-0.2-1-0.4-2.2-1.6-2.6l0,0c0.2-0.2,0.4-0.3,0.4-0.5
	c0.1-0.4,0.2-0.8,0.3-1.2c0.1-0.1,0.3-0.2,0.4-0.3c0.9-0.1,1.8-0.2,2.7-0.4c0.2,0,0.4-0.6,0.3-0.9c0-0.2-0.4-0.4-0.7-0.6
	c-0.4-0.2-0.8-0.4-1.2-0.7c0-0.3,0-0.5,0-0.8c-0.1-1.4,1.2-1.7,2-2.4c-0.4-0.3-0.7-0.5-1.2-0.8c0.5-0.2,0.8-0.4,1.3-0.6
	c0-0.9,0.4-1.2,2.2-1.2c-1.1-0.3-0.3-2.8-2.5-1.9c-0.1-0.9-0.2-1.8-0.4-2.8c0.4,0.3,0.9,0.7,1.5,1.1c-0.1-0.8-0.2-1.3-0.3-1.9
	c0.1,0,0.3-0.1,0.9-0.3c-1.2-0.3-2-0.4-2.3,0.7c-0.6,0.3-1.1,0.7-1.7,0.8c-0.9,0.1-1.9,0.1-2.8-0.1c-0.4-0.1-0.6-0.8-0.8-1.2
	c-0.2-0.4-0.2-0.9-0.2-1.3c0-0.2,0.4-0.5,0.6-0.6c0.5-0.3,1.4-0.3,0.8-1.3c0.1,0,0.2,0.1,0.3,0.1c0-0.1,0-0.1,0-0.2
	c-0.1,0-0.2,0-0.3,0c0.9-0.6,1.8-1.2,2.7-1.8c-0.5-2.3-0.7-2.6-2.5-2.5c0.4-2-1.4-1.4-2.3-2c-0.9,1.6-0.7,2.7,0.8,3.2
	c-0.4,0.9-0.8,1.7-1,2.5c-0.1,0.6,0,1.3,0.1,2c-0.2,0.5-0.4,1.2-0.7,1.8c-0.3,0.9-0.5,1.9-1.1,2.7c-0.4,0.5-1.2,0.3-1.4-0.5
	c-0.5-0.4-0.9-0.8-1.4-1.2c-0.4,0.2-0.7,0.3-1.1,0.4c-0.3,0-0.7,0.1-1,0.1c-0.2-0.1-0.4-0.3-0.5-0.3c-0.8,0.2-1.4,0.1-1.9-0.5
	c0-0.1,0-0.2-0.1-0.2c0-0.6,0.1-1.1,0.1-1.7c-0.4,0-0.8,0-1.2,0c0-0.1,0-0.2,0-0.3c0.3,0,0.6-0.1,0.9-0.1c0.3-1.5-1.1-0.8-1.8-1.3
	c0.1-0.4,0.4-0.8,0.4-1.2c0.1-1.3,0-2.6-1.1-3.7c-0.4-0.3-0.4-1-0.6-1.6c-0.2,0.2-0.4,0.3-0.6,0.4c-0.1-0.1-0.1-0.2-0.2-0.2
	c0.4-0.3,0.9-0.7,1.3-1c0-0.3,0-0.7-0.2-1.1c-0.1-0.3-0.3-0.7-0.5-0.8c-1.3-0.1-1.8-1.2-2.6-1.9l0,0c0-0.2,0-0.3-0.1-0.5l0,0
	c0.4-0.4,0.8-0.8,1.2-1.2c0.6,0.4,1.2,0.2,1.5-0.6c0.3-0.7,1.8-2,2.5-2c0.8,0,1.7,0.2,2.4-0.1c1.1-0.4,1.9,0.2,2.9,0.4
	c0.1,0,0.2,0.2,0.3,0.2c0.1-0.2,0.2-0.3,0.3-0.5C429.5,344.7,429.6,344.6,429.7,344.4z M449.8,452.9L449.8,452.9
	c0.1-0.3,0.1-0.6,0.2-0.9c-0.3-0.1-0.5-0.3-0.7-0.3c-0.3,0-0.8-0.1-1,0.1c-0.3,0.3-0.4,0.8-0.4,1.2c0,0.1,0.6,0.3,0.9,0.4
	c0.5,0.2,1,0.3,1.6,0.5c0.1,0,0.1-0.1,0.2-0.1C450.3,453.5,450.1,453.2,449.8,452.9z M457.4,467.6c0-0.1,0-0.2,0.1-0.3
	c-1.3-0.6-2.5-1.3-3.8-1.9c-0.4-0.2-0.8-0.1-1.3-0.1c0.2,0.5,0.4,1,0.6,1.4c0.3,0.5,1,1,1,1.5c0,0.8-0.6,1-1.4,0.9
	c-0.2,0-0.5,0.3-0.6,0.5c-0.1,0.1,0.2,0.4,0.3,0.7c0.1,0.2,0.2,0.4,0.3,0.5c-0.3,0.1-0.5,0.1-0.6,0.2c0.5,2.1,2.6,0.9,3.7,1.8
	c0.3-0.1,0.6-0.2,0.8-0.1c0.4,0.1,0.8,0.4,1.1,0.6c0-0.1,0.1-0.1,0.1-0.2c-0.5-0.7-1-1.5-1.7-2.5c1-0.1,1.8-0.1,2.5-0.2
	c0.1-0.8,0.2-1.4,0.1-2c0-0.3-0.3-0.5-0.5-0.8c0.1-0.1,0.2-0.2,0.3-0.4C458.1,467.4,457.8,467.5,457.4,467.6z M424.2,344.9
	c0.3,1.2,0.4,2.1,1.3,2.9c1.1,1.1,2.1,0.3,3.4,0.5c-0.7-0.7-1.3-1.3-1.9-1.9c-0.1,0-0.1,0.1-0.2,0.1c0.1,0.2,0.2,0.4,0.4,0.8
	c-0.6-0.2-1.1-0.4-1.6-0.6c0.2-0.3,0.3-0.5,0.5-0.7C424.8,346.8,425,345.4,424.2,344.9z M434.8,351.4c0.1,0.1,0.1,0.1,0.2,0.2
	c0.4-0.3,0.9-0.7,1.6-1.2c-0.4-0.5-0.9-0.9-1.4-1.4c-0.2,0.1-0.3,0.2-0.5,0.2c0.1,0.6,0.3,1.1,0.5,1.9
	C435.2,351,435,351.2,434.8,351.4z M459.9,468.9c-0.3,0.1-0.6,0.3-0.9,0.4c0.2,0.5,0.3,1,0.5,1.6c0.4-0.4,0.7-0.6,0.9-0.9
	C460.2,469.6,460,469.3,459.9,468.9z M457.2,405.5c-0.3-1-0.4-2-1.6-1.3c0.3,0.5,0.5,0.9,0.9,1.5
	C456.5,405.7,456.8,405.6,457.2,405.5z"/>
<path class="st0" d="M485.1,557.6c-0.2-0.3-0.4-0.6-0.7-1c0.8-0.1,1.4-1.2,2-0.1c0.3-0.4,0.6-1,1-1.3c2-1.1,4.2-2,6.2-3.2
	c5.5-3.4,11.1-6.7,16.4-10.5c9.3-6.6,17.4-14.6,24.6-23.4c5.3-6.4,9.8-13.4,13.8-20.7c4.9-8.9,8.6-18.3,11.4-28.1
	c2-7.1,3.3-14.3,4.1-21.7c0.8-6.7,0.9-13.5,0.8-20.3c0-1.4,0-2.8-0.3-4.2c-0.3-1.3,0.4-2,1.2-2.7c0.7,0.5,1.4,1,2.2,1.5
	c0.3-1,0.8-0.6,1.3,0c1.4-1.4,1.4-1.9,0.4-2.5c0.1-1.7-1.6-2.5-4.5-2.1c0.1,0.2,0.1,0.4,0.2,0.7c-1.3,0-1.2-0.8-1.3-1.8
	c-0.6-4.1-1.5-8.2-2.3-12.4c-0.4-2-0.8-4-1.3-6c-0.3-1.1-0.7-2.1-1-3.2c1.1,1.3,2.1,2.9,4.4,2.1c0.1,0.2,0.3,0.7,0.6,0.9
	c0.3,0.3,0.7,0.5,1.1,0.5c1.4,0.1,2.9,0.1,4.4,0.1c0-0.1,0.1-0.4,0.1-0.7c0.2,0,0.3,0,0.3,0c0.6,1,1.4,0.5,2.2,0.3
	c0.5-0.1,1.1-0.3,1.6-0.5c0.2,0.8,0.3,1.4,0.4,2.1c-0.5,0.3-1.1,0.6-1.7,1c-0.5-0.8-1.1-0.8-2.3,0.1c-1.1-0.9-1.5,0.2-2,0.8
	c-0.1-0.3-0.3-0.6-0.4-1c-0.5,0.3-1,0.5-1.6,0.8c1.1,1.2,1.1,1.2,1.8,0.1c0,0,0.2,0,0.2-0.1c0.3,0.3,0.5,0.5,0.8,0.8
	c0.3-0.3,0.6-0.5,0.9-0.7c0.2,0.3,0.3,0.7,0.6,1.1c-0.3,0.3-0.6,0.5-0.9,0.8c1.4-0.4,2.2,0.2,2.8,1.4c0.4,0.9,1.2,0.9,2,0.7
	c0.3-0.1,0.6-0.2,1.1-0.4c0.3,1.7,0.6,3.3,0.9,5c-0.6,0-1.1,0.1-1.6,0.1c-0.1,1,0.6,1.6,1.8,1.2c0.1,0.4,0.1,0.8,0.2,1.3
	c-1.2,0.6-2.3,0.5-3.4-0.1c-0.8-0.4-1.6-1.2-2.5-1.3c-1.3-0.3-2.6-0.2-4-0.2c-0.3,0-0.7,0.5-0.8,0.8c-0.2,0.6,0.2,0.6,0.7,0.6
	c0.1,0,0.3,0.3,0.4,0.5c0.6-0.2,1-1.8,1.9-0.2c-0.8,0.6-1.6,1.1-2.7,1.8c1.2,0.5,2,0.9,2.9,1.1c0.3,0.1,0.7-0.5,1.1-0.8
	c1,1.2,2.5,1.1,3.8,1.2c0.5,0.7,0.9,1.4,1.4,2.1c0.3-0.4,0.5-0.6,0.7-0.8c0.4,0.5,0.8,1,1.1,1.5c0,0-0.3,0.3-0.4,0.5
	c-0.9,0.5-1.6,0.7-2.4-0.3c-0.5-0.6-1.3-1-2.1-1.5c0,0.3-0.1,0.7,0,0.8c1.3,1.1,0.4,2.8,1.2,4.1c0,0.1-0.6,0.5-1.1,0.9
	c0.3,0.2,0.7,0.4,1.1,0.7v-0.1c-0.1,0.2-0.3,0.4-0.3,0.4c0.5,0.7,0.1,1-0.4,1.5c-0.2,0.2-0.5,0.9-0.4,0.9c0.7,0.5,0.7,1.5,1.6,1.9
	c0.3,0.2,0.5,0.7,0.7,1c0.9,0.3,1.8,0.5,2.6,0.9c0.3,0.1,0.5,0.8,0.4,1.2c-0.4,1.7,0.1,3.4,0,5.1c-0.1,1.1-0.1,2.2-0.3,3.3
	c0,0.3-0.6,0.4-1,0.5c-0.3,0.6,0.3,1.6-1,1.9c-0.1,0,0,0.6,0.1,1.1c-0.3-0.3-0.5-0.6-1-1c-0.3,0.6-0.7,1.2-0.6,1.6
	c0.1,0.5,0.6,0.9,1,1.3c-1.3,1.1-1.4,1.3-0.4,2.8c0.5,0.8,1,1.5,1.5,2.3c0.1,0.2,0.1,0.4,0.1,0.6c0,1.7,0,3.3-1.1,4.8
	c-0.2,0.2,0.1,0.7,0.2,1.3c-0.5-0.5-1-0.9-1.5-1.4c-0.1,0.1-0.2,0.2-0.2,0.2c0.5,0.6,1,1.2,1.4,1.7c0.1-0.1,0.3-0.1,0.4-0.2
	c-0.2,0.6-0.4,1.2-0.7,1.8h-0.3c0,0.7,0.1,1.3-0.1,1.9c-0.5,1.4-1.6,1-2.4,0.7c-0.4,0.9-0.7,1.8-1.1,2.6c0.2,0,0.6-0.1,0.8,0.1
	s0.3,0.7,0.4,1.1c0.4-0.1,1-0.3,1.9-0.7c-1.6,5.2-2.8,10.5-4.7,15.4c-1.3,3.3-2.1,6.7-3.7,9.9c-1.6,3.3-3.1,6.6-4.7,9.9
	c-1.2,2.3-2.5,4.6-3.9,7.1c-0.2-0.8-1.6,0-1.1-1.4c-0.4,0-0.8,0-1.3,0c0.8,1.2-2.1,1.1-1,2.3c-0.5,0.9-0.8,1.8-1.3,2.6
	c-0.5,0.7-1.5,1-1.3,2.1c0.1,0.5,0.1,1,0.2,1.6c-0.4,0.2-0.9,0.3-1.5,0.5c-1-2.3,0.1-3.9,2.2-5.4c-0.6,0-0.7,0-0.8,0
	c-0.1-0.6-0.1-1.2-0.2-2c-2.4,1.8-3,3.9-2.5,5.6c-1.2,0.3-1,1.5-1,2.3c0.1,1.3-0.7,1.9-1.6,2.6c-0.5,0.4-0.8,0.9-1.2,1.3
	c-0.2,0.3-0.5,0.5-0.8,0.8c-0.2,0.2-0.5,0.3-0.5,0.5c-0.1,1.2-0.4,2.3-0.3,3.5c0.1,0.9-0.4,1.2-1,1.5c-0.1,0-0.4-0.3-0.5-0.4
	c-0.1-0.2-0.2-0.4-0.2-0.6c-0.1,0-0.2,0.1-0.4,0.1c0.1,0.4,0,0.8,0.2,1.1c0.6,1.1,0.4,1.6-0.9,2c-0.1,0-0.3,0.5-0.2,0.6
	c0.6,0.8,0.4,1.4-0.2,2.1c-2.4,2.5-4.7,5-7.2,7.4c-2.9,2.8-5.9,5.5-9,8c-0.7,0.6-1.4,1.8-2.8,1.4c-0.2,0-0.4,0.6-0.8,0.7
	c-1.5,0.7-3,1.4-4.5,2.1c-0.6,0.3-1.3,0.4-0.9,1.4c0.1,0.3-0.1,0.8-0.2,1.2c-0.5,1-1.2,0.3-1.7,0c-0.8-0.5-1.1-0.5-1,0.6
	c0.1,1.5-1.2,2.2-2.2,2.9c-1.1,0.8-2.3,1.5-3.5,2.2c-0.3,0.2-0.7,0.1-1.2,0.1c0,0.1-0.1,0.7-0.3,0.8c-3.8,2.1-7.6,4.2-11.8,6.5
	c-0.1-1.1-0.1-1.8-0.2-2.6c-0.2,0-0.4,0-0.7,0c0.2-0.3,0.3-0.6,0.5-1c-0.2-1-1.2-0.3-1.3-0.2c-0.4,1-1,0.9-1.9,0.3
	c0.4,0.9,0.7,1.4,0.9,1.9c-0.9-0.2-1.6-0.9-1.5,0.9c-0.5-0.4-0.8-0.7-1.1-0.9c0.5-0.4,0.8-0.8,1-1c0.1-0.6,0.3-1.1,0.3-1.6
	c0-0.3-0.1-0.6-0.2-0.9c-0.1-0.1-0.5-0.1-0.7,0s-0.1,0.5-0.2,0.7c-0.3,0.4-0.7,0.8-1,1.1c-0.1,0.1-0.3,0.2-0.4,0.4l0,0
	c-0.1-0.6-0.1-1.2-0.2-1.8c-0.2-0.7,0.4-1.6-0.7-2C486.3,558.7,486.3,558.6,485.1,557.6z M569.1,443c-0.7,1.5-0.6,1.9,0.5,2.4
	c0.8,0.3,1.6,0.6,2.7,1.1c-0.4-0.4-0.6-0.6-0.8-0.8c-0.5-0.4-0.9-0.9-1.4-1.3C569.7,443.9,569.4,443.4,569.1,443
	c0.5,0,1.1-0.1,1.9-0.1c-0.5-0.7-0.9-1.3-1.3-1.9c-0.1,0-0.2,0.1-0.2,0.1c0,0.4,0.1,0.8,0.1,1.5c-0.6-0.8-0.9-1.2-1.3-1.7l-0.1,0.1
	C568.5,441.7,568.8,442.4,569.1,443z M491.7,559.2c0-0.1,0-0.1-0.1-0.2c-0.2,0.2-0.7,0.6-0.6,0.7c0.3,0.6,0.7,1.6,1.2,1.8
	c1.3,0.5,1.5,1.2,1.1,2.5c0.4,0,0.8,0.1,1.1,0.1c0.5-1,1-2,1.4-2.9c-0.4-0.6-0.8-1.2-1.1-1.7c-0.2,0.3-0.4,0.8-0.8,1.4
	c-0.5-0.6-0.8-1.1-1.2-1.5c-0.3,0.4-0.6,0.7-0.8,1c-0.3-0.1-0.5-0.2-0.8-0.3C491.4,559.8,491.6,559.5,491.7,559.2z M569.7,448.8
	c-0.5,0.3-1.4,0.6-1.4,0.8c0.1,1,0.4,2,0.7,3.2C570.8,451.5,570.2,450.2,569.7,448.8z M571.9,451.4c1,0.2,1.9,0.2,2.5,1.1
	c0.1,0.2,0.7,0.1,1.2,0.2c-0.4-0.9-0.7-1.5-1-2.2C573.7,450.8,572.8,451.1,571.9,451.4z M536.3,529.9c-0.6,0.2-1.2,0.2-1.7,0.5
	c-0.2,0.1-0.3,0.6-0.5,0.9c0.3,0,0.6,0.2,0.9,0.1C535.8,531.2,536.4,530.9,536.3,529.9z M567.6,448.1c0.1,0,0.3,0.1,0.4,0.1
	c0.1-0.4,0.3-1,0.3-1c-1-0.5-1.4-1.4-1.5-2.4c0,0-0.2-0.1-0.7-0.2C566.7,445.9,567.1,447,567.6,448.1z M571.1,420.8
	c0.5,0.7,0.3,1.9,1.4,1.9c-0.1-0.9-0.2-1.7-0.4-2.6C571.8,420.4,571.5,420.5,571.1,420.8z"/>
<path class="st0" d="M352,390c-0.4-0.5-0.8-1.1-1.2-1.6c-0.2,0-0.4,0.1-0.5,0.1c0.7-1.5,1.4-3.1,2.2-4.8c0.2,0.3,0.4,0.4,0.5,0.6
	c-0.6-1.5,0.3-2.7,0.9-3.8c1.1-2.1,2.5-4.1,3.9-6.1c0.3-0.4,1-0.6,1.5-0.6c0.3,0,0.7,0.6,0.9,0.9c0.2,0.5,0,1.2,0.8,0.4
	c0,0,0.4,0.3,0.6,0.3s0.5-0.1,0.7-0.2c-0.1-0.2-0.2-0.4-0.4-0.6c-0.5-0.4-1-0.8-0.5-1.5c1.5,0.4,1.5-1.6,2.7-1.7
	c0.3,0.7,0.6,1.4,0.9,2.1c-0.2-1.3,1-1.3,1.5-1.8c0.2-0.2,0.3-0.6,0.5-0.9c0.1,0.1,0.5,0.4,0.8,0.7c0-0.4,0.1-0.7,0.1-1
	c0.1-0.1,0.2-0.2,0.2-0.3c1.1,0.1,1.4-0.9,2-1.5c0.3-0.3,0.5-0.6,0.8-0.9c-0.2,0.5-0.4,1-0.6,1.5c1.4,1.3,1.5,1.3,2.6-0.4
	c-0.4-0.4-0.9-0.8-1.4-1.2c0.9-0.3,2-0.3,2.3-1.5c0-0.1,0.2-0.2,0.3-0.2c1.2-0.2,2.3-0.4,3.2-0.5c0.5,0.8,1,1.4,1.3,2.1
	c0.2,0.5,0.3,1.2,0.3,1.8c0,0.5-0.2,1-0.2,1.5c-0.1,0.5-0.1,1.1-0.4,1.5c-0.4,0.6-1,1.1-1.6,1.5c-2.8,2.3-4.8,5.2-6.6,8.3
	c-0.5,0.9-0.8,1.8-1.1,2.8c-0.4,1.5-0.8,3-0.9,4.4s-0.1,3.1,0.6,4.2c0.7,1.3,2.1,2.3,3.4,3.1c2.7,1.5,5.7,2.8,8.4,4.2
	c2.2,1.2,4.5,2.3,6.4,3.8c4.3,3.4,5.5,8,4.2,13.2c-1.5,6.3-5.6,10.4-11.5,12.6c-8.1,3-15.6,1.7-22.2-3.8c-3.5-3-6.2-6.7-7.8-11
	c-1.4-3.6-2.5-7.4-2.2-11.3c0.2-3.2,0.6-6.5,1-9.7c0-0.4,0.4-0.7,0.9-0.9c0.2-0.5,0.3-1,0.5-1.5c0.8-0.6,1.6-1.2,2.5-1.8
	c1.3,0.4,2.1-0.9,3.3-0.8c-0.9-0.6-1.7-0.8-2.6-0.1C352.8,389.9,352.4,389.9,352,390C352,389.9,352,390,352,390z"/>
<path class="st0" d="M401.7,572.7c0.3,0.3,0.5,0.6,0.9,0.9c0-0.1,0.1-0.2,0.2-0.3c0-0.1,0-0.2,0-0.1c0.5-0.2,1-0.3,1.6-0.5
	c-0.4-0.2-0.7-0.4-0.9-0.5c0.8-0.6,1.6-1.1,2.4-1.6c0.4,0.4,0.8,0.9,1.1,1.2c0.3-0.3,0.5-0.6,0.7-0.7c0.2-0.1,0.7,0.2,0.8,0.4
	c0.4,1.3,1,2.5,2.3,3.2c0.1,0,0.1,0.2,0.2,0.6c-0.7,0-1.2,0.1-1.9,0.1c0.5,0.6,1,1.4,0.2,2.1c-0.3,0.3-0.8,0.2-1.3,0.3
	c0.3,0.9,1.4,1.2,2.3,0.6c0.2-0.1,0.7,0.1,0.9,0.2c0.2,0.2,0.3,0.6,0.4,0.9c-7.9-0.9-15.8-2.5-23.5-4.8c-12-3.5-23.4-8.2-34-14.7
	c-4.5-2.7-8.7-5.7-13.1-8.6c-0.3-0.2-0.6-0.6-0.8-0.9c-0.7-1.1-1.3-2.2-2-3.2c-0.3-0.4-0.5-1-1.3-0.6c-0.1,0.1-0.5-0.2-0.6-0.3
	c-0.7-1.3-1.4-2.7-2.1-4c-0.4-0.6-0.9-1.1-1.4-1.6c0.1-0.1,0.3-0.2,0.4-0.4c0.3,0.3,0.6,0.7,0.9,1.2c-0.7-1.1-1.2-2-1.8-3
	c0.9-0.8,0.3-2.5-1.1-3.1c-0.3,0.1-0.5,0.1-0.8,0.2c-0.4-0.2-0.7-0.4-1.1-0.5c-0.8-0.2-1.4-0.3-0.7-1.4c0.2-0.3-0.4-1.2-0.6-1.8
	c-0.3-0.6-0.5-1.2-0.9-1.7c-0.4-0.4-0.9-0.7-1.6-1.2c-0.1,0.4-0.1,0.7-0.2,1c0,0.2,0,0.5-0.1,0.7c-0.2-0.1-0.4-0.2-0.6-0.2
	c-0.9-0.1-1.8-0.1-2.7-0.1c-0.1,0-0.2,0.6-0.1,0.8c0.6,1,1.3,2,2,3.1c1.1-0.9,1.4,0,1.7,0.7c0.4,1-0.2,1.6-1,2.5
	c-1.1-1.5-2-3-3.1-4.3c-0.5-0.7-1.3-1.1-2-1.7c-0.8-0.8-1.7-1.6-2.4-2.5c-0.2-0.3-0.1-0.9-0.1-1.2c-0.3-0.1-0.8-0.1-1-0.3
	c-0.9-1.3-1.7-2.6-2.4-3.7c0.7-0.3,1.4-0.4,1.7-0.8c0.9-1,1.8-0.3,2.8-0.3c0.1,0,0.4,0.4,0.3,0.5c-1.1,2.7,1.1,4.2,2.1,6
	c0.1,0.2,0.2,0.4,0.2,0.6c0.9,0,1.7,0,2.5-0.1c0.3,0,0.5-0.4,0.8-0.6c-0.3-0.4-0.5-1-0.9-1c-0.6-0.1-1.2,0.1-1.7,0.2
	c-0.7-1.1-1.5-2.2-2.5-3.7c0.6,0.3,0.9,0.5,1.2,0.6c0.1,0,0.2-0.1,0.2-0.1c0.4-0.7-0.6-3.5-1.3-3.8c-0.2-0.1-0.3-0.3-0.4-0.5
	c-0.3-0.7-0.9-1.1-1.6-1c-0.1-0.4-0.1-0.9-0.4-1.2c-0.9-1.2-1.5-2.6-3-3.3c-0.4-0.2-0.5-1.1-0.8-1.6c-0.3-0.4-0.7-0.6-1.1-0.9
	c-0.1-0.1-0.3-0.1-0.3-0.2c-0.4-1.5-1.3-2.5-2.4-3.5c-0.1-0.1-0.1-0.2-0.1-0.3c1.2-0.6,1.2-0.4,1.9,0.6c0.9,1.2,2.2,2.2,3.3,3.3
	c0.3,0.3,0.6,0.7,0.9,1c0.8,1.1,1.5,2.2,2.3,3.3c0.2-0.1,0.2-0.1,0.2-0.1c0-0.2,0-0.4,0-0.7c0.2,0,0.4,0,0.5,0.1
	c0.2,0.1,0.2,0.3,0.4,0.5c0.1-0.1,0.2-0.1,0.3-0.2c-0.2-0.3-0.3-0.5-0.5-0.8s-0.5-0.5-0.6-0.6c0.2-0.7,0.4-1.2,0.6-1.7
	c0.7,1,1.6,2.1,2.4,3.2c0.8-0.3,2.5,0.2,3.2,1.1c5,6.4,10.6,12.2,16.7,17.5c7.7,6.7,16,12.4,25,17.2c1.9,1,3.8,2.1,5.8,3
	c4,1.8,8.1,3.4,12.2,5c1.5,0.6,3.1,1.1,4.7,1.7c-0.3,0.9-0.6,0.8-1.4-0.1c-0.1,0.5-0.2,1.1-0.4,1.7l0,0c-0.8-0.2-1.6-0.4-2.5-0.5
	c-0.3-0.1-0.6,0-1,0.1c0.1,0.3,0.1,0.7,0.2,1c0.3,0.7,0.8,1.4,1.1,2c-1.2,1-1.1,2.3,0.1,2.9c1,0.5,2,0.8,3,0.9
	c-0.5-0.6-1.1-1.2-1.4-1.6c0.6-0.8,1.1-1.4,1.6-2c0.2,0,0.6,0.1,1.4,0.2c-0.4-0.7-0.5-1-0.7-1.3c0.6-0.9,2.5-0.7,2.1-2.6
	c0.4,0.6,0.8,1.1,1.2,1.7c0.2-0.2,0.4-0.4,0.7-0.6c0.3,0.2,0.6,0.4,1,0.8c0-0.4,0-0.7,0-1c1.8,0.4,3.5,0.8,5.3,1.3
	c0.6,0.2,1.2,0.6,1.8,0.9c0.1,0,0.2,0,0.3,0c0.5,0,1,0,1.7,0.1c0,0.4,0.1,1.1-0.2,1.4c-0.3,0.4-1,0.5-1.5,0.8
	c-0.1-0.1-0.3-0.1-0.4-0.2c0.1,1.1,0.3,2.1,0.4,3.2c0,0.3-0.1,0.7-0.2,1c-0.3-0.8-0.6-1.6-1-2.7c-0.5,0.2-1.2,0.5-1.9,0.8
	c-0.1-0.1-0.3-0.5-0.4-0.6c-0.1,0.5-0.1,1.3-0.5,1.5c-1,0.6-2.1,1-3.3,1.5c0.5,1.4,2.1,1.2,3.1,1.9c0.4,0.3,1.3-0.1,1.9-0.2
	c0.4,0.2,1,0.2,1.4,0.4c0.9,0.4,0.4-0.7,0.9-0.8C402,574,402,573.4,401.7,572.7z M327.3,526.4c0.1,0,0.1-0.1,0.2-0.1
	c-0.4-1.3-0.8-2.6-1.3-3.9c-0.3-1-0.4-2.2-1.8-2.3c-0.3,0-0.6,0-1,0c0,0.3,0,0.7,0.2,1c0.2,0.4,0.6,0.6,0.8,0.9
	C325.4,523.4,326.3,524.9,327.3,526.4z M321.6,520.8c0.4-1.6-0.2-3-2.7-3.2C319.8,518.8,320.6,519.7,321.6,520.8z M394.8,570.2
	c0.2-0.2,0.7-0.8,0.7-0.8c-0.5-0.6-0.7-1.7-1.9-1.3C393.9,568.7,394.3,569.3,394.8,570.2z M321.4,517.7c0.7,0.8,1.1,1.4,1.8,2.1
	C323.5,518.3,323.1,517.6,321.4,517.7z M323.2,525.9c-0.4-0.3-0.8-0.8-1.3-1.2c-0.1,0.1-0.3,0.1-0.4,0.2c0.1,0.6,0.3,1.1,0.4,1.7
	C322.5,526.3,322.8,526.1,323.2,525.9z M317.3,526.5c-0.5-1.1-0.8-2-1.1-2.8C315.2,524.4,315.2,524.4,317.3,526.5z"/>
<path class="st0" d="M475.7,496.3c-0.3-0.3-0.6-0.6-0.7-0.8c-0.5,0.1-1,0.1-1.4,0.4c-0.5,0.4-1.3,1-1.3,1.6
	c-0.1,1.2-1.5,2.1-0.7,3.4c0.1,0.1,0.1,0.3,0.1,0.5c0.2-0.1,0.3-0.2,0.5-0.3c0.5-0.4,0.9-0.9,1.5-1c0.4-0.1,0.9,0.3,1.3,0.4
	c-0.4,1.5-0.4,1.5,1.6,2.3c-0.1,0.6-0.2,1.1-0.3,2c-0.6-0.9-1-1.5-1.5-2.2c-0.1,0-0.2,0.1-0.2,0.1c0,0.3,0,0.5,0,0.8
	c-0.3-0.1-0.6-0.2-1.3-0.4c0.6,0.9,1,1.6,1.5,2.2s1,1,1.6,1.6c-1.4,0.8-3.7,0.8-4.5,2.9c2.1,0,1,1.4,1.1,2.3c0.3,0.1,0.6,0.2,1,0.3
	c-0.4,0.3-0.6,0.4-0.9,0.6c-0.2-0.3-0.3-0.6-0.4-0.9c-0.5,0.1-0.9,0.2-1.5,0.3c0.7,1.1,1.5,2.2,2.2,3.3c-0.1,0.1-0.2,0.2-0.2,0.3
	c-0.4-0.2-0.8-0.3-1.1-0.4c-0.4,0.2-0.8,0.4-1.1,0.4c-4.5-0.1-8.6-1.1-12.1-4.3c-0.6-0.5-1.1-0.9-0.9-1.9c0.1-0.3-0.4-0.9-0.7-1.1
	c-1.3-0.6-1.3-0.5-0.9-1.8c0-0.2-0.1-0.4-0.2-0.6c-0.9-1.3-2.2-2.6-2.1-4.1c0.1-1.4-0.7-2.7,0.1-4.2c0.8-1.6,0.8-3.5,1.2-5.3
	c0.1-0.4,0.4-0.8,0.7-1.4c0.7,0.9,1.2,1.6,1.7,2.3c-0.5,0.3-0.9,0.6-1.5,1c0.7,0.2,1.2,0.3,1.8,0.4c0-0.2,0.1-0.5,0.1-1.1
	c0.3,0.4,0.5,0.7,0.5,0.8c-0.6,0.6-0.1,0.9,0.5,1.3c-1.2,0.9-2.7,1.5-1.8,3.3c-0.4,0.3-0.9,0.6-1.4,1c0.6,1.2,1,1.2,2.7,0.6
	c0.7-0.3,1.6-0.2,2.3-0.3c0.4-0.4,0.9-0.9,1.4-1.4l0,0c0.3,0.3,0.6,0.6,0.8,0.8c0.8-0.9,2-1.9,0.6-3.6c0,0.4,0.1,0.6,0.1,0.9
	c-0.7-0.7-1.4-1.2-1.1-2.3c0.1-0.2-0.5-0.7-1-1s0.4-1.4-1.1-1.4c0.9-0.9,1.9-1.8,2.7-2.9c0.5-0.7,1-1.7,0.9-2.5
	c-0.1-0.9-1.2-0.8-2-0.8c-0.8-0.1-1.5-0.3-2.3-0.4c0-0.1-0.1-0.3-0.1-0.4c0.8-0.8,1.6-1.5,2.5-2.2c3.2-2.6,6.7-4.6,10.7-5.4
	c4.5-0.9,8.9-1,13.2,1c2.9,1.3,5.2,3.2,6.5,6.2c-0.8,0.8-1.5,1.7-2.3,2.5c0.7,0.1,1.3,0.2,1.8,0.3c0,0.1,0,0.2,0,0.3
	c-0.5,0.1-1,0.2-1.5,0.3c0.4,2,2.7,1.8,3.5,3.2c-0.4,0.3-0.7,0.5-1.2,0.8c0.5,0.1,1,0.2,1.3,0.4c0.3,0.3,0.5,0.7,0.8,1.1
	c-0.5,0.2-1,0.7-1.5,0.6c-0.7-0.1-1.3-0.5-2.4-0.9c0.4,0.4,0.6,0.7,0.8,0.8c1.1,0.6,1.8,1.4,2.2,2.5c0.3,0.8-0.4,3.4-1,4
	c-0.2,0.2-0.4,0.5-0.6,0.7c-0.5-0.3-1.1-0.7-1.7-1c-0.3,0.9-0.5,1.7-0.8,2.6c0.6,0.1,1.2,0.1,1.8,0.1c0.4,1.3-2.5,0.5-1.5,2.3
	c-0.3-0.2-0.6-0.4-0.8-0.6c0.5,1.2,0,1.9-1.1,2.5c-1-1.5-2.2-2-3.5-0.2c-0.5-0.8-1-1.5-1.5-2.2c1.5-0.4,3.1-0.9,4.7-1.4
	c-0.3-0.4-0.5-1.1-0.9-1.2c-0.5-0.2-1.1,0.1-1.8,0.2c-0.1,0.2-0.2,0.7-0.3,1.1c-1.5-1.2-1.5-1.4,0-2.9c0.7-0.7,0.7-0.7,0-1.5
	c-0.3-0.3-0.3-0.9-0.4-1.3c-0.9,0.4-1.2,1.2-1,2.4c0.3,1.3-0.9,3.1-2.2,3.2c-0.4,0-0.7-0.2-1.1-0.4c-0.2,0.3-0.6,0.7-1.1,1.4
	c0-0.9,0-1.4,0-1.8c-0.4-0.1-0.7-0.2-1.3-0.5c0.6-0.3,1-0.4,1.5-0.6c-0.4-0.8-0.7-1.6-1.2-2.7c-0.2,1.2-0.3,2-0.5,2.7
	c-0.1,0-0.2,0-0.3-0.1c-0.8-1.2-1.6-2.3-2.2-3.2C475.6,497.8,475.6,497.1,475.7,496.3c0.2,0.9,0.2,1.9,1.7,1.2c0.9-0.4,2-0.2,3-0.5
	c0.8-0.3,2,0.1,2.4-1.1c-0.9,0.1-1.9,0.3-2.3-0.9c0.9-0.9,0.8-0.8-0.1-1.5c-0.2-0.2-0.3-0.5-0.5-0.8c0.5-0.2,0.5-0.7,0-0.6
	c-0.5,0-1.1,0.5-1.5,0.8c-0.4,0.4-0.7,0.9-1.2,1.2c-0.1,0.1-0.7-0.5-0.9-0.8c-0.1-0.3,0-0.7,0-1.1c-1.5,0.5-1.9,1.9-1,2.9
	C475.6,495.4,475.6,495.9,475.7,496.3z M483,500.7c-0.2-1.7-1.6-2.1-2.8-2.9c-0.3,1-0.6,1.8-0.8,2.7c-0.1,0.3-0.1,1,0.8,0.8
	c0.8-0.2,1.8,0,2.8,0c-0.4-0.6-0.7-1.2-1.1-1.8c0.1,0,0.1-0.1,0.2-0.1C482.4,499.9,482.7,500.3,483,500.7z M474.8,489.1
	c0-0.1,0.1-0.2,0.1-0.3c-0.7-0.7-1.5-1.5-2.2-2.2c0.6-0.5,1-0.9,1.4-1.2c-0.2-0.2-0.3-0.3-0.5-0.5c-0.6,0.7-1.4,1.4-1.6,2.2
	c-0.1,0.5,0.7,1.3,1.3,1.7C473.7,489.2,474.3,489.1,474.8,489.1z M473.2,504.9c0-0.8,0.5-1.9-0.9-1.9c-0.3,0-0.9,0.5-0.9,0.7
	C471.4,505,472.5,504.6,473.2,504.9z M475.6,489.1c0.5-0.2,1.2-0.3,1.5-0.7c0.6-0.6,1-1.5,0.6-2.3c-0.6,0.1-1.1,0.1-1.5,0.2
	C477.3,487,477.3,487,475.6,489.1z M473.2,495c-0.4-0.3-0.7-0.5-1.1-0.8c-0.4,0.9-0.8,1.7-1.2,2.6c0.3,0,0.6,0.1,0.9,0.2
	C472.3,496.3,472.7,495.7,473.2,495z M461.9,504c0.9-0.6,1.8-1.2,2.6-1.7c0.1-0.1,0.1-0.4,0-0.4c-0.1-0.1-0.4-0.1-0.5-0.1
	c-0.7,0.2-1.4,0.5-1.9,0.7C462,502.9,462,503.4,461.9,504z M468.4,507.3c-0.6,0-1.1-0.1-1.1,0c-0.3,0.4-0.4,1-0.6,1.5
	c0.5,0,1.1,0.2,1.5,0C468.3,508.6,468.3,507.9,468.4,507.3z M474.1,491.8c-0.7,0.5-1.1,0.8-1.6,1c0.5,0.4,0.9,0.7,1.4,1
	C474,493.2,474,492.7,474.1,491.8z M472.2,490.7c0.1,0,0.3-0.1,0.4-0.1c0-0.5-0.1-1.1-0.1-1.8c-0.6,0.4-0.8,0.5-1.1,0.7
	C471.7,490,472,490.4,472.2,490.7z"/>
<path class="st0" d="M496.1,512.7c0.6-0.6,1.1-1.2,1.7-1.7c6.6-5.9,12.6-12.5,17.6-19.8c5.4-8,9.7-16.5,12.7-25.7
	c4.3-12.9,6.1-26.1,5.3-39.7c-0.6-11-2.9-21.7-7-32c-3.8-9.8-9-18.9-15.6-27.1c-6.4-8-13.7-14.9-22.1-20.8
	c-9.2-6.5-19.3-11.2-30-14.5c-7.9-2.4-16.1-3.7-24.4-4.3c-6.3-0.5-12.6,0-18.9,0.7c-8.5,1-16.8,3.1-24.8,6.3
	c-4.6,1.8-9.1,3.8-13.4,6.3c-6.1,3.5-11.7,7.5-17.1,12c-0.6,0.5-1.3,1.1-1.9,1.7c-0.9-1-0.7-1.7,0.3-2.5c5-4.3,10.2-8.1,15.8-11.4
	c2.3-1.3,4.7-2.4,7.1-3.5c3.3-1.6,6.5-3.2,9.9-4.6c6.5-2.6,13.2-4.3,20.1-5.4c7.9-1.3,15.8-1.6,23.8-1.2c12.3,0.7,24.1,3.5,35.4,8.3
	c11.1,4.7,21.1,11.1,30,19.3c7.9,7.2,14.5,15.4,19.9,24.5c5.5,9.2,9.5,18.9,12,29.3c3.4,14.3,3.9,28.7,1.4,43.2
	c-1.6,9.5-4.5,18.7-8.6,27.4c-4.4,9.4-10,18.2-17.2,25.8c-2.8,3-5.8,5.9-8.8,8.8c-0.5,0.5-1.1,0.7-1.7,1.1
	C497.2,512.9,496.7,512.8,496.1,512.7z"/>
<path class="st0" d="M478.8,526c-2.7,1.4-5.3,2.9-8.1,4.1c-7.4,3.2-15,5.5-23,6.9c-9.3,1.7-18.6,2.1-28,1.3
	c-8.3-0.7-16.5-2.3-24.4-5c-7.6-2.5-14.9-5.8-21.8-10c-6.4-3.9-12.3-8.3-17.7-13.4c-6.7-6.3-12.5-13.4-17.4-21.1
	c-3.6-5.7-6.6-11.6-9.1-17.8c-2.7-6.9-4.7-14.1-5.9-21.4c-0.9-5.6-1.5-11.3-1.4-17c0.1-4,0.4-8,0.7-12c0-0.4,0.5-0.7,0.8-1
	c0.8,0.7,0.9,1.3,0.6,2.3c-0.4,1.1-0.1,2.4-0.2,3.6c-0.4,9.2,0.2,18.3,2,27.3c1.9,9.5,5.1,18.5,9.4,27c4.4,8.6,9.9,16.5,16.5,23.6
	c5.2,5.6,11,10.6,17.3,15c5.2,3.6,10.8,6.7,16.6,9.4c11.2,5,23,8,35.3,8.9c12,0.9,23.7-0.2,35.3-3.4c7.8-2.1,15.4-5.1,22.5-9
	c0.1-0.1,0.3,0,0.5-0.1C479.1,524.8,479,525.4,478.8,526z"/>
<path class="st0" d="M486.7,563.5c0.3,0.2,0.5,0.4,0.7,0.5c-0.4,0.6-1.1,1-1.2,1.5c-0.2,1,1,1.1,1.5,1.6c0.3,0.3,0.8,0.5,1.4,0.8
	c-2.8,1.1-5.4,2.2-7.9,3.2c-0.1-0.3-0.2-0.4-0.2-0.4c0-0.6,0.2-1.5,0-1.7c-0.6-0.4-1.4-0.4-2.1-0.5s-1.4,0.1-2.1,0
	c-0.3-0.1-0.6-0.6-0.9-0.9c-0.5,0.4-0.6,0.7-0.2,1.4s0.3,1.6,1,2.2c0.1,0.1,0.2,0.4,0.3,0.4c1.9,0.3,0.2,1.1,0,1.1
	c-0.6,0.1-1.3,1-2,0c0-0.1-0.6,0.2-1.2,0.4c0,0,0,0.3,0,0.6c-1.2-1.3-3-1.8-3.8-1.1c-0.7-1.3-0.8-1.3-2.2-0.9
	c-0.4,0.1-1-0.1-1.5-0.4c-0.8-0.5-1.6-1.1-2.4-1.6c-1,0.6-1.4,1.3-0.4,2.3c0.3,0.3,0.1,0.9,0.3,1.4c0.1,0.2,0.5,0.4,0.8,0.5
	c0.1-0.1,0.1-0.2,0.2-0.3c0.3,0.5,0.7,1,1,1.5c-1.9,0.1-2.3-1.3-2.9-2.4c-0.1-0.2-0.6-0.3-0.9-0.3c-1,0.1-1.9,0.2-2.9,0.4
	c-0.3,0-0.7,0.1-1,0.1c0.1,0.3,0.1,0.7,0.2,1.1c-0.4,0.2-1.2-0.6-1.3,0.5c-0.3-0.2-1-0.4-1-0.5c0.1-1.1-0.8-1.5-1.4-1.7
	c-0.8-0.3-1.1-0.6-1.4-1.4c-0.2-0.6-1-1.1-1.7-1.4c-1.2-0.5-1.7-1.4-1.6-2.9c0.4,0.3,0.6,0.5,0.6,0.5c0.4-0.2,0.8-0.4,1.1-0.6
	c0.9,1.3,1.6,2.6,2.5,3.6c0.4,0.5,1.2,0.8,1.9,1c0.7,0.2,1.4,0.2,2.1,0.3h0.1c0.2-0.3,0.4-0.5,0.5-0.8c-0.8-0.5,0.8-1.8-0.5-2.1
	c-0.8-0.1-1-0.3-1.1-1.1c-0.1-0.5-0.6-1-1.1-1.6c1.3-0.3,2.6-0.6,4-0.9c0.7-0.2,1.4-0.6,2-0.5c1.7,0.4,2.8-1.3,4.6-0.9
	c0,0.3,0,0.8-0.1,1.4c0.2,0,0.4-0.1,0.7-0.1c-0.1,0.1-0.1,0.2-0.2,0.3c0.2,0.1,0.5,0.3,0.7,0.4c-0.1,0.1-0.2,0.3-0.3,0.4
	c0,0,0,0,0.1,0v-0.1c0.1-0.1,0.3-0.3,0.4-0.4c0.6-0.8,1.2-1.6,1.8-2.4c1.1,1.2,2,2.2,2.8,3c0.8,0.3,1.3,0.6,1.8,0.6
	c0.5,0.1,1.1-0.1,1.7-0.2c-0.2-0.6-0.4-1.1-0.5-1.6c0.2-0.3,0.5-0.5,0.7-0.8c0.5,0.2,1.1,0.5,1.7,0.8c0-1.6-1.2-2.9-2.5-3l0,0
	c0-1.1,0.2-2,1.5-2.2c0.6-0.1,1.2-0.6,1.8-0.7c0.6-0.1,1.3,0,1.9,0.1c0.1,0,0.2,0.3,0.2,0.3c-0.1,0.1-0.3,0.3-0.4,0.3
	c-0.5,0-1.1-0.1-1.6-0.2c0.6,0.7,1.1,0.9,2,0.2c0.8-0.7,1.7-1.2,2.6-1.7c0.2,0.6,0.4,1.2,0.7,1.8c-0.3,0.3-0.6,0.6-1,1
	c-0.1-0.3-0.1-0.5-0.1-0.7c-0.7,0.2-1.3,0.5-2,0.7c0.5,1.3-0.3,2.9,1.4,3.4l-0.1-0.1h0.1c0.7,0.2,1.2,0.8,2,0.7
	c1-0.1,0.6-1.3,1.2-1.6C486.2,563.4,486.5,563.4,486.7,563.5L486.7,563.5z M471.4,569.3c-0.1,0.6-0.2,1.1-0.4,1.7
	c0.2-0.1,0.4-0.2,0.5-0.3c0,0.3,0,0.7,0.1,0.7c0.6,0.2,1.3,0.4,1.9,0.6c0-0.1,0.1-0.2,0.1-0.4c-0.2-0.3-0.4-0.6-0.6-0.9
	c0.1,0,0.2,0,0.3,0c0.1-0.5,0.1-1,0.2-1.6c-0.5,0-0.9,0-1.4,0C471.8,569.2,471.6,569.2,471.4,569.3c-0.8-0.8-1.5-1.7-2.3-2.6
	c-0.4,0.9-0.8,1.6-1.1,2.4c-0.2-0.1-0.6-0.2-1-0.3c0,0.1,0,0.1,0,0.2c0.3,0.2,0.6,0.5,0.9,0.7c-0.1,0.2-0.1,0.3-0.2,0.5
	c-0.3-0.2-0.6-0.4-0.9-0.6c0,0.1-0.1,0.3-0.1,0.4c0.6,0.2,1.3,0.1,1.7,0.5c1.2,1.2,1.8,0.4,2.4-0.6
	C470.9,569.6,471.2,569.5,471.4,569.3z"/>
<path class="st0" d="M493.3,537.2c-0.4-1.8-0.8-3.5-1.2-5.5c1.3,0.9,2.4,1.7,3.7,2.6c-0.4-1.6-0.7-2.8-1.1-4.4
	c1.7,1.2,3.2,2.2,4.7,3.2c0.6-0.9,1.1-1.7,1.8-2.8c0.2,1.3,0.4,2.3,0.6,3.4c1.8-0.5,3.5-0.9,5.2-1.3c0.1,0.1,0.1,0.2,0.2,0.2
	c-1,1.4-2.1,2.9-3.2,4.4c0.9,0.6,1.8,1.1,2.9,1.8c-1.2,0.2-2.2,0.4-3.2,0.6c0.4,1.8,0.8,3.5,1.3,5.6c-1.3-1-2.4-1.7-3.7-2.7
	c0.4,1.5,0.7,2.8,1.1,4.4c-1.8-1.2-3.2-2.2-4.8-3.3c-0.5,0.8-1,1.7-1.8,2.9c-0.2-1.3-0.4-2.3-0.6-3.4c-1.8,0.4-3.5,0.9-5.1,1.3
	c-0.1-0.1-0.2-0.2-0.2-0.2c1-1.4,2.1-2.8,3.2-4.3c-0.9-0.6-1.8-1.1-2.9-1.8C491.3,537.6,492.3,537.4,493.3,537.2z"/>
<path class="st0" d="M464.7,306.1c1.4,1,2.8,2,4.3,3.1c0.6-0.9,1.1-1.8,1.8-2.9c0.2,1.3,0.4,2.3,0.6,3.5c1.8-0.4,3.5-0.9,5.2-1.3
	c0.1,0.1,0.1,0.2,0.2,0.2c-1,1.4-2.1,2.9-3.2,4.4c0.9,0.6,1.8,1.1,3,1.9c-1.4,0.2-2.4,0.4-3.5,0.5c0.4,1.8,0.9,3.5,1.3,5.2
	c-0.1,0.1-0.2,0.2-0.2,0.2c-1.4-1-2.8-2.1-4.4-3.2c-0.6,0.9-1.1,1.8-1.8,3c-0.2-1.3-0.4-2.3-0.6-3.4c-1.7,0.4-3.4,0.8-5.1,1.3
	c-0.1-0.1-0.1-0.2-0.2-0.2c1-1.4,2-2.8,3.1-4.3c-0.9-0.6-1.8-1.1-3-1.8c1.3-0.2,2.3-0.4,3.4-0.6c-0.5-1.8-0.9-3.5-1.3-5.2
	C464.5,306.3,464.6,306.2,464.7,306.1z"/>
<path class="st0" d="M484.2,327.4c-0.2-1.4-0.4-2.4-0.6-3.5c-1.8,0.4-3.4,0.9-5.1,1.3c-0.1-0.1-0.2-0.2-0.2-0.3c1-1.4,2-2.8,3.1-4.3
	c-1-0.6-1.9-1.2-3-1.9c1.3-0.2,2.3-0.4,3.5-0.6c-0.5-1.8-0.9-3.5-1.3-5.2c0.1-0.1,0.1-0.1,0.2-0.2c1.4,1,2.8,2,4.3,3.1
	c0.6-0.9,1.1-1.8,1.8-2.9c0.2,1.3,0.4,2.3,0.6,3.4c1.8-0.5,3.5-0.9,5.2-1.3c0.1,0.1,0.1,0.2,0.2,0.3c-1.1,1.5-2.1,2.9-3.2,4.4
	c0.9,0.5,1.8,1.1,3,1.8c-1.3,0.2-2.3,0.4-3.4,0.6c0.4,1.8,0.8,3.5,1.4,5.6c-1.7-1.3-3.2-2.4-4.7-3.6
	C485.5,325.3,484.9,326.2,484.2,327.4z"/>
<path class="st0" d="M354,530.2c1,0.6,1.8,1.2,2.9,1.8c-1.3,0.2-2.2,0.4-3.4,0.6c0.4,1.8,0.9,3.5,1.3,5.2c-0.1,0.1-0.2,0.1-0.3,0.2
	c-1.4-1-2.8-2.1-4.3-3.2c-0.6,0.9-1.1,1.8-1.9,2.9c-0.2-1.2-0.4-2.2-0.6-3.4c-1.7,0.4-3.4,0.8-5.5,1.3c1.2-1.7,2.2-3.1,3.2-4.6
	c-0.9-0.6-1.8-1.2-2.9-1.9c1.3-0.2,2.3-0.4,3.5-0.6c-0.4-1.8-0.9-3.5-1.4-5.6c1.7,1.3,3.2,2.3,4.7,3.4c0.6-1,1.1-1.8,1.8-2.9
	c0.2,1.3,0.4,2.2,0.6,3.4c1.8-0.4,3.5-0.9,5.2-1.3c0.1,0.1,0.1,0.2,0.2,0.2C356.2,527.3,355.1,528.7,354,530.2z"/>
<path class="st0" d="M496,321.7c1.4,1,2.8,2,4.3,3.1c0.6-0.9,1.2-1.8,1.9-2.9c0.2,1.3,0.4,2.3,0.6,3.5c1.8-0.5,3.5-0.9,5.2-1.3
	c0.1,0.1,0.1,0.2,0.2,0.2c-1,1.4-2.1,2.9-3.2,4.4c0.9,0.6,1.8,1.1,3,1.8c-1.3,0.2-2.3,0.4-3.4,0.6c0.4,1.8,0.9,3.5,1.3,5.2
	c-0.1,0.1-0.2,0.2-0.2,0.2c-1.4-1.1-2.9-2.1-4.4-3.2c-0.6,1-1.2,1.8-1.9,3c-0.2-1.3-0.4-2.3-0.6-3.4c-1.8,0.4-3.5,0.8-5.2,1.3
	c-0.1-0.1-0.1-0.2-0.2-0.3c1-1.4,2-2.8,3.2-4.3c-0.9-0.6-1.8-1.2-2.9-1.9c1.3-0.2,2.3-0.4,3.4-0.7c-0.5-1.8-0.9-3.5-1.3-5.2
	C495.8,321.8,495.9,321.8,496,321.7z"/>
<path class="st0" d="M393.1,308.9c1.3-0.2,2.3-0.4,3.5-0.6c-0.4-1.8-0.9-3.5-1.3-5.2c0.1-0.1,0.2-0.1,0.2-0.2c1.4,1,2.8,2,4.3,3.1
	c0.6-0.9,1.1-1.8,1.8-2.9c0.2,1.3,0.4,2.3,0.7,3.4c1.8-0.4,3.5-0.9,5.2-1.3c0.1,0.1,0.1,0.2,0.2,0.3c-1,1.4-2.1,2.8-3.2,4.3
	c0.9,0.6,1.8,1.1,2.9,1.8c-1.2,0.2-2.2,0.4-3.3,0.6c0.4,1.8,0.9,3.5,1.3,5.2c-0.1,0.1-0.1,0.1-0.2,0.2c-1.4-1.1-2.9-2.1-4.4-3.2
	c-0.6,0.9-1.1,1.8-1.9,2.9c-0.2-1.3-0.4-2.3-0.6-3.4c-1.7,0.4-3.4,0.9-5.1,1.3c-0.1-0.1-0.1-0.2-0.2-0.3c1-1.4,2-2.8,3.1-4.3
	C395.2,310.2,394.3,309.7,393.1,308.9z"/>
<path class="st0" d="M521,506.7c1.4,1,2.8,2.1,4.3,3.2c0.6-0.9,1.1-1.7,1.9-2.9c0.2,1.3,0.4,2.3,0.6,3.4c1.8-0.5,3.5-0.9,5.2-1.3
	c0.1,0.1,0.1,0.2,0.2,0.2c-1,1.4-2,2.8-3.1,4.4c0.9,0.6,1.7,1.1,2.9,1.8c-1.3,0.2-2.3,0.4-3.4,0.6c0.5,1.8,0.9,3.5,1.3,5.3
	c-0.1,0.1-0.2,0.1-0.2,0.2c-1.4-1-2.9-2.1-4.4-3.2c-0.6,0.9-1.1,1.8-1.8,3c-0.2-1.3-0.4-2.4-0.6-3.4c-1.8,0.4-3.5,0.8-5.2,1.3
	c-0.1-0.1-0.1-0.2-0.2-0.3c1-1.4,2.1-2.8,3.2-4.3c-1-0.6-1.8-1.1-3-1.8c1.3-0.2,2.3-0.4,3.4-0.7c-0.4-1.8-0.9-3.5-1.3-5.2
	C520.9,506.8,520.9,506.8,521,506.7z"/>
<path class="st0" d="M521,521.9c-1,1.4-2.1,2.8-3.2,4.3c0.9,0.6,1.8,1.1,3,1.8c-1.3,0.2-2.3,0.4-3.4,0.6c0.4,1.8,0.8,3.5,1.3,5.2
	c-0.1,0.1-0.2,0.1-0.2,0.2c-1.4-1.1-2.8-2.1-4.4-3.2c-0.6,1-1.1,1.9-1.9,3c-0.2-1.3-0.4-2.3-0.6-3.5c-1.8,0.4-3.5,0.9-5.6,1.4
	c1.2-1.7,2.3-3.1,3.4-4.6c-1-0.6-1.8-1.2-2.9-1.9c1.2-0.2,2.2-0.4,3.4-0.6c-0.4-1.7-0.9-3.4-1.3-5.2c0.1-0.1,0.2-0.1,0.3-0.2
	c1.4,1,2.8,2,4.3,3.1c0.6-0.9,1.1-1.8,1.9-2.9c0.2,1.3,0.4,2.3,0.6,3.5c1.8-0.4,3.5-0.9,5.3-1.3C520.9,521.7,521,521.8,521,521.9z"
	/>
<path class="st0" d="M418,311.7c-0.6,1-1.2,1.9-1.9,3c-0.2-1.3-0.4-2.3-0.6-3.4c-1.8,0.4-3.4,0.9-5.1,1.3c-0.1-0.1-0.1-0.2-0.2-0.3
	c1-1.4,2-2.8,3.1-4.3c-0.9-0.6-1.8-1.1-3-1.8c1.3-0.2,2.3-0.4,3.5-0.6c-0.5-1.8-0.9-3.5-1.3-5.2c0.1-0.1,0.1-0.1,0.2-0.2
	c1.4,1,2.8,2,4.4,3.1c0.5-0.9,1.1-1.8,1.8-3c0.2,1.3,0.4,2.3,0.6,3.5c1.8-0.4,3.5-0.9,5.3-1.3c0.1,0.1,0.1,0.2,0.2,0.2
	c-1.1,1.4-2.1,2.9-3.2,4.4c0.9,0.6,1.8,1.1,2.9,1.8c-1.2,0.2-2.2,0.4-3.4,0.6c0.4,1.8,0.9,3.5,1.3,5.2c-0.1,0.1-0.2,0.1-0.2,0.2
	C421,313.8,419.6,312.8,418,311.7z"/>
<path class="st0" d="M540.3,499.6c1,0.6,1.8,1.1,3,1.8c-1.3,0.2-2.3,0.4-3.4,0.6c0.4,1.7,0.9,3.5,1.3,5.2c-0.1,0.1-0.2,0.1-0.2,0.2
	c-1.5-1.1-2.9-2.1-4.4-3.2c-0.6,1-1.1,1.8-1.8,3c-0.2-1.3-0.4-2.3-0.7-3.4c-1.7,0.4-3.4,0.8-5.1,1.2c-0.1-0.1-0.1-0.1-0.2-0.2
	c1-1.4,2-2.8,3.2-4.3c-1-0.6-1.9-1.1-3-1.8c1.3-0.2,2.3-0.4,3.5-0.6c-0.5-1.8-0.9-3.5-1.3-5.2c0.1-0.1,0.2-0.1,0.3-0.2
	c1.4,1,2.8,2,4.3,3.2c0.6-0.9,1.1-1.8,1.8-2.9c0.2,1.2,0.4,2.3,0.6,3.4c1.8-0.5,3.5-0.9,5.2-1.4c0.1,0.1,0.2,0.2,0.3,0.3
	C542.5,496.6,541.5,498,540.3,499.6z"/>
<path class="st0" d="M554.7,467.6c0.7,0.5,1.3,0.9,2,1.4c0,0.1,0,0.3,0,0.4c-0.8,0.2-1.6,0.5-2.4,0.8c0.4,1.7,0.8,3.4,1.2,5
	c-0.1,0.1-0.2,0.1-0.3,0.2c-1.4-1-2.8-2-4.2-3.1c-0.6,0.9-1.2,1.8-1.9,2.9c-0.2-1.2-0.4-2.2-0.6-3.4c-1.8,0.4-3.5,0.9-5.2,1.3
	c-0.1-0.1-0.1-0.2-0.2-0.3c1-1.4,2-2.8,3.1-4.3c-1-0.6-1.9-1.2-3-1.9c1.3-0.2,2.4-0.4,3.5-0.6c-0.4-1.8-0.9-3.5-1.3-5.2
	c0.1-0.1,0.2-0.1,0.3-0.2c1.4,1,2.9,2.1,4.3,3.1c0.6-1,1.1-1.8,1.8-2.9c0.2,1.2,0.4,2.3,0.6,3.4c1.7-0.4,3.4-0.8,5-1.2
	c0.1,0.1,0.2,0.1,0.3,0.2C556.7,464.8,555.7,466.2,554.7,467.6z"/>
<path class="st0" d="M371.5,536c-1.1,1.4-2.1,2.9-3.2,4.4c0.9,0.6,1.7,1.1,2.8,1.7c-1.2,0.2-2.1,0.4-3.2,0.6
	c0.4,1.8,0.8,3.5,1.2,5.2c-0.1,0.1-0.2,0.1-0.2,0.2c-1.4-1-2.8-2.1-4.3-3.2c-0.6,0.9-1.1,1.8-1.8,2.9c-0.3-1.3-0.5-2.3-0.7-3.3
	c-1.8,0.4-3.4,0.9-5.1,1.3c-0.1-0.1-0.1-0.2-0.2-0.3c1-1.4,2-2.8,3.1-4.3c-1-0.6-1.8-1.1-3-1.9c1.3-0.2,2.3-0.4,3.5-0.6
	c-0.4-1.7-0.9-3.4-1.3-5.1c0.1-0.1,0.2-0.2,0.3-0.2c1.4,1,2.8,2,4.3,3.1c0.6-0.9,1.1-1.8,1.8-2.9c0.2,1.3,0.4,2.3,0.6,3.5
	c1.7-0.4,3.5-0.8,5.2-1.2C371.3,535.8,371.4,535.9,371.5,536z"/>
<path class="st0" d="M339,515c1.8-0.5,3.5-0.9,5.2-1.4c0.1,0.1,0.2,0.2,0.2,0.2c-1,1.5-2.1,2.9-3.2,4.4c0.9,0.6,1.8,1.1,2.9,1.8
	c-1.3,0.2-2.3,0.4-3.4,0.6c0.4,1.8,0.8,3.5,1.4,5.7c-1.7-1.3-3.2-2.3-4.7-3.4c-0.6,0.9-1.1,1.8-1.8,3c-0.2-1.2-0.4-2.2-0.6-3.4
	c-1.8,0.4-3.5,0.8-5.1,1.2c-0.1-0.1-0.1-0.2-0.2-0.2c1-1.4,2.1-2.8,3.2-4.3c-0.9-0.6-1.8-1.1-2.9-1.9c1.3-0.2,2.3-0.4,3.4-0.6
	c-0.5-1.8-0.9-3.5-1.3-5.2c0.1-0.1,0.2-0.1,0.2-0.2c1.4,1,2.8,2,4.3,3.1c0.6-0.9,1.1-1.7,1.8-2.9C338.6,512.8,338.8,513.8,339,515z"
	/>
<path class="st0" d="M552.9,423.2c-0.2-1.3-0.4-2.3-0.6-3.4c-1.8,0.4-3.5,0.8-5.2,1.2c-0.1-0.1-0.1-0.2-0.2-0.3
	c1-1.4,2.1-2.8,3.2-4.3c-1-0.6-1.8-1.1-3-1.8c1.3-0.2,2.3-0.4,3.5-0.6c-0.5-1.8-0.9-3.5-1.3-5.2c0.1-0.1,0.2-0.1,0.2-0.2
	c1.4,1,2.9,2,4.4,3.1c0.6-1,1.1-1.8,1.9-3c0.2,1.4,0.3,2.4,0.5,3.6c1.7-0.4,3.4-0.9,5.6-1.4c-1.2,1.8-2.2,3.2-3.2,4.7
	c0.9,0.6,1.8,1.1,2.9,1.8c-1.2,0.2-2.2,0.4-3.4,0.6c0.4,1.7,0.7,3.4,1.2,5.5c-1.7-1.2-3.1-2.2-4.6-3.3
	C554.1,421.2,553.6,422.1,552.9,423.2z"/>
<path class="st0" d="M507.1,344.8c1-1.4,2.1-2.8,3.2-4.3c-0.9-0.6-1.8-1.1-3-1.9c1.3-0.2,2.3-0.4,3.5-0.6c-0.4-1.8-0.9-3.4-1.3-5.1
	c0.1-0.1,0.2-0.1,0.3-0.2c1.4,1,2.8,2,4.3,3.1c0.6-0.8,1.1-1.6,1.8-2.6c0.2,1.2,0.4,2.2,0.6,3.2c1.8-0.5,3.5-0.9,5.6-1.4
	c-1.2,1.7-2.2,3.1-3.4,4.6c0.8,0.6,1.7,1.2,2.8,1.9c-1.2,0.2-2.1,0.4-3.2,0.6c0.4,1.8,0.8,3.5,1.3,5.2c-0.1,0.1-0.1,0.1-0.2,0.2
	c-1.4-1-2.8-2.1-4.4-3.2c-0.6,0.9-1.2,1.8-1.9,2.9c-0.2-1.2-0.4-2.2-0.6-3.3c-1.7,0.4-3.4,0.9-5.1,1.3
	C507.2,344.9,507.1,344.8,507.1,344.8z"/>
<path class="st0" d="M321.3,497.6c1.4,1,2.8,2.1,4.3,3.2c0.6-0.9,1.1-1.8,1.8-2.9c0.2,1.2,0.4,2.2,0.6,3.4c1.7-0.4,3.5-0.9,5.6-1.4
	c-1.2,1.7-2.3,3.2-3.4,4.7c0.9,0.6,1.8,1.1,2.9,1.8c-1.3,0.2-2.3,0.4-3.4,0.6c0.5,1.8,0.9,3.6,1.4,5.7c-1.8-1.3-3.2-2.4-4.8-3.5
	c-0.6,1-1.1,1.8-1.8,3.1c-0.2-1.3-0.3-2.3-0.5-3.5c-1.7,0.4-3.4,0.8-5,1.2c-0.1-0.1-0.1-0.1-0.2-0.2c1-1.4,1.9-2.7,3-4.3
	c-0.9-0.6-1.7-1.1-2.9-1.8c1.3-0.2,2.3-0.4,3.4-0.6c-0.4-1.8-0.9-3.5-1.3-5.2C321.1,497.7,321.2,497.7,321.3,497.6z"/>
<path class="st0" d="M531.5,359.9c0.4,0.1,0.8,0,1.1,0.2c1.2,0.8,2.4,1.7,3.6,2.6c0.6-0.9,1.1-1.8,1.8-3c0.2,1.3,0.4,2.3,0.6,3.5
	c1.3-0.3,2.6-0.7,3.9-0.9c0.3-0.1,0.6,0.1,0.9,0.1c-0.1,0.3-0.1,0.7-0.2,0.9c-0.7,1-1.5,2.1-2.3,3.2c0.9,0.5,1.7,1,2.9,1.8
	c-1.3,0.3-2.2,0.4-3.3,0.7c0.4,1.7,0.9,3.5,1.3,5.2c-0.1,0.1-0.1,0.1-0.2,0.2c-1.4-1.1-2.9-2.1-4.4-3.2c-0.6,1-1.1,1.8-1.6,2.7
	c-0.1,0-0.2,0-0.3-0.1c-0.2-1-0.3-1.9-0.5-3.1c-1.7,0.4-3.5,0.9-5.6,1.4c1.2-1.7,2.3-3.2,3.3-4.7c-1-0.6-1.9-1.1-3-1.8
	c1.3-0.2,2.4-0.4,3.6-0.6C532.5,363.2,532,361.5,531.5,359.9L531.5,359.9z"/>
<path class="st0" d="M560.2,440.9c-1.4-1.1-2.9-2.1-4.4-3.2c-0.6,0.9-1.1,1.8-1.8,3c-0.2-1.3-0.4-2.3-0.6-3.4
	c-1.8,0.5-3.5,0.9-5.6,1.4c1.3-1.7,2.3-3.1,3.4-4.7c-0.9-0.6-1.8-1.1-3.1-1.9c1.4-0.2,2.4-0.4,3.6-0.6c-0.5-1.8-0.9-3.5-1.3-5.2
	c0.1-0.1,0.2-0.2,0.3-0.2c1.4,1,2.8,2,4.3,3.1c0.6-0.9,1.1-1.8,1.8-3c0.2,1.3,0.4,2.3,0.6,3.5c1.8-0.4,3.5-0.8,5.6-1.3
	c-1.3,1.7-2.3,3.1-3.4,4.6c0.7,0.6,1.3,1.1,2.1,1.8c-1,0.3-1.7,0.4-2.5,0.6c0.4,1.8,0.9,3.5,1.3,5.3
	C560.4,440.8,560.3,440.8,560.2,440.9z"/>
<path class="st0" d="M548.1,486.5c0.5,1.8,0.9,3.5,1.3,5.2c-0.1,0.1-0.1,0.1-0.2,0.2c-1.4-1-2.9-2.1-4.4-3.2c-0.6,0.9-1.1,1.8-1.8,3
	c-0.2-1.3-0.4-2.3-0.6-3.4c-1.8,0.4-3.4,0.9-5.1,1.3c-0.1-0.1-0.1-0.2-0.2-0.2c1-1.4,2.1-2.8,3.2-4.4c-0.5-0.3-0.9-0.5-1.3-0.8
	c-0.3-0.2-0.6-0.6-0.8-0.8c0.4-0.1,0.7-0.3,1.1-0.4c0.5-0.1,1-0.2,1.6-0.3c-0.5-1.9-1-3.6-1.4-5.3c0.1-0.1,0.2-0.1,0.2-0.2
	c1.4,1,2.9,2.1,4.4,3.2c0.5-0.9,1.1-1.8,1.6-2.6c0.1,0,0.2,0,0.3,0c0.1,1,0.3,2,0.4,3.2c1.8-0.4,3.5-0.9,5.7-1.4
	c-1.3,1.7-2.3,3.2-3.5,4.7c1,0.5,1.9,1,2.8,1.5c0,0.1,0,0.2,0,0.3C550.2,486.1,549.2,486.3,548.1,486.5z"/>
<path class="st0" d="M546,391.5c1.4,1,2.8,2.1,4.3,3.1c0.6-1,1.1-1.8,1.8-3c0.2,1.3,0.4,2.4,0.6,3.4c1.6-0.3,3.1-0.7,4.9-1
	c-0.9,1.6-1.7,3-2.6,4.4c0.9,0.5,1.7,1.1,2.9,1.8c-1.3,0.2-2.3,0.4-3.4,0.6c0.4,1.8,0.9,3.5,1.3,5.2c-0.1,0.1-0.1,0.1-0.2,0.2
	c-1.4-1-2.8-2.1-4.4-3.2c-0.6,0.9-1.1,1.8-1.9,3c-0.2-1.3-0.4-2.3-0.6-3.4c-1.8,0.4-3.4,0.9-5.1,1.3c-0.1-0.1-0.1-0.2-0.2-0.3
	c1-1.4,2.1-2.8,3.2-4.3c-0.9-0.6-1.8-1.1-2.9-1.8c1.2-0.2,2.2-0.4,3.4-0.6c-0.4-1.8-0.9-3.5-1.3-5.2
	C545.8,391.6,545.9,391.6,546,391.5z"/>
<path class="st0" d="M381.7,319.3c-1.8,0.4-3.5,0.8-5.2,1.3c-0.1-0.1-0.1-0.1-0.2-0.2c1-1.4,2-2.8,3.1-4.3c-0.9-0.6-1.8-1.1-3-1.8
	c1.3-0.3,2.3-0.5,3.4-0.7c-0.4-1.8-0.8-3.4-1.2-5.1c0.1-0.1,0.2-0.1,0.3-0.2c1.4,1,2.8,2,4.2,3c0.6-0.9,1.1-1.7,1.9-2.8
	c0.2,1.3,0.4,2.3,0.5,3.4c1.8-0.5,3.5-0.9,5.7-1.4c-1.2,1.7-2.3,3.2-3.4,4.7c0.9,0.5,1.8,1.1,2.9,1.8c-1.3,0.2-2.3,0.4-3.4,0.6
	c0.4,1.8,0.9,3.5,1.3,5.2c-0.1,0.1-0.2,0.1-0.3,0.2c-1.4-1.1-2.8-2.1-4.4-3.3c-0.5,0.9-1.1,1.8-1.7,2.9
	C382.1,321.3,381.9,320.4,381.7,319.3z"/>
<path class="st0" d="M531.5,359.9c-0.9-0.5-1.7-1-2.6-1.6c-0.7-0.4-1.3-0.9-2-1.4c-0.6,1-1.1,1.8-1.8,3c-0.2-1.3-0.4-2.3-0.6-3.4
	c-1.7,0.4-3.4,0.9-5.1,1.3c-0.1-0.1-0.1-0.2-0.2-0.2c1-1.4,2.1-2.9,3.2-4.3c-0.9-0.6-1.8-1.1-3-1.8c1.3-0.2,2.3-0.4,3.5-0.6
	c-0.4-1.7-0.9-3.4-1.3-5.1c0.1-0.1,0.2-0.1,0.2-0.2c1.4,1,2.8,2,4.3,3.1c0.6-0.8,1.2-1.6,1.8-2.4c0.2,1.1,0.4,2,0.5,3
	c1.7-0.3,3.3-0.7,4.9-1c0,0.1,0.1,0.3,0.1,0.4c-0.9,1.2-1.8,2.5-2.8,3.8c1,0.6,1.9,1.1,3,1.8c-1.3,0.2-2.3,0.4-3.3,0.6
	C530.7,356.5,531.1,358.2,531.5,359.9L531.5,359.9z"/>
<path class="st0" d="M555.5,443.8c0.2,1.3,0.4,2.3,0.5,3.5c1.6-0.4,3.2-0.8,4.8-1.2c0.1,0.1,0.2,0.2,0.3,0.3
	c-0.9,1.4-1.9,2.8-2.8,4.2c0.6,0.5,1.2,1,2.1,1.7c-1.1,0.3-1.7,0.5-2.6,0.8c0.4,1.6,0.8,3.4,1.2,5.5c-1.7-1.2-3.1-2.3-4.3-3.1
	c-0.7,0.4-1.3,0.9-1.8,0.9c-0.4,0-0.7-0.8-1.3-1.4c-1.4,0.3-3.1,0.7-4.8,1.1c-0.1-0.1-0.1-0.1-0.2-0.2c1-1.4,2.1-2.8,3.2-4.3
	c-1-0.6-1.9-1.2-3-1.9c1.3-0.2,2.3-0.4,3.5-0.6c-0.5-1.8-0.9-3.5-1.3-5.2c0.1-0.1,0.2-0.2,0.2-0.2c1.4,1,2.8,2,4.4,3.1
	C554.3,445.8,554.8,444.9,555.5,443.8z"/>
<path class="st0" d="M445.2,314.1c1.2-1.6,2.2-3,3.2-4.5c-0.7-0.5-1.5-1-2.4-1.6c1.1-0.3,1.9-0.5,2.8-0.7c-0.4-1.6-0.7-3.3-1.1-4.9
	c0.1-0.1,0.1-0.2,0.2-0.3c1.4,1,2.8,1.9,4.2,2.9c0.5-0.9,1-1.8,1.7-3c0.2,1.3,0.4,2.4,0.6,3.5c1.8-0.5,3.5-0.9,5.3-1.3
	c0.1,0.1,0.1,0.2,0.2,0.3c-1,1.4-2.1,2.9-3.1,4.4c0.9,0.6,1.8,1.1,2.9,1.8c-1.3,0.2-2.3,0.4-3.4,0.5c0.5,1.8,0.9,3.6,1.4,5.7
	c-1.8-1.3-3.2-2.3-4.8-3.5c-0.6,0.9-1.1,1.7-1.8,2.8c-0.2-1.3-0.3-2.3-0.4-3.3C448.9,313.2,447.2,313.6,445.2,314.1z"/>
<path class="st0" d="M431.4,305.1c-0.4-1.8-0.8-3.4-1.3-5.1c0.1-0.1,0.2-0.1,0.2-0.2c1.4,1,2.8,2,4.3,3.1c0.6-0.9,1.1-1.8,1.8-2.9
	c0.2,1.2,0.4,2.2,0.6,3.4c1.6-0.4,3.3-0.7,5.3-1.1c-0.6,0.9-1,1.4-1.4,2.1c-0.2-0.1-0.3-0.3-0.4-0.3c-0.3,0.9-0.7,1.8-1.1,2.8
	c0.7,1.1,0.6,1.8-0.6,2.5c0.4,1.6,0.8,3.3,1.2,5.3c-1.6-1.1-3-2.1-4.5-3.2c-0.6,1-1.1,1.8-1.9,3c-0.2-1.3-0.4-2.3-0.5-3.5
	c-1.8,0.5-3.5,0.9-5.2,1.3c-0.1-0.1-0.1-0.2-0.2-0.2c1-1.4,2-2.8,3.1-4.4c-0.9-0.6-1.9-1.1-3.1-1.9
	C429.2,305.5,430.2,305.3,431.4,305.1z"/>
<path class="st0" d="M545.3,377.9c0-0.2-0.1-0.4-0.1-0.6c0.1,0,0.2,0,0.3,0s0.2,0.1,0.3,0.1s0.2-0.1,0.3-0.1
	c0.2,0.5,0.5,0.9,0.7,1.4c1.8-0.4,3.5-0.9,5.5-1.4c-1,1.4-1.8,2.5-2.6,3.5c-1,1.2-0.7,2,0.8,2.3c0.1,0,0.2,0.2,0.4,0.5
	c-0.4,0-0.9,0.1-1.3,0.1c-0.9,0-1.3,0.2-1,1.3c0.5,1.4,0.8,2.9,1.2,4.7c-1.6-1.2-3-2.3-4.6-3.5c-0.5,0.9-1,1.7-1.6,2.7
	c-0.3-1.1-0.6-1.9-0.9-2.8c-1.6,0.4-3.3,0.7-4.9,1.1c-0.1-0.1-0.1-0.2-0.2-0.3c1-1.3,1.9-2.7,3-4.1c-0.9-0.6-1.8-1.2-2.9-1.9
	c1.3-0.2,2.3-0.4,3.4-0.6c-0.4-1.8-0.9-3.5-1.3-5.2c0.1,0,0.2-0.1,0.3-0.1c1.6,1.2,3.2,2.4,4.8,3.7
	C545.1,378.3,545.2,378.1,545.3,377.9L545.3,377.9z"/>
<path class="st0" d="M380.4,542.8c0.4,0.5,0.8,0.9,0.9,1.4c0.2,0.9,0.7,0.9,1.4,0.7c1-0.3,2-0.5,3-0.7c0.2-0.1,0.5,0,1,0
	c-1,1.5-1.9,2.8-2.9,4.1c0.3,0.3,0.5,0.6,0.9,1.1c-0.6,0.3-1.1,0.5-1.5,0.8c0,1,0,2.2,0.2,3.2c0.1,0.6,0.7,1.1,0.9,1.7
	c-1.9,0.2-2.8-1.5-4.4-2.1c-0.5,0.8-1.1,1.6-1.8,2.7c0-0.8,0-1.3,0-1.8c0.1-1.1-0.4-1.5-1.4-1.3c-1.4,0.3-2.7,0.7-4.5,1.1
	c1.2-1.7,2.2-3,3.3-4.5c-1-0.6-1.8-1.1-2.9-1.8c1.2-0.2,2.2-0.4,3.3-0.6c-0.4-1.8-0.9-3.5-1.4-5.6c1.7,1.2,3.1,2.3,4.6,3.4
	C379.6,544.1,379.9,543.6,380.4,542.8z"/>
<path class="st0" d="M321.2,489.6c1,0.6,1.8,1.1,3,1.8c-1.3,0.2-2.3,0.4-3.4,0.7c0.4,1.7,0.8,3.4,1.3,5.1c-0.1,0.1-0.2,0.1-0.2,0.2
	c-1.4-1-2.8-2.1-4.4-3.2c-0.4,0.6-0.8,1.2-1.2,1.9c-0.2-0.4-0.4-0.7-0.5-1c-0.6-1.2-1.2-2.5-1.8-3.7c-0.6-1.1-1.3-2-0.8-3.5
	c0.3-0.9-0.4-2.3-0.7-3.4c-0.1-0.5-0.2-1-0.4-1.9c1.7,1.2,3.1,2.2,4.6,3.3c0.6-0.9,1.1-1.8,1.8-3c0.2,1.3,0.4,2.4,0.6,3.5
	c1.8-0.4,3.5-0.8,5.3-1.3c0.1,0.1,0.1,0.2,0.2,0.3C323.4,486.7,322.4,488.1,321.2,489.6z"/>
<path class="st0" d="M478.9,546.2c-0.6,0-1.1,0-1.6,0c0-0.1,0-0.1,0-0.2c0.3-0.1,0.6-0.3,0.9-0.4c-0.4-1.7-0.8-3.5-1.3-5.5
	c2,1.5,3.4,3.4,5.9,2.9c2.2,2,4.1-0.8,6.2-0.4c-0.9,2.2-1.8,2.9-2.6,2c-0.1,0.8-0.1,1.7-0.2,2.7c0.6,0.4,1.4,0.9,2.5,1.5
	c-1.3,0.2-2.2,0.4-3.2,0.6c0.4,1.7,0.8,3.2,1.1,4.8c-0.1,0.1-0.2,0.2-0.3,0.3c-0.9-0.6-1.9-1.1-2.6-1.9c-1.7-1.6-3.7-1.8-5.8-1
	c-0.6,0.2-1.3,0.6-1.6-0.7c-0.2,0.6-0.3,1-0.4,1.5c-0.3-0.3-0.6-0.5-0.9-0.8C476.7,550.1,477.4,548,478.9,546.2z"/>
<path class="st0" d="M315,481.3c-1.4-1-2.8-2.1-4.3-3.2c-0.6,0.9-1.1,1.7-1.8,2.9c-0.1-0.6-0.3-1-0.3-1.4c-0.4-2.6-1.1-5.2-1.1-7.8
	c0-2-1.1-3.3-1.9-4.9c1.4,0.9,2.8,1.9,4.2,2.9c0.6-0.9,1.1-1.8,1.8-2.9c0.2,1.3,0.4,2.3,0.6,3.4c1.8-0.5,3.5-0.9,5.2-1.3
	c0.1,0.1,0.1,0.1,0.2,0.2c-1.1,1.4-2.1,2.9-3.2,4.4c1,0.6,1.8,1.1,3,1.8c-1.3,0.2-2.3,0.4-3.4,0.6c0.4,1.8,0.8,3.5,1.3,5.2
	C315.2,481.1,315.1,481.2,315,481.3z"/>
<path class="st0" d="M434.5,576.6c0.1,0.5,0.2,1,0.2,1.5c0.1,1.2,0.1,1.2-1.1,0.7c-0.7-0.2-1.4-0.1-2.5-0.2
	c-0.2,0.1-0.6,0.4-1.2,0.8c0.1,0.3,0.3,0.7,0.6,1.3c-1.1-0.2-2.1-0.3-3-0.5c0-0.6,0-1.3,0-1.9c0.3,0.2,0.6,0.4,0.8,0.6
	c0-0.3,0-0.6,0-0.9c0.4,0.2,0.8,0.4,1.3,0.6c0.1-0.2,0.4-0.5,0.6-0.7c-0.4-0.4-0.7-0.8-1.1-1.2c1.2-0.9,0.5-1.4-0.5-2.1
	c0.2,0.6,0.4,1,0.5,1.3c-0.1,0.1-0.2,0.1-0.2,0.2c-0.3-0.3-0.5-0.7-0.8-1.1c-0.2,0.2-0.3,0.5-0.6,0.8c-0.2-0.6-0.3-1-0.4-1.6
	c-0.3,0.5-0.4,0.7-0.6,1.1c-0.6-0.9-0.8-2.1-2.3-1.5c0.1,0.4,0.3,0.7,0.5,1.2c-1.4-0.8-1.8-1.8-1-2.9c0.2-0.3,1.1-0.2,1.6-0.2
	c0.2,0.1,0.5,0.3,0.7,0.4c0-0.5,0-0.9-0.1-1.4c0.2,0.1,0.7,0.2,1.2,0.3c-0.4-0.5-0.7-1-1.1-1.6c-0.5,0.1-1.3,0.2-2.3,0.3
	c-0.1-0.4-0.3-1-0.4-1.6c1.7-0.6,4.3-0.3,5,0.6c0.6-0.3,1.2-0.7,1.8-0.8c2-0.1,4.1-0.1,6.4-0.1c-0.6,0.5-1.1,0.8-1.3,1
	c0,0.9-0.1,1.6-0.1,2.4c0,0-0.6,0.1-0.7,0c-0.5-0.7-0.7-0.3-1.1,0.2c-0.3,0.4-0.7,0.7-1.2,1.2c-0.3-0.4-0.5-0.6-0.7-0.9
	c0.4-0.1,0.8-0.3,1.3-0.5c-0.2-0.5-0.4-1.1-0.6-1.7c-0.1,0-0.2,0-0.3,0c-0.2,0.8-1.6,1-1,2.2c-0.3,0-0.5,0-1,0
	c0.8,0.5,2,0.8,0.7,1.8c0.5,0.7,1,1.4,1.5,2.2c0.2-0.2,0.4-0.4,0.4-0.4C433.1,576.1,433.8,576.3,434.5,576.6L434.5,576.6z"/>
<path class="st0" d="M448.3,561.2c-0.1,0.5-0.1,0.9-0.2,1.3c-0.4-0.2-0.7-0.4-1.1-0.6c-0.3-0.3-0.7-0.6-0.9-1
	c-0.8-1.2-1.9-1.1-2.6,0.2c-0.4,0.9-1.1,1.3-2.4,1.3c1-1.5,2-2.9,3-4.4c-0.9-0.5-1.8-1-2.8-1.6c0-0.1,0.1-0.2,0.1-0.3
	c1-0.1,2-0.3,3.2-0.4c-0.3-1-0.6-1.9-0.7-2.8c-0.1-0.4,0.2-1,0.5-1.3c0.1-0.1,0.8,0.1,1.1,0.3c0.5,0.3,1,0.7,1.4,1.1
	c0.9,0.9,1.4,0.4,2-0.4c0.2-0.4,0.5-0.7,1-1.3c-0.2,1.9-0.4,3.4-0.6,5c-0.4-0.3-0.6-0.4-0.8-0.5c-0.1,0-0.2,0.1-0.3,0.1
	c0.2,0.6,0.2,1.2,0.5,1.6c0.9,1.1,1.4,1.1,2.8,0.2c0.6-0.4,1.9,0.4,2.3,1.4c0,0.1-0.1,0.2-0.1,0.2c-1.7,0.4-1.7,0.4-1.2,2.2
	c0.1,0.4,0.2,0.9,0.2,1.4c-0.4,0.1-0.6,0.2-1,0.3c0.2,0.3,0.3,0.6,0.7,1.2C450.8,563,449.5,562.1,448.3,561.2z"/>
<path class="st0" d="M368.6,323.8c-0.4,0-0.7,0-1.1,0.1c-0.1,0-0.1,0.2-0.2,0.3c-0.5,0.3-1.1,0.5-1.7,0.8c0.1-0.6,0.3-1.1,0.4-1.7
	c-0.7,0.3-1.6,0.8-1.8-0.8c0-0.3-1.1-0.5-1.7-0.7c0.5-0.2,1-0.5,1.7-0.8c-0.4-1.7-0.8-3.3-1.2-5c1.5,1.1,3,2.1,4.6,3.2
	c-0.1,0.1-0.4,0.4-0.9,0.8c0.4,0.1,0.6,0.2,0.9,0.3c0.9,0.2,1.6,0.6,2.1,1.4c0.3,0.4,1.1,0.4,1.6,0.6c-0.1-0.5-0.1-1.1-0.2-1.6
	c-0.1-0.4-0.5-0.8-0.9-1.3c1.8,0.1,3.1-1.3,5.1-1.2c-1.1,1.6-2.2,3-3.3,4.6c0.9,0.5,1.7,1.1,2.8,1.8c-1.2,0.2-2.2,0.4-3.3,0.6
	c0.4,1.7,0.8,3.3,1.3,5.3c-1.7-1.1-3.1-2.1-4.6-3.1c-0.6,1-1.1,1.8-1.7,2.7c-0.6-1.2-0.3-2.1,0.7-3c-1.1,0-1.9,0-2.7,0
	c1.3-0.5,2.3-1.4,3.1-2.4c0.4,0.2,0.7,0.3,1.2,0.6C368.7,324.5,368.6,324.1,368.6,323.8c0.3,0.3,0.6,0.7,1,1.2
	c0.5-0.7,0.9-1.4,1.5-2.3c-0.6,0.2-1,0.3-1.3,0.5C369.4,323.4,369,323.6,368.6,323.8z"/>
<path class="st0" d="M460.9,546.4c0.6,0.7,1.2,1.5,1.9,2.1c0.6,0.4,1.3,0.6,2.1,0.9c0.3-0.3,0.7-0.7,1.1-1.2
	c0.5,0.6,0.9,1.1,1.4,1.7c1.2-0.3,2.4-0.6,3.7-0.9c0.3-0.1,0.7,0,0.8,0.2c0.1,0.2,0,0.6-0.1,0.9c-0.7,1.4-1.8,0.9-2.8,0.7
	c-0.3-0.1-0.7-0.1-0.7-0.1c-0.3,0.7-0.3,1.3-0.6,1.6c-0.6,0.7-0.6,1.2,0.2,1.4c0.6,0.2,1.1,0.3,1.7,0.4c-0.7,1.9-1.2,3.8,0.3,5.6
	c-0.1,0.1-0.2,0.2-0.3,0.3c-0.7-0.3-1.5-0.6-2.1-1c-1-0.7-1.8-1.6-2.8-2.3c-0.3-0.2-0.7-0.2-1-0.2c-0.7-0.1-1.4-0.1-2.4-0.1
	c0,0.2,0,0.7,0,1.3c-0.3,0.1-0.9,0.2-1.4,0.2c-0.4,0-0.8-0.1-1.1-0.2c0.2-0.4,0.4-0.8,0.7-1.2c0.6-0.9,1.4-1.6,1.7-2.7
	c0.1-0.3-0.1-0.7-0.1-0.9c-0.4,0-0.8,0-1.2,0.1c0-0.1,0-0.2,0-0.3c0.6-0.1,1.3-0.2,1.9-0.3c0-0.3-0.1-0.8,0.1-0.8
	c1-0.3,0.5-0.9,0.2-1.4c-0.6-1.2-1.3-2.3-1.9-3.4C460.5,546.7,460.7,546.6,460.9,546.4z M465,554.7c-0.1-1.2,0-2.4-1.9-2
	c0.3,0.8,0.5,1.6,0.8,2.5C464.3,555.1,464.6,554.9,465,554.7z M461.8,554.1c-0.1,0.1-0.1,0.2-0.2,0.3c0.2,0.4,0.2,0.9,0.5,1.1
	c0.3,0.2,0.8,0,1.2,0.1c0-0.1,0-0.3,0-0.4C462.8,554.8,462.3,554.5,461.8,554.1z"/>
<path class="st0" d="M313.5,463.1c-1.1-0.2-1.4-1.1-2.2-1.5c-0.9-0.3-1.6-1.2-2.5-1.9c-0.6,0.8-1,1.5-1.7,2.5
	c-0.2-1.2-0.3-2-0.5-2.9c-1.7,0.4-3.4,0.8-5.1,1.2c-0.1-0.1-0.1-0.2-0.2-0.3c0.4-0.4,0.9-0.7,1.3-1.2c0.2-0.2,0.3-0.6,0.3-0.9
	c0.2-0.9,1.7-1.3,0.9-2.5c0-0.1,0.3-0.4,0.5-0.6c0.3-0.2,0.7-0.3,1.1-0.5c1.8,1.2,1.8,1.2,2.9-0.4c0.8,0.8,1.7,1.8,3.2,0.9
	c-0.5-0.9-1-1.8-1.6-2.7c1.9-0.5,3.7-1,5.7-1.6c-0.9,2.1-3,3.2-3.2,5.1c0.8,0.3,1.5,0.6,2.2,0.8c0,0.2,0,0.3-0.1,0.5
	c-0.4,0.1-0.9,0.2-1.3,0.2c-1.3-0.2-1.4,0-1.1,1.2C312.6,460,313,461.4,313.5,463.1z"/>
<path class="st0" d="M336.7,380.9c-6.1,11.9-10.6,24.3-12.1,37.6c-1.3-0.3-1.3-0.3-1.1-1.6c0.6-3.6,0.9-7.2,1.8-10.7
	c1.8-7.4,4.2-14.6,7.8-21.3c0.2-0.4,0.4-0.9,0.6-1.4c0.2-0.4,0.2-1.1,1-0.6c0,0,0.6-0.6,0.6-0.8
	C335.2,380.7,335.5,380.5,336.7,380.9C336.8,380.9,336.7,380.9,336.7,380.9z"/>
<path class="st0" d="M400.5,560.6c-0.2-0.3-0.3-0.6-0.3-0.6c-0.9-0.1-1.7-0.2-2.3-0.3c0-0.8,0.1-1.4,0.1-2.2c1.5-1,1.5-2.8-0.4-4.1
	c-0.4,0.4-0.7,0.8-0.9,1.1c-0.6,0.2-1.2,0.3-1.7,0.5c-0.5,0.3-1,0.7-1.5,1c0.2,0.3,0.4,0.5,0.6,0.8c-0.1,0.1-0.1,0.1-0.2,0.2
	c-0.2-0.2-0.5-0.4-0.8-0.6c-0.5-0.1-0.6,1-0.1,1.7c0,0.1,0.1,0.1,0.2,0.5c-0.7-0.1-1.3-0.2-1.9-0.4c0,0.1,0,0.3,0,0.6
	c-0.5,0-1,0-1.9,0.1c0.8-1.1,1.4-2.1,2.1-3c0.8-1,0.8-1.2-0.4-1.7c-0.2-0.1-0.5-0.2-0.7-0.3c-0.3-0.2-0.6-0.4-1-0.7
	c1.1-0.2,2.1-0.4,3.2-0.6c-0.4-1.8-0.8-3.4-1.3-5.3c1.4,1,2.6,1.9,3.9,2.6c0.2,0.1,0.7,0,1-0.1c0.5-0.2,0.9-0.6,1.3-0.9
	c0,0.6,0,1.2,0.1,1.9c0.8,0,1.6,0.4,2.3,1.4c0.6,0.9,1.1,1.6,0.2,2.5c-0.1,0.1,0,0.4,0,0.6c0.2-0.1,0.4-0.2,0.6-0.2
	c0.6,0.1,1.2,0.2,1.8,0.6c-0.8,0.2-1.6,0.4-2.6,0.7c0.3,1.4,0.7,2.7,1,4.1C400.7,560.5,400.6,560.6,400.5,560.6z"/>
<path class="st0" d="M413.2,559c0.6,0.3,1.1,0.5,1.7,0.8c0.5-0.4,1-1,1.7-1.6c0.2,0.3,0.6,0.7,0.5,0.8c-0.5,0.9,0.5,2-0.7,2.8
	c-0.4,0.3-0.4,1.2,0.4,1.6c0.6,0.3,1.1,0.9,1.6,1.3c-0.1,0.1-0.2,0.3-0.3,0.4c-1.4-1-2.8-2-4.3-3c-0.6,1-1.2,0.6-1.7,0
	c-0.6-0.7-1.2-1.5-1.9-2.4c0.1,0.8,0.1,1.4,0.2,2.1c-0.4,0.1-0.9,0.3-1.4,0.4c0-0.4,0.1-0.8,0-1.1c-0.3-0.7-0.9-1.4,0.1-2.1
	c0.1-0.1-0.2-0.8-0.4-1c-0.5-0.4-1.2-0.7-1.8-1.4c0.4,0,0.8,0.1,1,0.1c0.3-0.2,0.6-0.4,0.8-0.4c1.1,0.2,1.1-0.5,0.9-1.2
	c-0.2-1-0.5-2-0.8-3.1c0.3,0,0.5-0.1,0.6,0c1,0.5,2.1,1,3.1,1.5c0.4,0.2,0.7,0.3,1.1,0.4c0-0.3,0-0.7,0.1-1c1.1,0,1.7,0.2,0.6,1.4
	c0.7,0,1.2,0,1.4,0c-0.1,0.3-0.3,0.5-0.4,0.7c0.2,0.1,0.5,0.1,0.7,0.2c0.4-0.5,0.9-0.9,1.5-1.5c0.1,0.4,0.2,0.7,0.2,1
	c-0.1,0.6,0.6,2-1.1,1.5c-0.1,0-0.4,0.3-0.6,0.5c-0.3,0.2-0.5,0.5-0.8,0.8c-0.5-0.7-0.8-1.2-1.2-1.8c-1,0.5-2.2,0.9-2.1,2.5
	C412.7,558,413.8,557.7,413.2,559z M411.8,560.4c0.2-0.1,0.4-0.1,0.6-0.2c-0.2-0.5-0.3-1-0.5-1.5c-0.2,0.1-0.4,0.2-0.7,0.3
	C411.4,559.5,411.6,559.9,411.8,560.4z"/>
<path class="st0" d="M442.8,576.6c0.5-0.5,0.9-0.9,1.3-1.3c-0.1-1-0.3-2-0.5-3.3c-0.3,0.6-0.4,0.8-0.7,1.3c-0.4-0.7-0.6-1.3-1-2
	c0,0-0.4,0-0.9-0.1c0,0.2,0,0.5,0,0.9c0,0.2,0.2,0.5,0.1,0.7c-0.5,1.7-1.1,3.3-1.7,5c-0.2,0.5-0.5,0.9-0.9,1.4c-1-1.2-1-3.5-0.2-4.8
	c0.7-1.2,0.3-2.4-1.1-2.9c-0.1-1.1-0.2-2.2-0.3-3.3c0.1,0,0.2,0,0.3-0.1c0.2,0.3,0.3,0.5,0.5,0.9c0.3-1,0.6-1.6,1.6-0.6
	c0.8-0.9,2.8-1,3.9-0.3c0.5,0.3,0.8,1.2,1.7,0.6c0.1,0,0.7,0.8,1.1,1.3c-1.5,0.4-1.6,1.1-1,2.3c0.8,1.6,0.3,3.1-1.2,4
	c0.4,0.6,0.5,1.3,1.6,1.1c0.3-0.1,0.8,0.8,1.3,1.3c-0.3,0.2-0.7,0.5-0.8,0.4C444.9,578.4,443.8,577.5,442.8,576.6z"/>
<path class="st0" d="M438.5,373.6c0,0.3,0,0.5,0,0.8c-0.1,0.6-0.2,1.1-0.3,1.7c-0.2-0.2-0.4-0.3-0.5-0.3c-0.1,0.4-0.2,0.8-0.3,1.1
	c-0.1,0.1-0.3,0.2-0.4,0.3c-0.6,0-1.2,0-1.8,0c0.5,0.7,0.8,1.2,1.1,1.7l0,0c-0.6,0.7-1.2,1.4-2,2c-0.2,0.1-0.7-0.2-1.3-0.4
	c0.2,0.9,0.4,1.7,0.6,2.7c1.8-0.3,0.7,1.6,1.2,2.5c-0.7-0.2-1.4-0.5-2.2-0.7h0.1c-0.5,0-1.1-0.1-1.8-0.1c-0.4-2.4-3.3-3.9-2.3-6.9
	c0.6,0.3,1.3,0.6,2,0.9c0.1-0.3,0.3-0.7,0.5-1c0.3,0.1,0.7,0.2,1,0.3c-0.2,0.3-0.4,0.7-0.6,1c0.3,0.1,0.6,0.2,0.8,0.3l0,0
	c0-0.3-0.1-0.7-0.1-1l0,0c-0.1-0.1-0.1-0.3-0.2-0.4c0-0.9,0.1-1.8,0.1-3.1c0.8,1,1.4,1.3,1.7,0.2c0.3,0.2,0.6,0.4,1.2,0.9
	c0.1-0.7,0.1-1.2,0.1-1.6c0.8-0.3,1.7-0.8,2.6-1.1C438,373.1,438.3,373.4,438.5,373.6z"/>
<path class="st0" d="M357.9,340c-1.4-1-2.8-2.1-4.4-3.2c-0.6,1-1.1,1.9-1.6,2.8c-0.1,0-0.2,0-0.3-0.1c0-0.5-0.2-1.1,0-1.6
	c0.3-1-0.2-1.4-1-1.6c-0.6-0.2-1.3-0.2-1.8-0.5c-0.3-0.2-0.6-0.8-0.6-1.3c0-0.4,0.4-0.8,0.7-1.3c0.5,0.4,0.9,0.7,1.3,1
	c0.1-0.1,0.1-0.2,0.2-0.2c-0.4-0.4-0.8-0.9-1.3-1.5c0.5-0.7,1.1-1.4,1.7-2.2c1.8,1.7,2.4,4.1,4.6,5.5c0.1-1.5,1-2.8-1-3.5
	c1.4-0.4,1.2-1.3,1.1-2.1c0-0.9,0.1-1.7,1.2-1.6c-0.1,2-0.4,3.9-0.1,5.8c0.2,1.8,1.1,3.5,1.7,5.3C358.2,339.9,358,339.9,357.9,340z
	 M352,332.8c-0.5-1.1-1.1-1.1-1.9-0.3c0.5,0.5,1,1.1,1.5,1.6c0.1-0.1,0.1-0.1,0.2-0.2c-0.2-0.3-0.3-0.7-0.5-1.1
	C351.6,332.8,351.8,332.8,352,332.8z"/>
<path class="st0" d="M478.8,526c0.1-0.6,0.3-1.3,0.4-1.9c1-0.6,2-1.2,3-1.9c4.2-2.9,8.4-5.8,12.6-8.7c0.4-0.3,0.9-0.5,1.4-0.8
	c0.5,0.1,1.1,0.2,1.6,0.3c-0.6,0.7-1.2,1.4-2,2c-5.2,4.1-10.6,7.8-16.4,10.9C479.3,526,479,526,478.8,526z"/>
<path class="st0" d="M379.5,365.6c0.4-0.5,1-1,0.9-1.4c-0.1-0.6-0.7-1.1-1.1-1.7c0.2,0,0.6-0.1,1-0.2c0.6-0.2,0.9-0.1,1.2,0.6
	c0.3,1.1,1.7,1.2,2.5,0.3c0.3-0.3,1.1-0.2,1.6-0.2c-0.1,0.3-0.1,0.5-0.2,0.8c0.5-0.2,1.1-0.3,1.8-0.6c-0.5,0.3-0.8,0.5-1.1,0.8
	c0.2,1.1,0.3,2.2,1.9,1.7c-1.9,1.3-3.9,2.6-5.8,3.9c-0.4,0.2-1.1,0.3-1.5,0.1c-0.2-0.1-0.3-0.8-0.4-1.2
	C380.1,367.5,379.7,366.5,379.5,365.6z"/>
<path class="st0" d="M337.9,378.5c0-0.4,0-0.8,0-1.2c0-1.1,0.1-2.2,1.4-2.3c0.1-0.5,0-1,0.2-1.3c1.1-1.6,2.2-3.3,3.3-4.8
	c1.5-1.9,3-3.8,4.5-5.7c1.4,0,0.9-1.9,2.1-2.1c0.2,1.8-0.1,2.5-0.7,2.5c-0.6,0.8-1,1.6-1.5,2.3c-1.8,2.4-3.7,4.8-5.4,7.3
	c-1.1,1.5-2,3.2-3,4.8C338.5,378.1,338.2,378.3,337.9,378.5C337.9,378.6,337.9,378.5,337.9,378.5z"/>
<path class="st0" d="M453.9,396.9c0.3-0.2,0.6-0.4,1-0.6c-0.3-0.2-0.6-0.4-0.9-0.6c-0.6-0.4-1.1-0.9-1.7-1.3c-0.7,0-1.5,0-2.4,0
	c0.2-0.4,0.4-0.7,0.6-1.2c0.2,0.3,0.3,0.5,0.4,0.7c0.1-0.1,0.2-0.2,0.3-0.3c0.5-0.8,1.2-1.1,2.1-0.8c1.1,0.4,2.3,0.8,3.4,1.1
	c0.4,0.1,0.8-0.3,1.2-0.3c0.5,0,1,0,1.5-0.1c1-0.1,1.9-0.3,2.9-0.3s1.3,0.7,0.9,1.8c-0.2,0.5-0.7,0.8-1,1.2
	c-0.6-0.1-1.2-0.2-1.9-0.3c-0.2-0.4-0.5-0.7-0.9-1.3c-0.6,0.6-1.1,1.2-1.6,1.7c-0.2-0.2-0.3-0.6-0.5-0.6c-1-0.2-1.6,0.6-1.6,1.9
	C455.2,397.4,454.6,397.1,453.9,396.9z"/>
<path class="st0" d="M338.4,326.9c-0.7,0.5-1,0.8-1.6,1.2c0.7,0.8,1.4,1.5,2.1,2.2c0.3,0.3,0.6,0.7,0.9,1c0.1,0.1-0.1,0.5-0.2,0.6
	c-0.2,0.1-0.5,0.1-0.8,0.1c-0.4-0.1-0.8-0.3-1.2-0.4c-0.1,0.9,0.1,1.7-0.3,2.1c-0.3,0.3-1.2,0.1-1.9,0.1c-0.2-0.4,0.3-1.4-0.9-0.9
	c0.1,0.2,0.2,0.3,0.3,0.5c0.1,0.4,0.1,0.8,0.1,1.3c0,0.1-0.5,0.3-0.5,0.2c-0.3-0.3-0.7-0.7-0.7-1.1c-0.1-0.6,0.3-1.4,0-1.9
	c-0.7-1.5,1-1.8,1.2-3c0.1-0.9,1.5-1.7,2.4-2.4C337.5,326.4,337.9,326.7,338.4,326.9z"/>
<path class="st0" d="M410.8,358.2c0.1,0.4,0.2,0.8,0.3,1.1c-0.7,0.3-1.3,0.6-1.8,0.8c0,0.1,0,0.2,0,0.4c0.7,0.3,1.3,0.6,2.1,1
	c-0.1,0.2-0.4,0.8-0.6,1.3c-1.9-0.4-3.7-0.8-5.6-1.2c-0.1-0.5-0.2-1-0.3-1.5c0.5,0,1-0.1,1.7-0.1c-0.4-0.4-0.6-0.6-0.9-0.9
	c0.4-0.4,0.8-0.9,1.2-1.2c1-0.6,1.3-1.4,0.5-2.4c0.4-0.2,0.7-0.3,1.1-0.5c0,0.1,0.1,0.2,0.1,0.2c-0.2,0.2-0.4,0.4-0.8,0.7
	c0.6,0.1,0.9,0.1,1.3,0.2c-0.2,1-0.1,1.7,1.2,1.6C410.5,357.8,410.6,358,410.8,358.2C410.8,358.1,410.8,358.2,410.8,358.2z"/>
<path class="st0" d="M427.6,339.2c0.3-0.2,0.7-0.6,1-0.5c1.1,0.4,2.2,0.8,2.4,2.4c0.4-0.4,0.6-0.6,0.9-1c0.3,0.9,0.6,1.7,0.9,2.5
	c-0.7-0.5-1.3-0.9-1.9-1.4c-0.1,0.1-0.1,0.2-0.2,0.2c0.2,0.1,0.4,0.3,0.5,0.4s0.3,0.3,0.3,0.4c-0.1,0.1-0.3,0.3-0.4,0.3
	c-0.8,0.1-1.6,0.3-2.5,0.4c0.1-0.3,0.2-0.6,0.2-1c0,0.4,0,0.9,0,1.7c-1.2-1.1-2.2-1-3.2-0.5c-0.2,0.1-0.8-0.3-0.9-0.5
	c-0.1-0.4-0.1-1,0.1-1.3s0.7-0.4,1-0.6c0.8-0.2,1.7,0,1.8-1.2C427.7,339.6,427.7,339.3,427.6,339.2L427.6,339.2z"/>
<path class="st0" d="M308,421.7c1.5,0.9,1.5,1.2,0.9,1.7c-0.8-0.2-1.3-0.4-1.9-0.5c-0.6-0.2-0.8-0.5-0.7-1.1
	c0.1-0.4,0.1-0.8,0.1-1.2c-0.1,0-0.2,0-0.4,0c0,0.3-0.1,0.5-0.1,1c-0.7-0.9-1.2-1.6-1.8-2.3c0.4-0.3,0.7-0.5,1-0.8
	c-0.2-0.2-0.4-0.5-0.7-0.7c0.1-0.1,0.2-0.2,0.2-0.3c0.7,0.7,1.4,1.3,2.1,2l0.1-0.1c-0.1-0.1-0.3-0.2-0.3-0.4c0-0.2-0.1-0.6,0-0.7
	c1.4-0.4,2.9-0.8,4.5-0.9C310.1,418.9,309,420.3,308,421.7z"/>
<path class="st0" d="M428.2,558.6c0.8,0.2,1.4,0.3,2.3,0.5c0.2,1.1,0.5,2.5,0.8,3.9c-0.3,0.1-0.7,0.2-1.1,0.3
	c-0.2-1.2-0.4-1.2-1.7-0.7c-1.2,0.4-2.5,0.7-3.7,1c-0.3,0.1-0.6-0.2-0.9-0.3c0.1-0.1,0.1-0.4,0.2-0.4c0.3,0.1,0.5,0.2,0.6,0.2
	c0.5-1,1-1.9,1.5-3c0.5,0.2,0.9,0.4,1.2,0.6c0.4-0.3,0.7-0.7,1-0.9C428.4,559.4,428.3,559,428.2,558.6z"/>
<path class="st0" d="M314,360.4c0.2,0,0.6,0,1,0c-0.6,1.9-2.3,2.4-4.2,1.3c0.3-0.1,0.5-0.2,1.1-0.4c-0.4-0.4-0.8-1-1.2-1.1
	c-0.3-0.1-0.8,0.3-1.2,0.6c-0.5,0.4-0.9,0.8-1.5,1.3c-0.2-0.3-0.5-0.7-0.5-0.8c0.5-0.4,0.9-0.7,1.5-1.1c-0.2-0.2-0.4-0.5-0.7-0.8
	c1.6-1.1,1.6-1.1,2.4-0.3c1.3-0.7,1.3-1.5,0.2-2.4c0.3-0.2,0.6-0.6,0.7-0.6c0.8,0.4,1.5,0.8,2.2,1.3c0.5,0.3,0.9,0.6,1.3,1.1
	c0.2,0.3,0.3,0.7,0.4,1.1c-0.3-0.1-0.6-0.2-0.9-0.3c-0.6-0.2-1.2-0.7-1.9-0.7c-0.4,0-0.8,0.6-1.2,1c0.5,0.6,1,1.2,1.5,1.7
	C313.3,361.1,313.6,360.8,314,360.4z"/>
<path class="st0" d="M294.9,447c0.1,0.6,0.2,1.1,0.2,1.7c0,0.5,0,1.1-0.1,1.2c-1,0.2-1.8,0.3-2.7,0.5c0,0-0.1-0.4-0.2-0.5
	c-0.6-0.2-1.2-0.3-1.9-0.3c-2.1,0-2.5-0.4-2.2-2.4c0.7,0.2,1.4,0.3,2.2,0.5c0.9,0.1,1.8-0.6,3-0.3
	C293.7,447.6,294.3,447.2,294.9,447L294.9,447z"/>
<path class="st0" d="M410.8,358.2C410.8,358.2,410.8,358.1,410.8,358.2c0-0.6,0.1-1.1,0.3-1.6c0.6-0.4,1.3-0.9,2-1.3
	c0.1-0.1,0.5-0.1,0.6,0c0.1,0.2,0.1,0.5,0.1,0.6c-0.1,0.3-0.4,0.6-0.8,1.2c1.2-0.4,2-0.7,2.7-1c-0.1,0.4-0.3,1-0.5,1.5
	c-0.3,0.4-0.6,0.7-0.9,1.1c0.1,0.1,0.2,0.2,0.3,0.2c0.1-0.2,0.3-0.4,0.4-0.7c0.5,0.5,0.9,0.9,0,1.3c-0.6,0.3-1,0.9-1.6,1.2
	c-0.3,0.2-0.9,0.3-1.1,0.1c-0.2-0.2-0.3-0.8-0.2-1.1C412.3,358.7,411.9,358.1,410.8,358.2z"/>
<path class="st0" d="M405.2,361.6c1.9,0.4,3.7,0.8,5.6,1.2c0.3,0.2,0.6,0.3,0.8,0.5c-0.5,1.6-0.5,1.5-2.1,1
	c-1.6-0.4-3.2-0.6-4.6-0.9c-0.2-0.7-0.5-1.2-0.7-1.8C404.5,361.6,404.8,361.6,405.2,361.6z"/>
<path class="st0" d="M427.6,578.3c0,0.6,0,1.3,0,1.9c-0.6,0.1-1.2,0.3-1.7,0.3c-1.3,0-2.6-0.2-4-0.3c1.3-1,2.4-2.1,3.7-2.8
	c0.5-0.3,1.3,0.2,2,0.4C427.6,577.8,427.6,578.1,427.6,578.3z"/>
<path class="st0" d="M355.7,317.3c0.4-0.4,0.8-0.7,1-1.1c0.1-0.2-0.1-0.6-0.2-0.9c-0.1,0-0.2,0-0.3,0.1c0.4-0.4,0.8-0.8,1.2-1.2
	c-0.2-0.3-0.3-0.6-0.5-1.1c1.1,0.6,2.1,1.2,3.3,1.8c-1.2,0.3-2,0.6-1.5,1.8c0.1,0.2-0.3,0.7-0.5,0.9c-0.6,0.4-1.3,0.8-1.9,1.1
	C356.2,318.3,356,317.8,355.7,317.3z"/>
<path class="st0" d="M414.3,364.8c1.1-0.8,2.1-0.4,3.2-0.1c-0.1,0.5-0.2,0.9-0.3,1c0.6,0.8,1.1,1.4,1.6,2c-1.3,0.7-3.5-0.5-3.4-1.9
	c-1,0.7-1.4,0.5-2.4-1C413.4,364.8,413.9,364.8,414.3,364.8z"/>
<path class="st0" d="M331.1,332.8c0.4,0.3,0.7,0.5,1.1,0.9c-0.9,0.7-1.6,1.3-2.4,2c-0.2-0.2-0.3-0.4-0.4-0.6c-0.1,0-0.2,0-0.2,0.1
	c0.1,0.5,0.3,1,0.5,1.7c-0.4,0.2-0.9,0.6-1.5,1c-0.6-0.7-1.2-1.5-2-2.4c1-0.5,1.9-1,2.8-1.6c0.3,0.4,0.6,0.7,0.7,0.8
	C330,334.1,330.5,333.5,331.1,332.8z"/>
<path class="st0" d="M358.2,304.5c0.9-0.6,1.6-1.1,2.4-1.6c0-0.1-0.1-0.1-0.1-0.2c-0.3,0.1-0.6,0.3-0.9,0.4c-0.1-0.5-0.3-1-0.4-1.6
	c0.4-0.1,0.9,0,1.2-0.2c0.3-0.2,0.4-0.6,0.6-1c0.5,0.5,0.9,0.9,1.2,1.3c-1.4,1-1.7,1.8-0.9,3.2C359.9,306.2,359.3,306.2,358.2,304.5
	z"/>
<path class="st0" d="M333.2,364.8c-0.8-0.9-1.6-1.6-2.3-2.4c-0.1-0.1-0.2-0.1-0.3-0.1c1.1-1.4-0.5-1.9-1-2.8
	c0.6-0.3,1.2-0.6,1.9-0.9C332.1,359,333.5,363.1,333.2,364.8z"/>
<path class="st0" d="M359.5,308.6c0.3,0.2,0.6,0.5,0.8,0.7c-0.1,0-0.2,0-0.3,0c-0.1,1-0.3,2-0.4,3c0.1,0,0.2,0.1,0.3,0.1
	c-0.6,0.4-1.1,0.8-1.7,1.1c-1.3-0.8-0.5-2-0.6-3c-0.1-0.5-0.2-1.1,0-1.4C358.1,308.3,358.8,308.2,359.5,308.6L359.5,308.6z"/>
<path class="st0" d="M460.4,396c0.6,0.1,1.2,0.2,1.9,0.3c0.2,0.2,0.7,0.5,0.7,0.6c-0.2,0.5-0.5,1-0.9,1.7c0.1,0.4,0.1,1.1,0.2,1.8
	c-1.5-0.3-2-0.9-2.2-2.3c-0.1-0.4-0.5-0.8-0.8-1.2C459.7,396.6,460.1,396.3,460.4,396z"/>
<path class="st0" d="M476.3,564.1c-0.2,0.3-0.5,0.5-0.7,0.8c-0.2-0.5-0.4-0.9-0.8-1.7c-1.2-0.3-2.7-0.7-4.2-1c0-0.1,0-0.2,0-0.3
	c0.5,0,1,0,1.6,0c0.2,0,0.4,0,0.5-0.1c1.1-1.7,1.9-0.2,2.9,0.2l0,0C475.8,562.6,476,563.4,476.3,564.1z"/>
<path class="st0" d="M414.1,574.2c-1.1-1.7-2.3-3.3-3.4-5c0.1-0.1,0.2-0.1,0.3-0.2c0.3,0.4,0.6,0.9,0.7,1.1c0.8,0.1,1.4,0.2,2.2,0.4
	c0,0,0.3-0.2,0.6-0.4c0.2-0.1,0.5,0,0.6,0.1s0.1,0.4,0.1,0.7c0,0.4-0.1,0.8-0.2,1.3c-0.3-0.1-0.9-0.2-1.9-0.3c0.6,1,0.9,1.5,1.3,2.1
	C414.3,574,414.2,574.1,414.1,574.2z"/>
<path class="st0" d="M427.7,339.8c0,1.2-1,1.1-1.8,1.2c-0.8-0.5-1.7-0.9-2.5-1.4c-0.1-0.1-0.1-0.6,0-0.6c0.3-0.2,0.8-0.6,1.1-0.5
	c0.8,0.1,1.5,0.4,2.3,0.6c0.1,0.2,0.2,0.4,0.3,0.6c0.1-0.1,0.2-0.2,0.4-0.2h-0.1C427.6,339.5,427.6,339.6,427.7,339.8z"/>
<path class="st0" d="M352.3,357.6c0.4,0.5,0.6,0.8,0.9,1.1c-0.6,0.7-1.1,1.5-1.8,2.2c-0.3,0.3-0.8,0.3-1.3,0.5c0-0.5-0.2-1.1,0-1.4
	C350.7,359.2,351.5,358.4,352.3,357.6z"/>
<path class="st0" d="M352.4,390.7c-0.8,0.6-1.6,1.2-2.5,1.8c-0.5,0.1-0.8,0-0.7-0.6c0.3-1.1,0.5-2.2,1.7-2.8
	c0.4,0.3,0.7,0.5,1.1,0.8l0,0C352.1,390.2,352.2,390.4,352.4,390.7z"/>
<path class="st0" d="M297.1,495.4c0.5-0.3,0.9-0.5,1.3-0.7c0.8,1.1,1.5,2.2,2.3,3.4c-0.3,0.2-0.6,0.4-1,0.7
	C298.9,497.7,298,496.6,297.1,495.4z"/>
<path class="st0" d="M445.5,576.9c-0.1-0.4-0.3-0.9-0.2-0.9c0.5-0.2,1.1-0.4,1.7-0.5c0.3-0.1,0.8,0.1,1.1,0c1.1-0.4,1.6,0.1,2.1,1
	c-0.5,0.3-0.9,0.6-1.3,0.9C447.9,576.4,446.7,576.2,445.5,576.9z"/>
<path class="st0" d="M416.9,567.7c1.4-0.1,1.4,1.2,2,1.8c0.4,0.4,0.7,1,1,1.5c0.6,0.9,1.3,1.8,1.9,2.7c0.1,0.2-0.1,0.6-0.2,1.1
	C420,572.3,418.5,570.1,416.9,567.7z"/>
<path class="st0" d="M424.6,373.9c-0.4-0.5-1.1-1.2-1-1.6c0.2-0.6,0.9-1.1,1.3-1.6c0.6,0.4,1.1,0.6,1.6,0.9
	C425.9,372.3,425.3,373.1,424.6,373.9z"/>
<path class="st0" d="M443.6,377.8c0.9-0.7,1.9-0.5,3.1,0.6c0.1,0.2,0.3,0.4,0.4,0.6c-0.2,0-0.3,0-0.5,0l0,0c-1.1,0-2.3,0-3.7-0.1
	C443.3,378.5,443.4,378.2,443.6,377.8z"/>
<path class="st0" d="M414.4,344.9c0.4-0.2,0.8-0.3,1-0.4c0.2,0.5,0.4,0.9,0.6,1.3c0.5,0.8,0.3,1.4-0.6,1.7c-0.3,0.1-0.5,0.3-1,0.6
	c-0.1-0.9-0.1-1.9-0.2-2.8C414.3,345.1,414.4,345,414.4,344.9L414.4,344.9z"/>
<path class="st0" d="M434.5,576.6c-0.3-0.3-0.6-0.7-1.1-1.2c0.7-0.2,1.1-0.4,1.6-0.5c0.3-0.1,0.6-0.2,1-0.3c0.4,0,0.8,0,1.2,0.1
	c-0.1,0.4-0.3,0.7-0.3,1.1c0,0.8-0.1,0.9-0.8,0.4C435.5,575.7,434.9,575.9,434.5,576.6L434.5,576.6z"/>
<path class="st0" d="M447.2,393.7c-0.1-0.3-0.3-0.5-0.4-0.8c-0.1-0.2-0.3-0.4-0.5-0.6c0.7-0.3,2.9,0.1,3.2,0.7
	c0.1,0.2,0,0.5-0.1,0.7C449,394.3,447.8,394.2,447.2,393.7z"/>
<path class="st0" d="M462.2,499.3c-1.6,0.4-1.6,0.4-3.5-0.7c1.6-0.1,3.2,0.4,3.7-1.5c0.1,0,0.3,0.1,0.4,0.1c0.1,0.7,0.1,1.4,0.2,2.1
	C462.6,499.3,462.4,499.3,462.2,499.3L462.2,499.3z"/>
<path class="st0" d="M352.1,309.2c-0.4-0.2-1.1-0.5-1.7-0.7c0-0.5,0-1.3,0-2c0.1-0.1,0.2-0.1,0.3-0.2c0,1,0.2,1.6,1.3,1.1
	c0.3-0.1,1,0.8,1.7,1.3C353.1,308.9,352.7,309,352.1,309.2z"/>
<path class="st0" d="M426.1,551.6c0.5,0.5,1.1,0.9,1.6,1.5c0.2,0.2,0.2,0.6,0.1,0.8c-0.2,0.6-0.5,1.2-0.9,2.1
	c-0.4-1.5-0.7-2.8-1-4.1C426,551.7,426.1,551.7,426.1,551.6z"/>
<path class="st0" d="M428.6,366c-0.6,0.8-0.6,1.6,0.3,2.4c-0.4,0-0.7,0-1.1-0.1c0-0.1,0-0.2,0-0.3c-0.9,0.2-1.8,0.5-2.7,0.6
	c-0.2,0-0.5-0.2-0.8-0.4c0.2-0.2,0.3-0.4,0.5-0.6c0.2,0,0.4,0,0.7,0c0.8,0.1,1.6,0.5,1.9-0.7c0.1,0,0.3,0,0.4-0.1
	c0.3-0.3,0.5-0.6,0.7-1L428.6,366z"/>
<path class="st0" d="M428.6,366h-0.1c-0.1-0.5-0.3-1-0.4-1.5c0.3-0.1,0.7-0.3,1.1-0.4c0.5,0.4,0.9,0.8,1.4,1.2
	c0.3,0.6,0.4,1-0.5,0.8C429.5,366,429,366,428.6,366z"/>
<path class="st0" d="M375,308C375,308,374.9,308.1,375,308c-0.2,1.5-0.7,1.8-1.8,1.2c-0.3-0.1-0.6-0.1-1.2-0.1
	c0.7-0.6,1.2-1.2,1.8-1.6C374,307.4,374.6,307.8,375,308z"/>
<path class="st0" d="M322.5,368.1c0.2,1.3-0.1,1.8-1.2,1.5c0,0.2,0,0.4,0,0.6c-0.1,0-0.2,0.1-0.3,0.1c-0.4-0.9-0.8-1.7-1.2-2.6
	c0.1-0.1,0.2-0.1,0.3-0.2C320.6,368.8,321.5,368.6,322.5,368.1z"/>
<path class="st0" d="M462.8,392.9c-0.6-0.3-1.3-0.5-2.1-0.9c0.6-0.3,1-0.5,1.4-0.7c-0.1-0.3-0.2-0.6-0.3-0.9
	c0.1-0.1,0.2-0.2,0.3-0.3c0.7,0.5,1.3,1,2,1.6c-0.1,0.1-0.1,0.2-0.2,0.3C463,391.7,462.8,392,462.8,392.9z"/>
<path class="st0" d="M442.6,577.8c-0.3,0.4-0.4,0.5-0.6,0.6c1,0.3,2.3-0.2,2.7,1.2c-1-0.1-2,0-3-0.3c-0.4-0.1-0.6-0.8-0.9-1.2
	c0.3,0,0.7,0,1,0C442.1,578,442.2,577.9,442.6,577.8z"/>
<path class="st0" d="M294.9,447c-0.6-0.6-1.5-1.2-1.6-1.9c-0.2-0.9,0.3-1.9,0.8-2.9C294.4,443.8,294.6,445.4,294.9,447L294.9,447z"
	/>
<path class="st0" d="M436,574.5c-0.3,0.1-0.6,0.2-1,0.3c0.3-0.7,0.7-1.5,1.1-2.4c0,0-0.3-0.3-0.5-0.5c0.1-0.1,0.3-0.3,0.4-0.3
	c0.3,0,0.7,0.1,0.8,0.3C437.2,572.9,436.8,573.8,436,574.5z"/>
<path class="st0" d="M307.7,428.5c-0.8-0.6-1.7-1.1-2.5-1.7c-0.6-0.5-0.8-1.1-0.1-1.8c1,1.1,1.9,2.2,2.8,3.3
	C307.8,428.4,307.7,428.5,307.7,428.5z"/>
<path class="st0" d="M433.8,558.6c0.2,0.6,0.4,1.1,0.6,1.7c-0.2,0.1-0.3,0.2-0.5,0.3c-0.6-0.7-1.2-1.4-1.9-2.1
	c0.3-0.2,0.6-0.5,1-0.8C433.3,558,433.6,558.3,433.8,558.6C433.8,558.7,433.8,558.6,433.8,558.6z"/>
<path class="st0" d="M433.6,562.7c1.3-0.2,1.9,0.9,1.9,3.2c-0.7-0.5-1.2-0.9-1.8-1.4c0.4-0.4,0.7-0.7,1.1-1.2
	C434.4,563.2,434,562.9,433.6,562.7z"/>
<path class="st0" d="M425.5,367.7c-0.2,0-0.4,0-0.7,0c-0.1-0.4-0.3-0.9-0.5-1.6c0.9-0.2,1.8-0.4,2.6-0.6
	C426.4,366.2,425.9,367,425.5,367.7z"/>
<path class="st0" d="M528.2,322.7c0.1,0,0.1-0.1,0.2-0.1c0.9-0.2,1.3,0.1,1.2,1c0,0.2,0.2,0.4,0.3,0.6c-0.2,0.2-0.5,0.3-0.7,0.5
	C528.4,324.5,527.9,323.5,528.2,322.7z"/>
<path class="st0" d="M334,545.4c-0.8-1.2-1.6-2.4-2.5-3.7C332.4,541.7,334,544,334,545.4z"/>
<path class="st0" d="M546.7,348.1c-0.7,0.5-1.3,1.1-1.9,1.2c-0.5,0-1-0.7-1.5-1.2c0.1-0.1,0.1-0.2,0.2-0.2
	C544.5,348,545.5,348,546.7,348.1z"/>
<path class="st0" d="M337.9,378.5L337.9,378.5c-0.3,0.9-0.7,1.7-1.1,2.5l0,0c-0.2-0.8-0.4-1.5-0.7-2.5
	C336.8,378.5,337.4,378.5,337.9,378.5z"/>
<path class="st0" d="M317.2,511c0.3-0.2,0.6-0.3,1-0.6c0.3,0.4,0.7,0.8,1,1.2c0.1,0.1-0.3,0.6-0.4,0.6c-0.6-0.2-1.1-0.5-1.7-0.8
	C317.1,511.3,317.2,511.1,317.2,511z"/>
<path class="st0" d="M369.8,304.4c0.1,0.3,0.1,0.5,0.2,0.8c-0.2,0-0.4,0-0.6,0c0-0.4-0.2-1,0-1.3c0.3-0.3,0.9-0.4,1.3-0.6
	c0.2,0.5,0.3,0.9,0.5,1.4c-0.1,0.1-0.2,0.1-0.3,0.2C370.5,304.8,370.2,304.6,369.8,304.4z"/>
<path class="st0" d="M368.4,370.4c-0.1,0.1-0.2,0.2-0.2,0.3c-0.8-0.1-1.6-0.3-2.6-0.5c-0.5-0.7-0.5-0.7,0-1.2
	c0.8,0.3,1.5,0.6,2.2,0.9C367.9,370,368.1,370.2,368.4,370.4z"/>
<path class="st0" d="M401.7,549.9c0.3,0.4,0.6,0.7,0.9,1.1c-0.2,0.3-0.5,0.6-0.8,0.9c-0.5-0.3-1.1-0.6-1.7-0.9
	C400.7,550.6,401.2,550.3,401.7,549.9z"/>
<path class="st0" d="M355.7,317.3c0.2,0.5,0.4,1,0.7,1.5c-0.6,0.8-1,0.7-1.3-0.2c-0.1-0.3-0.2-0.7-0.3-1.2
	C355,317.4,355.4,317.3,355.7,317.3z"/>
<path class="st0" d="M359.5,308.6c0-0.1,0-0.3-0.1-0.3c-0.4-0.4-0.8-0.7-1.1-1c0.4-0.2,0.7-0.4,1.1-0.6
	C360.5,308.1,360.5,308.1,359.5,308.6L359.5,308.6z"/>
<path class="st0" d="M433.8,558.6C433.8,558.6,433.8,558.7,433.8,558.6c0-0.2,0-0.4,0-0.6c0-1.1,0.3-1.3,1.3-0.8
	c0.1,0.1,0.3,0.1,0.5,0.1c-0.3,0.4-0.5,0.8-0.7,1.2C434.6,558.6,434.2,558.6,433.8,558.6z"/>
<path class="st0" d="M295.1,494c-0.2-0.5-0.7-1.1-0.6-1.6c0-0.5,0.5-1,0.6-1.2C295.6,491.7,295.7,492.7,295.1,494z"/>
<path class="st0" d="M341.4,345.5c0.4-0.4,0.8-0.8,1.1-1.1c0.3,0.4,0.5,0.9,0.9,1.5C342.5,346.6,341.9,346.2,341.4,345.5z"/>
<path class="st0" d="M307.2,505.9c0.9-0.8,1,0.1,1.3,0.5c0.2,0.3,0.2,0.8,0.3,1.2c-0.1,0-0.3,0.1-0.4,0.1
	C308,507.1,307.7,506.5,307.2,505.9z"/>
<path class="st0" d="M476.3,514.9c-0.2,0-0.5,0-0.9,0c-0.1-0.3-0.1-0.8-0.2-1.1c0.4-0.3,0.9-0.6,1.4-1
	C476.5,513.5,476.4,514.2,476.3,514.9z"/>
<path class="st0" d="M573.7,424.2c0-0.2,0-0.5,0.1-0.8c0.6,0.3,1.2,0.5,1.9,0.9c-0.5,0.4-0.9,0.7-1.4,1.1
	C574,424.9,573.9,424.5,573.7,424.2C573.7,424.1,573.7,424.2,573.7,424.2z"/>
<path class="st0" d="M330.5,535.4c0.3-0.1,0.5-0.1,0.8-0.2c0.8,0.6,1,1.3,0.6,2.3C331.5,536.8,331,536.1,330.5,535.4z"/>
<path class="st0" d="M303.1,485.9c0-0.4,0-0.7,0-1.3c0.4,0.3,0.7,0.5,1,0.8c0-0.3,0-0.5,0-0.7c0.1,0,0.2,0,0.3,0
	c0.1,0.5,0.2,0.9,0.3,1.4C304.1,485.9,303.6,485.9,303.1,485.9L303.1,485.9z"/>
<path class="st0" d="M469.1,574.9c-0.6-0.6-1.2-1.1-1.7-1.6c0.1-0.1,0.2-0.2,0.3-0.4c0.3,0.2,0.6,0.5,0.9,0.7
	c0.1-0.1,0.4-0.3,0.8-0.6C469.2,573.7,469.1,574.2,469.1,574.9z"/>
<path class="st0" d="M431.1,554.1c0.3-0.7,0.6-1.3,1-2.2c0.8,1.3,0,1.8-0.6,2.3C431.3,554.2,431.2,554.1,431.1,554.1z"/>
<path class="st0" d="M315.3,393.2c1.3,0,0.9,1.2,1.3,1.9c-0.1,0.1-0.2,0.2-0.3,0.2c-0.3-0.3-0.6-0.6-0.7-0.9
	C315.5,394,315.4,393.6,315.3,393.2z"/>
<path class="st0" d="M303.1,485.9c0.3,0.3,0.5,0.6,0.8,1c-0.5,0.3-0.9,0.6-1.3,0.8C301.9,486.8,302.7,486.4,303.1,485.9L303.1,485.9
	z"/>
<path class="st0" d="M386.6,563.6L386.6,563.6c0.4-0.1,0.9-0.1,1.7-0.3c-0.1,0.7-0.1,1.3-0.1,1.8c-0.2,0-0.4,0-0.6,0
	C387.2,564.6,386.9,564.1,386.6,563.6z"/>
<path class="st0" d="M486.7,509c-0.1-0.7-0.1-1.3-0.1-1.9c0.1,0,0.2-0.1,0.2-0.1c0.3,0.4,0.7,0.9,1.2,1.6c-0.5-0.2-0.8-0.3-1.1-0.5
	c0.1,0.3,0.2,0.5,0.2,0.8C487,508.9,487,508.9,486.7,509z"/>
<path class="st0" d="M305.3,504.3c-0.5-0.8-1-1.5-1.5-2.3c0.1-0.1,0.2-0.1,0.3-0.2c0.6,0.7,1.1,1.5,1.7,2.2
	C305.6,504.1,305.4,504.2,305.3,504.3z"/>
<path class="st0" d="M555.5,510.3c-0.3-1.1-0.1-1.9,0.5-2.3c0.2,0.3,0.3,0.5,0.5,0.7C556.1,509.3,555.8,509.8,555.5,510.3z"/>
<path class="st0" d="M414.3,364.8c-0.5,0-0.9,0-1.4,0c-0.1-0.3-0.2-0.6-0.4-1c0.2-0.1,0.5-0.2,0.8-0.3c0,0.2,0,0.3,0,0.5
	c0.1,0,0.1-0.1,0.2-0.1c-0.1-0.1-0.2-0.3-0.3-0.4c0.3,0.1,0.6,0.1,0.9,0.2c-0.1,0.1-0.1,0.2-0.2,0.3
	C414.2,364.3,414.3,364.6,414.3,364.8z"/>
<path class="st0" d="M423.2,370.2c0-0.2,0-0.4,0.1-0.6c0.1,0,0.1,0,0.2,0c0,0.2,0,0.4,0.1,0.6C423.4,370.2,423.3,370.2,423.2,370.2z
	"/>
<path class="st0" d="M427.2,339.6c-0.1-0.2-0.2-0.4-0.3-0.6c0.3,0.1,0.5,0.1,0.8,0.2l0,0c-0.1,0.1-0.1,0.2-0.2,0.3h0.1
	C427.4,339.5,427.3,339.6,427.2,339.6z"/>
<path class="st0" d="M396.7,361.3c-0.1,0.1-0.2,0.3-0.3,0.4c-0.1,0-0.1-0.1-0.2-0.1c0.1-0.1,0.2-0.3,0.2-0.4
	C396.6,361.2,396.7,361.2,396.7,361.3z"/>
<path class="st0" d="M414.2,345c0-0.1,0-0.1,0-0.2c0.1,0,0.2,0,0.2,0.1l0,0C414.3,344.9,414.2,345,414.2,345z"/>
<path class="st0" d="M418.4,349C418.4,349,418.4,349.1,418.4,349c0,0.1-0.1,0.1-0.1,0.1V349C418.3,349.1,418.3,349.1,418.4,349z"/>
<path class="st0" d="M414.1,364c0.1-0.1,0.1-0.2,0.2-0.3C414.2,363.9,414.1,364,414.1,364z"/>
<path class="st0" d="M418.3,348.6v-0.1V348.6z"/>
<polygon class="st0" points="421.6,343.3 421.7,343.4 421.7,343.3 "/>
<path class="st0" d="M421.7,343.3l-0.1,0.1l0,0C421.6,343.3,421.6,343.3,421.7,343.3C421.6,343.3,421.7,343.3,421.7,343.3z"/>
<path class="st0" d="M446.7,379.1L446.7,379.1c0.2,0,0.3,0,0.5-0.1C447,379,446.9,379.1,446.7,379.1z"/>
<path class="st0" d="M449.8,398.3C449.8,398.3,449.9,398.4,449.8,398.3C449.9,398.4,449.8,398.3,449.8,398.3z"/>
<path class="st0" d="M432.2,378.3c0,0.1,0,0.2-0.1,0.2c0,0.1-0.1,0.1-0.3,0C432.1,378.5,432.2,378.4,432.2,378.3
	C432.3,378.4,432.2,378.3,432.2,378.3z"/>
<polygon class="st0" points="432.4,379.3 432.3,379.3 432.3,379.3 "/>
</svg>
