<?xml version="1.0" encoding="utf-8"?>
<!-- Generator: Adobe Illustrator 24.0.0, SVG Export Plug-In . SVG Version: 6.00 Build 0)  -->
<svg version="1.1" id="Layer_1" xmlns="http://www.w3.org/2000/svg" xmlns:xlink="http://www.w3.org/1999/xlink" x="0px" y="0px"
	 viewBox="0 0 1920 1080" style="enable-background:new 0 0 1920 1080;" xml:space="preserve">
<path d="M1203,185c4,0.3,8,0.7,12.7,1.1c-0.8,2.8-1.4,5.2-2,7.4c1.1,0.7,1.9,1.5,2.2,1.4c20.3-9.9,26.5,8.9,33.9,19.2
	c12.9,18,22.2,38.5,33.2,58c4,7.1,8.9,13.7,12.2,21c4.7,10.2,7.3,21.4,12.6,31.2c2.6,4.8,9.3,10.1,14.3,10.4
	c6.5,0.3,8.2,2.5,7.7,7.4c-0.8,8.4-2.4,16.8-3.8,25.2c-0.4,2.3-1.5,4.6-1.6,6.9c-1.9,27.1-9.8,51.4-31.4,69.6
	c-1.3,1.1-1.8,3.4-2.1,5.2c-2,13-4.1,25.9-5.8,39c-0.5,3.9-0.1,7.9-0.1,12.2c-0.9,0.4-2.8,1.1-4.9,1.9c21.6,34.4,18,66.3-22.5,82
	c0.6,1.8,0.6,4.1,1.8,5.3c10.6,10.3,14.8,23.8,20.3,37c3.7,8.8,6.2,17,5,26.2c-0.6,4.5-2.3,8.8-3.6,13.1c-0.6,1.9-2,3.7-2,5.6
	c-0.3,11.1,0.7,22.3-0.6,33.3c-2.7,22.7-10.7,44.1-25.6,61.4c-12.6,14.7-30.4,22.4-49,27.5c-2.6,0.7-5.5,1.1-7.8,2.4
	c-27.2,16.7-56.3,14-85.6,8.3c-17.3-3.4-16.1-2.7-27.4,10.6c-12.2,14.5-15.5,32-21.8,48.7c-5.5,14.5-12.3,28.6-18.4,42.9
	c-2.4,5.6-4.6,11.2-6.5,16.9c-6.3,18.8-23.3,26.3-38,36.2c-12.7,8.5-26.7,15.4-38.1,25.3c-14.7,12.8-24.1,29.8-27.6,49.4
	c-1.4,7.7-3.7,15.3-4.1,23c-0.6,9.5,0.4,19,0.7,29.7c-2.5-0.2-7.3-0.8-12.1-0.7c-11.8,0.1-23.7,0.9-35.5,0.6
	c-3.9-0.1-7.7-2.8-11.6-4.4c0.6-1.2,1.2-2.3,1.8-3.5c1.8,1.6,3.3,3.5,5.3,4.7c1.3,0.7,3.6,0.7,4.7-0.1c1-0.7,1.4-3,1.1-4.4
	c-1.9-9.6-1.5-12.1,5.1-22.8c0.7,5.6,0.7,9.5,1.7,13.1c0.7,2.3,2.8,4.2,4.2,6.2c1.9-2,4.8-3.8,5.5-6.2c0.9-3.3,0.2-7.1,0.2-10.7
	c1.3-0.1,2.6-0.3,3.9-0.4c1,7.7,1.9,15.3,2.9,23c1.1,0.1,2.3,0.3,3.4,0.4c0.9-2.4,2.8-4.9,2.7-7.2c-0.6-8.8-1.7-17.5-2.8-26.2
	c-2.3-18,3.6-33.3,15.7-46.3c10.9-11.7,21.8-23.3,33.4-34.2c7.9-7.4,16.2-14.9,25.6-20c19.7-10.8,30.9-27.1,37.9-48
	c7.5-22.4,17-44.2,25.5-66.4c1.1-2.8,2.4-6.1,1.8-8.7c-2.8-13.5,2.8-24.8,9.4-35.5c3.9-6.3,3.1-10.7-0.8-16.4
	c-6.1-8.8-12.1-18-16.3-27.8c-2.3-5.4-0.9-12.4-0.8-18.7c0.1-4.8-0.8-8.2-6.8-7.2c-36.8,6.1-67.8-7.6-96.7-28.4
	c-27.6-20-42.3-47.8-49.7-80.4c-2.9-12.9-6.6-25.6-9.9-38.4c-0.5-2-1-4-0.9-6c1.2-17.3-0.4-35.4,4.5-51.6
	c8.5-28.2,24.6-52.5,51.9-66.8c12.8-6.8,13.4-7.6,5-18.6c3.4,0.2,6.1,0.4,8.6,0.5c1.6-5.8,3.5-10.9,4.2-16.1
	c0.3-2.6-1.6-5.4-2.5-8.2c-2.1-6.8-4.7-13.6-6.3-20.5c-1.5-6.6-3.2-13.6-2.7-20.3c0.3-5.2,2.7-11.2,6.2-15
	c4.7-5.3,11.3-8.8,17.1-13.1c0.9,1.1,1.7,2.1,2.6,3.2c-4.6,3.8-9.7,7-13.5,11.4c-3.6,4.2-5.9,9.6-7.2,15.3
	c12.1-13.7,31-22.1,33.4-43c0.2-1.8,2-3.4,2.8-5.2c3.4-7.7,9.9-14,2.3-24.1c-7.5-10.1-1-43.6,7-54c9.4-12.1,17.2-25.5,26.9-37.3
	c5.7-6.9,13.4-12.3,20.9-17.3c11.6-7.8,23.5-15.6,36.1-21.6c4.3-2.1,11.3,0.7,16.9,2.2c9.5,2.4,18.8,5.3,28.1,8.5
	c3.2,1.1,6.5,3.4,8.7,6c10.5,12.4,22.7,24,30.3,38c13.2,24.1,23.8,49.8,35,75c2.6,5.9,2.8,12.9,4.1,19.4c1.7-0.6,3.5-1.2,5.2-1.8
	c-8-49.2-31.9-91.1-62.5-131.3c21.7,3.9,42.1,15.2,66.6,14.3c-1.7-4.1-2.8-6.7-3.9-9.4L1203,185z M1246.7,683.7l0.1,0.2
	c-3.3-11.8-19.2-24.5-30.6-21.5c-20.8,5.5-40.6,14.3-51.1,34.9c-5.4,10.5-9.5,21.8-12.6,33.2c-5.9,21.6,3.1,39.3,23,46.8
	c2,0.8,4.9-0.8,10.1-1.8c-5.7-3.7-8.5-5.5-11.5-7.4c0.8-0.7,1-1,1.3-1.1c6-1.9,11.5-3,16.8,2.7c6.6,7.1,28.2-2.1,36.6-10.4
	c-3-4.3-5.8-8.4-8.6-12.4c0,0-0.2,0.2-0.2,0.2c5.5,1.8,11,3.6,18.1,6c14.8-9.5,22.7-44.6,18.1-60.3
	C1255.3,689.2,1250,686.7,1246.7,683.7z M1176.9,344.1c1.5-8.8,4.2-14.5,2.8-19c-4.7-16-10.4-31.8-19.8-45.9
	c-3.9-5.8-7-12.2-9.9-18.6c-4.2-9.2-7.8-18.6-12.5-30c-14.5,13.6-30.4,23.4-39,37.6c-14.9,24.6-36.5,40.9-58.4,57.3
	c-14.2,10.6-17.4,24.5-6.3,37.7c15.9,19,4.9,56.4-20.5,63.5c10.3,6.9-2.8,7.4-2.5,13.6c2.7,1.8,6,3.9,9.3,6.1
	c7.1,4.9,16.1,8.5,21,15.1c15.2,20.7,29,42.4,42.7,64.1c2.7,4.3,5.1,11.6,3.2,15.3c-6.5,12.8,0,22,6,31.9c1.1-0.3,2.3-0.3,3-0.9
	c16.9-17.1,37.1-25.6,61.2-22.3c8.3,1.1,16.4,4,24.8,5.5c8.4,1.5,9.3-0.6,7.2-8.6c-1.5-5.9-2.7-13.3-0.5-18.4
	c5.5-12.4,13.1-23.9,19.7-35.7c-5.2-2.2-4.1-5.8,0.8-10.2c2-1.8,4.5-3.9,5.1-6.3c1.3-5.2,2-10.7,2.1-16.1c0.3-9.5,0.1-19.1,0.1-28.6
	c-1.3-0.2-2.6-0.3-3.9-0.5c-1,5.3-2,10.6-3,16.1c-10.2-6.3-19.9-24.9-17.8-35.8c2.8,4,4.9,7,7.1,10c1.1-0.3,2.1-0.6,3.2-1
	c-8.5-23.7-22.7-46-21.8-70.6c5.9-2.9,10-4.7,14-7c16-9.2,30.8-7.9,39.2,4.9c5.1,7.8,11,12.5,19.4,17.1c15.4,8.4,50.4-6.3,57.6-22
	c-6.4-1.8-12.7-4.1-19.2-5.1c-23.7-3.7-47.5-7.1-71.3-10c-3.5-0.4-7.5,1.8-11.1,3.3C1198.9,334.6,1189.1,338.9,1176.9,344.1z
	 M1263.3,677c0.9-1.3,1.7-2.7,2.6-4c-9.9-11.5-18.7-24.7-35.8-26.7c-5.6-0.6-11.5,1.4-17.2,1.4c-2.6,0-7.3-1.5-7.6-3
	c-2.1-10.6-8.7-6.2-14.1-4.6c-18.7,5.5-31.5,19.4-45.2,32.2c-4,3.7-9.4,6.8-14.7,8.2c-12.4,3.4-23.2-3.8-24.7-14.5
	c-3.4-24.9,8.7-44.4,23.8-61.2c13.3-14.9,31.7-23.4,51.9-26.7c2.1-0.3,3.7-3,5.6-4.6c-2.4-1.2-5.1-3.6-7.3-3.2
	c-7,1.1-14.6,1.8-20.6,5.2c-12.4,6.8-25.5,13.5-35.4,23.3c-16.4,16.2-31.5,34.3-32.1,58.5c-2.3,0.3-6.8,0.2-6.9,1
	c-2.7,11.8-5,23.7-7,35.7c-0.6,3.9,0.8,8.2,0,12c-3.6,17,2.5,32.3,8,47.7c1,2.7,4.3,7.2,5.2,6.9c8.6-2.9,8.7,5.5,12.4,8.8
	c4.5,4.1,8.6,8.6,13,12.8c3.4,3.3,7.1,6.3,10.7,9.5c-0.8,1.1-1.7,2.3-2.5,3.4c-5.2-3.9-10.8-7.4-15.4-11.9
	c-4.8-4.7-8.7-10.5-13-15.8c-1.2,1-2.5,1.9-3.7,2.9c4,5.4,7.9,10.9,12.1,16.2c9.8,12.5,21.8,13,33,1.7c1.2-1.3,3-2,4.4-2.9
	c-4.8-15.7-15.7-27.9-14.3-45.5c1.4-16.4,6.2-31,13-45.5c6.8-14.7,16.1-26.6,35.2-32.5c-35,29.2-43,67.4-33.3,94.8
	c1.1-4.8,0.8-9.6,1.1-14.4c1.2-18.3,3.9-36.5,14.1-52.2c7.7-11.8,18-21.2,30.8-28.3c11.5-6.3,23.6-8.8,36.1-9.4
	c13.8-0.7,21.4,10.1,29.7,19.1C1257.4,673.6,1260.6,675.1,1263.3,677z M1077.9,587c-1.2-0.7-2.5-1.3-3.7-2
	c-6.3,11.4-13.6,22.5-18.8,34.4c-10,22.6-19.3,45.6-16.5,71.3c0.7,6.7-3.9,9.7-9.5,9.1c-24.4-2.5-48.4-7.1-69.1-21.6
	c-16-11.3-26.3-27-35.2-44.1c-12.6-24.2-22-49.5-18.6-76.9c2.4-20,8.8-39.6,13.7-59.2c1.4-5.5,3.9-10.8,5.8-16.1
	c-4.4,4.2-7.2,9.1-10.4,13.7c-7.4,11-10.9,23.3-12.1,36.2c-1.7,18.4-5.2,37.1-3.2,55.2c1.7,15.3,9,30.3,15.9,44.5
	c10.4,21.5,22.7,42.1,44.2,54.6c17.6,10.2,37,15.4,56.5,20.7c25.4,6.9,27.3,5.9,27.8-20.2c0.5-26.7,7.8-51.5,21.8-74.4
	C1071.4,604.4,1074.2,595.4,1077.9,587z M1223.7,349c-0.9,0.7-1.8,1.4-2.7,2.1c0.1,1.9-0.4,4.2,0.4,5.8c6.3,12.7,8.7,25.7,3.2,39.4
	c-0.6,1.6,0.5,5.3,1.8,5.9c1.6,0.7,4.4-0.4,6.3-1.4c15.2-7,30.6-5.6,45.1,0.7c7.4,3.2,13.4,9.9,19.7,14.7c2.8-2.9,5.6-5.1,7.4-8
	c3.1-4.7,8.6-10.5,7.6-14.6c-1.9-8.3,0.4-15.1,2.3-22.5c0.6-2.2-0.2-6.2-1.6-6.9c-1.8-0.9-5.1,0.2-7.3,1.3
	c-9,4.4-17.8,9.4-26.9,13.5c-17.2,7.9-39.2-2-46-19.6C1231.6,355.4,1227,352.5,1223.7,349z M1177.4,595c0,3,0.9,6.4-0.3,8.2
	c-0.9,1.3-4.9,1.1-7.2,0.6c-2.6-0.5-4.9-2.2-7.3-3.4c-7.6-3.7-9.6-2.4-9.4,6.9c-8.4-3.6-13.5,0.7-17.7,7.2
	c-4.4,6.7-10.1,12.8-13.2,20c-3.2,7.5-4.5,15.9-5.7,24.1c-0.2,1.5,5.1,5.7,6.5,5.1c5.9-2.3,12.8-4.8,16.5-9.4
	c12.6-15.6,28.7-22.2,48.1-22.6c5.8-0.1,11.7-1.1,17.3-1.7c-7.8-6.6-18.1-11.3-21-18.8c-2.7-7.1,2.2-17.2,4.1-27.6
	c-9.4,4.1-17,7.5-24.5,10.8c0.2,1,0.5,2,0.7,3C1167.9,596.8,1171.4,596.1,1177.4,595z M1234.3,479.3c1.1,0.1,2.3,0.3,3.4,0.4
	c1.3-2.8,2.6-5.6,4.1-8.6c2.7,3.1,4.9,5.8,8.2,9.7c2.2-4.7,3.7-7.8,5.2-11c1.1,2.4,1.7,4.8,3.1,6.6c2.6,3.4,6.4,9.4,8.5,8.9
	c7-1.5,4.5-7.3,3.2-12.4c-2-7.3,1.9-9.1,7.5-7.1c0-7.5-0.7-14.6,0.1-21.4c2.4-20-17.2-35.6-37.7-29.3
	C1239.9,436.6,1231.6,457.6,1234.3,479.3z M1079.6,278.1c-2.4-2.1-3.7-4-5.6-4.7c-14.9-6.1-29.9-12-45-17.7c-1.7-0.7-4-0.7-5.8-0.3
	c-6.2,1.6-18.6,16.8-16.4,23.5c1.9,5.9,8.9,10.5,14.1,15c4.4,3.7,10.1,6,14.3,9.8c4.5,4,7.8,5.3,13,0.9c7.7-6.5,16.2-12.2,24.1-18.5
	C1074.8,284.2,1076.6,281.4,1079.6,278.1z M978.1,359.2c-1.1,1.4-2.6,2.7-3.3,4.3c-3.3,7-8.8,14.1-8.9,21.3
	c-0.2,13.3,12.8,27.4,24.1,29.7c16.6,3.4,29.3-2.3,37.6-16.9c8.5-15,6.5-23.7-5.4-35.9c-9-9.3-21.3-8.1-31.5-13
	c-7.2-3.5-8.5-0.1-8.2,6.4c-7-5.4-13.3-2.7-22,8.4c-10.1,12.9-10.9,23.7-0.9,31.9C960.5,380.2,960.6,365,978.1,359.2z M1039.8,597
	c11.2-9.4,13.9-24.3,8.5-34.3c-3.8-6.9-5.8-14.8-9.1-22c-3.6-7.9-6.6-16.3-11.8-23.1c-10-13.2-34.1-12.6-42.7-2.6
	c-10.3,12-20.8,24.1-19.2,41.8c0.9,9.8,0.5,19.8,1.9,29.5c0.9,6.7,4,13,6.1,19.5c1-0.3,2.1-0.6,3.1-1c-0.3-3-0.9-5.9-1-8.9
	c-0.7-15.9-2-31.8-1.8-47.7c0.1-8.3,3.2-15.9,14.2-15.9c2.5,0,4.9-3.2,8.5-5.8c-4.7-1.5-7.3-2.3-10.2-3.2c12-15.8,34.5-9.2,42.3,6.8
	c8.8,18.3,17.1,37,10.8,58.4C1038.7,590.8,1039.5,593.3,1039.8,597z M1245.9,634.6c1.1-2.5,2.4-5.9,4-9.1c0.1-0.3,4.1,0.7,4.2,1.3
	c0.4,4.5,0.2,9.1,0.2,15.5c2.8,3.2,7,8.2,11.3,13.1c0.9-0.2,1.8-0.4,2.6-0.6c-0.2-5.1,0.5-10.5-0.9-15.2c-4.1-13.2-9-26.2-14-39.2
	c-2.3-6.1-5.6-7.1-10.2-1.3c-4.1,5.2-9.1,9.7-13.9,14.3c-5.5,5.1-11.2,9.9-18.1,16C1224.3,631.4,1235,633,1245.9,634.6z M1006.8,341
	c9.4,0.1,16.5-8.4,16.6-19.7c0.1-10.6-3.9-15.4-13-15.6c-11.3-0.3-22.5,10.9-22.8,22.7C987.4,336.7,993.8,340.9,1006.8,341z
	 M1214.3,395.3c-0.8-11.6-1.3-23.1-2.5-34.6c-0.5-4.4-2.6-8.6-4-12.9c-4.3,1.9-8.7,3.6-12.8,5.9c-4.9,2.8-5.9,6.8-2.9,12.1
	c2.1,3.8,3,8.2,4.4,12.4c3,8.6,5.7,17.3,9.2,25.8c0.8,1.9,4,2.8,6.2,4.1c1-2.2,2.5-4.3,3-6.6
	C1215.2,399.4,1214.6,397.3,1214.3,395.3z M1265.5,545c-0.3-14.6-3.1-21.5-11.2-27.2c-1.9-1.3-5.3-1.6-7.6-0.9
	c-7.1,2-15,16.4-12,23.1c2.6,5.8,5.5,13.9,14,11.8c3.8-0.9,6.4-6.5,9.8-10.3C1259.3,542,1262.1,543.4,1265.5,545z M1138.2,220.8
	c1-0.4,2-0.8,3-1.3c-1-2.7-1.3-6.4-3.3-8.1c-9.4-8.2-19.2-16-29.1-23.6c-2-1.5-5-2-7.7-2.3c-27.9-3.5-48.4,11.6-68.3,27.6
	c-2.2,1.7-2.8,5.3-4.1,8.1c3.2,0.6,4.7,0.1,5.9-0.8c9.6-6.9,18.6-14.8,28.8-20.5c8.3-4.6,18.1-9.4,27.1-9.3
	c14.3,0.2,28,5.5,37.3,18.1C1130.9,213.1,1134.7,216.8,1138.2,220.8z M984.3,436.9c5.1,0,9.2,0.3,13.3-0.1c1.6-0.2,3.5-1.8,4.3-3.2
	c0.4-0.8-1-3.5-2.1-3.9c-11.3-4.1-22.6-8.3-34.2-11.5c-2.2-0.6-7,2.1-7.9,4.3c-0.9,2.2,1.2,6.1,2.8,8.7
	C966.7,441.4,976.8,436.2,984.3,436.9z M1222.7,499c-15.6,7.6-22.9,20.9-26,36.4c-1.5,7.6,1,14.7,11.9,20.5
	C1203.4,533.3,1209.5,515.3,1222.7,499z M1212.1,582.8c-2,6.5-5,13.1-5.5,19.9c-0.1,1.8,8.4,6.7,11.4,5.7
	c5.9-1.9,10.7-7.1,15.8-10.8C1225.8,592.2,1220.1,588.3,1212.1,582.8z M1034,241.5c3,8.9,37.9,25.7,50.7,25
	C1069.2,253,1051.3,250.6,1034,241.5z M995.9,629.3c15,4.6,25.8,1.9,34.6-9.3c3.8-4.9,5.3-11.6,7.8-17.5c-0.7-0.3-1.4-0.6-2.1-0.9
	c-6.8,8.6-13.5,17.1-22.5,28.6c-1.8-4.9-2.9-7.8-3.9-10.6C1004.2,623.5,1000.6,626,995.9,629.3z M1010.5,241.4
	c-16.3,13.1-24.1,34.2-17.8,44C998.7,270.7,1004.6,256,1010.5,241.4z M985.5,449.8c13.6,5.2,26.9,10.3,40.8,15.5
	C1009,445.5,1000.5,442.4,985.5,449.8z M931,473.3c0.6,0.8,1.2,1.6,1.8,2.5c10.1-6.6,20.2-13.2,30.3-19.9c-0.6-0.9-1.2-1.8-1.9-2.7
	C947.5,454.5,940,465,931,473.3z M1252.8,566.5c-0.1,1.2-0.1,2.3-0.2,3.5c3.4,0,7.4,1.2,10-0.2c5.9-3.2,10.7-8,11.8-17.5
	C1265.8,557.9,1259.3,562.2,1252.8,566.5z M1161,781.9c-6.3-7.8-11.6-14.5-17.5-21.8C1140.7,770.9,1148.5,781.1,1161,781.9z
	 M1228.4,557.4c-2.5-9.1-4.5-16.8-6.8-25.3C1213.9,542.7,1216.3,551.7,1228.4,557.4z M1224.7,448.8c0.8,0.1,1.7,0.3,2.5,0.4
	c2.1-4.4,4.4-8.7,6-13.2c0.5-1.4-0.8-3.4-1.3-5.1c-1.7,0.7-4.7,1.2-4.9,2.2C1225.9,438.2,1225.4,443.5,1224.7,448.8z"/>
<path d="M1430.4,878.8c0-54.3,0-108.6,0-162.9c-1.2-0.2-2.5-0.4-3.7-0.6c-1,2.7-2.8,5.4-3,8.1c-1.6,29.9-2.6,59.8-4.6,89.7
	c-1.3,20-4.3,39.8-5.6,59.8c-1.9,29.2-2.8,58.5-4.4,87.7c-1.3,23.4-3.6,46.8-4.7,70.3c-0.7,15.2-0.1,30.4-0.1,45.6
	c-1,0.5-1.9,0.9-2.9,1.4c-1.5-1.6-4.1-3-4.3-4.7c-0.5-4.7-0.1-9.5,0.1-14.3c2-44.9,3.5-89.8,6.1-134.7c2.3-37.9,6.6-75.8,8.7-113.7
	c3.1-54.4,4.5-108.8,7.5-163.2c1.7-29.8,5.9-59.4,7.6-89.1c1.8-32.7,1.9-65.4,2.9-98.1c0.1-3.9,1.5-7.8,3-11.4c0.4-1,3.6-1.4,5.2-1
	c0.9,0.2,1.7,2.8,1.6,4.2c-1.1,33.9-1.9,67.9-3.6,101.8c-0.4,8.6-4.3,16.9-5.1,25.5c-1,10.3-0.6,20.8-0.6,31.2
	c0,2.3,1.8,5.8,0.9,6.7c-7.9,8-4.7,17.8-4.7,27c0,5.6-5.7,14.1,6.5,14.8c1,0.1,2.3,5.5,2.2,8.5c-0.3,19.6-1.4,39.2-1.4,58.9
	c0,20,1.3,40.1,1.5,60.1c0.3,30.9,0.1,61.9,0.1,92.8C1433.9,879.1,1432.1,879,1430.4,878.8z"/>
<path d="M542,875.8c0-54.3,0-108.6,0-162.9c-1.2-0.2-2.5-0.4-3.7-0.6c-1,2.7-2.8,5.4-3,8.1c-1.6,29.9-2.6,59.8-4.6,89.7
	c-1.3,20-4.3,39.8-5.6,59.8c-1.9,29.2-2.8,58.5-4.4,87.7c-1.3,23.4-3.6,46.8-4.7,70.3c-0.7,15.2-0.1,30.4-0.1,45.6
	c-1,0.5-1.9,0.9-2.9,1.4c-1.5-1.6-4.1-3-4.3-4.7c-0.5-4.7-0.1-9.5,0.1-14.3c2-44.9,3.5-89.8,6.1-134.7c2.3-37.9,6.6-75.8,8.7-113.7
	c3.1-54.4,4.5-108.8,7.5-163.2c1.7-29.8,5.9-59.4,7.6-89.1c1.8-32.7,1.9-65.4,2.9-98.1c0.1-3.9,1.5-7.8,3-11.4c0.4-1,3.6-1.4,5.2-1
	c0.9,0.2,1.7,2.8,1.6,4.2c-1.1,33.9-1.9,67.9-3.6,101.8c-0.4,8.6-4.3,16.9-5.1,25.5c-1,10.3-0.6,20.8-0.6,31.2
	c0,2.3,1.8,5.8,0.9,6.7c-7.9,8-4.7,17.8-4.7,27c0,5.6-5.7,14.1,6.5,14.8c1,0.1,2.3,5.5,2.2,8.5c-0.3,19.6-1.4,39.2-1.4,58.9
	c0,20,1.3,40.1,1.5,60.1c0.3,30.9,0.1,61.9,0.1,92.8C545.5,876.1,543.8,876,542,875.8z"/>
<path d="M670.4,488.7c-1.5,38.7-2.7,77.5-4.7,116.2c-1.9,36-4.2,72.1-7.1,108c-2.5,31.7-0.1,63.1,0.9,94.7c1,29-4,58.3-8,87.2
	c-4.5,32.9-10.6,65.5-16.1,98.3c-2,11.9-4.2,23.7-7.3,35.4c0-10.9-0.6-21.9,0.1-32.8c1.4-19.3,3.2-38.5,5.5-57.7
	c2.9-24.6,7-49.1,9.6-73.8c2.4-22.9,3.5-46,5.2-69c0.4-5.1,1.3-10.1,1.5-15.2c1.5-37.7,2-75.5,4.4-113.2
	c2.7-42.4,7.2-84.7,10.5-127.1c1.1-13.9,0.9-27.9,1.5-41.8c0.1-3.2,1-6.4,1.6-9.7C668.9,488.4,669.6,488.6,670.4,488.7z"/>
<path d="M691.1,28.4c0.5,7.3,0.5,14.7,1.5,22c7.4,53.4,9,107,4.3,160.7c-3.5,39.9-9.6,79.6-13.7,119.5c-1.8,17.2-1.4,34.7-2.3,52
	c-0.2,3.7-1.3,7.4-3.9,10.8c0-16.2-0.7-32.5,0.2-48.7c1.2-22.4,4.2-44.6,5.2-67c1.5-29.9,1.5-59.9,2.8-89.8
	c0.8-18.4,3.6-36.6,3.9-55c0.5-23.1-0.6-46.2-0.9-69.2c-0.1-11.7,0-23.5,0-35.2C689.2,28.4,690.1,28.4,691.1,28.4z"/>
<path d="M179.1,677.4c0.5,7.3,0.5,14.7,1.5,22c7.4,53.4,9,107,4.3,160.7c-3.5,39.9-9.6,79.6-13.7,119.5c-1.8,17.2-1.4,34.7-2.3,52
	c-0.2,3.7-1.3,7.4-3.9,10.8c0-16.2-0.7-32.5,0.2-48.7c1.2-22.4,4.2-44.6,5.2-67c1.5-29.9,1.5-59.9,2.8-89.8
	c0.8-18.4,3.6-36.6,3.9-55c0.5-23.1-0.6-46.2-0.9-69.2c-0.1-11.7,0-23.5,0-35.2C177.2,677.4,178.1,677.4,179.1,677.4z"/>
<path d="M1381.6,785.8c1.9,83.2-5.1,164.7-22.3,245.9c-0.5-3.2-1.7-6.4-1.5-9.5c2.5-31.6,5.9-63,7.7-94.6
	c1.9-32.5,1.4-65.1,3.6-97.6c1-14.2,6-28.2,9.3-42.3C1378.5,787.1,1379.9,786.7,1381.6,785.8z"/>
<path d="M849.5,778.8c-1,16.8-2,33.6-3,50.3c-0.7,12.5-1.9,25.1-2.1,37.6c-0.8,36.8-0.6,73.6-1.9,110.4
	c-0.8,21.4-2.8,42.9-12.7,63.5c1-44.6,2-88.4,2.8-132.1c0.7-43.8,8-86.8,13-130.1C846.8,778.6,848.1,778.7,849.5,778.8z"/>
<path d="M603.8,367.5c0.6,38.2,2.6,76.4-3.7,114.8c-4.7,28.6-4.1,58.1-5.5,87.2c-1.3,26.5-2.3,53-3,79.5c-0.4,16.5-0.1,33-1.2,49.4
	C579.6,587.5,593.9,477.6,603.8,367.5z"/>
<path d="M1036.8,1051c17.6,0,35.3,0.5,52.9-0.1c26.8-1,54,0,80.1-4.9c23.7-4.5,46.6-5.4,70.4-4.1c14.6,0.8,30.7,2.9,44.6-6.3
	c1-0.7,4.5,0.3,5.1,1.4c0.9,1.9,1.2,4.9,0.3,6.7c-0.8,1.6-3.5,3-5.4,3.3c-18.7,2.2-37.4,4.7-56.2,5.9c-21.6,1.4-43.2,2-64.8,2.2
	c-39.2,0.3-78.3,0.1-117.5,0.1c-3.1,0-6.3-0.5-9.4-0.8C1036.8,1053.2,1036.8,1052.1,1036.8,1051z"/>
<path d="M1419.9,134.9c-3-1.9-6.6-4.2-10.7-6.8c2.4-6.3,4.9-12.9,7.4-19.5c1-0.1,2-0.2,3-0.3c1.8,14.4,4,28.9,5.3,43.4
	c0.8,8.7,0.2,17.6,0.1,26.4c0,1.9-0.2,5.1-1,5.3c-1.9,0.5-4.3,0-6.2-0.7c-13.9-4.7-27.6-10.3-41.8-14.2
	c-18.8-5.2-37.9-9.3-56.9-13.7c-5.2-1.2-10.8-1.1-16.1-2.1c-7.6-1.4-15.1-3.2-22.7-5c-6.6-1.6-13.2-3.4-19.8-7
	c4.2,0,8.4-0.6,12.5,0.1c18.7,3.3,37.2,7.2,55.9,10.4c15.9,2.8,32,4.8,48,7.4c7.6,1.3,15.1,3.9,22.7,4.6c11.7,1,17.1-5.9,16-17.5
	C1415.2,142.8,1417.8,139.7,1419.9,134.9z"/>
<path d="M1403.3,439c-1.4-10.9-3.4-21.8-3.9-32.7c-0.1-3.1,4.1-6.4,6.9-10.2c-1.7-3.6-3.9-7.8-5.6-12.2c-2.4-6.5-2.7-12.4,4.5-16.9
	c2.1-1.3,3.8-6.5,2.9-8.7c-3.1-7.4-4.1-13.7-1.6-22.1c2.8-9.5,1.1-20.3,1.1-30.5c0-19.1-0.6-38.1,0.1-57.2c0.3-9,3-18,5.1-26.9
	c0.4-1.5,3.4-2.4,5.2-3.5c1.2,2.1,3.5,4.3,3.3,6.4c-2.7,40.6-5.9,81.2-8.4,121.9c-1.8,28.1-2.6,56.3-4,84.4
	c-0.1,2.9-1.4,5.8-2.1,8.7C1405.6,439.4,1404.5,439.2,1403.3,439z"/>
<path d="M888.3,682.6c1.8,6.8,5.1,13.6,5.2,20.5c1,59.2,2.2,118.5,1.5,177.7c-0.3,24.6-4.9,49.1-7.3,73.7
	c-0.6,6.5-0.1,13.1-2.2,19.6c7.2-96.8,5.5-193.6-0.4-290.3C886.2,683.3,887.3,682.9,888.3,682.6z"/>
<path d="M865.1,683.3c9.4,81.2,2.6,162.3,0.8,243.5c-1.3,0-2.7,0-4,0c0-81.1,0-162.2,0-243.3C862.9,683.4,864,683.4,865.1,683.3z"/>
<path d="M32.3,816.5c9.4,81.2,2.6,162.3,0.8,243.5c-1.3,0-2.7,0-4,0c0-81.1,0-162.2,0-243.3C30.1,816.6,31.2,816.6,32.3,816.5z"/>
<path d="M22.3,453.5c9.4,81.2,2.6,162.3,0.8,243.5c-1.3,0-2.7,0-4,0c0-81.1,0-162.2,0-243.3C20.1,453.6,21.2,453.6,22.3,453.5z"/>
<path d="M822.9,840.3c-1.1,6.9-2.4,13.8-3.4,20.7c-1.3,9-2.7,18.1-3.4,27.2c-2.9,37.6-5.9,75.3-8,113c-1.1,19.3-0.2,38.7-0.3,58.1
	c0,2.5-0.2,5.2-0.9,7.6c-0.2,0.5-4.2,0.8-4.5,0.2c-1.2-2.5-2.5-5.4-2.4-8.1c1.8-32.9,4.6-65.8,5.5-98.7c0.9-30.6-0.1-61.3-0.5-92
	c-0.1-6.1,0.6-10.7,6.1-15c4.1-3.1,5.9-9.2,8.7-13.9C820.8,839.7,821.8,840,822.9,840.3z"/>
<path d="M748.1,358c1.9,77-3,153.7-12.5,230.2c-0.9,0-1.8-0.1-2.6-0.1c3.8-76.7,7.7-153.5,11.5-230.2
	C745.7,357.9,746.9,358,748.1,358z"/>
<path d="M760.1,648.4c-0.5,7.8-0.9,15.6-1.5,23.3c-0.6,8.4-1.3,16.8-1.8,25.2c-1.9,34.3-3.2,68.6-5.8,102.8
	c-1.1,14.4-4.8,28.6-7.5,42.8c-0.3,1.6-1.4,3-4.6,4.2c5.5-66.2,11-132.5,16.5-198.7C757,648.2,758.6,648.3,760.1,648.4z"/>
<path d="M1180.7,851.7c-12.6,2.7-24.4,3.5-30.5,15.3c-4.6,9-10,17.7-14.9,26.6c-8.2,14.9-15.8,30.1-24.8,44.5
	c-11.8,19-23.6,38.1-37.4,55.6c-6.3,7.9-17.5,12-26.5,17.6c-0.9,0.6-2.5,0.1-4.4,0.1c0.4-1.4,0.4-2.9,0.8-3
	c20.1-7.3,30.8-24.4,40.8-41.2c21.1-35.6,41.2-71.8,61.5-107.8C1149.9,851.3,1166.6,846.9,1180.7,851.7z"/>
<path d="M865.7,227.9c0.5-9.9,0.7-19.9,1.6-29.8c1.6-18.2,3-36.5,5.5-54.6c3-21.4,7.9-42.5,10.4-63.9c1.7-14.4-0.1-29.1,1-43.6
	c0.5-6.9,4.1-13.6,6.8-20.3c0.4-1.1,3.2-1.2,4.8-1.8c0,1.8,0.8,4.6-0.1,5.3c-8,6.5-5.4,15.3-6.2,23.6c-3.5,38.8-7.2,77.6-11.1,116.3
	c-2.1,20.2-4.7,40.4-7.3,60.5c-0.4,3-1.7,5.8-2.6,8.7C867.5,228.3,866.6,228.1,865.7,227.9z"/>
<path d="M1354.3,865.4c5.8,12.4-5.7,135.1-16.5,174.8C1338,981.4,1346.5,923.5,1354.3,865.4z"/>
<path d="M1108,1004.6c11.7-8.4,23.5-16.7,35.1-25.2c19.9-14.6,41.4-27.5,59.1-44.5c18.5-17.7,33.2-39.4,49.7-59.3
	c2.2-2.7,4.8-5.1,7.9-6.8c-35.7,61.8-88.7,104.6-149.1,139.4C1109.8,1006.9,1108.9,1005.8,1108,1004.6z"/>
<path d="M760,165c0-26.4-0.1-52.8,0-79.2c0.1-20.4,0.8-40.8,0.7-61.2c0-2.1-4-5.2-6.6-5.9c-6.7-1.8-13.8-2.4-20.7-5.5
	c16.6,0,33.1,0,51.6,0c-2.5,1.9-3.5,3.2-4.8,3.6c-9.9,2.9-12.5,10.3-12.8,19.5c-1.3,38.7-2.7,77.4-4.2,116.2
	c-0.2,4.3-1,8.5-1.6,12.8C761,165.2,760.5,165.1,760,165z"/>
<path d="M566.5,855.5c16.9,33.7,8.7,65.8,6,97.7c-0.8,9.7-0.4,19.5-1.1,29.2c-1.7,21.5-3.8,43-5.5,64.5c-0.6,7-0.3,14.1-0.6,21.1
	c-0.2,4.4-0.9,8.8-1.3,13.2c-0.9-0.1-1.8-0.2-2.8-0.3c0-12.9-0.6-25.9,0.1-38.8c1.1-18.2,3.1-36.4,4.8-54.6
	c1.5-17,3.8-33.9,4.3-50.9c0.4-14.9-1.1-29.8-1.9-44.7C568,880.7,567.3,869.5,566.5,855.5z"/>
<path d="M1498,637.7c0-74.7,0-149.3,0-224c1.1,0,2.2,0,3.4,0c0,74.6,0,149.3,0,223.9C1500.2,637.6,1499.1,637.7,1498,637.7z"/>
<path d="M706.3,702.6c0-61.1,0-122.5,0-183.9c1,0,1.9,0,2.9,0C714.2,537.1,711.8,687.9,706.3,702.6z"/>
<path d="M1363.8,470.5c3.5,43-18.5,78.5-32.3,116.4c-1.3-0.2-2.6-0.3-3.8-0.5c0-4.1-0.8-8.4,0.2-12.2c3.1-12.1,6.3-24.1,10.4-35.9
	c4.5-12.7,10.2-25,15.1-37.6C1357.1,490.8,1360.3,480.6,1363.8,470.5z"/>
<path d="M911.5,894.2c-6.6-48-2.2-96.1-1.6-146.4C917.3,757,918.6,884.5,911.5,894.2z"/>
<path d="M1160.2,101.5c8-3.5,15.9-7,24-10.4c6.6-2.8,14.4-3.9,19.8-8.2c13.3-10.5,25.3-22.6,38.2-33.7c2.5-2.2,6.5-2.7,12.4-5
	c-4,15.8-14.6,21.6-23.1,28.8c-11.7,9.7-24.8,17.7-36.2,27.7c-5.6,4.9-10.4,5.7-17.1,4.8c-5.5-0.8-11.2-0.2-16.8-0.2
	C1161,104.1,1160.6,102.8,1160.2,101.5z"/>
<path d="M608,716.6c-1.8-80.1,4.7-159.9,10.9-239.7c0,17.7,0.5,35.5-0.2,53.2c-0.6,14.5-3.1,28.9-3.9,43.4
	c-1.6,27.5-3.1,54.9-3.8,82.4c-0.4,14.2,1,28.5,1.5,42.8c0.2,6,0,12,0,17.9C611,716.6,609.5,716.6,608,716.6z"/>
<path d="M542.7,523.4c2-80.1,3.9-160.3,5.9-242.7c4.4,10.2,1,219.5-3,242.7C544.7,523.5,543.7,523.5,542.7,523.4z"/>
<path d="M1320.8,848.1c-8.6,11.1-17.8,21.8-25.8,33.3c-14.9,21.2-28.7,43.3-43.9,64.3c-13.9,19.2-27.6,38.9-49.5,50.3
	c-1.9,1-4,1.7-6.7,1.2c7.3-6.3,15.8-11.7,21.8-19.1c15.7-19.4,30.4-39.6,45.4-59.6c15.2-20.4,30.1-41,45.4-61.2
	c3.2-4.2,7.7-7.3,11.7-10.9C1319.7,846.9,1320.2,847.5,1320.8,848.1z"/>
<path d="M1463.2,364.5c0-55.8,0-111.7,0-167.5c1.5,0,3,0,4.5,0c-0.8,56,4.7,111.9-0.5,167.9C1465.9,364.8,1464.6,364.6,1463.2,364.5
	z"/>
<path d="M628.9,118.9c0,69.1,5.4,138.1,0.3,207.2c-1,0-2,0-2.9,0c0-69.1,0-138.1,0-207.2C627.2,118.9,628,118.9,628.9,118.9z"/>
<path d="M1397.3,583.9c-0.4-5.9-2.9-12.7-0.8-17.5c6.1-14,4.6-28.7,4.7-42.9c0.1-22-2.3-44-3.9-66c-0.2-3.1-2.7-5.9-3.7-9
	c-1.2-3.8-2-7.7-2.9-11.6c1.5-0.6,2.9-1.1,4.4-1.7c4.1,8.4,11.6,16.8,11.6,25.2c0,30.2-2.6,60.3-3.9,90.5
	c-0.3,7.8,0.5,15.6,0.4,23.4c0,3.3-1.2,6.6-1.9,9.9C1400,584.1,1398.7,584,1397.3,583.9z"/>
<path d="M768.7,482.7c-5.1-54.5,2.1-108.5,6.2-162.6C782.8,374.8,769,428.5,768.7,482.7z"/>
<path d="M679.3,15c-17.5,5.5-15.6,19.4-16.5,30.9c-2,25.8-2.4,51.6-3.5,77.5c-0.3,6.1-0.8,12.2-1.4,21.3c-1.8-4.1-2.9-5.4-2.9-6.8
	c0-21.1,0-42.2,0.3-63.4c0.3-16.8,1.2-33.6,1.4-50.4C656.7,15.4,667.3,9.5,679.3,15z"/>
<path d="M956,202.8c0-54.8,0-109.6,0-164.4c1.2,0,2.3,0,3.5,0c-1.3,54.8,7.1,109.7-0.3,164.4C958.1,202.8,957.1,202.8,956,202.8z"/>
<path d="M868.7,236.4c-2,8.6-4.1,17.2-6.1,25.8c-0.7,2.9-1.9,5.7-2.1,8.6c-1.7,24-3.3,48-4.9,72.1c-0.8,12.5-1.6,25-4,37.3
	c-3.1-48.9,1.7-97,12.4-144.6C865.6,235.8,867.1,236.1,868.7,236.4z"/>
<path d="M1070.1,917.5c8-35.7,22.8-68.9,38.8-101.5C1108.1,854.4,1084.5,884.2,1070.1,917.5z"/>
<path d="M799.2,841.4c0.6-8.4,0-17.2,2-25.3c5.1-20.6,11.6-40.8,17.1-61.2c2.2-8.3,3.2-17,4.8-25.4c1,0,2,0,3,0.1
	c0,8.7,1.5,17.6-0.3,25.9c-6.2,28.3-13.7,56.4-20.7,84.6c-0.2,0.8-1.5,1.2-2.3,1.8C801.6,841.7,800.4,841.6,799.2,841.4z"/>
<path d="M1329,964.3c0.2,2.3,0.9,4.6,0.5,6.8c-4,23.6-8,47.2-12.4,70.8c-0.4,2-3.3,3.5-5,5.3c-1.5-1.9-4.6-4.1-4.3-5.8
	c1.5-10-4.1-20.5,6.6-30.1c5-4.4,2-17.2,3.7-26c1.5-7.5,4.5-14.8,6.9-22.1C1326.4,963.5,1327.7,963.9,1329,964.3z"/>
<path d="M711.4,924.6c1.4,34.9-11.6,68-14.6,102.3c-0.9,0.1-1.9,0.3-2.8,0.4c-0.8-5.1-2.8-10.5-2-15.4c4.4-28.2,9.4-56.3,14.3-84.4
	c0.2-1.2,1.3-2.3,2-3.4C709.3,924.3,710.4,924.5,711.4,924.6z"/>
<path d="M1251.3,905.7c-8,25.4-65.2,81-80.7,80.5C1196.9,960.1,1224.1,932.9,1251.3,905.7z"/>
<path d="M1046.4,14.6c-10.6,11.4-25.7-2.1-36.1,11.4c7.2,1.8,12.5,3.2,17.8,4.6c0.1,0.5,0.3,1,0.4,1.5c-6.4,1.2-12.8,2.5-20,3.9
	c-0.1-2.3,0.6-4.9-0.4-6.1c-2.1-2.5-5-5.6-7.9-6c-1.7-0.2-5.1,3.9-5.9,6.7c-1.5,5.2-1.7,10.9-2.5,16.3c-0.9,0-1.7,0-2.6,0
	c-1.1-4-2.5-8-3.3-12.1c-2.6-13.9,3.2-19.7,17.7-19.6c9.5,0.1,18.9-1.4,28.4-1.8C1036.3,13.2,1040.5,14.1,1046.4,14.6z"/>
<path d="M1393.3,865.4c-5-11.4-1.3-113.3,5.5-124.7c-0.9,42.8-1.9,83.8-2.8,124.8C1395.1,865.5,1394.2,865.5,1393.3,865.4z"/>
<path d="M1003,90.1c31.2-1.7,62.9,0.5,92.7-11.9c0.4,1,0.8,2.1,1.2,3.1c-9.4,6-18.3,13.1-28.4,17.4c-4.4,1.8-11.2-3.2-17-3.5
	c-13.1-0.6-26.3-0.2-39.4-0.2c-2.9,0-5.7-0.3-8.6-0.4C1003.3,93.2,1003.2,91.6,1003,90.1z"/>
<path d="M653.6,1058.3c-1.8-2.9-5.3-6-5.1-8.8c0.6-9.4,3.1-18.6,3.9-28c1.2-15.6,1.4-31.3,2.4-46.9c0.3-4.3,2-8.4,3-12.7
	c1.2,0.1,2.5,0.2,3.7,0.3c-1.6,31.3-3.1,62.7-4.7,94C655.7,1057,654.7,1057.7,653.6,1058.3z"/>
<path d="M1371,1078.1c3.6-31.1,6.9-59.9,10.2-88.6c1.1,0.1,2.2,0.2,3.3,0.3c3.6,14.5-1.1,28.7-2.1,43.1c-1,14.4-0.2,28.9-0.2,44.3
	C1378.4,1077.4,1374.6,1077.8,1371,1078.1z"/>
<path d="M562.8,569c0,52.8,0,105.6,0,158.4c-0.6,0-1.2,0-1.8,0c0-52.8,0-105.6,0-158.5C561.6,569,562.2,569,562.8,569z"/>
<path d="M710.4,877.2c2-38.3,3.9-76.6,5.9-115c1.5,0.1,2.9,0.2,4.4,0.2c3.9,38.7-7.4,76.6-5.4,115.2
	C713.6,877.5,712,877.4,710.4,877.2z"/>
<path d="M1154.9,70.3c-14.4,13.3-28.3,27-43.4,39.4c-2.9,2.4-10.3-0.7-17.7-1.6c16.7-20.4,40.8-26,59.4-40.1
	C1153.8,68.7,1154.4,69.5,1154.9,70.3z"/>
<path d="M1368.8,404.1c-11.8,27.6-23.6,55.2-35.3,82.8c-1.5-0.5-2.9-1.1-4.4-1.6c4.7-14,8.3-28.5,14.3-41.8
	c6.3-14,15-26.9,22.6-40.3C1366.9,403.5,1367.8,403.8,1368.8,404.1z"/>
<path d="M1070.1,156.5c7.2-7,12.8-12.5,23.9-7c15.1,7.4,31.3,12.5,46.9,18.7c1.4,0.6,2.6,1.8,3.7,5.2c-2.7,0.2-5.9,1.3-8,0.3
	C1115.7,164.1,1094.5,156,1070.1,156.5z"/>
<path d="M1355.8,263.9c-11.2-18.7-22.4-37.4-33.5-56.1c1.1-0.7,2.3-1.3,3.4-2C1345,219.8,1354.2,239.7,1355.8,263.9z"/>
<path d="M1337,870.6c6.7,13.4-4.5,73.7-14.7,78.6C1327.2,922.8,1331.9,897.9,1337,870.6z"/>
<path d="M741.6,1013.8c5.4-29.8,10.8-59.5,16.2-89.1C762.9,934.1,751.9,1006.4,741.6,1013.8z"/>
<path d="M924.4,442.9c-20.5,15.9-37.3,34.4-45,60.7C869.5,488.6,899.1,448.7,924.4,442.9z"/>
<path d="M675.5,989.5c0.4,3.1,1,6.3,1,9.4c0.1,18.6,0.7,37.3-0.2,55.9c-0.5,10-7.3,3.9-9.8,3.6c2.2-23.3,4.4-46,6.6-68.7
	C673.8,989.7,674.7,989.6,675.5,989.5z"/>
<path d="M1165.4,37c-9.5,15.2-45.2,28.8-67.6,24.4C1120.9,53,1143.8,44.8,1165.4,37z"/>
<path d="M1047.7,130.7c-8.8,3.7-15.2,6.8-21.8,9.1c-10.1,3.6-20.3,6.9-30.6,9.7c-3.2,0.9-6.9-0.2-10.3-0.4c0.7-2.8,1-7.8,2.3-8.1
	c18.6-4.6,37.3-8.5,56-12.6C1043.5,128.4,1043.8,128.7,1047.7,130.7z"/>
<path d="M326.2,28.2c0,31.3,0,62.5,0,93.8c-1,0-1.9,0-2.9-0.1c0-31.2,0-62.4,0-93.6C324.3,28.3,325.3,28.2,326.2,28.2z"/>
<path d="M1084,1079.8c33.1,0,66.2,0,99.2,0c0,1.1,0,2.2,0,3.3c-33.1,0-66.2,0-99.3,0C1084,1082,1084,1080.9,1084,1079.8z"/>
<path d="M603.1,317.5c-2.9-16.6-6.8-31.7-7.9-47c-0.7-10.4,2.5-21,4-31.5c1.3,0.1,2.6,0.2,3.8,0.3
	C603.1,264.9,603.1,290.4,603.1,317.5z"/>
<path d="M981.9,820.2c-13.8,24.5-27.5,49-41.3,73.5c-1.4-0.8-2.9-1.6-4.3-2.4c13.7-24.6,27.5-49.1,41.2-73.7
	C979,818.4,980.4,819.3,981.9,820.2z"/>
<path d="M680.7,722.4c0,25.4,0,50.8,0,76.1c-1.1,0-2.1,0-3.2,0c0-25.4,0-50.7,0-76.1C678.5,722.4,679.6,722.4,680.7,722.4z"/>
<path d="M1371.2,238c-4.3-9.6-8.6-19.2-13.2-29.2c8.6-2.7,18.4-1.9,21.1,6.9c2,6.5-2.7,15.1-4.5,22.8
	C1373.5,238.3,1372.4,238.2,1371.2,238z"/>
<path d="M974.7,912.5c13.1-22.2,26.1-44.4,39.2-66.6C1004.5,870.3,997.8,896.2,974.7,912.5z"/>
<path d="M619.6,419.2c1.6-28,3.1-56,4.7-84.1c0.6,0.1,1.2,0.1,1.7,0.2c0,28,0,56.1,0,84.1C623.9,419.4,621.7,419.3,619.6,419.2z"/>
<path d="M1211.8,887.8c-13.2,15.5-26.5,31.1-39.7,46.6c-0.9-0.7-1.7-1.5-2.6-2.2c10.3-18.1,20.9-36.1,40.5-46.3
	C1210.6,886.5,1211.2,887.1,1211.8,887.8z"/>
<path d="M598.3,822.1c0,4.2,1.5,9.1-0.3,12.3c-8.7,15.9-2.8,33.6-7.2,50c-0.8,3.1-1.1,6.3-2.6,9.3c-4.5-24.8,1-48.2,7.2-71.6
	C596.4,822,597.4,822,598.3,822.1z"/>
<path d="M527.3,176.3c0-23.1,0-46.8,0-70.6C534.5,122.9,532.4,172.4,527.3,176.3z"/>
<path d="M988.5,1028.9c7.3-18.6,33.5-33.9,56.5-46.4C1026.2,998,1007.4,1013.5,988.5,1028.9z"/>
<path d="M1146.3,830.2c27,2.7,52.3-0.9,78.2-10.9C1213.6,832.5,1155.6,840.5,1146.3,830.2z"/>
<path d="M805.6,269.2c0-24.8,0-48.8,0-72.7C811.8,208,810.7,259.6,805.6,269.2z"/>
<path d="M1497.5,725.6c0-25.1,0-50.2,0-75.2c1,0,2.1,0,3.1,0c0,25.1,0,50.2,0,75.3C1499.6,725.6,1498.6,725.6,1497.5,725.6z"/>
<path d="M585.6,933.6c0,27.3,0,54.6,0,81.9c-1.1,0-2.2,0-3.3,0c0-8.6-0.1-17.3,0-25.9c0.1-9.5,0.3-19,0.8-28.5
	c0.5-9.1,1.4-18.2,2.1-27.3C585.3,933.7,585.5,933.7,585.6,933.6z"/>
<path d="M977.2,864.1c12-20.3,23.9-40.7,35.9-61c1.4,0.9,2.9,1.7,4.3,2.6c-12.3,20.1-24.6,40.2-37,60.3
	C979.3,865.3,978.2,864.7,977.2,864.1z"/>
<path d="M599.4,812.1c3.1-23.3,6.3-46.6,9.4-69.9C610.2,766.1,611.3,790,599.4,812.1z"/>
<path d="M707.7,1061.1c2.9-19.2,5.7-38.4,8.6-57.6c1.1,0.2,2.3,0.3,3.4,0.5c2,19.9-5.4,38.5-7.3,57.9
	C710.9,1061.7,709.3,1061.4,707.7,1061.1z"/>
<path d="M887.4,292c0,18.1,0,36.1,0,54.2c-0.8,0-1.6-0.1-2.4-0.1c0-18.1,0-36.2,0-54.3C885.7,291.9,886.5,292,887.4,292z"/>
<path d="M555.4,828.7c0-22.9,0-45.8,0-68.7c0.9,0,1.9,0,2.8,0c0,22.9,0,45.7,0,68.6C557.2,828.6,556.3,828.7,555.4,828.7z"/>
<path d="M791.8,67.2c0,19.6,0,39.3,0,58.9c-1,0-1.9,0-2.9,0c0-19.7,0-39.4,0-59.1C789.9,67.1,790.9,67.2,791.8,67.2z"/>
<path d="M522.3,268.2c0-25.1,0-50.1,0-75.2c0.6,0,1.2,0,1.8,0c0,25.1,0,50.1,0,75.2C523.5,268.3,522.9,268.2,522.3,268.2z"/>
<path d="M1139.1,831.4c-7.2,8.7-14.1,17-23.1,27.8c2.9-11.7,3.4-21.7,7.9-29.2C1128.2,822.8,1134.8,828.3,1139.1,831.4z"/>
<path d="M753.3,273.2c0,19.3,0,38.6,0,58c-0.7,0-1.4-0.1-2.1-0.1c0-19.3,0-38.6,0-58C751.9,273.2,752.6,273.2,753.3,273.2z"/>
<path d="M908,280.9c6,13.5,4.7,38.9-3.7,48.2C905.5,313.9,906.6,298.8,908,280.9z"/>
<path d="M758.2,182.5c0,21,0,42.1,0,63.1c-1.3,0-2.7-0.1-4-0.1c1-21.1,1.9-42.2,2.9-63.3C757.5,182.3,757.9,182.4,758.2,182.5z"/>
<path d="M788.2,812.9c2.7-17,5.5-34.1,8.2-51.1c8.2,18.7-3.8,34.5-4.6,51.8C790.6,813.4,789.4,813.2,788.2,812.9z"/>
<path d="M1436.2,397c0-17.9,0-35.9,0-53.8c1,0,1.9,0,2.9,0c0,17.9,0,35.9,0,53.8C1438.1,396.9,1437.1,396.9,1436.2,397z"/>
<path d="M722.5,356.8c0-20.1,0-40.2,0-60.3c0.7,0,1.4,0,2.1,0c0,20.2,0,40.4,0,60.6C723.9,357,723.2,356.9,722.5,356.8z"/>
<path d="M871.7,1039.5c-1.1,11.6-2.3,23.2-3.5,36.1c-3.9-1.5-7.4-2.9-10.4-4.1c4.1-11.3,7.9-21.6,11.6-32
	C870.2,1039.5,870.9,1039.5,871.7,1039.5z"/>
<path d="M680.9,937.1c2.2-14.6,4.5-29.2,6.7-43.8c1.2,0.2,2.3,0.3,3.5,0.5c-1.5,14.6-3.1,29.3-4.6,43.9
	C684.7,937.6,682.8,937.4,680.9,937.1z"/>
<path d="M1239,832.7c12.3-10.9,24.5-21.7,36.8-32.6C1267.4,815.3,1256.6,827.7,1239,832.7z"/>
<path d="M935.1,265.3c-1.1-14-2.1-27.9-3.2-41.9c1.5-0.1,2.9-0.2,4.4-0.3c7.3,13.5,0.1,28.1,1.9,42
	C937.1,265.1,936.1,265.2,935.1,265.3z"/>
<path d="M1442.3,175.6c0-9.3-0.2-18.7,0.2-28c0-1.4,2.4-2.7,3.7-4.1c1.3,1.3,3.7,2.5,3.7,3.8c0,8.3-0.3,16.6-1,24.9
	c-0.1,1.5-2.4,2.8-3.7,4.1C1444.2,176.1,1443.3,175.8,1442.3,175.6z"/>
<path d="M906.8,81.2c0-17.1,0-34.1,0-51.2c0.8,0,1.6,0.1,2.4,0.1c0,17.1,0,34.1,0,51.2C908.4,81.2,907.6,81.2,906.8,81.2z"/>
<path d="M1191.1,873.8c-8.4,4.5-16.8,8.9-26.3,13.9c4.9-15.9,8.7-18.2,24.9-16.7C1190.1,871.9,1190.6,872.9,1191.1,873.8z"/>
<path d="M727.4,246.1c0-12.1,0-24.2,0-38C733.5,216.2,733.6,235.9,727.4,246.1z"/>
<path d="M1454.2,859.8c0-19,0-38,0-56.9c0.7,0,1.5,0,2.2,0c0,19,0,37.9,0,56.9C1455.6,859.8,1454.9,859.8,1454.2,859.8z"/>
<path d="M628.5,780.6c-1.1,13.9-2.1,27.9-3.2,41.8c-1.5-0.1-3-0.3-4.5-0.4c1.2-13.9,2.4-27.8,3.6-41.7
	C625.7,780.4,627.1,780.5,628.5,780.6z"/>
<path d="M901.2,136.7c0-13.9,0-27.7,0-41.6c1.1,0,2.2,0.1,3.3,0.1C906.5,109.1,904.2,122.8,901.2,136.7z"/>
<path d="M1364.5,119.6c8.9,0,17.8-0.4,26.6,0.3c2.1,0.2,4,4.1,6,6.3c-2.3,1.1-4.9,3.5-7,3c-8.8-1.9-17.5-4.5-26.2-6.9
	C1364.2,121.4,1364.3,120.5,1364.5,119.6z"/>
<path d="M555.4,182.6c0-13.6,0-27.2,0-40.9c0.6,0,1.1,0,1.7,0c0,13.6,0,27.2,0,40.9C556.5,182.5,556,182.5,555.4,182.6z"/>
<path d="M1467.8,145.3c0,11.5,0,22.9,0,34.4c-1.3,0-2.6,0-3.9,0C1463.9,168.2,1461.3,156.7,1467.8,145.3z"/>
<path d="M1491.8,204.7c0-11,0-22,0-33.6c6.4,6.5,7,16.5,2.8,33.3C1493.6,204.5,1492.7,204.6,1491.8,204.7z"/>
<path d="M984.6,981.7c-9.3,7.6-18.6,15.1-27.9,22.7c-0.8-0.9-1.6-1.8-2.4-2.7c8.9-7.9,17.9-15.8,26.8-23.7
	C982.3,979.2,983.5,980.5,984.6,981.7z"/>
<path d="M1207.9,1026.8c-13.5,2.5-27,5-40.5,7.5c-0.2-0.9-0.4-1.8-0.5-2.7c13.3-3.2,26.6-6.3,39.9-9.5
	C1207.1,1023.6,1207.5,1025.2,1207.9,1026.8z"/>
<path d="M775.5,690.4c0,10.9,0,21.8,0,32.6c-0.9,0-1.8,0-2.7,0c0-10.9,0-21.8,0-32.6C773.7,690.4,774.6,690.4,775.5,690.4z"/>
<path d="M675.3,417.3c0,11.9,0,23.8,0,35.7c-0.9,0-1.7,0-2.6,0c0-11.9,0-23.7,0-35.6C673.6,417.4,674.4,417.4,675.3,417.3z"/>
<path d="M817.9,636.7c-0.8-10.2-1.6-20.4-2.4-30.5c1.6-0.1,3.1-0.2,4.7-0.3c0.6,10.1,1.2,20.2,1.8,30.2
	C820.6,636.3,819.3,636.5,817.9,636.7z"/>
<path d="M757.8,1042.7c1.2,6.6,2.5,11.1,2.7,15.7c0.1,2.1-1.7,4.9-3.4,6.3c-1,0.8-4.6,0.2-5.4-0.9c-1.2-1.8-2-4.9-1.3-6.9
	C751.9,1052.6,754.6,1048.7,757.8,1042.7z"/>
<path d="M1361.5,97.4c10.5-1.4,21-2.8,34.4-4.6c-2.2,3-3.8,7.1-5.5,7.1c-9.6,0.1-19.3-0.7-29-1.2
	C1361.5,98.2,1361.5,97.8,1361.5,97.4z"/>
<path d="M1183.2,41c1.8-6,3.6-12.1,6-20.3c1.6,1.5,6.6,5,6.2,6.1c-2.5,5.6-6.4,10.6-9.8,15.7C1184.8,42,1184,41.5,1183.2,41z"/>
<path d="M1316,895.1c-6.6,8.4-13.2,16.8-19.8,25.2c-1-0.7-2-1.4-2.9-2.1c6.2-8.7,12.5-17.4,18.7-26
	C1313.3,893.1,1314.6,894.1,1316,895.1z"/>
<path d="M1279,1015.3c6.9-4.8,12.4-8.5,18-12.5C1299.9,1015.6,1297.2,1017.5,1279,1015.3z"/>
<path d="M1486.9,440.8c0-11.7,0-23.4,0-35.1c0.8,0,1.7,0,2.5-0.1c0,11.7,0,23.5,0,35.2C1488.6,440.9,1487.7,440.9,1486.9,440.8z"/>
<path d="M955.5,1031.9c4.7-7.6,9.4-15.2,14.1-22.8c1.4,0.9,2.7,1.8,4.1,2.6c-4.9,7.6-9.8,15.1-14.7,22.7
	C957.8,1033.6,956.7,1032.7,955.5,1031.9z"/>
<path d="M1213.2,49c-7.4,4.7-14.8,9.4-22.2,14.1c-0.8-1.2-1.5-2.4-2.3-3.6c7.3-5,14.6-10.1,21.9-15.1
	C1211.5,46,1212.4,47.5,1213.2,49z"/>
<path d="M824.8,676.4c0,11,0,21.9,0,32.9c-0.5,0.1-0.9,0.1-1.4,0.2c0-11,0-22,0-32.9C823.9,676.5,824.4,676.4,824.8,676.4z"/>
<path d="M1203.2,184.7c-10.5-0.6-21-1.2-32.9-1.8c10.2-6.3,26.8-4.6,32.6,2.1C1203,185,1203.2,184.7,1203.2,184.7z"/>
<path d="M1223.8,95.8c6.9,0,13.9,0,20.8,0c0,1.3,0,2.6,0,3.9c-7,0-14,0-21.1,0C1223.6,98.4,1223.7,97.1,1223.8,95.8z"/>
<path d="M1350.2,189.3c-9.5-2-19-4-28.5-6c0.4-1.6,0.7-3.2,1.1-4.9c9.3,2.5,18.6,5.1,27.9,7.6
	C1350.5,187.2,1350.3,188.2,1350.2,189.3z"/>
<path d="M1009.2,916.7c-8.5,7.6-16.9,15.2-25.4,22.8c-0.9-1-1.8-2-2.7-3c8.7-7.5,17.3-14.9,26-22.4
	C1007.9,915,1008.6,915.8,1009.2,916.7z"/>
<path d="M1375.6,603.4c1.4,8.3,2.4,14.2,3.8,22C1368.5,618.6,1367.9,615,1375.6,603.4z"/>
<path d="M1439.5,409.8c0,8.6,0,15.2,0,23C1430.8,421.9,1430.6,416.8,1439.5,409.8z"/>
<path d="M1350.1,1076.8c1.1-8,2.3-16,3.4-24c0.9,0.1,1.8,0.2,2.7,0.3c-0.6,8.1,4.2,16.7-1.8,24.3
	C1353,1077.2,1351.5,1077,1350.1,1076.8z"/>
<path d="M881.7,367.9c0.6,9.1,2,18.4-1.5,27c-1.2-0.1-2.5-0.2-3.7-0.4c0.7-9,1.4-18.1,2.1-27.1C879.7,367.6,880.7,367.7,881.7,367.9
	z"/>
<path d="M621,836.9c-0.4,7.5-0.9,14.9-1.3,22.4c-0.9,0-1.8,0-2.7-0.1c0-7.6,0-15.1,0-22.7C618.4,836.7,619.7,836.8,621,836.9z"/>
<path d="M987.3,52.2c0,10.1,0,20.3,0,30.4c-1.1,0-2.3,0-3.4-0.1c0.5-10,1-20.1,1.5-30.1C986,52.3,986.6,52.2,987.3,52.2z"/>
<path d="M1450.2,193.5c-2.1,3.2-3.8,5.6-5.4,8c-1.4-2.6-4.2-5.4-4-7.9c0.2-3,2.9-5.8,4.6-8.7
	C1446.8,187.5,1448.3,190.1,1450.2,193.5z"/>
<path d="M124.4,758.8c0-54.3,0-108.6,0-162.9c-1.2-0.2-2.5-0.4-3.7-0.6c-1,2.7-2.8,5.4-3,8.1c-1.6,29.9-2.6,59.8-4.6,89.7
	c-1.3,20-4.3,39.8-5.6,59.8c-1.9,29.2-2.8,58.5-4.4,87.7c-1.3,23.4-3.6,46.8-4.7,70.3c-0.7,15.2-0.1,30.4-0.1,45.6
	c-1,0.5-1.9,0.9-2.9,1.4c-1.5-1.6-4.1-3-4.3-4.7c-0.5-4.7-0.1-9.5,0.1-14.3c2-44.9,3.5-89.8,6.1-134.7c2.3-37.9,6.6-75.8,8.7-113.7
	c3.1-54.4,4.5-108.8,7.5-163.2c1.7-29.8,5.9-59.4,7.6-89.1c1.8-32.7,1.9-65.4,2.9-98.1c0.1-3.9,1.5-7.8,3-11.4c0.4-1,3.6-1.4,5.2-1
	c0.9,0.2,1.7,2.8,1.6,4.2c-1.1,33.9-1.9,67.9-3.6,101.8c-0.4,8.6-4.3,16.9-5.1,25.5c-1,10.3-0.6,20.8-0.6,31.2
	c0,2.3,1.8,5.8,0.9,6.7c-7.9,8-4.7,17.8-4.7,27c0,5.6-5.7,14.1,6.5,14.8c1,0.1,2.3,5.5,2.2,8.5c-0.3,19.6-1.4,39.2-1.4,58.9
	c0,20,1.3,40.1,1.5,60.1c0.3,30.9,0.1,61.9,0.1,92.8C127.9,759.1,126.1,759,124.4,758.8z"/>
<path d="M75.6,665.8c1.9,83.2-5.1,164.7-22.3,245.9c-0.5-3.2-1.7-6.4-1.5-9.5c2.5-31.6,5.9-63,7.7-94.6c1.9-32.5,1.4-65.1,3.6-97.6
	c1-14.2,6-28.2,9.3-42.3C72.5,667.1,73.9,666.7,75.6,665.8z"/>
<path d="M97.3,319c-1.4-10.9-3.4-21.8-3.9-32.7c-0.1-3.1,4.1-6.4,6.9-10.2c-1.7-3.6-3.9-7.8-5.6-12.2c-2.4-6.5-2.7-12.4,4.5-16.9
	c2.1-1.3,3.8-6.5,2.9-8.7c-3.1-7.4-4.1-13.7-1.6-22.1c2.8-9.5,1.1-20.3,1.1-30.5c0-19.1-0.6-38.1,0.1-57.2c0.3-9,3-18,5.1-26.9
	c0.4-1.5,3.4-2.4,5.2-3.5c1.2,2.1,3.5,4.3,3.3,6.4c-2.7,40.6-5.9,81.2-8.4,121.9c-1.8,28.1-2.6,56.3-4,84.4
	c-0.1,2.9-1.4,5.8-2.1,8.7C99.6,319.4,98.5,319.2,97.3,319z"/>
<path d="M192,517.7c0-74.7,0-149.3,0-224c1.1,0,2.2,0,3.4,0c0,74.6,0,149.3,0,223.9C194.2,517.6,193.1,517.7,192,517.7z"/>
<path d="M44,561.7c0-74.7,0-149.3,0-224c1.1,0,2.2,0,3.4,0c0,74.6,0,149.3,0,223.9C46.2,561.6,45.1,561.7,44,561.7z"/>
<path d="M157.2,244.5c0-55.8,0-111.7,0-167.5c1.5,0,3,0,4.5,0c-0.8,56,4.7,111.9-0.5,167.9C159.9,244.8,158.6,244.6,157.2,244.5z"/>
<path d="M91.3,463.9c-0.4-5.9-2.9-12.7-0.8-17.5c6.1-14,4.6-28.7,4.7-42.9c0.1-22-2.3-44-3.9-66c-0.2-3.1-2.7-5.9-3.7-9
	c-1.2-3.8-2-7.7-2.9-11.6c1.5-0.6,2.9-1.1,4.4-1.7c4.1,8.4,11.6,16.8,11.6,25.2c0,30.2-2.6,60.3-3.9,90.5
	c-0.3,7.8,0.5,15.6,0.4,23.4c0,3.3-1.2,6.6-1.9,9.9C94,464.1,92.7,464,91.3,463.9z"/>
<path d="M87.3,745.4c-5-11.4-1.3-113.3,5.5-124.7c-0.9,42.8-1.9,83.8-2.8,124.8C89.1,745.5,88.2,745.5,87.3,745.4z"/>
<path d="M65,958.1c3.6-31.1,6.9-59.9,10.2-88.6c1.1,0.1,2.2,0.2,3.3,0.3c3.6,14.5-1.1,28.7-2.1,43.1c-1,14.4-0.2,28.9-0.2,44.3
	C72.4,957.4,68.6,957.8,65,958.1z"/>
<path d="M62.8,284.1c-11.8,27.6-23.6,55.2-35.3,82.8c-1.5-0.5-2.9-1.1-4.4-1.6c4.7-14,8.3-28.5,14.3-41.8c6.3-14,15-26.9,22.6-40.3
	C60.9,283.5,61.8,283.8,62.8,284.1z"/>
<path d="M65.2,118c-4.3-9.6-8.6-19.2-13.2-29.2c8.6-2.7,18.4-1.9,21.1,6.9c2,6.5-2.7,15.1-4.5,22.8C67.5,118.3,66.4,118.2,65.2,118z
	"/>
<path d="M191.5,605.6c0-25.1,0-50.2,0-75.2c1,0,2.1,0,3.1,0c0,25.1,0,50.2,0,75.3C193.6,605.6,192.6,605.6,191.5,605.6z"/>
<path d="M130.2,277c0-17.9,0-35.9,0-53.8c1,0,1.9,0,2.9,0c0,17.9,0,35.9,0,53.8C132.1,276.9,131.1,276.9,130.2,277z"/>
<path d="M136.3,55.6c0-9.3-0.2-18.7,0.2-28c0-1.4,2.4-2.7,3.7-4.1c1.3,1.3,3.7,2.5,3.7,3.8c0,8.3-0.3,16.6-1,24.9
	c-0.1,1.5-2.4,2.8-3.7,4.1C138.2,56.1,137.3,55.8,136.3,55.6z"/>
<path d="M148.2,739.8c0-19,0-38,0-56.9c0.7,0,1.5,0,2.2,0c0,19,0,37.9,0,56.9C149.6,739.8,148.9,739.8,148.2,739.8z"/>
<path d="M161.8,25.3c0,11.5,0,22.9,0,34.4c-1.3,0-2.6,0-3.9,0C157.9,48.2,155.3,36.7,161.8,25.3z"/>
<path d="M185.8,84.7c0-11,0-22,0-33.6c6.4,6.5,7,16.5,2.8,33.3C187.6,84.5,186.7,84.6,185.8,84.7z"/>
<path d="M180.9,320.8c0-11.7,0-23.4,0-35.1c0.8,0,1.7,0,2.5-0.1c0,11.7,0,23.5,0,35.2C182.6,320.9,181.7,320.9,180.9,320.8z"/>
<path d="M69.6,483.4c1.4,8.3,2.4,14.2,3.8,22C62.5,498.6,61.9,495,69.6,483.4z"/>
<path d="M133.5,289.8c0,8.6,0,15.2,0,23C124.8,301.9,124.6,296.8,133.5,289.8z"/>
<path d="M144.2,73.5c-2.1,3.2-3.8,5.6-5.4,8c-1.4-2.6-4.2-5.4-4-7.9c0.2-3,2.9-5.8,4.6-8.7C140.8,67.5,142.3,70.1,144.2,73.5z"/>
<path d="M1277.6,107.5c-6.8-0.7-13.6-1.5-20.5-2.2c0.1-1.3,0.2-2.7,0.3-4c6.9,0.4,13.8,0.8,20.7,1.2
	C1277.9,104.1,1277.7,105.8,1277.6,107.5z"/>
<path d="M889.7,261c0-10.3,0-20.5,0-30.8c0.7,0,1.4,0,2.1,0c0,10.2,0,20.3,0,30.5C891.1,260.7,890.4,260.8,889.7,261z"/>
<path d="M1131.4,1034c5.8-0.5,11.7-0.9,17.5-1.4c0.2,1.3,0.4,2.5,0.5,3.8c-5.8,1-11.5,2.1-17.3,3.1
	C1131.9,1037.6,1131.7,1035.8,1131.4,1034z"/>
<path d="M1311.8,1077.8c-2.5-4.7-4.7-6.9-4.5-8.9c0.2-2.4,2.5-4.5,3.9-6.8c1.7,1.8,4.6,3.4,4.7,5.3
	C1316,1069.9,1314,1072.5,1311.8,1077.8z"/>
<path d="M1122,744.8c-8.5-4.6-14.2-24-7.8-30.2c7.3-7.1-2.2-25.7,17.4-23.3C1131.6,709.9,1114,724.6,1122,744.8z"/>
<path d="M1125.1,762c3.4,7.6,6.3,14.2,9.6,21.6C1123.8,778.1,1119.8,769,1125.1,762z"/>
<path d="M1107,685.9c1.6,3.9,3.2,7.8,6,14.8c-5.5-2.1-11-2.7-11.5-4.6c-0.8-3.1,1.7-7,2.8-10.6
	C1105.2,685.6,1106.1,685.7,1107,685.9z"/>
<path d="M1104.7,721.8c0.3,5.3,0.6,10.6,0.9,15.9c-1.6,0.1-3.2,0.3-4.7,0.4c-0.6-5.4-1.3-10.7-1.9-16.1
	C1100.8,722,1102.8,721.9,1104.7,721.8z"/>
<path d="M1246.7,683.7c0.8,3,2.1,5.9,2.1,8.9c0,2.4-1.5,7-2.3,7c-17.3-0.1-34.6-0.7-51.9-1.4c-1.5-0.1-2.9-1.3-4.3-4.5
	c16.5,0,33,0,49.5,0c0.1-1.4,0.2-2.9,0.2-4.3c-15.9-1.4-31.8-2.9-47.7-4.3c1.8-8.3,7.8-10.4,17.7-8.3c8.3,1.8,17,1.8,25.4,3.2
	c3.9,0.6,7.6,2.6,11.4,4C1246.9,684,1246.7,683.7,1246.7,683.7z"/>
<path d="M1250,713c-16.5,0-31.4,0-46.3,0c-11.5,0-23,0-35.9,0c0.9-4.1,1.5-7.1,2.1-10.1c25.6,6.3,50.1,4,74.6,1.2
	c1.7-0.2,5,0.5,5.1,1.2C1250.3,708.7,1250,712.1,1250,713z"/>
<path d="M1220.3,746.9c-14.4,2.5-28.5,4.7-42.7-2.1c-5.2-2.5-11.5-2.6-17-6.3c12.9,1.4,25.8,4.5,38.6,3.9
	c12.8-0.6,25.4-4.9,38.3-7.6c1.4-6-3.2-16.3,12.1-13.3c-3.2,6-7.3,11-8.6,16.7c-2.6,11.3-10.2,3.9-15.5,5.3c-2,0.5-3.6,2.4-5.4,3.7
	C1220.1,747.2,1220.3,746.9,1220.3,746.9z"/>
<path d="M1205.3,736.1c-6.8,0.8-13.6,1.6-20.4,2.4c-0.3-1.4-0.5-2.7-0.8-4.1c6.8-1.2,13.6-2.4,20.4-3.6
	C1204.8,732.5,1205.1,734.3,1205.3,736.1z"/>
<path d="M1181.1,760.9c-6.5-1.2-13.1-2.5-19.6-3.7c0.3-1.5,0.5-3,0.8-4.5c6.5,1.4,13.1,2.7,19.6,4.1
	C1181.6,758.2,1181.3,759.6,1181.1,760.9z"/>
<path d="M1122.9,650.5c15-11.1,30-22.3,45.4-33.7c-1-0.7-3.6-2.6-6.2-4.5c0.4-0.9,0.8-1.8,1.2-2.7c4.5,1.8,9,3.5,15.9,6.2
	c-19.6,13.6-36.7,25.6-53.8,37.5C1124.5,652.4,1123.7,651.4,1122.9,650.5z"/>
<path d="M1057.3,276.2c-7.4,5.1-14.7,10.3-23.7,16.6c-1.1-0.9-4-3.1-8.1-6.3c11.6-4.8,21.4-8.8,31.2-12.9
	C1056.9,274.5,1057.1,275.3,1057.3,276.2z"/>
<path d="M1018.2,274.2c-0.2-8.7,5.4-10.5,10.5-12.3c0.9-0.3,3.6,1.3,3.7,2.1c0.1,1.6-0.6,4.1-1.9,4.8
	C1027.2,270.7,1023.4,272,1018.2,274.2z"/>
<path d="M998.8,407.7c-13.6-0.4-25.6-14.1-25.9-27.9c-0.2-9.9,18.4-19.8,26.5-19.6c14.6,0.4,24,10.2,23.7,23.4
	C1022.7,396.5,1011.1,408,998.8,407.7z M999.9,371.1c-2.9,3.2-7.9,7.9-11.8,13.3c-1.4,1.9,12.8,12.2,16,10.4
	c4.4-2.4,10.1-6.6,10.8-10.7C1015.7,377.8,1012.1,371.5,999.9,371.1z"/>
<path d="M400,494.7c-1.5,38.7-2.7,77.5-4.7,116.2c-1.9,36-4.2,72.1-7.1,108c-2.5,31.7-0.1,63.1,0.9,94.7c1,29-4,58.3-8,87.2
	c-4.5,32.9-10.6,65.5-16.1,98.3c-2,11.9-4.2,23.7-7.3,35.4c0-10.9-0.6-21.9,0.1-32.8c1.4-19.3,3.2-38.5,5.5-57.7
	c2.9-24.6,7-49.1,9.6-73.8c2.4-22.9,3.5-46,5.2-69c0.4-5.1,1.3-10.1,1.5-15.2c1.5-37.7,2-75.5,4.4-113.2
	c2.7-42.4,7.2-84.7,10.5-127.1c1.1-13.9,0.9-27.9,1.5-41.8c0.1-3.2,1-6.4,1.6-9.7C398.5,494.4,399.3,494.6,400,494.7z"/>
<path d="M217.7,10.4c0.5,7.3,0.5,14.7,1.5,22c7.4,53.4,9,107,4.3,160.7c-3.5,39.9-9.6,79.6-13.7,119.5c-1.8,17.2-1.4,34.7-2.3,52
	c-0.2,3.7-1.3,7.4-3.9,10.8c0-16.2-0.7-32.5,0.2-48.7c1.2-22.4,4.2-44.6,5.2-67c1.5-29.9,1.5-59.9,2.8-89.8
	c0.8-18.4,3.6-36.6,3.9-55c0.5-23.1-0.6-46.2-0.9-69.2c-0.1-11.7,0-23.5,0-35.2C215.8,10.4,216.8,10.4,217.7,10.4z"/>
<path d="M333.5,373.5c0.6,38.2,2.6,76.4-3.7,114.8c-4.7,28.6-4.1,58.1-5.5,87.2c-1.3,26.5-2.3,53-3,79.5c-0.4,16.5-0.1,33-1.2,49.4
	C309.3,593.5,323.5,483.6,333.5,373.5z"/>
<path d="M241.5,565.5c0.6,38.2,2.6,76.4-3.7,114.8c-4.7,28.6-4.1,58.1-5.5,87.2c-1.3,26.5-2.3,53-3,79.5c-0.4,16.5-0.1,33-1.2,49.4
	C217.3,785.5,231.5,675.6,241.5,565.5z"/>
<path d="M477.8,364c1.9,77-3,153.7-12.5,230.2c-0.9,0-1.8-0.1-2.6-0.1c3.8-76.7,7.7-153.5,11.5-230.2
	C475.4,363.9,476.6,364,477.8,364z"/>
<path d="M489.8,654.4c-0.5,7.8-0.9,15.6-1.5,23.3c-0.6,8.4-1.3,16.8-1.8,25.2c-1.9,34.3-3.2,68.6-5.8,102.8
	c-1.1,14.4-4.8,28.6-7.5,42.8c-0.3,1.6-1.4,3-4.6,4.2c5.5-66.2,11-132.5,16.5-198.7C486.7,654.2,488.2,654.3,489.8,654.4z"/>
<path d="M489.6,171.1c0-26.4-0.1-52.8,0-79.2c0.1-20.4,0.8-40.8,0.7-61.2c0-2.1-4-5.2-6.6-5.9C477,23,470,22.3,463,19.2
	c16.6,0,33.1,0,51.6,0c-2.5,1.9-3.5,3.2-4.8,3.6c-9.9,2.9-12.5,10.3-12.8,19.5c-1.3,38.7-2.7,77.4-4.2,116.2
	c-0.2,4.3-1,8.5-1.6,12.8C490.7,171.2,490.1,171.1,489.6,171.1z"/>
<path d="M436,708.7c0-61.1,0-122.5,0-183.9c1,0,1.9,0,2.9,0C443.9,543.1,441.4,693.9,436,708.7z"/>
<path d="M337.7,722.6c-1.8-80.1,4.7-159.9,10.9-239.7c0,17.7,0.5,35.5-0.2,53.2c-0.6,14.5-3.1,28.9-3.9,43.4
	c-1.6,27.5-3.1,54.9-3.8,82.4c-0.4,14.2,1,28.5,1.5,42.8c0.2,6,0,12,0,17.9C340.7,722.6,339.2,722.6,337.7,722.6z"/>
<path d="M267.3,529.5c2-80.1,3.9-160.3,5.9-242.7c4.4,10.2,1,219.5-3,242.7C269.3,529.5,268.3,529.5,267.3,529.5z"/>
<path d="M358.6,124.9c0,69.1,5.4,138.1,0.3,207.2c-1,0-2,0-2.9,0c0-69.1,0-138.1,0-207.2C356.8,124.9,357.7,124.9,358.6,124.9z"/>
<path d="M19.6,45.9c0,69.1,5.4,138.1,0.3,207.2c-1,0-2,0-2.9,0c0-69.1,0-138.1,0-207.2C17.9,45.9,18.8,45.9,19.6,45.9z"/>
<path d="M498.4,488.7c-5.1-54.5,2.1-108.5,6.2-162.6C512.4,380.8,498.6,434.5,498.4,488.7z"/>
<path d="M408.9,21c-17.5,5.5-15.6,19.4-16.5,30.9c-2,25.8-2.4,51.6-3.5,77.5c-0.3,6.1-0.8,12.2-1.4,21.3c-1.8-4.1-2.9-5.4-2.9-6.8
	c0-21.1,0-42.2,0.3-63.4c0.3-16.8,1.2-33.6,1.4-50.4C386.3,21.4,396.9,15.5,408.9,21z"/>
<path d="M50.9,167c-17.5,5.5-15.6,19.4-16.5,30.9c-2,25.8-2.4,51.6-3.5,77.5c-0.3,6.1-0.8,12.2-1.4,21.3c-1.8-4.1-2.9-5.4-2.9-6.8
	c0-21.1,0-42.2,0.3-63.4c0.3-16.8,1.2-33.6,1.4-50.4C28.3,167.4,38.9,161.5,50.9,167z"/>
<path d="M441.1,930.6c1.4,34.9-11.6,68-14.6,102.3c-0.9,0.1-1.9,0.3-2.8,0.4c-0.8-5.1-2.8-10.5-2-15.4c4.4-28.2,9.4-56.3,14.3-84.4
	c0.2-1.2,1.3-2.3,2-3.4C439,930.3,440,930.5,441.1,930.6z"/>
<path d="M383.3,1064.3c-1.8-2.9-5.3-6-5.1-8.8c0.6-9.4,3.1-18.6,3.9-28c1.2-15.6,1.4-31.3,2.4-46.9c0.3-4.3,2-8.4,3-12.7
	c1.2,0.1,2.5,0.2,3.7,0.3c-1.6,31.3-3.1,62.7-4.7,94C385.4,1063,384.3,1063.7,383.3,1064.3z"/>
<path d="M292.5,575c0,52.8,0,105.6,0,158.4c-0.6,0-1.2,0-1.8,0c0-52.8,0-105.6,0-158.5C291.3,575,291.9,575,292.5,575z"/>
<path d="M260.5,835c0,52.8,0,105.6,0,158.4c-0.6,0-1.2,0-1.8,0c0-52.8,0-105.6,0-158.5C259.3,835,259.9,835,260.5,835z"/>
<path d="M440.1,883.3c2-38.3,3.9-76.6,5.9-115c1.5,0.1,2.9,0.2,4.4,0.2c3.9,38.7-7.4,76.6-5.4,115.2
	C443.3,883.6,441.7,883.4,440.1,883.3z"/>
<path d="M471.2,1019.9c5.4-29.8,10.8-59.5,16.2-89.1C492.5,940.2,481.5,1012.4,471.2,1019.9z"/>
<path d="M405.1,995.5c0.4,3.1,1,6.3,1,9.4c0.1,18.6,0.7,37.3-0.2,55.9c-0.5,10-7.3,3.9-9.8,3.6c2.2-23.3,4.4-46,6.6-68.7
	C403.5,995.7,404.3,995.6,405.1,995.5z"/>
<path d="M332.8,323.5c-2.9-16.6-6.8-31.7-7.9-47c-0.7-10.4,2.5-21,4-31.5c1.3,0.1,2.6,0.2,3.8,0.3
	C332.8,270.9,332.8,296.4,332.8,323.5z"/>
<path d="M410.3,728.4c0,25.4,0,50.8,0,76.1c-1.1,0-2.1,0-3.2,0c0-25.4,0-50.7,0-76.1C408.2,728.4,409.2,728.4,410.3,728.4z"/>
<path d="M349.2,425.2c1.6-28,3.1-56,4.7-84.1c0.6,0.1,1.2,0.1,1.7,0.2c0,28,0,56.1,0,84.1C353.5,425.4,351.4,425.3,349.2,425.2z"/>
<path d="M327.9,828.1c0,4.2,1.5,9.1-0.3,12.3c-8.7,15.9-2.8,33.6-7.2,50c-0.8,3.1-1.1,6.3-2.6,9.3c-4.5-24.8,1-48.2,7.2-71.6
	C326.1,828,327,828,327.9,828.1z"/>
<path d="M257,182.3c0-23.1,0-46.8,0-70.6C264.1,129,262.1,178.4,257,182.3z"/>
<path d="M315.2,939.7c0,27.3,0,54.6,0,81.9c-1.1,0-2.2,0-3.3,0c0-8.6-0.1-17.3,0-25.9c0.1-9.5,0.3-19,0.8-28.5
	c0.5-9.1,1.4-18.2,2.1-27.3C315,939.7,315.1,939.7,315.2,939.7z"/>
<path d="M329.1,818.2c3.1-23.3,6.3-46.6,9.4-69.9C339.9,772.1,341,796,329.1,818.2z"/>
<path d="M437.4,1067.2c2.9-19.2,5.7-38.4,8.6-57.6c1.1,0.2,2.3,0.3,3.4,0.5c2,19.9-5.4,38.5-7.3,57.9
	C440.6,1067.7,439,1067.4,437.4,1067.2z"/>
<path d="M285,834.7c0-22.9,0-45.8,0-68.7c0.9,0,1.9,0,2.8,0c0,22.9,0,45.7,0,68.6C286.9,834.7,285.9,834.7,285,834.7z"/>
<path d="M251.9,274.2c0-25.1,0-50.1,0-75.2c0.6,0,1.2,0,1.8,0c0,25.1,0,50.1,0,75.2C253.1,274.3,252.5,274.3,251.9,274.2z"/>
<path d="M482.9,279.3c0,19.3,0,38.6,0,58c-0.7,0-1.4-0.1-2.1-0.1c0-19.3,0-38.6,0-58C481.5,279.2,482.2,279.2,482.9,279.3z"/>
<path d="M487.9,188.6c0,21,0,42.1,0,63.1c-1.3,0-2.7-0.1-4-0.1c1-21.1,1.9-42.2,2.9-63.3C487.2,188.3,487.5,188.4,487.9,188.6z"/>
<path d="M452.1,362.8c0-20.1,0-40.2,0-60.3c0.7,0,1.4,0,2.1,0c0,20.2,0,40.4,0,60.6C453.5,363,452.8,362.9,452.1,362.8z"/>
<path d="M410.6,943.2c2.2-14.6,4.5-29.2,6.7-43.8c1.2,0.2,2.3,0.3,3.5,0.5c-1.5,14.6-3.1,29.3-4.6,43.9
	C414.3,943.6,412.5,943.4,410.6,943.2z"/>
<path d="M457,252.1c0-12.1,0-24.2,0-38C463.2,222.2,463.2,241.9,457,252.1z"/>
<path d="M358.1,786.6c-1.1,13.9-2.1,27.9-3.2,41.8c-1.5-0.1-3-0.3-4.5-0.4c1.2-13.9,2.4-27.8,3.6-41.7
	C355.3,786.4,356.7,786.5,358.1,786.6z"/>
<path d="M285,188.6c0-13.6,0-27.2,0-40.9c0.6,0,1.1,0,1.7,0c0,13.6,0,27.2,0,40.9C286.2,188.6,285.6,188.6,285,188.6z"/>
<path d="M404.9,423.3c0,11.9,0,23.8,0,35.7c-0.9,0-1.7,0-2.6,0c0-11.9,0-23.7,0-35.6C403.2,423.4,404.1,423.4,404.9,423.3z"/>
<path d="M487.4,1048.8c1.2,6.6,2.5,11.1,2.7,15.7c0.1,2.1-1.7,4.9-3.4,6.3c-1,0.8-4.6,0.2-5.4-0.9c-1.2-1.8-2-4.9-1.3-6.9
	C481.6,1058.6,484.2,1054.7,487.4,1048.8z"/>
<path d="M350.7,842.9c-0.4,7.5-0.9,14.9-1.3,22.4c-0.9,0-1.8,0-2.7-0.1c0-7.6,0-15.1,0-22.7C348,842.7,349.3,842.8,350.7,842.9z"/>
<path d="M1862,869.8c0-54.3,0-108.6,0-162.9c-1.2-0.2-2.5-0.4-3.7-0.6c-1,2.7-2.8,5.4-3,8.1c-1.6,29.9-2.6,59.8-4.6,89.7
	c-1.3,20-4.3,39.8-5.6,59.8c-1.9,29.2-2.8,58.5-4.4,87.7c-1.3,23.4-3.6,46.8-4.7,70.3c-0.7,15.2-0.1,30.4-0.1,45.6
	c-1,0.5-1.9,0.9-2.9,1.4c-1.5-1.6-4.1-3-4.3-4.7c-0.5-4.7-0.1-9.5,0.1-14.3c2-44.9,3.5-89.8,6.1-134.7c2.3-37.9,6.6-75.8,8.7-113.7
	c3.1-54.4,4.5-108.8,7.5-163.2c1.7-29.8,5.9-59.4,7.6-89.1c1.8-32.7,1.9-65.4,2.9-98.1c0.1-3.9,1.5-7.8,3-11.4c0.4-1,3.6-1.4,5.2-1
	c0.9,0.2,1.7,2.8,1.6,4.2c-1.1,33.9-1.9,67.9-3.6,101.8c-0.4,8.6-4.3,16.9-5.1,25.5c-1,10.3-0.6,20.8-0.6,31.2
	c0,2.3,1.8,5.8,0.9,6.7c-7.9,8-4.7,17.8-4.7,27c0,5.6-5.7,14.1,6.5,14.8c1,0.1,2.3,5.5,2.2,8.5c-0.3,19.6-1.4,39.2-1.4,58.9
	c0,20,1.3,40.1,1.5,60.1c0.3,30.9,0.1,61.9,0.1,92.8C1865.5,870.1,1863.8,870,1862,869.8z"/>
<path d="M1499.1,671.4c0.5,7.3,0.5,14.7,1.5,22c7.4,53.4,9,107,4.3,160.7c-3.5,39.9-9.6,79.6-13.7,119.5c-1.8,17.2-1.4,34.7-2.3,52
	c-0.2,3.7-1.3,7.4-3.9,10.8c0-16.2-0.7-32.5,0.2-48.7c1.2-22.4,4.2-44.6,5.2-67c1.5-29.9,1.5-59.9,2.8-89.8
	c0.8-18.4,3.6-36.6,3.9-55c0.5-23.1-0.6-46.2-0.9-69.2c-0.1-11.7,0-23.5,0-35.2C1497.2,671.4,1498.1,671.4,1499.1,671.4z"/>
<path d="M1923.8,361.5c0.6,38.2,2.6,76.4-3.7,114.8c-4.7,28.6-4.1,58.1-5.5,87.2c-1.3,26.5-2.3,53-3,79.5c-0.4,16.5-0.1,33-1.2,49.4
	C1899.6,581.5,1913.9,471.6,1923.8,361.5z"/>
<path d="M1886.5,849.5c16.9,33.7,8.7,65.8,6,97.7c-0.8,9.7-0.4,19.5-1.1,29.2c-1.7,21.5-3.8,43-5.5,64.5c-0.6,7-0.3,14.1-0.6,21.1
	c-0.2,4.4-0.9,8.8-1.3,13.2c-0.9-0.1-1.8-0.2-2.8-0.3c0-12.9-0.6-25.9,0.1-38.8c1.1-18.2,3.1-36.4,4.8-54.6
	c1.5-17,3.8-33.9,4.3-50.9c0.4-14.9-1.1-29.8-1.9-44.7C1888,874.7,1887.3,863.5,1886.5,849.5z"/>
<path d="M1862.7,517.4c2-80.1,3.9-160.3,5.9-242.7c4.4,10.2,1,219.5-3,242.7C1864.7,517.5,1863.7,517.5,1862.7,517.4z"/>
<path d="M1882.8,563c0,52.8,0,105.6,0,158.4c-0.6,0-1.2,0-1.8,0c0-52.8,0-105.6,0-158.5C1881.6,563,1882.2,563,1882.8,563z"/>
<path d="M1646.2,22.2c0,31.3,0,62.5,0,93.8c-1,0-1.9,0-2.9-0.1c0-31.2,0-62.4,0-93.6C1644.3,22.3,1645.3,22.2,1646.2,22.2z"/>
<path d="M1923.1,311.5c-2.9-16.6-6.8-31.7-7.9-47c-0.7-10.4,2.5-21,4-31.5c1.3,0.1,2.6,0.2,3.8,0.3
	C1923.1,258.9,1923.1,284.4,1923.1,311.5z"/>
<path d="M1918.3,816.1c0,4.2,1.5,9.1-0.3,12.3c-8.7,15.9-2.8,33.6-7.2,50c-0.8,3.1-1.1,6.3-2.6,9.3c-4.5-24.8,1-48.2,7.2-71.6
	C1916.4,816,1917.4,816,1918.3,816.1z"/>
<path d="M1847.3,170.3c0-23.1,0-46.8,0-70.6C1854.5,116.9,1852.4,166.4,1847.3,170.3z"/>
<path d="M1905.6,927.6c0,27.3,0,54.6,0,81.9c-1.1,0-2.2,0-3.3,0c0-8.6-0.1-17.3,0-25.9c0.1-9.5,0.3-19,0.8-28.5
	c0.5-9.1,1.4-18.2,2.1-27.3C1905.3,927.7,1905.5,927.7,1905.6,927.6z"/>
<path d="M1875.4,822.7c0-22.9,0-45.8,0-68.7c0.9,0,1.9,0,2.8,0c0,22.9,0,45.7,0,68.6C1877.2,822.6,1876.3,822.7,1875.4,822.7z"/>
<path d="M1842.3,262.2c0-25.1,0-50.1,0-75.2c0.6,0,1.2,0,1.8,0c0,25.1,0,50.1,0,75.2C1843.5,262.3,1842.9,262.2,1842.3,262.2z"/>
<path d="M1875.4,176.6c0-13.6,0-27.2,0-40.9c0.6,0,1.1,0,1.7,0c0,13.6,0,27.2,0,40.9C1876.5,176.5,1876,176.5,1875.4,176.6z"/>
<path d="M1512,511.7c0-74.7,0-149.3,0-224c1.1,0,2.2,0,3.4,0c0,74.6,0,149.3,0,223.9C1514.2,511.6,1513.1,511.7,1512,511.7z"/>
<path d="M1477.2,238.5c0-55.8,0-111.7,0-167.5c1.5,0,3,0,4.5,0c-0.8,56,4.7,111.9-0.5,167.9C1479.9,238.8,1478.6,238.6,1477.2,238.5
	z"/>
<path d="M1511.5,599.6c0-25.1,0-50.2,0-75.2c1,0,2.1,0,3.1,0c0,25.1,0,50.2,0,75.3C1513.6,599.6,1512.6,599.6,1511.5,599.6z"/>
<path d="M1456.3,49.6c0-9.3-0.2-18.7,0.2-28c0-1.4,2.4-2.7,3.7-4.1c1.3,1.3,3.7,2.5,3.7,3.8c0,8.3-0.3,16.6-1,24.9
	c-0.1,1.5-2.4,2.8-3.7,4.1C1458.2,50.1,1457.3,49.8,1456.3,49.6z"/>
<path d="M1468.2,733.8c0-19,0-38,0-56.9c0.7,0,1.5,0,2.2,0c0,19,0,37.9,0,56.9C1469.6,733.8,1468.9,733.8,1468.2,733.8z"/>
<path d="M1481.8,19.3c0,11.5,0,22.9,0,34.4c-1.3,0-2.6,0-3.9,0C1477.9,42.2,1475.3,30.7,1481.8,19.3z"/>
<path d="M1505.8,78.7c0-11,0-22,0-33.6c6.4,6.5,7,16.5,2.8,33.3C1507.6,78.5,1506.7,78.6,1505.8,78.7z"/>
<path d="M1500.9,314.8c0-11.7,0-23.4,0-35.1c0.8,0,1.7,0,2.5-0.1c0,11.7,0,23.5,0,35.2C1502.6,314.9,1501.7,314.9,1500.9,314.8z"/>
<path d="M1464.2,67.5c-2.1,3.2-3.8,5.6-5.4,8c-1.4-2.6-4.2-5.4-4-7.9c0.2-3,2.9-5.8,4.6-8.7C1460.8,61.5,1462.3,64.1,1464.2,67.5z"
	/>
<path d="M1720,488.7c-1.5,38.7-2.7,77.5-4.7,116.2c-1.9,36-4.2,72.1-7.1,108c-2.5,31.7-0.1,63.1,0.9,94.7c1,29-4,58.3-8,87.2
	c-4.5,32.9-10.6,65.5-16.1,98.3c-2,11.9-4.2,23.7-7.3,35.4c0-10.9-0.6-21.9,0.1-32.8c1.4-19.3,3.2-38.5,5.5-57.7
	c2.9-24.6,7-49.1,9.6-73.8c2.4-22.9,3.5-46,5.2-69c0.4-5.1,1.3-10.1,1.5-15.2c1.5-37.7,2-75.5,4.4-113.2
	c2.7-42.4,7.2-84.7,10.5-127.1c1.1-13.9,0.9-27.9,1.5-41.8c0.1-3.2,1-6.4,1.6-9.7C1718.5,488.4,1719.3,488.6,1720,488.7z"/>
<path d="M1537.7,4.4c0.5,7.3,0.5,14.7,1.5,22c7.4,53.4,9,107,4.3,160.7c-3.5,39.9-9.6,79.6-13.7,119.5c-1.8,17.2-1.4,34.7-2.3,52
	c-0.2,3.7-1.3,7.4-3.9,10.8c0-16.2-0.7-32.5,0.2-48.7c1.2-22.4,4.2-44.6,5.2-67c1.5-29.9,1.5-59.9,2.8-89.8
	c0.8-18.4,3.6-36.6,3.9-55c0.5-23.1-0.6-46.2-0.9-69.2c-0.1-11.7,0-23.5,0-35.2C1535.8,4.4,1536.8,4.4,1537.7,4.4z"/>
<path d="M1653.5,367.5c0.6,38.2,2.6,76.4-3.7,114.8c-4.7,28.6-4.1,58.1-5.5,87.2c-1.3,26.5-2.3,53-3,79.5c-0.4,16.5-0.1,33-1.2,49.4
	C1629.3,587.5,1643.5,477.6,1653.5,367.5z"/>
<path d="M1561.5,559.5c0.6,38.2,2.6,76.4-3.7,114.8c-4.7,28.6-4.1,58.1-5.5,87.2c-1.3,26.5-2.3,53-3,79.5c-0.4,16.5-0.1,33-1.2,49.4
	C1537.3,779.5,1551.5,669.6,1561.5,559.5z"/>
<path d="M1797.8,358c1.9,77-3,153.7-12.5,230.2c-0.9,0-1.8-0.1-2.6-0.1c3.8-76.7,7.7-153.5,11.5-230.2
	C1795.4,357.9,1796.6,358,1797.8,358z"/>
<path d="M1809.8,648.4c-0.5,7.8-0.9,15.6-1.5,23.3c-0.6,8.4-1.3,16.8-1.8,25.2c-1.9,34.3-3.2,68.6-5.8,102.8
	c-1.1,14.4-4.8,28.6-7.5,42.8c-0.3,1.6-1.4,3-4.6,4.2c5.5-66.2,11-132.5,16.5-198.7C1806.7,648.2,1808.2,648.3,1809.8,648.4z"/>
<path d="M1809.6,165.1c0-26.4-0.1-52.8,0-79.2c0.1-20.4,0.8-40.8,0.7-61.2c0-2.1-4-5.2-6.6-5.9c-6.7-1.8-13.8-2.4-20.7-5.5
	c16.6,0,33.1,0,51.6,0c-2.5,1.9-3.5,3.2-4.8,3.6c-9.9,2.9-12.5,10.3-12.8,19.5c-1.3,38.7-2.7,77.4-4.2,116.2
	c-0.2,4.3-1,8.5-1.6,12.8C1810.7,165.2,1810.1,165.1,1809.6,165.1z"/>
<path d="M1756,702.7c0-61.1,0-122.5,0-183.9c1,0,1.9,0,2.9,0C1763.9,537.1,1761.4,687.9,1756,702.7z"/>
<path d="M1657.7,716.6c-1.8-80.1,4.7-159.9,10.9-239.7c0,17.7,0.5,35.5-0.2,53.2c-0.6,14.5-3.1,28.9-3.9,43.4
	c-1.6,27.5-3.1,54.9-3.8,82.4c-0.4,14.2,1,28.5,1.5,42.8c0.2,6,0,12,0,17.9C1660.7,716.6,1659.2,716.6,1657.7,716.6z"/>
<path d="M1587.3,523.5c2-80.1,3.9-160.3,5.9-242.7c4.4,10.2,1,219.5-3,242.7C1589.3,523.5,1588.3,523.5,1587.3,523.5z"/>
<path d="M1678.6,118.9c0,69.1,5.4,138.1,0.3,207.2c-1,0-2,0-2.9,0c0-69.1,0-138.1,0-207.2C1676.8,118.9,1677.7,118.9,1678.6,118.9z"
	/>
<path d="M1818.4,482.7c-5.1-54.5,2.1-108.5,6.2-162.6C1832.4,374.8,1818.6,428.5,1818.4,482.7z"/>
<path d="M1728.9,15c-17.5,5.5-15.6,19.4-16.5,30.9c-2,25.8-2.4,51.6-3.5,77.5c-0.3,6.1-0.8,12.2-1.4,21.3c-1.8-4.1-2.9-5.4-2.9-6.8
	c0-21.1,0-42.2,0.3-63.4c0.3-16.8,1.2-33.6,1.4-50.4C1706.3,15.4,1716.9,9.5,1728.9,15z"/>
<path d="M1761.1,924.6c1.4,34.9-11.6,68-14.6,102.3c-0.9,0.1-1.9,0.3-2.8,0.4c-0.8-5.1-2.8-10.5-2-15.4c4.4-28.2,9.4-56.3,14.3-84.4
	c0.2-1.2,1.3-2.3,2-3.4C1759,924.3,1760,924.5,1761.1,924.6z"/>
<path d="M1703.3,1058.3c-1.8-2.9-5.3-6-5.1-8.8c0.6-9.4,3.1-18.6,3.9-28c1.2-15.6,1.4-31.3,2.4-46.9c0.3-4.3,2-8.4,3-12.7
	c1.2,0.1,2.5,0.2,3.7,0.3c-1.6,31.3-3.1,62.7-4.7,94C1705.4,1057,1704.3,1057.7,1703.3,1058.3z"/>
<path d="M1612.5,569c0,52.8,0,105.6,0,158.4c-0.6,0-1.2,0-1.8,0c0-52.8,0-105.6,0-158.5C1611.3,569,1611.9,569,1612.5,569z"/>
<path d="M1580.5,829c0,52.8,0,105.6,0,158.4c-0.6,0-1.2,0-1.8,0c0-52.8,0-105.6,0-158.5C1579.3,829,1579.9,829,1580.5,829z"/>
<path d="M1760.1,877.3c2-38.3,3.9-76.6,5.9-115c1.5,0.1,2.9,0.2,4.4,0.2c3.9,38.7-7.4,76.6-5.4,115.2
	C1763.3,877.6,1761.7,877.4,1760.1,877.3z"/>
<path d="M1791.2,1013.9c5.4-29.8,10.8-59.5,16.2-89.1C1812.5,934.2,1801.5,1006.4,1791.2,1013.9z"/>
<path d="M1725.1,989.5c0.4,3.1,1,6.3,1,9.4c0.1,18.6,0.7,37.3-0.2,55.9c-0.5,10-7.3,3.9-9.8,3.6c2.2-23.3,4.4-46,6.6-68.7
	C1723.5,989.7,1724.3,989.6,1725.1,989.5z"/>
<path d="M1652.8,317.5c-2.9-16.6-6.8-31.7-7.9-47c-0.7-10.4,2.5-21,4-31.5c1.3,0.1,2.6,0.2,3.8,0.3
	C1652.8,264.9,1652.8,290.4,1652.8,317.5z"/>
<path d="M1730.3,722.4c0,25.4,0,50.8,0,76.1c-1.1,0-2.1,0-3.2,0c0-25.4,0-50.7,0-76.1C1728.2,722.4,1729.2,722.4,1730.3,722.4z"/>
<path d="M1669.2,419.2c1.6-28,3.1-56,4.7-84.1c0.6,0.1,1.2,0.1,1.7,0.2c0,28,0,56.1,0,84.1C1673.5,419.4,1671.4,419.3,1669.2,419.2z
	"/>
<path d="M1647.9,822.1c0,4.2,1.5,9.1-0.3,12.3c-8.7,15.9-2.8,33.6-7.2,50c-0.8,3.1-1.1,6.3-2.6,9.3c-4.5-24.8,1-48.2,7.2-71.6
	C1646.1,822,1647,822,1647.9,822.1z"/>
<path d="M1577,176.3c0-23.1,0-46.8,0-70.6C1584.1,123,1582.1,172.4,1577,176.3z"/>
<path d="M1635.2,933.7c0,27.3,0,54.6,0,81.9c-1.1,0-2.2,0-3.3,0c0-8.6-0.1-17.3,0-25.9c0.1-9.5,0.3-19,0.8-28.5
	c0.5-9.1,1.4-18.2,2.1-27.3C1635,933.7,1635.1,933.7,1635.2,933.7z"/>
<path d="M1649.1,812.2c3.1-23.3,6.3-46.6,9.4-69.9C1659.9,766.1,1661,790,1649.1,812.2z"/>
<path d="M1757.4,1061.2c2.9-19.2,5.7-38.4,8.6-57.6c1.1,0.2,2.3,0.3,3.4,0.5c2,19.9-5.4,38.5-7.3,57.9
	C1760.6,1061.7,1759,1061.4,1757.4,1061.2z"/>
<path d="M1605,828.7c0-22.9,0-45.8,0-68.7c0.9,0,1.9,0,2.8,0c0,22.9,0,45.7,0,68.6C1606.9,828.7,1605.9,828.7,1605,828.7z"/>
<path d="M1571.9,268.2c0-25.1,0-50.1,0-75.2c0.6,0,1.2,0,1.8,0c0,25.1,0,50.1,0,75.2C1573.1,268.3,1572.5,268.3,1571.9,268.2z"/>
<path d="M1802.9,273.3c0,19.3,0,38.6,0,58c-0.7,0-1.4-0.1-2.1-0.1c0-19.3,0-38.6,0-58C1801.5,273.2,1802.2,273.2,1802.9,273.3z"/>
<path d="M1807.9,182.6c0,21,0,42.1,0,63.1c-1.3,0-2.7-0.1-4-0.1c1-21.1,1.9-42.2,2.9-63.3C1807.2,182.3,1807.5,182.4,1807.9,182.6z"
	/>
<path d="M1772.1,356.8c0-20.1,0-40.2,0-60.3c0.7,0,1.4,0,2.1,0c0,20.2,0,40.4,0,60.6C1773.5,357,1772.8,356.9,1772.1,356.8z"/>
<path d="M1730.6,937.2c2.2-14.6,4.5-29.2,6.7-43.8c1.2,0.2,2.3,0.3,3.5,0.5c-1.5,14.6-3.1,29.3-4.6,43.9
	C1734.3,937.6,1732.5,937.4,1730.6,937.2z"/>
<path d="M1777,246.1c0-12.1,0-24.2,0-38C1783.2,216.2,1783.2,235.9,1777,246.1z"/>
<path d="M1678.1,780.6c-1.1,13.9-2.1,27.9-3.2,41.8c-1.5-0.1-3-0.3-4.5-0.4c1.2-13.9,2.4-27.8,3.6-41.7
	C1675.3,780.4,1676.7,780.5,1678.1,780.6z"/>
<path d="M1605,182.6c0-13.6,0-27.2,0-40.9c0.6,0,1.1,0,1.7,0c0,13.6,0,27.2,0,40.9C1606.2,182.6,1605.6,182.6,1605,182.6z"/>
<path d="M1724.9,417.3c0,11.9,0,23.8,0,35.7c-0.9,0-1.7,0-2.6,0c0-11.9,0-23.7,0-35.6C1723.2,417.4,1724.1,417.4,1724.9,417.3z"/>
<path d="M1807.4,1042.8c1.2,6.6,2.5,11.1,2.7,15.7c0.1,2.1-1.7,4.9-3.4,6.3c-1,0.8-4.6,0.2-5.4-0.9c-1.2-1.8-2-4.9-1.3-6.9
	C1801.6,1052.6,1804.2,1048.7,1807.4,1042.8z"/>
<path d="M1670.7,836.9c-0.4,7.5-0.9,14.9-1.3,22.4c-0.9,0-1.8,0-2.7-0.1c0-7.6,0-15.1,0-22.7C1668,836.7,1669.3,836.8,1670.7,836.9z
	"/>
</svg>
