<?xml version="1.0" encoding="utf-8"?>
<!-- Generator: Adobe Illustrator 24.0.0, SVG Export Plug-In . SVG Version: 6.00 Build 0)  -->
<svg version="1.1" id="Layer_1" xmlns="http://www.w3.org/2000/svg" xmlns:xlink="http://www.w3.org/1999/xlink" x="0px" y="0px"
	 viewBox="0 0 536.2 523.8" style="enable-background:new 0 0 536.2 523.8;" xml:space="preserve">
<style type="text/css">
	.st0{opacity:2.000000e-02;fill:#F94343;enable-background:new    ;}
	.st1{opacity:2.000000e-02;fill:#C8DD37;enable-background:new    ;}
	.st2{opacity:2.000000e-02;fill:#80DEFF;enable-background:new    ;}
	.st3{opacity:2.000000e-02;fill:#2070A2;enable-background:new    ;}
	.st4{opacity:2.000000e-02;fill:#1F5BA2;enable-background:new    ;}
	.st5{opacity:2.000000e-02;fill:#0D5523;enable-background:new    ;}
	.st6{opacity:2.000000e-02;fill:#78B0AB;enable-background:new    ;}
	.st7{opacity:2.000000e-02;fill:#EE8640;enable-background:new    ;}
	.st8{opacity:2.000000e-02;fill:#C8383D;enable-background:new    ;}
	.st9{opacity:2.000000e-02;fill:#CF2FE8;enable-background:new    ;}
	.st10{opacity:2.000000e-02;fill:#9FD4DF;enable-background:new    ;}
	.st11{opacity:2.000000e-02;fill:#64C037;enable-background:new    ;}
	.st12{opacity:2.000000e-02;fill:#50B9DF;enable-background:new    ;}
	.st13{opacity:2.000000e-02;fill:#DFFF00;enable-background:new    ;}
	.st14{opacity:2.000000e-02;fill:#9AE2A5;enable-background:new    ;}
	.st15{opacity:2.000000e-02;fill:#DA368B;enable-background:new    ;}
	.st16{opacity:2.000000e-02;fill:#F76D6D;enable-background:new    ;}
	.st17{opacity:2.000000e-02;fill:#F4EE6E;enable-background:new    ;}
	.st18{opacity:2.000000e-02;fill:#F8F55E;enable-background:new    ;}
	.st19{opacity:2.000000e-02;fill:#82234F;enable-background:new    ;}
	.st20{opacity:2.000000e-02;fill:#B95758;enable-background:new    ;}
	.st21{opacity:2.000000e-02;fill:#D73589;enable-background:new    ;}
	.st22{opacity:2.000000e-02;fill:#E19564;enable-background:new    ;}
	.st23{opacity:2.000000e-02;fill:#F7DE68;enable-background:new    ;}
	.st24{opacity:2.000000e-02;fill:#F79C5E;enable-background:new    ;}
	.st25{opacity:2.000000e-02;fill:#907729;enable-background:new    ;}
	.st26{opacity:2.000000e-02;fill:#777540;enable-background:new    ;}
	.st27{opacity:2.000000e-02;fill:#0F3329;enable-background:new    ;}
	.st28{opacity:2.000000e-02;fill:#092D1B;enable-background:new    ;}
	.st29{opacity:2.000000e-02;fill:#E6CB34;enable-background:new    ;}
	.st30{opacity:2.000000e-02;fill:#5D650E;enable-background:new    ;}
	.st31{opacity:2.000000e-02;fill:#C33A0E;enable-background:new    ;}
	.st32{opacity:2.000000e-02;fill:#175023;enable-background:new    ;}
	.st33{opacity:2.000000e-02;fill:#5E9925;enable-background:new    ;}
	.st34{opacity:2.000000e-02;fill:#3FA030;enable-background:new    ;}
	.st35{opacity:2.000000e-02;fill:#993238;enable-background:new    ;}
	.st36{opacity:2.000000e-02;fill:#4B9296;enable-background:new    ;}
	.st37{opacity:2.000000e-02;fill:#4E2A0D;enable-background:new    ;}
	.st38{opacity:2.000000e-02;fill:#0F4D6D;enable-background:new    ;}
	.st39{opacity:2.000000e-02;fill:#09405F;enable-background:new    ;}
	.st40{opacity:2.000000e-02;fill:#4122CB;enable-background:new    ;}
	.st41{opacity:2.000000e-02;fill:#3C1B88;enable-background:new    ;}
	.st42{opacity:2.000000e-02;fill:#1D5821;enable-background:new    ;}
	.st43{opacity:2.000000e-02;fill:#6C2A32;enable-background:new    ;}
	.st44{opacity:2.000000e-02;fill:#0A518E;enable-background:new    ;}
	.st45{opacity:2.000000e-02;fill:#46B900;enable-background:new    ;}
	.st46{opacity:2.000000e-02;fill:#429200;enable-background:new    ;}
	.st47{opacity:2.000000e-02;fill:#0C4600;enable-background:new    ;}
	.st48{opacity:2.000000e-02;fill:#084000;enable-background:new    ;}
	.st49{opacity:2.000000e-02;fill:#A25700;enable-background:new    ;}
	.st50{opacity:2.000000e-02;fill:#F09623;enable-background:new    ;}
	.st51{opacity:2.000000e-02;fill:#7CD55E;enable-background:new    ;}
	.st52{opacity:2.000000e-02;fill:#61B814;enable-background:new    ;}
	.st53{opacity:2.000000e-02;fill:#0F5B46;enable-background:new    ;}
	.st54{opacity:2.000000e-02;fill:#D1323C;enable-background:new    ;}
	.st55{opacity:2.000000e-02;fill:#791214;enable-background:new    ;}
	.st56{opacity:2.000000e-02;fill:#961D22;enable-background:new    ;}
	.st57{opacity:2.000000e-02;fill:#FFFFFF;enable-background:new    ;}
</style>
<path class="st0" d="M102.9,487.9c37.7,14,77.8,8.6,109.5-11.1c-11-35.6-37.9-65.9-75.6-80c-37.7-14-77.8-8.6-109.5,11.1
	C38.4,443.5,65.3,473.8,102.9,487.9z"/>
<path class="st1" d="M118.7,383.3c0,15.6-12.6,28.2-28.2,28.2s-28.2-12.6-28.2-28.2s12.6-28.2,28.2-28.2
	C106.1,355.1,118.7,367.7,118.7,383.3z"/>
<ellipse transform="matrix(0.7071 -0.7071 0.7071 0.7071 -109.3708 272.387)" class="st2" cx="274.1" cy="268.2" rx="217.8" ry="217.8"/>
<path class="st3" d="M158.3,188.1c-33.6,0-65.5,7.6-93.9,21.2c-5.2,18.7-8.1,38.5-8.1,58.9c0,120.3,97.5,217.8,217.8,217.8
	c33.6,0,65.5-7.6,93.9-21.2c5.2-18.7,8.1-38.5,8.1-58.9C376,285.6,278.5,188.1,158.3,188.1z"/>
<path class="st4" d="M136.8,396.8c-14.5-5.4-29.3-7.9-43.9-7.8c27.9,41.8,69.9,73.4,119.2,88c0.1-0.1,0.2-0.1,0.3-0.2
	C201.3,441.1,174.5,410.8,136.8,396.8z"/>
<path class="st5" d="M90.5,355.1c-5.2,0-10.1,1.4-14.4,3.9c7.9,17.2,18,33.3,30,47.7c7.6-5.1,12.6-13.7,12.6-23.5
	C118.7,367.7,106.1,355.1,90.5,355.1z"/>
<ellipse class="st6" cx="240.8" cy="199.8" rx="140.9" ry="140.9"/>
<path class="st7" d="M404.3,494.4c-65.8,24.5-135.8,15.1-191.1-19.4c19.3-62.2,66.2-115.1,131.9-139.6
	c65.8-24.5,135.8-15.1,191.1,19.4C516.9,417,470,469.9,404.3,494.4z"/>
<path class="st8" d="M462.4,109c-13.9,10.7-21.2,26.8-21.2,43.1c15.7,4.2,33.2,1.2,47.1-9.5s21.2-26.8,21.2-43.1
	C493.8,95.3,476.3,98.3,462.4,109z"/>
<path class="st9" d="M192.2,66.3c-4.4,24.4,3.2,48.2,18.6,65.2c20.4-10.6,35.9-30.2,40.3-54.6s-3.2-48.2-18.6-65.2
	C212.1,22.3,196.6,41.9,192.2,66.3z"/>
<path class="st10" d="M459.5,224.6c12.5,26.8,36.3,44.7,63.1,50.8c12.6-24.4,14.2-54.1,1.7-81c-12.5-26.8-36.3-44.7-63.1-50.8
	C448.6,168,447,197.8,459.5,224.6z"/>
<path class="st11" d="M373.7,74.5c-20.3,33.1-31.9,72-31.9,113.6c0,84.4,48,157.5,118.1,193.7c20.3-33.1,31.9-72,31.9-113.6
	C491.9,183.8,443.9,110.6,373.7,74.5z"/>
<path class="st12" d="M67.5,199.2c26.6,21.6,60.4,34.5,97.3,34.5c85.3,0,154.5-69.2,154.5-154.5c0-8.3-0.7-16.5-1.9-24.4
	c-14-2.8-28.5-4.3-43.3-4.3C177.9,50.4,96.3,112.7,67.5,199.2z"/>
<ellipse class="st13" cx="123.5" cy="157.4" rx="50.8" ry="50.8"/>
<circle class="st14" cx="261.9" cy="496.7" r="27.1"/>
<ellipse class="st15" cx="27.1" cy="208.1" rx="27.1" ry="27.1"/>
<path class="st16" d="M434.9,162c0,14.9-12.1,27.1-27.1,27.1c-14.9,0-27.1-12.1-27.1-27.1c0-14.9,12.1-27.1,27.1-27.1
	S434.9,147,434.9,162z"/>
<path class="st17" d="M68.6,237.1c0,11.5-9.3,20.7-20.7,20.7s-20.7-9.3-20.7-20.7c0-11.5,9.3-20.7,20.7-20.7S68.6,225.7,68.6,237.1z
	"/>
<path class="st18" d="M401.5,68.4c0,11.5-9.3,20.7-20.7,20.7c-11.5,0-20.7-9.3-20.7-20.7s9.3-20.7,20.7-20.7
	C392.2,47.7,401.5,56.9,401.5,68.4z"/>
<path class="st19" d="M535.8,395.8c0,11.5-9.3,20.7-20.7,20.7c-11.5,0-20.7-9.3-20.7-20.7c0-11.5,9.3-20.7,20.7-20.7
	C526.5,375,535.8,384.3,535.8,395.8z"/>
<path class="st20" d="M87.3,125.8c0,8.1-6.6,14.6-14.6,14.6s-14.6-6.6-14.6-14.6c0-8.1,6.6-14.6,14.6-14.6S87.3,117.7,87.3,125.8z"
	/>
<path class="st21" d="M515,301.8c0,8.1-6.6,14.6-14.6,14.6c-8.1,0-14.6-6.6-14.6-14.6s6.6-14.6,14.6-14.6
	C508.5,287.2,515,293.7,515,301.8z"/>
<path class="st22" d="M56.3,381.1c0,8.1-6.6,14.6-14.6,14.6c-8.1,0-14.6-6.6-14.6-14.6c0-8.1,6.6-14.6,14.6-14.6
	C49.8,366.5,56.3,373.1,56.3,381.1z"/>
<ellipse class="st10" cx="500.4" cy="418.4" rx="14.6" ry="14.6"/>
<path class="st23" d="M444.5,418.4c0,20.2-16.4,36.6-36.6,36.6s-36.6-16.4-36.6-36.6s16.4-36.6,36.6-36.6
	C428.1,381.7,444.5,398.1,444.5,418.4z"/>
<path class="st24" d="M395.9,27.1c0,14.9-12.1,27.1-27.1,27.1c-14.9,0-27.1-12.1-27.1-27.1c0-14.9,12.1-27.1,27.1-27.1
	S395.9,12.1,395.9,27.1z"/>
<path class="st25" d="M274.1,485.9c-12.1,0-24-1-35.5-2.9c-0.9,1.5-1.6,3-2.2,4.6c16.4,7.6,33.7,13.2,51.5,16.6
	c0.7-2.4,1.1-5,1.1-7.6c0-4-0.9-7.7-2.4-11.1C282.5,485.8,278.3,485.9,274.1,485.9z"/>
<path class="st26" d="M482.7,330.7c-43.6-13-91.7-12.4-137.6,4.7c-65.8,24.5-112.6,77.4-131.9,139.6c2.3,1.4,4.6,2.8,6.9,4.1
	c17.3,4.4,35.4,6.8,54,6.8C372.6,485.9,455.8,420.5,482.7,330.7z"/>
<path class="st27" d="M213.2,475c2.3,1.4,4.6,2.8,6.9,4.1c17.3,4.4,35.4,6.8,54,6.8c33.6,0,65.5-7.6,93.9-21.2
	c5.2-18.7,8.1-38.5,8.1-58.9c0-26.7-4.8-52.4-13.7-76c-5.8,1.6-11.6,3.5-17.3,5.6C279.3,359.9,232.5,412.8,213.2,475z"/>
<path class="st28" d="M274.1,485.9c4.2,0,8.4-0.1,12.5-0.4c-4.2-9.4-13.7-15.9-24.7-15.9c-10,0-18.7,5.4-23.4,13.4
	C250.1,484.9,262,485.9,274.1,485.9z"/>
<path class="st29" d="M442.4,406.3c-5-14.3-18.6-24.6-34.6-24.6c-20.2,0-36.6,16.4-36.6,36.6c0,14.5,8.4,27,20.7,33
	C411,439,428,423.8,442.4,406.3z"/>
<path class="st30" d="M389.5,324c19.1,23.8,43.1,43.6,70.4,57.7c2.2-3.5,4.3-7.2,6.2-10.8l0,0c6.8-12.7,12.4-26.1,16.6-40.1
	C453,321.9,421.2,319.4,389.5,324z"/>
<path class="st31" d="M117.5,391.3c-18.1-3.6-36.4-3-53.7,1.2c3.8,11,14.3,19,26.6,19C103.3,411.5,114.1,403,117.5,391.3z"/>
<path class="st32" d="M92.9,389c4.1,6.2,8.5,12.1,13.2,17.8l0.1-0.1c0.8-0.6,1.7-1.2,2.4-1.9c0.1-0.1,0.2-0.2,0.3-0.2
	c0.4-0.3,0.7-0.7,1.1-1c0.1-0.1,0.1-0.1,0.2-0.2c0.3-0.3,0.6-0.6,0.9-0.9c0.1-0.1,0.2-0.2,0.3-0.3c0.3-0.3,0.6-0.7,0.9-1.1
	c0.1-0.1,0.2-0.2,0.3-0.3c0.2-0.3,0.4-0.5,0.6-0.8c0.1-0.1,0.2-0.3,0.3-0.4c0.3-0.4,0.5-0.7,0.7-1.1c0.1-0.2,0.2-0.3,0.3-0.5
	c0.2-0.3,0.3-0.5,0.4-0.8c0.1-0.2,0.2-0.4,0.3-0.6c0.2-0.4,0.4-0.7,0.6-1.1c0.1-0.2,0.2-0.4,0.3-0.6c0.1-0.2,0.2-0.5,0.3-0.7
	c0.1-0.2,0.2-0.4,0.3-0.7c0.1-0.4,0.3-0.8,0.4-1.2c0.1-0.2,0.2-0.5,0.2-0.7c0-0.1,0.1-0.2,0.1-0.3C109.3,389.7,101.1,388.9,92.9,389
	z"/>
<path class="st33" d="M341.8,188.1c0,31,6.5,60.4,18.1,87.1c13.8-21.8,21.8-47.6,21.8-75.4c0-31.4-10.3-60.4-27.7-83.9
	C346.1,138.5,341.8,162.8,341.8,188.1z"/>
<path class="st34" d="M491.8,262.2c-1.1-40.8-13.4-78.9-34-111.1c-9.4,22.8-9.5,49.4,1.7,73.5C466.8,240.5,478.2,253.2,491.8,262.2z
	"/>
<path class="st35" d="M456.7,153.8c7.1-0.2,14.3-1.8,21-4.8c-5.3-2.3-10.8-4.1-16.4-5.4C459.5,146.9,458,150.4,456.7,153.8z"/>
<path class="st36" d="M319.3,82.7c-22.4-15.1-49.4-23.9-78.5-23.9c-77.8,0-140.9,63.1-140.9,140.9c0,6.9,0.5,13.7,1.5,20.3
	c19.4,8.7,40.9,13.6,63.5,13.6C249,233.7,317.4,166.4,319.3,82.7z"/>
<path class="st37" d="M444.7,132.8c-2.3,6.1-3.5,12.7-3.5,19.2c5.9,1.6,12.1,2.1,18.2,1.7C454.9,146.5,450,139.5,444.7,132.8z"/>
<path class="st38" d="M345.3,294.3c-38-63.6-107.6-106.2-187.1-106.2c-20.2,0-39.8,2.8-58.3,7.9c0,1.3-0.1,2.5-0.1,3.8
	c0,77.8,63.1,140.9,140.9,140.9C282.3,340.7,319.5,322.8,345.3,294.3z"/>
<path class="st39" d="M100,204c0,0.7,0.1,1.5,0.1,2.2c0,0.4,0,0.8,0.1,1.2c0,0.9,0.1,1.8,0.2,2.7c0,0.6,0.1,1.2,0.1,1.8
	c0,0.4,0.1,0.7,0.1,1.1c0.1,0.7,0.1,1.4,0.2,2.1v0.1c0.2,1.6,0.4,3.3,0.6,4.9c19.4,8.7,40.9,13.6,63.5,13.6c31.4,0,60.6-9.4,85-25.5
	c-27.8-12.9-58.9-20.1-91.6-20.1c-20.2,0-39.8,2.8-58.3,7.9c0,1.3-0.1,2.5-0.1,3.8c0,1.1,0,2.1,0,3.2C99.9,203.3,99.9,203.6,100,204
	z"/>
<path class="st40" d="M251.2,77c1.6-8.6,1.6-17.2,0.3-25.4c-20.8,2.1-40.7,7.2-59.3,14.8c-4.4,24.4,3.2,48.2,18.6,65.2
	C231.3,121,246.7,101.4,251.2,77z"/>
<path class="st41" d="M192,67.5c-4,24,3.7,47.3,18.8,64c20.4-10.6,35.9-30.2,40.3-54.6c1.1-6,1.4-11.9,1.1-17.7
	c-3.8-0.3-7.6-0.5-11.5-0.5C223.7,58.8,207.2,61.9,192,67.5z"/>
<path class="st42" d="M374.3,433.2c1.1-9,1.7-18.1,1.7-27.3c0-1.8,0-3.7-0.1-5.5c-3,5.3-4.8,11.5-4.8,18.1
	C371.2,423.6,372.3,428.7,374.3,433.2z"/>
<path class="st43" d="M485.8,301.8c0,2.8,0.8,5.4,2.2,7.7c1.2-6.1,2.1-12.3,2.7-18.6C487.7,293.6,485.8,297.5,485.8,301.8z"/>
<path class="st44" d="M164.8,233.7c31.4,0,60.6-9.4,85-25.5c-27.8-12.9-58.9-20.1-91.6-20.1c-29.6,0-57.8,5.9-83.6,16.6
	C100.1,222.9,131.2,233.7,164.8,233.7z"/>
<path class="st45" d="M76.5,176.6c7.6,18.5,25.8,31.6,47,31.6c28,0,50.8-22.7,50.8-50.8c0-26.6-20.4-48.4-46.4-50.6
	C106.4,126.3,88.8,150,76.5,176.6z"/>
<path class="st46" d="M134,107.8c-21.3,24.7-34.2,56.8-34.2,92c0,0.9,0,1.8,0,2.6c7,3.7,15,5.8,23.5,5.8c28,0,50.8-22.7,50.8-50.8
	C174.2,133,157,112.6,134,107.8z"/>
<path class="st47" d="M158.3,188.1c-22.7,0-44.7,3.5-65.3,10c8.5,6.4,19,10.1,30.4,10.1c16.5,0,31.1-7.9,40.4-20
	C162,188.1,160.1,188.1,158.3,188.1z"/>
<path class="st39" d="M152.1,188.2c-1.5,0-2.9,0.1-4.4,0.2c-0.2,0-0.4,0-0.6,0c-1.6,0.1-3.2,0.2-4.8,0.3c-0.4,0-0.9,0.1-1.3,0.1
	c-1.3,0.1-2.7,0.2-4,0.3c-0.3,0-0.6,0.1-0.9,0.1c-1.6,0.2-3.1,0.3-4.7,0.5c-0.4,0.1-0.9,0.1-1.3,0.2c-1.2,0.2-2.5,0.3-3.7,0.5
	c-0.4,0.1-0.8,0.1-1.2,0.2c-1.5,0.2-3,0.5-4.5,0.7c-0.4,0.1-0.9,0.2-1.3,0.2c-1.2,0.2-2.3,0.4-3.5,0.7c-0.5,0.1-0.9,0.2-1.4,0.3
	c-1.5,0.3-2.9,0.6-4.4,0.9c-0.4,0.1-0.8,0.2-1.2,0.3c-1.2,0.3-2.3,0.5-3.5,0.8c-0.5,0.1-0.9,0.2-1.4,0.4c-1.4,0.4-2.8,0.7-4.2,1.1
	c0,1.3-0.1,2.5-0.1,3.8c0,6.9,0.5,13.7,1.5,20.3c19.4,8.7,40.9,13.6,63.5,13.6c31.4,0,60.6-9.4,85-25.5
	c-14.7-6.8-30.4-12.1-46.6-15.5c-0.1,0-0.2,0-0.3-0.1c-0.8-0.2-1.7-0.3-2.5-0.5c-0.2,0-0.4-0.1-0.6-0.1c-0.8-0.2-1.6-0.3-2.4-0.5
	c-0.2,0-0.4-0.1-0.6-0.1c-2.4-0.4-4.9-0.8-7.4-1.2c-0.4-0.1-0.8-0.1-1.1-0.2c-0.6-0.1-1.2-0.2-1.9-0.2c-0.5-0.1-1-0.1-1.5-0.2
	c-0.6-0.1-1.2-0.1-1.8-0.2c-0.5-0.1-1.1-0.1-1.6-0.2c-0.5-0.1-1.1-0.1-1.6-0.2c-0.7-0.1-1.3-0.1-2-0.2c-0.4,0-0.9-0.1-1.3-0.1
	c-1.1-0.1-2.1-0.2-3.2-0.2c-0.4,0-0.8,0-1.2-0.1c-0.7,0-1.5-0.1-2.2-0.1c-0.4,0-0.9,0-1.3-0.1c-0.7,0-1.4-0.1-2.2-0.1
	c-0.4,0-0.9,0-1.3,0c-0.8,0-1.5,0-2.3-0.1c-0.4,0-0.7,0-1.1,0c-1.1,0-2.3,0-3.4,0c-1.6,0-3.3,0-4.9,0.1
	C152.9,188.1,152.5,188.1,152.1,188.2z"/>
<path class="st48" d="M99.9,202.4c7,3.7,15,5.8,23.5,5.8c16.5,0,31.1-7.9,40.4-20c-0.3,0-0.7,0-1,0c-0.4,0-0.7,0-1.1,0
	c-1.1,0-2.3,0-3.4,0c-1.6,0-3.3,0-4.9,0.1c-0.4,0-0.9,0-1.3,0c-1.5,0-2.9,0.1-4.4,0.2c-0.2,0-0.4,0-0.6,0c-1.6,0.1-3.2,0.2-4.8,0.3
	c-0.4,0-0.9,0.1-1.3,0.1c-1.3,0.1-2.7,0.2-4,0.3c-0.3,0-0.6,0.1-0.9,0.1c-1.6,0.2-3.1,0.3-4.7,0.5c-0.4,0.1-0.9,0.1-1.3,0.2
	c-1.2,0.2-2.5,0.3-3.7,0.5c-0.4,0.1-0.8,0.1-1.2,0.2c-1.5,0.2-3,0.5-4.5,0.7c-0.4,0.1-0.9,0.2-1.3,0.2c-1.2,0.2-2.3,0.4-3.5,0.7
	c-0.5,0.1-0.9,0.2-1.4,0.3c-1.5,0.3-2.9,0.6-4.4,0.9c-0.4,0.1-0.8,0.2-1.2,0.3c-1.2,0.3-2.3,0.5-3.5,0.8c-0.5,0.1-0.9,0.2-1.4,0.4
	c-1.4,0.4-2.8,0.7-4.2,1.1v0.1c0,1.2,0,2.4,0,3.6C99.9,200.6,99.9,201.5,99.9,202.4L99.9,202.4z"/>
<path class="st49" d="M87.3,125.8c0-1.2-0.2-2.4-0.5-3.6c-4.9,5.1-8.7,11.1-11.1,17.9C82.3,138.7,87.3,132.8,87.3,125.8z"/>
<path class="st50" d="M365.9,54c1,0.1,2,0.2,3,0.2c6.4,0,12.2-2.2,16.8-5.9c-1.6-0.4-3.2-0.6-4.9-0.6
	C374.9,47.7,369.7,50.1,365.9,54z"/>
<path class="st51" d="M360,68c0,0.1,0,0.3,0,0.4c0,11.5,9.3,20.7,20.7,20.7c4.4,0,8.5-1.4,11.8-3.7C382.3,78.8,371.4,72.9,360,68z"
	/>
<path class="st52" d="M384.9,80.7c-0.1-0.1-0.2-0.1-0.3-0.2c-3.6-2.1-7.2-4.1-10.9-6c-2,3.3-4,6.7-5.8,10.2c3.5,2.8,8,4.5,12.9,4.5
	c4.4,0,8.5-1.4,11.8-3.7c-1.3-0.8-2.5-1.6-3.8-2.4c-0.1,0-0.1-0.1-0.2-0.1C387.4,82.2,386.2,81.4,384.9,80.7z"/>
<path class="st53" d="M61.4,221.4c-2.4,11.2-4,22.7-4.7,34.4c7-3.3,11.9-10.5,11.9-18.8C68.6,230.9,65.8,225.3,61.4,221.4z"/>
<path class="st54" d="M27.2,235.2c11.8,0,21.9-7.7,25.5-18.3c-1.6-0.4-3.2-0.6-4.9-0.6C37,216.4,28.1,224.7,27.2,235.2z"/>
<path class="st55" d="M515,375c-11.5,0-20.7,9.3-20.7,20.7c0,8.6,5.2,15.9,12.6,19.1c7.9-11.3,14.6-23.4,20.2-35.9
	C523.7,376.5,519.5,375,515,375z"/>
<path class="st56" d="M500.4,403.7c-1.5,0-2.9,0.2-4.2,0.6c2.1,4.7,6,8.5,10.7,10.5c1.5-2.1,2.9-4.2,4.3-6.4
	C508.5,405.6,504.7,403.7,500.4,403.7z"/>
<path class="st57" d="M369,255c-1.9,0-3.7,0.6-5.3,1.7c-1.6,1.2-2.5,2.9-2.5,5.2c0,2.4,0.6,4.1,1.7,5.1s2.3,1.5,3.6,1.5
	c1.8,0,3.6-0.7,5.4-2.1s3-2.9,3.5-4.4c0.1-0.4,0.2-1,0.2-1.7c0-1.8-0.7-3.1-2-4C372.2,255.5,370.7,255,369,255z"/>
</svg>
