<?xml version="1.0" encoding="utf-8"?>
<!-- Generator: Adobe Illustrator 24.0.0, SVG Export Plug-In . SVG Version: 6.00 Build 0)  -->
<svg version="1.1" id="Layer_1" xmlns="http://www.w3.org/2000/svg" xmlns:xlink="http://www.w3.org/1999/xlink" x="0px" y="0px"
	 viewBox="0 0 349.3 163.6" style="enable-background:new 0 0 349.3 163.6;" xml:space="preserve">
<style type="text/css">
	.st0{fill:#CF2FE8;}
</style>
<title>Artboard 6</title>
<title>Artboard 4_1</title>
<g>
	<path class="st0" d="M18.9,107c-2.4-2.2-2.9-5.4-2.9-5.4c-0.5-1.9-0.5-3.9-0.3-5.8c0.4-2,1.1-4,2.2-6c1.7-3.1,3.9-6.2,6.8-9.3
		c2.8-3.1,5.8-6,8.9-8.6c3.2-2.6,6.2-5.1,9.2-7.2c3-2.1,5.6-3.7,7.7-4.9c-1.3-1-2.6-2.1-4-3.4c-1.4-1.2-3.1-2.4-5.3-3.5
		c-2.8-1.5-5.4-2.7-8-3.8s-5.1-1.7-7.3-2.1s-4.4-0.4-6.3-0.1c-1.9,0.3-3.5,1.1-4.8,2.4c1,0.7,1.7,1.6,1.8,2.4c0.1,0.8,0,1.6-0.4,2.3
		c-0.4,0.8-1,1.3-2,1.6c-0.9,0.3-1.7,0.3-2.4,0c-0.9-0.5-1.4-1-1.7-1.9c-0.3-0.8-0.2-1.7,0.4-2.8c1.5-2.8,3.4-4.7,5.8-5.7
		c2.4-1,5-1.3,8-1.1c3,0.3,6,1.1,9.3,2.3c3.3,1.3,6.6,2.8,10,4.6c2.2,1.1,4,2.3,5.4,3.4c1.4,1.1,2.9,2.2,4.3,3.2
		c2.7-1.8,5.5-3.2,8.3-4.5c2.8-1.2,5.7-2,8.6-2.4c2.9-0.4,5.8-0.4,8.6,0c2.9,0.5,5.8,1.4,8.6,2.9c1.1,0.6,2.3,1.3,3.3,2.2
		c1,0.8,1.9,1.8,2.5,2.8c0.7,1.1,1.1,2.2,1.2,3.4c0.1,1.2-0.1,2.5-0.9,3.8c-1.2,2.3-3.1,3.9-5.6,4.8c-2.5,0.9-5.1,1.3-8.1,1.2
		c-2.9-0.1-6-0.6-9-1.4c-3-0.9-5.8-2-8.2-3.3c-0.7-0.4-1.4-0.8-2.3-1.3c-0.8-0.5-1.4-0.9-2-1.4c-1.1,0.5-2.4,1.4-4.2,2.5
		c-1.8,1.1-3.8,2.6-5.9,4.1c-2.2,1.6-4.5,3.3-6.9,5.3c-2.4,2-4.8,4-7,6.1c-2.2,2.1-4.3,4.2-6.1,6.5c-1.8,2.1-3.3,4.3-4.4,6.4
		c-1.1,2-1.6,5.2-0.9,7.4c4.5,12.4,39.2,9.2,59.2-5c0.3-0.2,0.4-0.3,0.7-0.3c0.3-0.1,0.6,0,0.8,0.1c0.3,0.1,0.6,0.5,0.6,0.8
		c0.2,0.3-2.5,0.5-2.7,0.8c-1,1.9-1.7,2.8-1.7,2.8C72.4,104.9,39.4,126.1,18.9,107z M61,62.6c0.1,0,0.3,0.1,0.6,0.4
		c0.3,0.2,0.7,0.5,1,0.7c0.4,0.2,0.8,0.5,1,0.6c0.4,0.2,0.6,0.4,0.7,0.4c1.8,1,4.1,1.9,6.8,2.6c2.6,0.7,5.3,1.3,8,1.4
		c2.6,0.1,5,0,7.3-0.7s3.9-1.9,4.9-3.9c0.4-0.7,0.4-1.5,0.2-2.2c-0.2-0.7-0.6-1.5-1.2-2.2c-0.6-0.7-1.4-1.3-2.2-2
		c-0.8-0.7-1.8-1.2-2.7-1.8c-1.8-1-3.9-1.4-6-1.2c-2.2,0.2-4.4,0.7-6.6,1.5s-4.3,1.8-6.4,3C64.3,60.5,62.5,61.5,61,62.6z"/>
	<path class="st0" d="M77.8,145.8c4.2,5.9,41.4-8.5,43.7-13.1c0.3-0.3,0.7-0.8,1.5-0.9c0.4-0.1,0.8,0,1.2,0.1
		c0.3,0.1,0.6,0.4,0.8,0.6c0.2,0.3,0.1,0.7,0,1.1c0,0.1-0.1,0.3-0.2,0.4l-0.7,0.5c0,0-35.4,19-48.9,13.9c-1-0.4-3.5-1.2-4.3-3.5
		c-0.5-1.4-0.4-3.2,0.3-5.1c0.7-2,1.9-4.1,3.6-6.5c1.6-2.3,3.4-4.5,5.2-6.6c1.8-2.1,3.5-4.2,5.1-6.2s2.6-3.7,3.2-5
		c0.6-1.7,0.2-2.7-1.1-3.2c-1.8-0.7-4-0.4-6.5,0.8s-5.2,2.8-7.9,4.9c-2.7,2.1-5.3,4.2-7.9,6.7c-2.5,2.4-4.7,4.5-6.5,6.2
		c-0.3,0.4-0.9,0.6-1.5,0.7s-1.1-0.1-1.7-0.3c-1-0.4-1.7-0.9-2.4-1.6c-0.6-0.8-0.8-1.6-0.5-2.4c0-0.1,0.2-0.4,0.5-0.8
		c2.7-3.2,5.6-7,8.6-11.6c3-4.5,6.3-9.3,9.5-14.1c3.3-4.9,6.6-9.7,10.1-14.4c3.4-4.7,6.8-8.8,10.2-12.3c3.3-3.5,6.6-6.1,9.8-7.9
		c3.2-1.7,6.1-2.1,8.9-1.2c1.7,0.6,2.6,1.5,3,2.8c0.4,1.2,0.2,2.8-0.4,4.6c-0.7,1.7-1.7,3.7-3.2,5.6c-1.5,2-3.3,4-5.4,6
		c-2,2-4.2,4-6.5,5.9s-4.6,3.7-6.8,5.2c-2.3,1.6-4.3,2.9-6.2,4s-3.5,2-4.6,2.5c-0.8,0.9-1.6,2.1-2.5,3.3c-0.9,1.2-1.7,2.6-2.6,3.9
		c-0.8,1.3-1.8,2.6-2.6,4.1c-0.8,1.3-1.7,2.7-2.4,3.7c1.7-1.2,3.4-2.5,5.3-3.6c1.8-1.1,3.7-2.1,5.7-2.8c2-0.7,3.9-1.2,6-1.4
		c2-0.1,4,0.2,6,0.9c2.2,0.8,3.6,1.9,4.1,3.4s0.4,3.1-0.3,4.9c-0.8,2.1-2.1,4.5-4.2,7c-1.9,2.5-4.1,4.9-6.2,7.3
		c-2.1,2.4-4,4.5-5.8,6.6c-1.5,1.6-3.4,2.8-3.4,4.8C77.1,143.8,77.1,144.8,77.8,145.8z M108.8,68.5c-0.6-0.2-1.4,0.2-2.6,1.1
		s-2.6,2.2-4.2,3.7s-3.2,3.5-5,5.6c-1.8,2.1-3.5,4.3-5.2,6.4c-1.7,2.2-3.3,4.3-4.8,6.3c-1.5,2.1-2.7,3.8-3.7,5.2
		c2.4-1.5,5.1-3.3,7.9-5.5c2.8-2.2,5.5-4.4,8.1-6.8s4.7-4.6,6.7-6.8c1.9-2.2,3.1-4.1,3.7-5.8C110.3,70.2,110,68.9,108.8,68.5z"/>
	<path class="st0" d="M143,106.7c1.6,0.1,2.7,0.5,3.3,1.3c0.6,0.8,0.8,1.8,0.8,3c-0.2,1.7-0.9,3.7-2.4,6.1c-1.4,2.4-3.3,4.7-5.6,7
		s-4.7,4.5-7.5,6.4c-2.8,2-5.6,3.5-8.5,4.5c-0.2,0.6-0.3,1.3-0.5,2.1c-0.2,0.7-0.2,1.5-0.3,2.3c-0.1,1.4,0,2.7,0,4.1
		c0.2,1.4,0.5,2.7,1,3.7c0.5,1.2,1.2,2,2.1,2.8c0,0,1.4,1.1,3.5,1.3c7.1,0.8,30.5-13.4,33.8-26.8c0-0.3,1.5-1.3,2.3-1.2
		c0.9,0.1,1.2,0.6,1.2,1.5c0,0.2,0,0.5-0.2,0.8c0,0-0.2,0.4-0.5,0.9c-15.1,26.8-37.3,28.5-37.3,28.5c-3.6-0.1-6.6-1.7-6.6-1.7
		c-1.7-0.9-3.2-2.1-4.2-3.5c-1.1-1.5-1.7-3.1-2.1-5c-0.4-1.8-0.5-3.9-0.4-6c0.3-3.7,1.3-7.4,3.1-11.4c1.8-3.9,3.9-7.5,6.5-10.6
		c2.6-3.2,5.5-5.7,8.7-7.7C136.4,107.3,139.6,106.5,143,106.7z M124.2,131.8c2.3-1,4.6-2.4,7-4.3c2.4-1.9,4.5-3.8,6.5-5.8
		c1.9-2,3.5-4,4.8-6c1.3-1.9,1.9-3.4,2-4.6c0.1-1.1-0.4-1.6-1.3-1.7c-0.6-0.1-1.9,0.6-3.7,2c-1.9,1.3-3.9,3.1-6,5.2
		c-2.1,2.1-4,4.5-5.8,7.3C125.7,126.5,124.5,129.1,124.2,131.8z"/>
	<path class="st0" d="M174.1,109.6c-0.2,1.1-0.9,2.2-2,3.2c-1.1,1.1-2.3,1.7-3.5,1.8c-0.8,0.1-1.7-0.2-2.5-0.7
		c-0.9-0.6-1.3-1.7-1.5-3.4c-0.2-1.5,0.3-2.8,1.2-3.7c1-0.9,2.1-1.4,3.5-1.6c1.1-0.1,2.2,0.1,3.2,0.6c1,0.5,1.5,1.3,1.7,2.6
		C174.2,108.9,174.2,109.3,174.1,109.6z M165.5,156c1.7-0.2,3.6-1.5,5.6-4c2-2.4,4-5.4,5.9-8.7s3.8-6.9,5.5-10.6
		c1.6-3.7,3.1-6.9,4.2-9.8c0.1-0.4,0.3-0.7,0.6-0.8c0.3-0.2,0.5-0.3,0.6-0.2c0.7,0,1.1,0.3,1.2,1.1c0.1,0.3-0.3,1.4-0.9,3.2
		c-0.7,1.8-1.6,4.1-2.7,6.8c-1.2,2.7-2.5,5.5-4.2,8.5c-1.6,3.1-3.4,5.9-5.2,8.6c-1.9,2.6-3.9,4.9-5.9,6.7c-2.1,1.8-4.2,2.8-6.2,3
		c-2.1,0.2-3.7-0.1-4.7-1.1c-1-1-1.6-2.5-1.8-4.3c-0.3-2.2-0.2-4.8,0.2-7.9c0.5-3.1,1.1-6,1.7-9.1c0.7-3,1.4-5.7,2.1-8.1
		c0.6-2.5,1.1-4.3,1.3-5.5c0.1-0.8,0.5-1.5,1.2-1.9c0.6-0.4,1.4-0.8,2.1-0.8c1.1-0.1,2.1,0.1,3.1,0.5c1,0.5,1.5,1.1,1.6,2.1
		c0.1,0.4,0,0.9-0.2,1.3c-0.8,2.3-1.6,5-2.4,7.9c-0.8,2.9-1.4,5.9-2,8.7c-0.6,2.9-1,5.4-1.2,7.8s-0.4,4.2-0.2,5.3
		C164.7,155.6,165,156.1,165.5,156z"/>
	<path class="st0" d="M206.9,117.6c-2.3,2.1-4.9,3.6-7.7,4.5c-1.7,0.5-3.3,0.9-4.8,1c-1.6,0.2-3.1-0.1-4.5-0.5
		c-1.4-0.5-2.6-1.2-3.7-2.4c-1.1-1.1-2-2.5-2.5-4.3c-1.3-3.9-1.5-7.5-0.5-10.4c1-3,3.1-5,6.4-6.1c1.4-0.5,2.7-0.3,3.7,0.4
		s1.7,2,2.2,3.5c0.4,1.1,0.6,2.3,0.8,3.6s0.3,2.6,0.3,3.9s0,2.5-0.2,3.7c-0.2,1.2-0.4,2.2-0.7,3c1.2,0.6,2.3,0.9,3,0.9
		s1.5-0.2,2.3-0.5c0.7-0.2,1.5-0.7,2.1-1.1c0.7-0.5,1.3-1.1,2-1.6s1.4-1.1,2.2-1.7c0.8-0.5,1.7-1,2.8-1.4c0.9-0.3,1.8-0.3,2.8-0.1
		c0.9,0.2,1.6,1.1,2.1,2.4c0.3,1,0.5,2.5,0.5,4.2c0,1.8,0,3.7-0.1,5.8c-0.1,2.1-0.3,4.4-0.5,6.7s-0.4,4.5-0.6,6.6
		c-0.2,2.1-0.3,3.9-0.2,5.6c0,1.6-0.3,2.8,0.4,3.9c0,0,0.7,1.2,1.9,1.3c8.8,1.1,18-46.8,24.2-60.6c0.1-0.4,0.3,0.4,0.9,0.2
		c0.3-0.1,0.7-0.1,1,0s0.5,0.3,0.6,0.7c0.1,0.2,0.1,0.3,0.1,0.5c0,0.3,0,0.5,0,0.5c-6.6,5.5-12.2,58.3-27,62.4
		c-1,0.3-3.9,1.2-6.1-0.4c-1.5-1.1-2.6-2.7-3.4-5c-0.6-2-1.1-4.3-1.3-6.9s-0.2-5.2-0.1-7.9c0.1-2.7,0.4-5.3,0.7-7.8
		C206.1,121.4,206.5,119.3,206.9,117.6z M193.1,116c0.1-0.4,0.3-1.1,0.4-2c0.1-0.9,0.2-1.9,0.2-3c0-1.1,0-2.2-0.1-3.3
		c-0.1-1.1-0.3-2.1-0.6-3c-0.3-0.9-0.8-1.6-1.3-2s-1.4-0.5-2.2-0.2c-0.7,0.2-1.1,1.1-1.1,2.5c0,1.4,0.3,2.9,0.9,4.7
		c0.4,1.1,1,2.3,1.7,3.4C191.7,114.1,192.4,115.1,193.1,116z"/>
	<path class="st0" d="M260.3,104.7c0.3,1.3,0.2,2.8,0.1,4.5c-0.2,1.7-0.5,3.4-1,4.9c-0.5,1.7-1,3.1-1.8,4.5
		c-0.7,1.3-1.6,2.4-2.6,3.1c-2.9,2-5.6,2.8-7.9,2.2c-2.4-0.6-4.2-2-5.8-4.3c-1.6-2.3-2.8-5.2-3.6-8.8c-0.8-3.6-1-7.1-0.7-10.9
		c0.3-3.7,1.2-7.2,2.6-10.6c1.4-3.4,3.5-6,6.2-7.9c1.5-1.1,2.9-1.3,4.3-0.9c1.4,0.5,2.5,1.4,3.4,2.7c0.6,0.9,1,1.7,1.4,2.6
		c0.3,0.9,0.5,2,0.5,2.9c0.1,1-0.1,1.9-0.3,2.7c-0.3,0.8-0.7,1.4-1.4,1.9c-0.9,0.6-1.7,0.7-2.5,0.7c-0.8-0.2-1.4-0.5-1.8-1.1
		c-0.6-0.9-0.8-1.7-0.8-2.7c0.1-0.9,0.6-1.7,1.3-2.2c0.3-0.2,0.6-0.3,1.1-0.3c0.5-0.1,0.8-0.1,0.9-0.2c0.4-0.3,0.5-0.8,0.2-1.4
		c-0.2-0.6-0.5-1.2-0.9-1.6c-0.4-0.6-1.1-1.1-1.9-1.5c-0.8-0.4-1.6-0.3-2.2,0.2c-0.9,0.6-1.6,1.8-2,3.3c-0.5,1.7-0.8,3.5-0.9,5.6
		s0,4.4,0.2,6.8c0.2,2.4,0.6,4.9,0.9,7.1c0.5,2.4,1.1,4.4,1.7,6.4c0.7,2,1.4,3.5,2.2,4.6c0.6,1,1.4,1.5,2.3,1.7
		c0.8,0.2,1.6,0,2.2-0.4c0.9-0.6,1.6-1.7,2.1-3c0.5-1.5,0.9-3,1.2-4.9c0.3-1.9,0.4-3.8,0.5-5.9c0.1-2,0.2-4,0.1-5.9s0-3.6,0.1-5.1
		c0-1.5,0.1-2.7,0.3-3.5c0.2-0.6,0.4-1.3,1.1-2c0.6-0.8,1.3-1.4,2.1-1.9c1-0.6,1.9-1.1,2.8-1.2c0.9-0.2,1.7,0.2,2.3,0.9
		c0.4,0.5,0.6,1.2,0.6,1.9c0.2,1.8,0.5,4.2,0.8,6.9c0.2,2.7,0.6,5.5,1,8.3c0.4,2.9,1,5.5,1.6,8c1,3.6,1.2,4.8,2.3,5.6
		c1.2,0.9,3.2,1.4,4.5,0.9c8.4-3,8.5-40.5,5.4-51.1c-0.1-0.6,0-0.8,0.2-1.1c0.1-0.1,0.2-0.2,0.3-0.3c0.2-0.2,0.5-0.2,0.8-0.1
		c0,0,0.4,0.1,0.7,0.5c0.7,0.9,8,47.8-7.3,57.7c-1.1,0.7-3.7,2.6-6.3,1.7c-1.8-0.6-3.2-1.8-4.6-3.6c-0.8-1.2-1.6-2.6-2.2-4.1
		c-0.7-1.6-1.2-3.1-1.8-4.7s-1-3-1.4-4.4C261,106.9,260.6,105.7,260.3,104.7z"/>
	<path class="st0" d="M294.3,59.7c-0.8,3-2.1,5.7-4,8c-1,1.3-2.2,2.5-3.5,3.5s-2.7,1.7-4,1.9c-1.4,0.4-2.8,0.3-4.3,0.1
		c-1.5-0.3-3-1.1-4.5-2.2c-3.3-2.6-5.3-5.4-6.1-8.5s-0.2-5.9,2-8.7c1-1.2,2.1-1.8,3.4-1.6c1.3,0.1,2.5,0.7,3.9,1.8
		c0.9,0.7,1.8,1.6,2.7,2.6c0.9,1,1.7,2.1,2.4,3.1c0.7,1.1,1.3,2.1,1.8,3.2c0.5,1.1,0.8,2,1,2.8c1.4-0.2,2.5-0.5,3-0.9
		c0.5-0.5,1.1-1,1.7-1.7c0.5-0.7,0.8-1.3,1.1-2.1c0.3-0.8,0.4-1.6,0.7-2.3c0.3-0.8,0.6-1.7,0.8-2.6c0.4-0.9,0.9-1.8,1.7-2.8
		c0.7-0.7,1.4-1.4,2.3-1.6c0.9-0.3,1.9,0,3,0.9c0.8,0.7,1.7,1.8,2.7,3.3c1,1.5,2,3.1,3.1,5c1,1.8,2.2,3.8,3.2,5.9
		c1,2.1,2.1,4,3.1,5.8c1,1.8,2,3.4,2.9,4.8c0.9,1.4,1.7,2.4,2.4,2.9c0.9,0.8,1.7,0.8,2.3,0c1.2-1.5,1.7-3.8,1.3-6.8
		c-0.3-3-1-6.4-2.2-10.2s-2.5-7.8-4-11.9c-1.6-4.2-3.1-8.1-4.4-11.9c-0.3-0.5-0.2-1,0.2-1.5c0.2-0.3,0.5-0.5,0.9-0.5
		c0.3-0.1,0.6,0.1,0.9,0.3c0.3,0.2,0.5,0.5,0.5,0.9c0.4,1.3,1.1,3.1,2,5.4c1,2.3,2,4.8,3,7.5c1.1,2.7,2.1,5.6,3.1,8.7
		c0.9,3.1,1.7,6.1,2.2,8.9c0.5,2.9,0.7,5.6,0.5,8.1c-0.2,2.5-0.9,4.6-2.3,6.3c-1.7,2.2-3.5,3.2-5.3,3c-1.8-0.2-3.6-0.9-5.5-2.4
		c-1.6-1.3-3.2-3-4.9-5.1c-1.6-2.1-3.1-4.3-4.4-6.6c-1.4-2.3-2.6-4.7-3.7-6.9C295.7,63.3,294.8,61.3,294.3,59.7z M281.9,65.8
		c-0.1-0.4-0.4-1-0.7-1.9c-0.4-0.8-0.8-1.7-1.5-2.6c-0.5-1-1.2-1.8-2-2.7s-1.5-1.6-2.1-2.1c-0.8-0.6-1.4-0.9-2.2-0.9
		c-0.7-0.1-1.4,0.3-2,1c-0.5,0.7-0.3,1.5,0.5,2.7c0.8,1.2,1.9,2.3,3.3,3.4c0.9,0.8,2.1,1.4,3.2,1.9
		C279.6,65.1,280.8,65.5,281.9,65.8z"/>
	<path class="st0" d="M8.4,85.1"/>
</g>
</svg>
