<?xml version="1.0" encoding="utf-8"?>
<!-- Generator: Adobe Illustrator 24.0.0, SVG Export Plug-In . SVG Version: 6.00 Build 0)  -->
<svg version="1.1" id="Layer_1" xmlns="http://www.w3.org/2000/svg" xmlns:xlink="http://www.w3.org/1999/xlink" x="0px" y="0px"
	 viewBox="0 0 320.8 80.5" style="enable-background:new 0 0 320.8 80.5;" xml:space="preserve">
<style type="text/css">
	.st0{fill:#FFFFFF;}
</style>
<title>Artboard 6</title>
<path class="st0" d="M319.8,38.6c-0.1-0.2-0.4-0.3-0.7-0.2c-0.4-0.1-0.8,0.2-1,0.6c-1.5,2.6-3.2,5.4-5,8.3c-1.7,3-3.4,5.6-5.1,8.2
	c-1.5,2.2-3.1,4.3-5,6.2c-1.7,1.7-3.2,2.4-4.7,2.4c-0.8,0-1.1-0.5-1-1.4c0.1-0.9,0.2-2,0.6-2.9c0.4-1.2,0.9-2.6,1.5-4
	c0.6-1.5,1.3-3,2-4.6c0.7-1.7,1.4-3.2,1.9-4.7c0.5-1.5,1-2.9,1.5-4.3c0.3-1.1,0.5-2,0.6-3.2c0.1-0.8-0.2-1.7-0.9-2.2
	c-0.6-0.4-1.4-0.6-2-0.5c-0.8,0-1.6,0.1-2.4,0.4c-0.7,0.2-1.4,0.5-1.9,0.7c-0.7,0.3-1.2,0.5-1.7,0.8c-0.5,0.2-1.1,0.4-1.8,0.3
	c-0.5,0-1.2-0.1-1.8-0.2c-0.8-0.2-1.4-0.7-2.1-1.3c0.5-0.7,0.9-1.3,1.2-2c0.4-0.8,0.7-1.7,1-2.6c0.3-1,0.5-1.9,0.7-2.9
	c0.2-0.9,0.2-1.9,0.2-2.8c0-1.1-0.3-2.2-0.7-3.1c-0.6-0.9-1.5-1.3-2.5-1.2c-2.4,0-4.7,1-6,3c-1.5,2.3-2.2,4.9-2.1,7.7
	c0,1.3,0.3,2.6,0.8,3.7c0.6,1,1.3,1.8,2.2,2.6c0.4,0.3,0.7,0.5,1.2,0.7c-0.5,1-1.2,2.2-1.9,3.7c-0.8,1.6-1.9,3.3-2.9,5.2
	c-1,1.9-2.1,3.6-3.3,5.4c-1.1,1.7-2.2,3.4-3.4,5c-1,1.3-2.3,2.5-3.6,3.6c-1,0.8-2.2,1.3-3.4,1.4c-1.6,0-2.4-0.8-2.4-2.5
	c0-1.6,0.3-3.1,1-4.6c0.7-1.9,1.5-3.7,2.4-5.7c1-2,2-3.8,3-5.7c1-1.9,1.9-3.3,2.5-4.7c0.3-0.4,0.4-0.9,0.4-1.5
	c0.1-0.7-0.4-1.4-1-1.6c-0.7-0.3-1.6-0.4-2.3-0.4s-1.5,0.1-2.2,0.3c-0.6,0.1-1,0.4-1.5,0.8c-0.6,0.6-1.2,1.3-1.8,2.1
	c-0.7,0.9-1.5,2-2.2,3.2s-1.7,2.4-2.6,3.7s-1.9,2.4-2.8,3.4c-0.8,0.9-1.8,1.9-2.8,2.6c-0.8,0.6-1.7,0.9-2.6,1.1
	c-0.5,0-1.2-0.3-1.6-0.7c-0.5-0.6-0.8-1.3-0.7-2c0-1.3,0.2-2.6,0.6-3.9c0.5-1.6,1.1-3.2,1.7-4.8c1.4-3.3,3.2-6.5,5.3-9.4
	c0.8-1.2,1.8-2.3,3-3.2c0.7-0.7,1.7-1.1,2.8-1.2c0.6,0.1,1.2,0.3,1.5,0.8c0.3,0.5,0.5,1.1,0.6,1.8c0,0.4-0.1,0.9-0.1,1.4
	c-0.1,0.5-0.3,0.7-0.8,0.8c-0.2,0-0.5-0.1-0.7-0.3c-0.2-0.2-0.6-0.2-0.9-0.3c-0.7,0-1.3,0.3-1.8,0.9c-0.5,0.6-0.8,1.3-0.6,2
	c0,0.5,0.3,1.1,0.7,1.5c0.5,0.4,1.1,0.7,1.8,0.7c0.6,0.1,1.2-0.3,1.7-0.6c0.5-0.4,1.1-1,1.3-1.5c0.4-0.7,0.7-1.3,0.9-2.1
	c0.2-0.8,0.3-1.5,0.3-2.3c0-1.1-0.4-2.2-1-3.1c-0.7-0.9-1.9-1.5-3-1.3c-2.6,0.1-5.1,0.9-7.3,2.3c-2.3,1.5-4.4,3.4-6.2,5.5
	s-3.2,4.5-4.2,7.1c-0.1,0.2-0.2,0.4-0.2,0.5c-0.7,1.1-1.4,2.2-2.1,3.4c-1.6,2.4-3.2,4.7-5.1,6.9c-1.7,2-3.6,3.9-5.7,5.4
	c-1.5,1.3-3.5,2.1-5.5,2.2c-1,0-2-0.2-2.7-0.7c-0.7-0.5-1.3-1.2-1.8-2c-0.5-0.9-0.9-1.8-1-2.8c-0.2-1.1-0.3-2.1-0.3-3.1
	c0-0.5,0.1-1.2,0.1-1.7c0-0.5,0.1-1,0.2-1.5c2.2-1.1,4.2-2.5,6.1-4c1.9-1.7,3.7-3.4,5.3-5.5c1.4-1.8,2.6-3.7,3.7-5.7
	c0.8-1.5,1.3-3.1,1.4-4.7c0-0.9-0.3-1.6-0.8-2.2c-0.7-0.6-1.7-0.9-2.6-0.8c-2.6,0.1-5.2,0.9-7.3,2.6c-2.4,1.8-4.4,4-6.1,6.4
	c-0.9,1.4-1.8,2.9-2.5,4.5c0,0.1-0.2,0.1-0.2,0.2c-1.5,2.6-3.2,5.4-5,8.3c-1.7,3-3.4,5.6-5.1,8.2c-1.5,2.2-3.1,4.3-5,6.2
	c-1.7,1.7-3.2,2.4-4.7,2.4c-0.7,0-1.1-0.5-1-1.4s0.3-1.9,0.6-2.9c0.4-1.2,0.9-2.6,1.5-4c0.6-1.5,1.3-3,2-4.6s1.4-3.2,1.9-4.7
	c0.5-1.5,1.1-2.9,1.5-4.3c0.3-1.1,0.5-2,0.6-3.2c0.1-0.8-0.2-1.7-0.9-2.2c-0.6-0.4-1.4-0.6-2-0.5c-0.8,0-1.6,0.1-2.4,0.4
	c-0.7,0.2-1.4,0.5-1.9,0.7c-0.7,0.3-1.2,0.5-1.7,0.8c-0.5,0.2-1.1,0.4-1.8,0.3c-0.5,0-1.2-0.1-1.8-0.2c-0.8-0.2-1.4-0.7-2.1-1.3
	c0.5-0.7,0.9-1.3,1.2-2c0.4-0.8,0.7-1.7,1-2.6c0.3-1,0.5-2,0.7-2.9c0.2-0.9,0.2-1.9,0.2-2.8c0-1.1-0.3-2.2-0.7-3.1
	c-0.6-0.9-1.5-1.3-2.5-1.2c-2.4,0-4.7,1-6,3c-1.5,2.3-2.2,4.9-2.1,7.7c0,1.3,0.3,2.6,0.8,3.7c0.6,1,1.3,1.8,2.2,2.6
	c0.3,0.2,0.7,0.5,1.1,0.7c-0.3,0.5-0.7,1-1.3,1.4c-0.9,0.7-1.7,1.4-2.6,1.8c-1,0.6-2.2,1-3.3,1.3c-1.1,0.3-2.3,0.5-3.4,0.5
	c-0.5,0-1.1,0-1.5,0c-0.5,0-0.9-0.2-1.4-0.4c0.4-0.9,0.9-2,1.4-3.2c0.5-1.4,1-2.7,1.2-4.2c0.4-1.5,0.6-3,0.9-4.6
	c0.2-1.5,0.3-3.1,0.3-4.6c0-1.3-0.2-2.7-0.4-3.9c-0.3-1.2-0.7-2.2-1.4-3.2c-0.6-0.9-1.5-1.6-2.5-2.1c-1.2-0.6-2.5-0.8-3.7-0.8
	c-2.5,0.2-4.7,1.4-6.2,3.3c-2.1,2.6-3.4,5.7-3.9,9c-0.4-0.1-0.9,0-1.3-0.1c-1.7,0-3.5,0.7-4.9,1.8c-1.6,1.3-3,2.9-3.9,4.6
	c-0.9,1.7-1.7,3.5-2.3,5.4c-0.4,0.7-0.8,1.4-1.2,2.1c-0.8,1.5-1.9,2.9-3,4.3c-1.1,1.4-2.3,2.6-3.6,3.8c-1.1,1.1-2.5,2-3.9,2.7
	c0.6-0.6,1-1.3,1.3-2.1c0.4-0.9,0.8-1.8,1-2.8c0.3-1.2,0.5-2.3,0.7-3.4c0.2-1.2,0.2-2.5,0.2-3.7c0-1.4-0.1-2.8-0.4-4.2
	c-0.3-1.2-0.6-2.4-1.2-3.6c-0.6-1-1.3-1.8-2.2-2.5c-0.9-0.6-2.1-1-3.2-0.9c-1.4,0-2.8,0.5-3.9,1.4c-1.5,0.9-2.8,2.1-3.9,3.3
	c-1.3,1.4-2.6,2.9-3.7,4.5c-1.2,1.7-2.3,3.3-3.2,4.9c-1,1.6-1.9,3.1-2.7,4.5c-0.8,1.4-1.4,2.5-1.8,3.2c0.7-1.8,1.2-3.4,1.8-4.9
	c0.5-1.5,1.1-3,1.7-4.4c0.6-1.4,1.2-3,1.7-4.5c0.5-1.5,1.2-3.2,1.8-5c0.3-0.6,0.9-1.7,1.8-3.2l3-5.1c1.2-2,2.4-4.1,3.6-6.3
	s2.3-4.4,3.4-6.6c1-2.1,1.9-4.1,2.5-5.9c0.6-1.4,0.9-2.9,0.9-4.5c0-0.8-0.2-1.5-0.6-2.1c-0.5-0.6-1.3-0.8-2.1-0.8
	c-1.8,0.1-3.6,0.8-4.9,1.9c-1.7,1.4-3.2,3.2-4.5,5.2c-1.5,2.4-2.8,4.9-3.9,7.6c-1.2,2.9-2.4,5.8-3.5,9c-1.1,3.1-2.1,6.3-3,9.5
	c-0.8,2.6-1.4,5.2-2.1,7.6c-0.5,1-1.1,2.1-1.8,3.6c-0.8,1.6-1.8,3.4-2.9,5.2c-1,1.9-2.1,3.6-3.3,5.4c-1.1,1.7-2.3,3.4-3.5,4.9
	c-1,1.4-2.3,2.6-3.6,3.7c-1,0.8-2.2,1.3-3.4,1.4c-1.6,0-2.4-0.8-2.4-2.5c0-1.6,0.3-3.1,1-4.6c0.7-1.9,1.5-3.7,2.4-5.7s2-3.8,3-5.7
	c1-1.9,1.9-3.3,2.5-4.7c0.3-0.4,0.4-0.9,0.4-1.5c0.1-0.7-0.4-1.4-1-1.6c-0.7-0.3-1.6-0.4-2.3-0.4c-0.8,0-1.5,0.1-2.2,0.3
	c-0.6,0.1-1,0.4-1.5,0.8c-0.6,0.6-1.2,1.3-1.8,2.1c-0.7,1-1.5,2-2.2,3.2c-0.8,1.2-1.7,2.4-2.6,3.7c-1,1.2-1.9,2.4-2.8,3.4
	c-0.8,0.9-1.8,1.9-2.8,2.6c-0.8,0.6-1.7,0.9-2.6,1.1c-0.5,0-1.2-0.3-1.6-0.7c-0.5-0.6-0.8-1.3-0.7-2c0-1.3,0.2-2.6,0.7-3.8
	c0.5-1.6,1.1-3.2,1.7-4.8c1.4-3.3,3.2-6.5,5.3-9.4c0.8-1.2,1.8-2.3,3-3.2c0.7-0.7,1.7-1.1,2.7-1.2c0.6,0.1,1.2,0.3,1.5,0.8
	c0.3,0.5,0.5,1.1,0.6,1.8c0,0.4-0.1,0.9-0.2,1.4c-0.1,0.5-0.3,0.7-0.8,0.8c-0.2,0-0.5-0.1-0.7-0.3c-0.2-0.2-0.6-0.2-0.8-0.4
	c-0.7,0-1.3,0.3-1.8,0.9c-0.5,0.6-0.8,1.3-0.6,2c0,0.5,0.3,1.1,0.7,1.5c0.5,0.4,1.1,0.7,1.8,0.7c0.6,0.1,1.2-0.3,1.7-0.6
	c0.5-0.4,1-1,1.3-1.5c0.4-0.7,0.7-1.3,0.9-2.1c0.2-0.8,0.3-1.5,0.3-2.3c-0.1-1.1-0.4-2.2-1-3.2c-0.8-1-1.9-1.5-3.1-1.3
	c-2.5,0.1-5.1,0.9-7.2,2.3c-2.4,1.5-4.4,3.4-6.2,5.5c-1.8,2.2-3.2,4.5-4.2,7.1c-0.9,2.2-1.5,4.6-1.5,7.1c0.1,0.4,0,0.8,0.1,1.1
	c-1,1.5-2.2,2.9-3.7,4.1c-1.5,1.2-3.2,2.3-5,3.2c-1.3-4.3-4-9.7-8.1-16.6l-1.3-2.3c6.5-8.2,9.8-16.8,9.7-25.9c0-4.3-1.1-7.5-3.1-9.7
	C54.8,3.2,52,2,49.1,2.2c-3.9-0.1-7.5,1.6-9.9,4.7c-2.5,3.3-3.8,7.4-3.6,11.5c0.1,5.9,2.8,13.5,8,22.6l1.4,2.4
	c-7.2,7.4-15.2,11.2-24.3,11.3c-6.1,0.1-11-2.2-14.6-6.6c-1.9-2.4-3.2-5.2-4-8.2L0,39.6c0.8,3.6,2.4,7,4.7,9.8
	c3.9,4.9,9.2,7.4,15.9,7.3c9.5-0.1,17.9-3.9,25.3-11.4c2.5,4.3,4.2,7.3,5.1,9.1c1.2,2.5,2.2,5,3,7.6c-2.3,0.8-4.4,1.7-6.6,2.6
	c-4.1,2-6.2,5.1-6.1,9.2c0,1.8,0.6,3.5,1.9,4.8c1.2,1.3,3,1.9,4.8,1.8c1.5,0,3-0.4,4.2-1c1.4-0.6,2.5-1.5,3.6-2.6
	c1.5-1.5,2.7-3.4,3.3-5.4c0.6-2,1-4.1,1-6.3c0-1-0.1-2-0.3-2.9c3.5-1.6,6.5-4.1,8.8-7.1c0.3,0.6,0.6,1.1,1,1.6c1.3,1.4,3.3,2,6,2
	c1,0,2-0.3,3-0.8c1.1-0.5,2.2-1.3,3.1-2.1c1-0.9,1.9-1.7,2.7-2.8c0.8-0.9,1.4-1.8,1.9-2.9c-0.2,0.8-0.5,1.6-0.8,2.7
	c-0.3,1.1-0.7,2.2-1,3.4c-0.3,1.2-0.6,2.5-0.9,3.7c-0.3,1.2-0.3,2.4-0.4,3.5c0,1.5,0.5,3,1.3,4.3c0.8,1.1,2.4,1.7,4.6,1.6
	c2.1-0.1,4-0.8,5.7-1.9c2-1.4,3.8-3.1,5.3-4.9c1.8-2.1,3.3-4.2,4.8-6.6c1-1.6,1.9-3.3,2.7-4.9l-0.1,0.5c-0.6,2.5-1,4.5-1.5,6
	c-0.3,0.9-0.4,1.8-0.4,2.7c-0.1,0.7,0.1,1.5,0.7,2c0.4,0.4,0.9,0.7,1.5,0.6c1,0,1.9-0.4,2.6-1.1c0.9-0.7,1.7-1.5,2.3-2.5
	c0.3-0.4,0.8-1.3,1.5-2.6c0.7-1.3,1.5-2.8,2.5-4.6c1-1.8,2.1-3.6,3.2-5.5c1.1-1.8,2.3-3.6,3.5-5.2c1-1.4,2.3-2.7,3.5-3.9
	c0.8-0.9,1.8-1.5,3.1-1.6c1,0,1.8,0.7,2.4,2c0.6,1.7,0.9,3.3,0.9,5.1c0,2.1-0.3,4.2-0.7,6.2c-0.5,2.2-1.2,4.4-2.3,6.3
	c-1,1.9-2.4,3.6-4,4.9c-1.8,1.3-3.8,2.1-6,2c-1,0.1-1.9-0.3-2.6-1.1c-0.5-0.6-0.8-1.3-0.8-2.1c0-0.2,0-0.5-0.1-0.9
	c0-0.3,0.1-0.7,0.2-1.1c0.1-0.3,0.3-0.6,0.5-0.9c0.2-0.2,0.6-0.4,0.9-0.4c0,0.5,0.2,1.2,0.3,1.8c0.3,0.6,0.9,0.9,1.5,0.8
	c0.9,0,1.6-0.3,2.1-0.9c0.5-0.6,0.7-1.2,0.8-1.8c0-0.7-0.4-1.4-0.9-1.8c-0.7-0.6-1.7-0.9-2.6-0.8c-1.4,0-2.8,0.7-3.6,1.8
	c-0.9,1-1.4,2.5-1.3,3.9c0,0.7,0.1,1.3,0.3,2c0.1,0.7,0.4,1.4,0.9,2c0.5,0.6,1.1,1.1,1.8,1.5c1,0.4,2.1,0.6,3.3,0.6
	c2.6-0.1,5.2-0.7,7.6-1.9c2.9-1.3,5.7-2.9,8.3-4.9c2.9-2.1,5.4-4.5,7.7-7.3c0.5-0.6,1-1.2,1.4-1.8c0,0.5-0.1,0.9,0,1.5
	c0,1.5,0.2,3,0.7,4.5c0.4,1.4,1,2.6,1.9,3.7c0.8,1.1,2,1.9,3.2,2.5c1.5,0.6,3.1,1,4.7,0.9c1.9-0.1,3.7-0.6,5.4-1.5
	c1.8-1,3.4-2.2,4.9-3.6c1.5-1.4,2.8-2.9,3.9-4.6c0.9-1.4,1.8-2.9,2.4-4.5c1,0.2,2,0.3,3,0.3c2.7,0,5.4-0.6,7.9-1.9
	c1.2-0.6,2.4-1.4,3.4-2.2c0.9-0.7,1.7-1.6,2.3-2.5c1.2,0.3,2.4,0.3,3.6,0.3c2.3,0,4.6-0.5,6.7-1.5c-0.7,1.1-1.5,2.6-2.3,4.4
	s-1.6,3.5-2.3,5.4c-0.7,1.9-1.3,3.9-1.8,5.8c-0.4,1.8-0.6,3.5-0.7,5.4c0,1.6,0.4,3.1,1.3,4.4c0.8,1.1,2.2,1.7,4.4,1.7
	c1.7,0,3.4-0.6,4.8-1.6c1.7-1.2,3.2-2.7,4.6-4.1c1.5-1.8,3-3.6,4.2-5.6c1.3-2.1,2.6-4,3.7-6l0.8-1.3c-0.2,1.2-0.3,2.5-0.3,3.7
	c0,1.5,0.2,3,0.7,4.5c0.4,1.4,1.1,2.6,2,3.7c1,1.1,2.1,1.9,3.4,2.4c1.6,0.6,3.3,0.9,5.1,0.8c2.2,0,4.3-0.8,6-2.1
	c2.1-1.5,4-3.3,5.7-5.3c2-2.3,3.7-4.7,5.4-7.3l0.3-0.5c0,0.2,0,0.5,0,0.8c-0.1,1.9,0.6,3.7,1.8,5.2c1.3,1.4,3.1,2.1,5.9,2
	c1,0,2-0.3,3-0.8c1.1-0.5,2.2-1.3,3.1-2.1c1-0.9,2-1.8,2.8-2.8c0.8-0.9,1.4-1.8,1.9-2.9c-0.2,0.8-0.5,1.6-0.8,2.7
	c-0.3,1.1-0.7,2.2-1,3.4c-0.3,1.3-0.6,2.5-0.9,3.6c-0.3,1.2-0.3,2.4-0.4,3.5c0,1.5,0.5,3,1.3,4.3c0.8,1.1,2.4,1.7,4.6,1.6
	c2-0.1,4-0.7,5.6-2c2-1.4,3.8-3.1,5.3-4.9c1.8-2.1,3.3-4.2,4.8-6.6c1.5-2.4,2.8-4.7,3.8-6.9c0.7-1.4,1.4-2.9,2.2-4.3
	c0.4-0.8,0.8-1.6,1-2.5l0.1-0.1c1.2,0.3,2.5,0.4,3.7,0.4c2.3,0,4.6-0.5,6.7-1.5c-0.7,1.1-1.5,2.6-2.3,4.4s-1.6,3.5-2.4,5.5
	c-0.7,1.9-1.3,3.9-1.8,5.8c-0.4,1.8-0.6,3.5-0.7,5.4c0,1.6,0.4,3.1,1.3,4.4c0.8,1.1,2.2,1.7,4.4,1.7c1.7,0,3.4-0.6,4.8-1.6
	c1.7-1.2,3.2-2.7,4.6-4.1c1.5-1.8,2.9-3.7,4.1-5.6c1.4-2,2.6-4,3.7-6c1.1-2,2.1-3.8,3-5.5c0.8-1.7,1.6-2.9,2.2-3.9
	c0.2-0.2,0.2-0.5,0.2-0.8C320.1,39,320,38.8,319.8,38.6z M224.3,40.3c1.1-2.1,2.4-4.1,3.9-5.9c1.2-1.6,2.7-3.1,4.2-4.4
	c1.4-1.2,2.3-1.8,2.7-1.7c0.8,0,1.1,0.4,1.2,1.3c-0.1,1.3-0.6,2.6-1.3,3.7c-0.9,1.7-1.9,3.3-3.2,4.9c-1.4,1.7-2.8,3.4-4.5,4.9
	c-1.5,1.4-3.2,2.8-5.1,3.7C222.6,44.5,223.3,42.3,224.3,40.3z M121,26.9c0.4-1.6,0.9-3.3,1.4-5.3s1.1-3.9,1.7-5.9
	c0.6-1.9,1.3-3.8,2.2-5.6c0.7-1.6,1.6-2.9,2.7-4.2c0.7-1,1.9-1.7,3.2-1.8c0.4,0,0.6,0.3,0.6,0.8c-0.1,0.9-0.3,1.9-0.7,2.9
	c-0.4,1.2-1,2.7-1.8,4.2c-0.8,1.5-1.6,3.2-2.6,5c-1,1.8-1.9,3.5-2.9,5.2c-0.9,1.7-1.8,3.2-2.8,4.7c-0.8,1.5-1.5,2.6-2.2,3.5
	C120.3,29.3,120.8,28.1,121,26.9z M40.9,17.8c-0.1-3,0.6-6,2.2-8.6c1.3-2.4,3.8-3.8,6.5-3.8c2.1-0.1,4.1,0.8,5.5,2.4s2,4.1,2.1,7.4
	c0.1,8.3-2.8,16.2-8.6,23.8C43.5,30.4,40.9,23.4,40.9,17.8z M52.8,73.4c-1.4,3.1-3.5,4.6-6.1,4.6c-0.9,0-1.6-0.4-2.2-0.9
	c-0.7-0.7-1.1-1.8-1.1-2.8c-0.1-3.2,1.6-5.5,5-7.2c1.1-0.5,3-1.3,5.7-2.4c0.1,0.5,0.1,1,0.1,1.6C54.3,68.7,53.8,71.2,52.8,73.4z
	 M169,50.8c-0.8,1.5-1.8,2.8-3,4c-1.2,1.3-2.7,2.5-4.3,3.5c-1.6,0.9-3.4,1.5-5.2,1.5c-1.6,0.2-3.1-0.6-4-1.8
	c-0.9-1.5-1.3-3.1-1.2-4.8c0-1.8,0.3-3.7,0.7-5.6c0.5-2,1.1-3.9,1.9-5.7c0.7-1.7,1.7-3.3,2.8-4.8c0.9-1.3,1.9-2.2,3.3-3.1
	c0,3.1,1,6.2,2.9,8.6c2,2.5,4.9,4.1,8,4.8C170.1,48.7,169.6,49.8,169,50.8z M172,44.9c-1.1-0.5-2.1-1.2-2.9-2.1
	c-0.9-0.9-1.7-2-2.3-3.2c-0.7-1.2-1.2-2.5-1.5-3.8c-0.3-1.3-0.6-2.7-0.6-4c0-1.3,0.1-2.6,0.5-3.8c0.3-1.2,0.8-2.3,1.3-3.3
	c0.5-0.9,1-1.6,1.8-2.3c0.6-0.5,1.2-0.8,2-0.9c1.7-0.1,3.1,0.8,3.8,2.3c0.9,1.8,1.3,3.7,1.3,5.7c0,1.3-0.1,2.7-0.3,4
	c-0.2,1.4-0.5,2.9-0.8,4.2c-0.4,1.4-0.7,2.7-1.1,4C172.7,42.9,172.3,43.9,172,44.9L172,44.9z M189.9,36.5c-0.3-0.8-0.7-1.7-0.9-2.7
	c-0.3-0.9-0.4-1.9-0.4-2.8c0-1.2,0.2-2.4,0.5-3.6c0.3-1,0.8-1.5,1.4-1.6c0.6-0.1,1.2,0.2,1.6,0.7c0.3,0.5,0.5,1.1,0.6,1.8
	c0,0.8-0.1,1.5-0.3,2.3c-0.4,1.6-0.9,3.1-1.5,4.6C190.5,35.6,190.2,36,189.9,36.5L189.9,36.5z M289.3,35.3c-0.4-0.9-0.6-1.8-0.9-2.7
	c-0.3-0.9-0.4-1.9-0.4-2.8c0-1.2,0.2-2.4,0.5-3.6c0.3-1,0.8-1.5,1.4-1.6c0.6-0.1,1.2,0.2,1.6,0.7s0.5,1.1,0.6,1.8
	c0,0.8-0.1,1.5-0.2,2.3c-0.1,0.8-0.4,1.7-0.7,2.4c-0.2,0.8-0.5,1.5-0.9,2.1C289.8,34.4,289.6,34.9,289.3,35.3L289.3,35.3z"/>
</svg>
