<?xml version="1.0" encoding="utf-8"?>
<!-- Generator: Adobe Illustrator 24.0.0, SVG Export Plug-In . SVG Version: 6.00 Build 0)  -->
<svg version="1.1" id="Layer_1" xmlns="http://www.w3.org/2000/svg" xmlns:xlink="http://www.w3.org/1999/xlink" x="0px" y="0px"
	 viewBox="0 0 243.3 69.6" style="enable-background:new 0 0 243.3 69.6;" xml:space="preserve">
<style type="text/css">
	.st0{fill:#FFFFFF;}
</style>
<path class="st0" d="M123.5,30.8c1,0,2-0.4,2.8-1.1c0.8-0.6,1.5-1.4,1.8-2.3c0.1-0.3,0.1-0.6,0.1-0.9c0.1-0.8-0.3-1.6-1-2.1
	s-1.5-0.7-2.4-0.7c-1,0-2,0.3-2.8,0.9c-0.9,0.6-1.3,1.7-1.3,2.7c-0.1,1,0.2,1.9,0.9,2.7C122.2,30.5,122.8,30.8,123.5,30.8z"/>
<path class="st0" d="M242.8,36c-0.2-0.2-0.4-0.3-0.7-0.2c-0.4,0-0.8,0.2-1,0.6c-1.6,2.6-3.1,5.4-4.8,8.4c-1.7,2.9-3.4,5.7-5.1,8.2
	c-1.4,2.2-3.1,4.3-5,6.3c-1.6,1.6-3.2,2.5-4.7,2.6c-0.8,0-1.1-0.4-1.1-1.4c0-0.9,0.2-2,0.5-2.9c0.4-1.2,0.9-2.5,1.5-4
	c0.5-1.5,1.2-3.1,1.9-4.6c0.7-1.7,1.4-3.2,1.9-4.7c0.5-1.5,1-2.9,1.4-4.3c0.4-1,0.6-2.1,0.5-3.2c0.1-0.8-0.2-1.7-0.9-2.2
	c-0.6-0.3-1.4-0.6-2-0.5c-0.9,0-1.6,0.2-2.4,0.4c-0.7,0.3-1.3,0.5-2,0.8c-0.6,0.3-1.2,0.5-1.8,0.8s-1.2,0.3-1.7,0.3
	c-0.5,0-1.2,0-1.7-0.2c-0.8-0.3-1.4-0.7-2.1-1.4c0.5-0.7,0.8-1.3,1.2-2c0.4-0.8,0.7-1.8,0.9-2.6c0.2-1,0.5-2,0.6-3
	c0.1-0.9,0.3-1.9,0.3-2.8c0.1-1-0.3-2.1-0.8-3.1c-0.6-0.8-1.6-1.3-2.6-1.1c-2.4-0.1-4.6,1.1-6.1,3c-1.5,2.3-2.2,4.9-2,7.7
	c0,1.3,0.3,2.5,0.9,3.8c0.5,1,1.3,1.8,2.2,2.6c0.4,0.3,0.8,0.5,1.2,0.8c-0.5,1-1.1,2.3-1.9,3.7c-0.8,1.6-1.8,3.4-2.8,5.2
	c-1,1.8-2,3.6-3.2,5.4c-1.1,1.7-2.3,3.3-3.5,5c-1,1.3-2.2,2.6-3.5,3.6c-0.9,0.8-2.2,1.3-3.4,1.4c-1.6,0.1-2.4-0.7-2.5-2.5
	c0-1.6,0.4-3.2,0.9-4.6c0.7-2,1.5-3.8,2.4-5.7c0.9-2,1.9-3.9,2.9-5.7c1-1.9,1.8-3.4,2.4-4.7c0.4-0.4,0.5-0.9,0.6-1.5
	c0-0.7-0.4-1.3-1-1.5c-0.8-0.3-1.5-0.4-2.4-0.4c-0.8,0-1.4,0.1-2.2,0.4c-0.6,0.1-1.1,0.4-1.5,0.9c-0.6,0.7-1.1,1.4-1.7,2
	c-0.7,0.9-1.5,2-2.2,3.2s-1.7,2.4-2.6,3.6c-1,1.2-1.9,2.4-2.8,3.4c-0.9,1-1.7,1.8-2.7,2.6c-0.7,0.6-1.6,1-2.6,1.1
	c-0.6,0-1.2-0.2-1.6-0.7c-0.4-0.6-0.7-1.2-0.7-1.9c0-1.3,0.2-2.6,0.6-3.9c0.5-1.6,1-3.3,1.6-4.8c0.7-1.7,1.5-3.4,2.4-5
	c0.9-1.5,1.8-3,2.9-4.4c0.8-1.2,1.9-2.2,2.9-3.2c0.8-0.7,1.7-1.2,2.8-1.2c0.6,0,1.2,0.3,1.5,0.9c0.3,0.5,0.5,1.2,0.5,1.8
	c0.1,0.4,0,0.9-0.2,1.4c-0.1,0.5-0.4,0.7-0.7,0.8c-0.3,0-0.5-0.1-0.8-0.3s-0.5-0.3-0.8-0.3c-0.6,0-1.3,0.3-1.8,0.8
	c-0.4,0.6-0.7,1.3-0.6,2c0,0.5,0.3,1,0.6,1.5c0.5,0.5,1.2,0.6,1.8,0.6c0.6,0,1.2-0.2,1.7-0.6c0.6-0.4,1-0.9,1.3-1.6
	c0.3-0.6,0.7-1.3,0.8-2c0.2-0.8,0.3-1.5,0.3-2.2c0-1.2-0.4-2.3-1-3.1c-0.7-1-1.9-1.5-3.1-1.4c-2.6,0-5.1,0.9-7.2,2.4
	c-2.3,1.5-4.4,3.4-6.1,5.6c-1.5,1.9-2.8,4-3.7,6.3c-1.2,2-2.4,4.1-3.7,6.4c-1.7,2.9-3.3,5.7-5.1,8.2c-1.4,2.2-3.1,4.3-5,6.3
	c-1.6,1.6-3.2,2.5-4.7,2.6c-0.8,0-1.1-0.4-1.1-1.4s0.3-1.9,0.6-2.9c0.4-1.2,0.9-2.5,1.5-4c0.6-1.5,1.2-3.1,1.9-4.6
	c0.7-1.7,1.4-3.2,1.9-4.7c0.5-1.5,1-2.9,1.4-4.3c0.4-1,0.6-2.1,0.5-3.2c0.1-0.8-0.2-1.7-0.9-2.2c-0.6-0.3-1.4-0.6-2-0.5
	c-0.9,0-1.6,0.2-2.4,0.4c-0.7,0.3-1.3,0.5-2,0.8c-0.6,0.3-1.2,0.5-1.8,0.8c-0.6,0.2-1.2,0.3-1.7,0.3s-1.2,0-1.7-0.1
	c-0.8-0.3-1.4-0.7-2.1-1.4c0.4-0.6,0.8-1.3,1.2-2c0.4-0.8,0.7-1.8,0.9-2.6c0.2-1,0.5-2,0.6-3c0.1-0.9,0.3-1.9,0.3-2.8
	c0.1-1-0.3-2.1-0.8-3.1c-0.6-0.8-1.5-1.3-2.4-1.2c-2.4-0.1-4.6,1.1-6.1,3c-1.5,2.3-2.2,4.9-2,7.7c0,1.3,0.3,2.5,0.9,3.8
	c0.5,1,1.3,1.8,2.2,2.6c0.4,0.3,0.8,0.5,1.2,0.8c-1.1,2.1-2.3,4.3-3.8,6.9c-1.4,2.6-3.2,5.2-4.9,7.7c-1.5,2.2-3.2,4.3-5.2,6.2
	c-1.7,1.7-3.2,2.6-4.6,2.6c-0.4,0-0.6-0.3-0.6-1.1c0.1-1.4,0.2-2.7,0.5-4.1c0.4-1.8,0.9-3.7,1.6-5.8s1.4-4.3,2.2-6.4
	s1.6-4.1,2.4-5.8c0.1-0.3,0.2-0.7,0.2-1c0-0.8-0.4-1.3-1.1-1.8c-0.7-0.5-1.5-0.6-2.2-0.6c-0.6,0-1.1,0.2-1.7,0.5
	c-0.5,0.3-0.8,0.8-1,1.3c-0.1,0.3-0.2,0.7-0.4,1.1l0,0c-1,2-2.3,4.3-3.9,6.7c-1.5,2.4-3.2,4.8-5.1,7c-1.7,2-3.5,3.9-5.6,5.5
	c-1.5,1.4-3.4,2.2-5.5,2.3c-1,0.1-2-0.2-2.7-0.8c-0.8-0.5-1.4-1.2-1.7-2c-0.6-0.8-0.8-1.8-1-2.8c-0.2-1-0.3-2-0.4-3.1
	c0-0.6,0-1.2,0.1-1.7c0.1-0.5,0.1-1,0.2-1.5c2.2-1.1,4.2-2.5,6-4.1c1.9-1.7,3.7-3.5,5.2-5.4c1.4-1.8,2.6-3.7,3.6-5.7
	c0.9-1.5,1.3-3.1,1.4-4.8c0-0.9-0.3-1.6-0.8-2.2c-0.7-0.6-1.7-0.9-2.6-0.8c-2.7,0.1-5.1,1-7.2,2.6c-2.3,1.8-4.4,4-6.1,6.5
	c-1.7,2.6-3.1,5.4-4,8.3c-0.4,0.7-0.7,1.4-1.2,2.1c-1,1.9-2.1,3.7-3.3,5.6c-1.2,1.9-2.4,3.8-3.7,5.6c-1.1,1.7-2.4,3.3-3.7,4.9
	c-1.1,1.2-2.1,2.4-3.4,3.6c-0.7,0.7-1.6,1.2-2.6,1.4c-0.6,0-1-0.4-1-1.2c0.1-1.5,0.4-3,1.1-4.4l2.4-6.3c0.8-2.3,1.7-4.6,2.4-6.9
	c0.7-2,1-4,1-6.1c0-1.3-0.5-2.5-1.3-3.5c-0.7-0.9-2.1-1.4-3.9-1.3c-1.6,0-3.1,0.4-4.5,1s-2.7,1.6-3.9,2.5c-1.2,1-2.3,2.3-3.3,3.6
	s-1.9,2.7-2.7,4.1c0.2-1,0.4-2.1,0.7-3.4c0.2-1.2,0.5-2.4,0.7-3.6c0.2-1.2,0.5-2.4,0.8-3.5c0.3-1.2,0.6-2.1,0.9-3
	c1-0.9,1.8-2,2.6-3.1c1-1.3,2.1-2.9,3.2-4.6c1.1-1.7,2.2-3.6,3.4-5.6s2.1-4,3-6c0.9-1.9,1.6-3.8,2.2-5.8C77,8.3,77.2,6.7,77.3,5
	c0-1.2-0.3-2.3-0.9-3.4c-0.6-0.9-1.8-1.3-2.9-1.1c-2.4,0.1-4.6,1.3-6.1,3.2c-2,2.5-3.6,5.3-4.8,8.3c-1.6,3.8-2.8,7.6-3.8,11.6
	c-1.1,4.3-2.2,8.6-3.2,13.1c-0.4,1.7-0.7,3.2-1.1,4.8c-1.2,2-2.6,4-4.1,5.8c-1.8,2.2-3.7,4.3-5.7,6.2c-1.8,1.8-3.9,3.4-6.1,4.8
	c-1.7,1.1-3.6,1.9-5.6,2c-2.7,0-4.6-0.6-5.7-1.8c-1.2-1.6-1.9-3.6-1.8-5.6c0-2,0.2-4,0.6-5.9c0.5-2.2,1-4.4,1.7-6.6
	c0.7-2.2,1.5-4.5,2.4-6.7c0.9-2.2,1.7-4.3,2.6-6.1c0.9-1.8,1.7-3.5,2.4-5c0.7-1.4,1.3-2.5,1.8-3.3c0.6,0.1,1.2,0.1,1.9,0.1
	c0.8,0,1.4,0,2,0c2.2,0,4.5-0.4,6.7-0.9c2.3-0.5,4.5-1.3,6.6-2.3c1.8-0.9,3.6-2.2,4.9-3.9c1.3-1.5,1.9-3.3,1.9-5.3
	c0.1-1-0.2-2-0.9-2.9c-0.6-0.7-1.2-1.4-2-1.8c-0.9-0.4-1.8-0.8-2.8-0.9c-1-0.1-2-0.3-3-0.2c-2.3,0-4.6,0.5-6.8,1.2
	c-2.1,0.7-4.1,1.8-5.8,3.2s-3.4,3-4.8,4.9c-1.4,1.9-2.8,3.9-3.9,6c-1.3-0.2-2.6-0.3-4-0.6c-1.6-0.3-3.3-0.3-4.9-0.3
	c-2.8,0.1-5.6,0.2-8.3,0.6c-2.4,0.3-4.8,1-7.1,1.9c-1.9,0.8-3.6,2.1-5,3.7c-1.2,1.7-1.9,3.8-1.8,5.9c0,0.7,0.2,1.5,0.8,2
	c0.5,0.4,1.2,0.6,1.9,0.6c0.6,0,1.3-0.3,1.7-0.8c0.5-0.5,0.8-1.2,0.7-1.9c0-0.6-0.2-1.2-0.6-1.7c-0.5-0.6-1.3-0.9-2.1-0.9
	c0.4-1.4,1.2-2.5,2.4-3.4c1.3-1,2.8-1.8,4.2-2.3c1.8-0.6,3.7-1.1,5.7-1.4c2.2-0.3,4.4-0.4,6.7-0.5c1.6-0.1,3.3,0.1,4.9,0.4
	c1.4,0.3,2.7,0.5,4,0.8c-1,1.6-2,3.6-3.3,6.2s-2.4,5.2-3.5,8.2c-1.1,3-2,6-2.7,9.1c-0.7,2.8-1,5.8-1,8.7c0.1,1.6,0.3,3.3,0.8,4.9
	c1,3,3.3,5.3,6.3,6.3c1.9,0.7,3.8,0.9,5.7,0.9c1.6-0.1,3.2-0.4,4.6-1.1c1.7-0.8,3.3-1.8,4.9-2.9c1.7-1.2,3.3-2.6,4.8-4.1
	c1.6-1.5,3-3.1,4.3-4.7c0.2-0.3,0.7-0.9,1.4-1.7l0.5-0.7c-0.1,0.5-0.2,1-0.4,1.6c-0.8,3.7-1.8,7.1-3,10.6c-0.1,0.2-0.2,0.5-0.1,0.7
	c0,0.6,0.4,1.2,1,1.5s1.4,0.6,2.1,0.6c0.4-0.1,0.9-0.1,1.3-0.3c0.4-0.2,0.7-0.5,0.8-0.9c0.8-1.7,1.8-3.8,3-6.2
	c1.2-2.3,2.4-4.7,3.8-6.9c1.2-2,2.7-3.9,4.2-5.6c1.1-1.3,2.7-2.2,4.4-2.3c1.1,0,1.7,0.6,1.7,2c0,1.6-0.4,3.1-1,4.4
	c-0.5,1.8-1.3,3.8-2,5.8c-0.7,2-1.4,4.1-1.9,6.2c-0.5,1.8-0.8,3.7-0.8,5.5c-0.1,1.4,0.4,2.6,1.2,3.7c0.7,0.9,2.1,1.4,4,1.3
	c1.5-0.1,2.9-0.8,4.1-1.7c1.6-1.1,3-2.5,4.3-4c1.5-1.7,2.9-3.5,4.1-5.5c1.4-2.1,2.6-4.1,3.9-6.1l1.1-1.8c-0.1,0.8-0.1,1.5-0.1,2.4
	c0,1.5,0.3,3.1,0.7,4.5c0.4,1.3,1.1,2.6,2,3.6c0.9,1.1,2.1,1.8,3.5,2.4c1.6,0.6,3.3,0.9,5,0.7c2.2-0.1,4.2-0.8,6-2.2
	c2.1-1.6,4-3.4,5.7-5.4c1.9-2.3,3.7-4.7,5.3-7.2c-0.7,2-1.2,4-1.8,6.2c-0.5,2-0.8,4-0.8,6c0,1.3,0.3,2.4,1.1,3.4
	c0.9,1,2.2,1.4,3.5,1.2c1.8-0.1,3.6-0.7,4.9-1.9c1.9-1.3,3.5-2.9,4.9-4.6c1.7-2,3.2-3.9,4.5-6.1c1.4-2.2,2.7-4.2,3.8-6.2
	c1.1-1.9,1.9-3.6,2.6-4.9c0.4-0.8,0.6-1.4,0.7-1.8l0.1,0c1.3,0.3,2.5,0.4,3.8,0.4c2.2,0,4.6-0.6,6.6-1.6c-0.8,1.4-1.6,2.8-2.3,4.4
	c-0.8,1.7-1.6,3.6-2.3,5.5c-0.7,1.9-1.3,3.9-1.8,5.8c-0.4,1.8-0.6,3.5-0.6,5.3c0,1.6,0.5,3.1,1.3,4.4c0.9,1.2,2.3,1.7,4.4,1.7
	c1.7,0,3.4-0.7,4.8-1.7c1.7-1.2,3.2-2.6,4.5-4.2c1.5-1.8,2.9-3.6,4.1-5.6c1.4-2.1,2.5-4.1,3.6-6l0.4-0.7c0,0.1,0,0.2,0,0.3
	c0,1.9,0.7,3.7,1.8,5.2c1.2,1.4,3.2,2.1,6,2c1-0.1,2-0.3,3-0.9c1.1-0.6,2.1-1.2,3.1-2.1c0.9-0.8,1.9-1.8,2.7-2.8
	c0.7-0.9,1.4-1.8,1.9-2.8c-0.2,0.8-0.5,1.7-0.8,2.8c-0.3,1.1-0.7,2.2-1,3.4c-0.3,1.2-0.7,2.4-0.9,3.7c-0.2,1.2-0.3,2.3-0.3,3.5
	c0,1.5,0.4,3,1.4,4.2c0.9,1.1,2.4,1.6,4.6,1.6c2.1-0.1,4-0.8,5.6-2c2-1.4,3.8-3.1,5.4-5c1.7-2,3.4-4.3,4.7-6.6
	c1.4-2.4,2.6-4.7,3.8-6.9c0.7-1.4,1.5-2.9,2.2-4.2c0.4-0.8,0.8-1.6,1-2.5l0.2,0.1c1.3,0.3,2.5,0.4,3.8,0.4c2.2,0,4.6-0.6,6.6-1.6
	c-0.8,1.4-1.6,2.8-2.3,4.4c-0.8,1.7-1.6,3.6-2.3,5.5c-0.7,1.9-1.3,3.9-1.8,5.8c-0.4,1.8-0.6,3.5-0.6,5.3c0,1.6,0.4,3.1,1.3,4.4
	c0.8,1.1,2.3,1.7,4.4,1.7c1.7,0,3.4-0.7,4.8-1.7c1.7-1.2,3.2-2.7,4.6-4.2c1.5-1.8,2.9-3.6,4.1-5.6c1.4-2.1,2.5-4.1,3.6-6
	c1-2,2.1-3.8,2.9-5.4c0.9-1.7,1.6-2.9,2.2-3.8c0.2-0.2,0.3-0.4,0.3-0.8C243.1,36.4,243.1,36.1,242.8,36z M97.3,39.5
	c1.1-2.2,2.4-4.1,3.8-6c1.2-1.6,2.6-3.1,4.1-4.5c1.4-1.1,2.2-1.8,2.6-1.7c0.8,0,1.1,0.4,1.2,1.2c-0.1,1.2-0.5,2.6-1.2,3.6
	c-0.9,1.7-1.9,3.3-3.1,4.9c-1.4,1.7-2.8,3.4-4.4,5c-1.5,1.5-3.2,2.8-5,3.7C95.5,43.6,96.2,41.4,97.3,39.5z M64.2,24.9
	c0.5-1.9,1-3.8,1.6-5.8c0.6-2,1.2-4,2-6.1c0.7-2,1.3-3.8,2.1-5.4C70.4,6.3,71,5,71.8,3.7c0.6-1.1,1.2-1.5,1.6-1.5
	c1-0.1,1.5,0.8,1.5,2.2c-0.1,1.8-0.4,3.5-1.1,5.1c-0.8,2.3-1.7,4.6-2.8,6.7c-1.2,2.3-2.4,4.8-3.8,7.1c-1.3,2.1-2.7,4.1-4.2,6
	C63.4,28.4,63.7,26.9,64.2,24.9z M40.5,12c0.9-1.6,1.9-3,3.2-4.4c1.1-1.3,2.4-2.4,3.8-3.4c1.3-0.9,2.8-1.4,4.5-1.5
	c0.9,0,1.7,0.1,2.5,0.2c0.7,0,1.5,0.2,2.3,0.5c0.6,0.2,1.2,0.5,1.7,1c0.4,0.4,0.6,1,0.6,1.5c0.1,1.6-0.6,3.3-1.8,4.5
	c-1.3,1.3-2.9,2.5-4.6,3.3c-1.9,0.9-3.8,1.5-5.8,2.1c-1.7,0.4-3.7,0.7-5.5,0.8l-0.6,0c-0.3,0-0.6,0-1,0.1l-0.9-0.1l-0.6-0.1
	C38.8,15,39.5,13.5,40.5,12z M141.7,34.3c-0.3-0.9-0.7-1.7-1-2.7c-0.3-1-0.5-1.9-0.5-2.8c-0.1-1.2,0.1-2.4,0.4-3.6
	c0.4-1,0.8-1.5,1.4-1.5c0.7-0.1,1.2,0.2,1.6,0.7c0.3,0.5,0.5,1.2,0.5,1.8c0,0.8-0.1,1.5-0.3,2.2c-0.2,0.8-0.4,1.7-0.7,2.4
	c-0.3,0.8-0.5,1.4-0.9,2.1C142.2,33.4,141.9,33.9,141.7,34.3z M212.3,33c-0.3-0.9-0.7-1.7-1-2.7c-0.3-1-0.5-1.9-0.5-2.8
	c-0.1-1.2,0.1-2.4,0.4-3.6c0.4-1,0.8-1.5,1.4-1.5c0.7-0.1,1.2,0.2,1.6,0.7c0.3,0.5,0.5,1.2,0.5,1.8c0,0.8-0.1,1.5-0.3,2.2
	c-0.2,0.8-0.4,1.7-0.7,2.4c-0.3,0.8-0.5,1.5-0.9,2.1C212.8,32,212.5,32.5,212.3,33z"/>
</svg>
