<?xml version="1.0" encoding="utf-8"?>
<!-- Generator: Adobe Illustrator 23.0.6, SVG Export Plug-In . SVG Version: 6.00 Build 0)  -->
<svg version="1.1" id="Layer_1" xmlns="http://www.w3.org/2000/svg" xmlns:xlink="http://www.w3.org/1999/xlink" x="0px" y="0px"
	 viewBox="0 0 459 551.1" style="enable-background:new 0 0 459 551.1;" xml:space="preserve">
<style type="text/css">
	.st0{fill:#EF4647;}
	.st1{fill:#C7DA3B;}
	.st2{fill:#89D6F8;}
	.st3{fill:#2370A3;}
	.st4{fill:#215CA3;}
	.st5{fill:#14562B;}
	.st6{fill:#78B0AB;}
	.st7{fill:#ED8640;}
	.st8{fill:#C8383E;}
	.st9{fill:#A3529F;}
	.st10{fill:#9FD3DF;}
	.st11{fill:#69BD45;}
	.st12{fill:#52BAE0;}
	.st13{fill:#DBE120;}
	.st14{fill:#A1D4A2;}
	.st15{fill:#DB368B;}
	.st16{fill:#F26D6E;}
	.st17{fill:#F2ED70;}
	.st18{fill:#F5ED67;}
	.st19{fill:#822450;}
	.st20{fill:#BA5759;}
	.st21{fill:#D7368A;}
	.st22{fill:#E29664;}
	.st23{fill:#F7DE69;}
	.st24{fill:#F89C5F;}
	.st25{fill:#90772D;}
	.st26{fill:#777641;}
	.st27{fill:#10332A;}
	.st28{fill:#0D2D1D;}
	.st29{fill:#E6CB32;}
	.st30{fill:#5D672C;}
	.st31{fill:#C23E27;}
	.st32{fill:#1C5128;}
	.st33{fill:#5E9A42;}
	.st34{fill:#40A047;}
	.st35{fill:#9A3339;}
	.st36{fill:#4B9296;}
	.st37{fill:#4E2C14;}
	.st38{fill:#0F4E6E;}
	.st39{fill:#094160;}
	.st40{fill:#4C499E;}
	.st41{fill:#3F2D84;}
	.st42{fill:#23592C;}
	.st43{fill:#6C2B33;}
	.st44{fill:#0A528E;}
	.st45{fill:#4AB749;}
	.st46{fill:#439343;}
	.st47{fill:#224620;}
	.st48{fill:#20401D;}
	.st49{fill:#A15A25;}
	.st50{fill:#F09724;}
	.st51{fill:#84C560;}
	.st52{fill:#62B846;}
	.st53{fill:#145C47;}
	.st54{fill:#D1343C;}
	.st55{fill:#791316;}
	.st56{fill:#971F23;}
	.st57{fill:#583112;}
	.st58{fill:#FFFFFF;}
	.st59{fill:#A03A89;}
	.st60{fill:#F3D76F;}
</style>
<title>Artboard 1</title>
<g>
	<g>
		<path class="st0" d="M89.2,418c30.9,11.5,65.5,8,93.5-9.5c-17.3-56.1-76.9-87.6-133-70.2c-8.8,2.7-17.2,6.6-25,11.4
			C34.4,381.3,58.2,406.5,89.2,418z"/>
		<path class="st1" d="M102.7,328.8c0,13.3-10.8,24.1-24.1,24.1s-24.1-10.8-24.1-24.1c0-13.3,10.8-24.1,24.1-24.1c0,0,0,0,0,0
			C91.9,304.7,102.6,315.5,102.7,328.8z"/>
		
			<ellipse transform="matrix(0.7071 -0.7071 0.7071 0.7071 -94.0527 233.8919)" class="st2" cx="235.3" cy="230.5" rx="185.9" ry="185.9"/>
		<path class="st3" d="M136.4,162.1c-27.7,0-55.1,6.2-80.2,18.1c-4.6,16.4-6.9,33.3-6.9,50.2c0,102.7,83.2,185.9,185.9,185.9
			c27.7,0,55.1-6.2,80.2-18.1c4.6-16.4,6.9-33.3,6.9-50.3C322.4,245.3,239.1,162.1,136.4,162.1z"/>
		<path class="st4" d="M118.1,340.3c-12-4.5-24.7-6.7-37.5-6.7c24.1,36.1,60.1,62.7,101.8,75.1l0.3-0.2
			C172.9,377,149.1,351.8,118.1,340.3z"/>
		<path class="st5" d="M78.6,304.7c-4.3,0-8.5,1.1-12.3,3.3c6.7,14.6,15.3,28.3,25.6,40.8c11.1-7.4,14.1-22.3,6.7-33.4
			C94.2,308.7,86.6,304.6,78.6,304.7L78.6,304.7z"/>
		<circle class="st6" cx="206.9" cy="172.1" r="120.3"/>
		<path class="st7" d="M346.4,423.6c-54,20.2-114.3,14-163.1-16.5c30.3-98,134.2-152.8,232.2-122.6c15.3,4.7,30,11.4,43.6,19.9
			C442.1,359.5,400.5,403.6,346.4,423.6z"/>
		<path class="st8" d="M396.1,94.6c-11.4,8.8-18.1,22.4-18.1,36.8c24.8,6.6,50.2-8.2,56.8-33c1-3.9,1.5-7.9,1.5-11.9
			C422.4,82.8,407.5,85.8,396.1,94.6z"/>
		<path class="st9" d="M165.4,58.2c-3.6,20,2.2,40.6,15.9,55.7c32.2-16.6,44.8-56.2,28.1-88.4c-2.6-5-5.8-9.7-9.6-13.9
			C181.7,20.9,169,38.1,165.4,58.2z"/>
		<path class="st10" d="M393.6,193.3c10.2,22,30.1,38.1,53.9,43.3c19.9-38.4,5-85.6-33.4-105.5c-6-3.1-12.4-5.4-19-6.9
			C383.8,145.7,383.3,171.3,393.6,193.3z"/>
		<path class="st11" d="M320.4,65.1c-53.5,87.7-25.9,202.1,61.8,255.7c3.9,2.4,7.8,4.6,11.8,6.6c53.5-87.7,25.9-202.1-61.8-255.7
			C328.3,69.4,324.4,67.2,320.4,65.1z"/>
		<path class="st12" d="M58.9,171.6c56.6,45.9,139.7,37.3,185.6-19.3c19.1-23.5,29.5-52.9,29.5-83.2c0-7-0.6-14-1.6-20.9
			C180.3,29.6,88.8,82.5,58.9,171.6z"/>
		<circle class="st13" cx="106.7" cy="135.9" r="43.3"/>
		<circle class="st14" cx="224.9" cy="425.6" r="23.1"/>
		<circle class="st15" cx="24.4" cy="179.3" r="23.1"/>
		<path class="st16" d="M372.6,139.8c0,12.8-10.3,23.1-23.1,23.1c-12.8,0-23.1-10.3-23.1-23.1c0-12.8,10.3-23.1,23.1-23.1
			c0,0,0,0,0,0C362.3,116.7,372.6,127.1,372.6,139.8z"/>
		<path class="st17" d="M59.8,204c0,9.8-7.9,17.7-17.7,17.7s-17.7-7.9-17.7-17.7s7.9-17.7,17.7-17.7c0,0,0,0,0,0
			C51.9,186.3,59.8,194.2,59.8,204z"/>
		<path class="st18" d="M344.1,59.9c0,9.8-7.9,17.7-17.7,17.7c-9.8,0-17.7-7.9-17.7-17.7c0-9.8,7.9-17.7,17.7-17.7c0,0,0,0,0,0
			C336.2,42.2,344.1,50.1,344.1,59.9C344.1,59.9,344.1,59.9,344.1,59.9z"/>
		<path class="st19" d="M458.7,339.4c0,9.8-7.9,17.7-17.7,17.7c-9.8,0-17.7-7.9-17.7-17.7c0-9.8,7.9-17.7,17.7-17.7
			C450.8,321.7,458.7,329.6,458.7,339.4C458.7,339.4,458.7,339.4,458.7,339.4z"/>
		<path class="st20" d="M75.8,108.9c0,6.9-5.6,12.5-12.5,12.5s-12.5-5.6-12.5-12.5c0-6.9,5.6-12.5,12.5-12.5c0,0,0,0,0,0
			C70.3,96.4,75.8,102,75.8,108.9z"/>
		<path class="st21" d="M441,259.2c0,6.9-5.6,12.5-12.5,12.5c-6.9,0-12.5-5.6-12.5-12.5c0-6.9,5.6-12.5,12.5-12.5c0,0,0,0,0,0
			C435.4,246.7,441,252.3,441,259.2z"/>
		<path class="st22" d="M49.4,326.9c0,6.9-5.6,12.5-12.5,12.5s-12.5-5.6-12.5-12.5c0-6.9,5.6-12.5,12.5-12.5c0,0,0,0,0,0
			C43.8,314.4,49.4,320,49.4,326.9z"/>
		<circle class="st10" cx="428.5" cy="358.7" r="12.5"/>
		<path class="st23" d="M380.8,358.7c0,17.3-14,31.3-31.3,31.3c-17.3,0-31.3-14-31.3-31.3c0-17.3,14-31.3,31.3-31.3
			C366.8,327.4,380.8,341.4,380.8,358.7C380.8,358.7,380.8,358.7,380.8,358.7z"/>
		<path class="st24" d="M339.3,24.6c0,12.8-10.3,23.1-23.1,23.1s-23.1-10.3-23.1-23.1s10.3-23.1,23.1-23.1c0,0,0,0,0,0
			C329,1.5,339.3,11.9,339.3,24.6z"/>
		<path class="st25" d="M235.3,416.4c-10.2,0-20.3-0.8-30.3-2.5c-0.7,1.3-1.4,2.6-1.8,4c14,6.5,28.8,11.3,44,14.2
			c1.5-5.3,1.1-11-1.1-16C242.5,416.3,238.9,416.4,235.3,416.4z"/>
		<path class="st26" d="M413.4,283.9c-97.5-28.9-200.1,26-230.1,123.2c1.9,1.2,3.9,2.4,5.9,3.5C285.8,435.3,384.7,379.4,413.4,283.9
			z"/>
		<path class="st27" d="M183.3,407.1c1.9,1.2,3.9,2.4,5.9,3.5c42.2,10.8,86.9,6.4,126.3-12.4c10.6-37.9,8.9-78.2-4.8-115.1
			c-5,1.4-9.9,3-14.8,4.8C241.9,308,200.3,352,183.3,407.1z"/>
		<path class="st28" d="M235.3,416.4c3.6,0,7.1-0.1,10.7-0.3c-5.2-11.6-18.9-16.8-30.6-11.6c-4.4,2-8,5.3-10.4,9.4
			C215,415.6,225.2,416.4,235.3,416.4z"/>
		<path class="st29" d="M379,348.4c-5.7-16.3-23.5-24.9-39.8-19.2c-16.3,5.7-24.9,23.5-19.2,39.8c2.7,7.8,8.4,14.2,15.9,17.8
			C352.1,376.4,366.7,363.4,379,348.4z"/>
		<path class="st30" d="M333.8,278.2c16.4,20.5,36.9,37.2,60.2,49.3c1.9-3,3.6-6.1,5.3-9.3l0,0c5.9-10.9,10.6-22.4,14.1-34.2
			C387.6,276.2,360.5,274.3,333.8,278.2z"/>
		<path class="st31" d="M101.7,335.6c-15.2-3-30.8-2.7-45.8,1c4.4,12.6,18.1,19.2,30.6,14.9C93.8,349,99.4,343.1,101.7,335.6z"/>
		<path class="st32" d="M80.6,333.6c3.5,5.3,7.3,10.3,11.3,15.2l0.1-0.1c0.7-0.5,1.4-1,2.1-1.6l0.2-0.2l0.9-0.9l0.1-0.1
			c0.3-0.2,0.5-0.5,0.8-0.8c0.1-0.1,0.2-0.2,0.3-0.3c0.3-0.3,0.5-0.6,0.8-0.9l0.2-0.3L98,343l0.3-0.4l0.6-0.9l0.3-0.4l0.4-0.6
			c0.1-0.2,0.2-0.3,0.3-0.5s0.3-0.6,0.5-1s0.2-0.4,0.2-0.5s0.2-0.4,0.3-0.6s0.2-0.4,0.2-0.6s0.2-0.7,0.4-1s0.1-0.4,0.2-0.6
			c0-0.1,0.1-0.2,0.1-0.2C94.7,334.2,87.7,333.6,80.6,333.6z"/>
		<path class="st33" d="M293.1,162.1c0,25.6,5.2,50.9,15.5,74.3c26.6-42,24.6-96-5-135.9C296.6,120.3,293.1,141.1,293.1,162.1z"/>
		<path class="st34" d="M421.2,225.4c-0.9-33.7-10.9-66.5-29-94.9C377.9,165,390.1,204.8,421.2,225.4z"/>
		<path class="st35" d="M391.2,132.9c6.2-0.2,12.3-1.6,17.9-4.1c-4.5-2-9.2-3.5-14-4.6C393.6,127,392.3,129.9,391.2,132.9z"/>
		<path class="st36" d="M273.9,72.1c-55.2-37-129.9-22.3-167,32.9c-13.3,19.8-20.4,43.1-20.4,67c0,5.8,0.4,11.6,1.2,17.4
			c66.5,29.9,144.6,0.2,174.5-66.3C269.6,107.1,273.5,89.8,273.9,72.1z"/>
		<path class="st37" d="M381,115c-2,5.2-3,10.8-3,16.4c5.1,1.3,10.3,1.8,15.5,1.4C389.7,126.6,385.5,120.7,381,115z"/>
		<path class="st38" d="M296.1,252.8c-43-72-128.7-106.3-209.5-83.9c0,1.1,0,2.1,0,3.2c0,66.5,53.9,120.3,120.3,120.3
			C240.9,292.4,273.4,278,296.1,252.8L296.1,252.8z"/>
		<path class="st39" d="M86.6,175.7c0,0.6,0,1.2,0.1,1.9c0,0.3,0,0.7,0.1,1c0,0.8,0.1,1.6,0.1,2.3c0,0.5,0.1,1,0.1,1.6
			c0,0.3,0,0.6,0.1,0.9c0.1,0.6,0.1,1.2,0.2,1.8c0,0,0,0.1,0,0.1c0.2,1.4,0.3,2.8,0.5,4.2c41.2,18.5,89,14.7,126.8-10.1
			c-40.1-18.5-85.4-22.2-128-10.4c0,1.1,0,2.1,0,3.2c0,0.9,0,1.8,0,2.7L86.6,175.7z"/>
		<path class="st40" d="M215.7,67.3c1.3-7.2,1.4-14.5,0.3-21.7c-17.4,1.8-34.4,6-50.6,12.6c-3.6,20,2.2,40.6,15.9,55.7
			C199.4,104.5,212.1,87.3,215.7,67.3z"/>
		<path class="st41" d="M165.2,59.2c-3.3,19.7,2.7,39.9,16.1,54.7c18.1-9.3,30.8-26.6,34.4-46.6c0.9-5,1.2-10.1,1-15.1
			c-3.2-0.2-6.5-0.4-9.8-0.4C192.7,51.7,178.6,54.2,165.2,59.2z"/>
		<path class="st42" d="M320.9,371.4c1-7.7,1.5-15.6,1.5-23.4c0-1.6,0-3.1-0.1-4.7C317.4,351.9,316.9,362.3,320.9,371.4L320.9,371.4
			z"/>
		<path class="st43" d="M416,259.2c0,2.3,0.6,4.6,1.9,6.5c1-5.2,1.8-10.5,2.4-15.9C417.5,252.3,416,255.6,416,259.2z"/>
		<path class="st44" d="M142,201c25.8,0,51.1-7.5,72.6-21.8c-47.2-21.8-101.4-22.9-149.5-3C87.5,192.4,114.4,201,142,201z"/>
		<path class="st45" d="M66.6,152.3c9.1,22.2,34.4,32.8,56.5,23.7s32.8-34.4,23.7-56.5c-6.2-15.1-20.2-25.4-36.4-26.8
			C92,109.5,77.1,129.7,66.6,152.3z"/>
		<path class="st46" d="M115.7,93.5c-18.8,21.8-29.2,49.7-29.2,78.5c0,0.8,0,1.5,0,2.2c21.2,11.1,47.4,2.9,58.5-18.3
			s2.9-47.4-18.3-58.5C123.3,95.7,119.6,94.4,115.7,93.5L115.7,93.5z"/>
		<path class="st47" d="M136.4,162.1c-18.9,0-37.7,2.9-55.7,8.5c19.1,14.3,46.1,10.5,60.5-8.4C139.6,162.1,138,162.1,136.4,162.1z"
			/>
		<path class="st39" d="M131.1,162.2c-1.2,0-2.5,0.1-3.7,0.1h-0.5c-1.4,0.1-2.7,0.2-4.1,0.3l-1.1,0.1c-1.1,0.1-2.3,0.2-3.4,0.3
			l-0.8,0.1c-1.3,0.1-2.7,0.3-4,0.4l-1.1,0.1c-1,0.1-2.1,0.3-3.2,0.4l-1,0.1c-1.3,0.2-2.6,0.4-3.8,0.6l-1.1,0.2c-1,0.2-2,0.4-3,0.6
			l-1.2,0.2c-1.3,0.2-2.5,0.5-3.8,0.8l-1,0.2l-3,0.7l-1.2,0.3c-1.2,0.3-2.4,0.6-3.6,0.9c0,1.1,0,2.1,0,3.2c0,5.8,0.4,11.6,1.2,17.4
			c41.2,18.5,89,14.7,126.8-10.1c-12.7-5.9-26.1-10.3-39.8-13.2l-0.2-0.1l-2.1-0.4l-0.5-0.1l-2.1-0.4l-0.5-0.1
			c-2.1-0.4-4.2-0.7-6.3-1l-1-0.1c-0.5-0.1-1.1-0.1-1.6-0.2l-1.2-0.2l-1.5-0.2l-1.4-0.1l-1.4-0.1l-1.7-0.2l-1.1-0.1
			c-0.9-0.1-1.8-0.1-2.8-0.2l-1-0.1l-1.9-0.1l-1.1-0.1l-1.8-0.1h-1.1l-2-0.1h-0.9c-1,0-2,0-2.9,0c-1.4,0-2.8,0-4.2,0.1L131.1,162.2z
			"/>
		<path class="st48" d="M86.6,174.3c18.7,9.8,41.8,4.7,54.6-12.2h-0.9h-0.9c-1,0-2,0-2.9,0c-1.4,0-2.8,0-4.2,0.1h-1.1
			c-1.2,0-2.5,0.1-3.7,0.1h-0.5c-1.4,0.1-2.7,0.2-4.1,0.3l-1.1,0.1c-1.1,0.1-2.3,0.2-3.4,0.3l-0.8,0.1c-1.3,0.1-2.7,0.3-4,0.4
			l-1.1,0.1c-1,0.1-2.1,0.3-3.2,0.4l-1,0.1c-1.3,0.2-2.6,0.4-3.8,0.6l-1.1,0.2c-1,0.2-2,0.4-3,0.6l-1.2,0.2
			c-1.3,0.2-2.5,0.5-3.8,0.8l-1,0.2l-3,0.7l-1.2,0.3c-1.2,0.3-2.4,0.6-3.6,0.9c0,0,0,0.1,0,0.1c0,1,0,2.1,0,3.1
			C86.6,172.8,86.6,173.6,86.6,174.3L86.6,174.3z"/>
		<path class="st49" d="M75.8,108.9c0-1-0.1-2-0.4-3c-4.2,4.4-7.4,9.5-9.5,15.2C71.8,119.9,75.9,114.8,75.8,108.9z"/>
		<path class="st50" d="M313.7,47.6c0.8,0.1,1.7,0.1,2.5,0.1c5.2,0,10.3-1.7,14.4-5C324.5,41.3,318,43.1,313.7,47.6L313.7,47.6z"/>
		<path class="st51" d="M308.7,59.6v0.3c0,9.8,7.9,17.7,17.7,17.7c3.6,0,7.1-1.1,10.1-3.2C327.7,68.7,318.4,63.8,308.7,59.6z"/>
		<path class="st52" d="M329.9,70.4l-0.2-0.1c-3.1-1.8-6.2-3.5-9.3-5.2c-1.7,2.8-3.4,5.7-5,8.7c6.1,4.9,14.7,5.1,21.1,0.7
			c-1.1-0.7-2.2-1.4-3.3-2.1l-0.1-0.1C332,71.7,331,71,329.9,70.4z"/>
		<path class="st53" d="M53.7,190.6c-2.1,9.7-3.5,19.5-4,29.4c8.8-4.2,12.6-14.7,8.4-23.6C57.1,194.2,55.6,192.2,53.7,190.6z"/>
		<path class="st54" d="M24.5,202.4c9.8,0,18.6-6.3,21.8-15.6c-9.5-2.3-19.1,3.6-21.4,13.1C24.7,200.7,24.6,201.5,24.5,202.4z"/>
		<path class="st55" d="M441,321.7c-9.8,0-17.7,7.9-17.7,17.7c0,7.1,4.2,13.5,10.8,16.3c6.7-9.7,12.5-20,17.3-30.7
			C448.3,322.8,444.7,321.7,441,321.7z"/>
		<path class="st56" d="M428.5,346.2c-1.2,0-2.4,0.2-3.6,0.5c1.8,4,5.1,7.2,9.2,9c1.2-1.8,2.5-3.6,3.6-5.5
			C435.3,347.7,432,346.2,428.5,346.2z"/>
		<path class="st57" d="M423.3,462.1c-1.2,8.9-28.2-2.4-104,22.6c-12.1,4.1-24,9.1-35.5,14.8c16.3-12.2,33.1-24.6,52-34.9
			c30.8-16.7,53.6-25,69.3-29.9C417.3,440.1,425,449,423.3,462.1z M197.5,439.6c-69-4.1-53.8-47.8-93.5-56
			c-21.6-4.4-37.2,9.4-40.7,16.4s60,24,54.4,74.1c-2.5,22.5-51.6,28.5-40.4,54.5c10.2,23.7,45.9,31.1,105.2,10.4
			c57.7-20.1,91.4-61.7,144.5-90.5c72.2-39.2,102.5-34.5,101.7-43c-2.8-30.5-57.2-26.7-96.3-10.2C311,404.4,248.2,442.6,197.5,439.6
			z"/>
		<path class="st58" d="M316.3,219.2c-1.6,0-3.2,0.5-4.5,1.5c-1.4,1-2.2,2.7-2.1,4.5c0,2.1,0.5,3.5,1.4,4.4c0.8,0.8,1.9,1.3,3,1.3
			c1.7-0.1,3.3-0.7,4.6-1.8c1.4-0.9,2.4-2.3,3-3.8c0.1-0.5,0.2-1,0.1-1.5c0.1-1.4-0.6-2.7-1.7-3.4
			C319,219.6,317.7,219.2,316.3,219.2z"/>
		<path class="st58" d="M129.2,232.1c-13.2,13.4-27.9,20.1-44.3,20.1c-11.2,0-19.9-4.1-26.3-12.4c-3.4-4.5-5.8-9.6-7.1-15
			c0,0-1-4.4-1.5-9.1c-0.4,4.8-0.6,9.6-0.6,14.4c1.6,4.4,3.8,8.5,6.7,12.2c7,9.1,16.6,13.6,28.8,13.6c17.2,0,32.6-6.7,46.3-20.1
			c4.4,7.9,7.4,13.4,9,16.7c2.2,4.5,4,9.1,5.3,13.9c-4.1,1.4-8.1,3-12,4.8c-7.4,3.6-11.1,9.1-11.1,16.5c-0.1,3.2,1,6.4,3.3,8.8
			c2.3,2.3,5.4,3.5,8.6,3.4c2.7,0,5.4-0.7,7.8-1.9c2.4-1.2,4.7-2.8,6.6-4.7c2.8-2.8,4.9-6.1,6.1-9.9c1.3-3.7,1.9-7.6,1.9-11.5
			c0-1.8-0.1-3.6-0.4-5.3c4.3-1.9,8.3-4.6,11.8-7.8c-0.2,1.6-0.3,3.3-0.3,4.9c0,2.5,0.3,5,1,7.4c0.6,2.2,1.7,4.2,3.2,6
			c1.5,1.8,3.4,3.1,5.6,4c2.7,1,5.5,1.5,8.3,1.4c3.6-0.1,7-1.3,9.9-3.4c3.5-2.5,6.7-5.4,9.5-8.6c1.9-2.1,3.8-4.5,5.6-6.9
			c-1.2,4-2.4,7.9-3.6,11.7c-0.1,0.3-0.1,0.6-0.1,1c0,0.8,0.5,1.6,1.2,2c0.9,0.5,1.9,0.7,2.8,0.7c1,0,2.1-0.2,3-0.6
			c0.9-0.3,1.7-1,2.2-1.8c1.3-2.7,3-5.9,4.9-9.5s4-7.1,6.1-10.4c1.9-2.9,4-5.7,6.4-8.3c2.1-2.3,4.1-3.4,5.9-3.4
			c0.4,0,0.7,0.4,0.7,1.2c-0.2,2-0.7,3.9-1.4,5.7c-0.9,2.6-2,5.5-3,8.6s-2.1,6.5-3,9.9c-0.9,3-1.4,6.2-1.4,9.3
			c-0.1,2.5,0.4,5.1,1.6,7.4c1,1.9,3,2.9,6,2.9c3.8,0,7.5-1.5,11-4.5c3.9-3.4,7.3-7.2,10.3-11.4c2.5-3.5,4.9-7.2,7.3-11.2
			c0,0.8-0.1,1.5-0.1,2.2c0,4.1,0.8,7.3,2.4,9.8c1.6,2.5,4.5,3.7,8.5,3.7c2.5-0.1,4.9-0.9,6.9-2.4c2.6-1.7,5-3.7,7.2-6
			c1.7-1.7,3.3-3.5,4.8-5.4c-0.4,1.4-0.8,2.7-1.2,4.1c-0.9,3.2-1.4,6.5-1.5,9.8c-0.1,2,0.5,4,1.6,5.6c1.1,1.4,3,2.1,5.7,2.1
			c3-0.1,5.8-1.1,8.2-2.9c3.1-2.1,5.9-4.6,8.3-7.4c2.8-3.1,5.4-6.4,7.7-9.9c2.4-3.6,4.6-6.9,6.4-10.1c1.8-3.2,3.3-5.8,4.4-8
			c0.5-1,0.9-1.8,1.1-2.4c1.3,0.2,2.6,0.3,3.9,0.3c3.8,0,7.5-0.8,11-2.3c-1.2,1.9-2.5,4.3-3.9,7.1c-1.4,2.8-2.7,5.8-3.9,9
			c-1.2,3.1-2.2,6.3-3,9.5c-0.8,2.8-1.2,5.8-1.2,8.7c-0.1,2.6,0.6,5.1,2,7.3c1.3,1.9,3.7,2.8,7.1,2.8c2.9,0,5.7-1,8-2.6
			c2.8-1.9,5.3-4.2,7.6-6.8c2.5-2.9,4.9-5.9,7-9.1c0.9-1.3,1.7-2.5,2.5-3.8l0,0l0.2-0.3c0.8-1.2,1.5-2.4,2.2-3.5
			c13.9-22.7,27.9-37.1,43.9-39.7c-0.1-1.3-0.1-2.5-0.2-3.8c-24.8,2.5-42,33.7-47.2,42.2c-2,3.2-4,6.3-6,9.1
			c-2.5,3.6-5.3,7-8.4,10.1c-2.7,2.7-5.3,4-7.8,4c-1.2,0-1.8-0.8-1.8-2.3c0.1-1.6,0.4-3.2,1-4.7c0.7-2,1.5-4.2,2.5-6.6
			s2.1-4.9,3.3-7.6s2.3-5.2,3.3-7.7s1.8-4.8,2.5-6.9c0.6-1.7,0.9-3.4,1-5.2c0-1.8-0.5-3-1.5-3.6c-1-0.6-2.2-1-3.4-0.9
			c-1.3,0-2.6,0.2-3.9,0.5c-1.2,0.4-2.3,0.8-3.2,1.1s-2,0.8-2.9,1.1c-0.9,0.4-1.9,0.5-2.9,0.5c-1,0-1.9-0.1-2.8-0.3
			c-1.3-0.5-2.4-1.2-3.2-2.2c0.8-1,1.4-2.1,2-3.2c0.7-1.4,1.3-2.8,1.7-4.3c0.5-1.5,0.8-3.1,1.1-4.8c0.3-1.5,0.5-3.1,0.5-4.6
			c0.1-1.8-0.4-3.6-1.2-5.2c-0.9-1.4-2.5-2.2-4.2-2c-3.9-0.2-7.7,1.6-10,4.8c-2.4,3.2-3.5,7.4-3.5,12.6c-0.1,2.1,0.4,4.3,1.3,6.2
			c0.8,1.7,2,3.1,3.5,4.2c1.3,1,2.7,1.7,4.2,2.1c-1.7,3-3.6,6.5-5.9,10.3c-2.6,4.3-5.3,8.4-8.3,12.4c-2.6,3.6-5.5,6.9-8.7,10
			c-2.8,2.8-5.3,4.1-7.5,4.1c-0.6,0-1-0.6-1-1.8c0.1-2.2,0.4-4.4,1-6.6c0.7-2.9,1.6-6.1,2.7-9.5c1.1-3.4,2.4-6.9,3.8-10.5
			c1.4-3.6,2.8-6.7,4.1-9.5c0.3-0.5,0.4-1.1,0.4-1.6c0-1.2-0.7-2.3-1.7-2.8c-1.1-0.7-2.4-1.1-3.7-1.1c-1,0-1.9,0.2-2.8,0.7
			c-0.8,0.5-1.5,1.3-1.7,2.2c-0.4,1.4-1.3,3.7-2.4,6.6c-0.5,1.4-1.1,2.9-1.7,4.4l-0.5,0.7c-2.2,3.4-4.5,6.6-7,9.7
			c-2.1,2.7-4.5,5.2-7.1,7.4c-1.9,1.8-4.3,2.9-6.9,3c-0.9,0-1.8-0.5-2.1-1.4c-0.4-1.2-0.7-2.5-0.6-3.9c0-2.7,0.3-5.4,0.9-8.1
			c0.6-3.1,1.3-6.4,2.2-9.7s1.9-6.6,2.9-9.7s2-5.8,2.8-8.2c2.2-2.2,4.4-4.7,6.6-7.4c2.3-2.7,4.5-5.4,6.6-8.3
			c2.2-2.9,4.3-5.8,6.4-8.8s4.1-5.8,6-8.5l5.8-1.8c2.2-0.7,4.4-1.3,6.8-1.9c2.3-0.6,4.7-1.1,7.2-1.5c2.4-0.4,4.8-0.6,7.2-0.6
			c1.1,0,2.1,0,3.2,0.1c1,0.1,2,0.2,3,0.4c-1,0.2-1.9,0.7-2.7,1.4c-0.5,0.5-0.8,1.1-0.8,1.8c0,1,0.4,1.9,1.1,2.6
			c0.8,0.7,1.8,1.1,2.9,1.1c1.1-0.1,2.1-0.5,3-1.1c1.1-0.8,1.7-2.1,1.6-3.4c0-1-0.4-2-1.2-2.7c-0.9-0.8-1.9-1.4-3-1.8
			c-1.3-0.5-2.5-0.8-3.9-1c-1.2-0.2-2.4-0.3-3.6-0.3c-2.1,0-4.3,0.2-6.4,0.5c-2.2,0.4-4.3,0.8-6.5,1.4l-6.4,1.6
			c-2.1,0.5-4.1,1-6,1.4c0.9-1.3,1.6-2.7,1.9-4.3c0.5-2,0.8-4.1,0.8-6.2c0-1.7-0.3-3.4-1-5c-0.7-1.4-2.2-2.3-3.7-2.1
			c-3,0-5.9,0.9-8.3,2.8c-2.5,1.8-4.7,4-6.6,6.5c-1.8,2.4-3.4,4.9-4.9,7.5c-1.3,2.5-2.4,4.3-3.1,5.6c-1.1,0.2-2.4,0.3-3.9,0.5
			s-3.1,0.2-4.6,0.2c-2.4,0-4.9-0.2-7.2-0.7c-2.3-0.5-3.7-1.1-4.1-2c1,0,1.9-0.5,2.4-1.4c0.5-0.7,0.8-1.4,0.9-2.2
			c0-0.8-0.3-1.6-0.9-2.1c-0.6-0.6-1.4-0.9-2.2-0.9c-0.9,0.1-1.8,0.4-2.5,1c-1,0.8-1.5,2-1.4,3.3c-0.1,1.5,0.5,3,1.5,4.2
			c1.1,1.1,2.4,1.9,3.9,2.5c1.7,0.6,3.4,1,5.2,1.2c1.9,0.2,3.8,0.3,5.7,0.3c1.1,0,2.1,0,3.1-0.1s1.9-0.1,2.7-0.2
			c-0.7,2.2-1.5,4.3-2.4,6.4c-1.2,2.7-2.5,5.8-3.9,9.3s-2.9,7.2-4.4,11.2c-1.5,4-2.9,8-4.1,12.1c-1.2,3.9-2.2,7.7-3,11.5
			c-1.2,2.1-2.5,4.2-3.8,6.3c-1.9,3.1-3.9,6.1-6,9.1c-1.9,2.7-4,5.4-6.2,7.9c-1.8,2.1-3.8,4-6,5.6c-1.5,1.2-3.3,2-5.2,2.1
			c-0.9,0-1.4-0.6-1.4-1.9c0.2-2.1,0.6-4.1,1.4-6c0.9-2.6,2-5.6,3-8.7s2.1-6.4,3-9.7c0.9-3,1.4-6,1.4-9.1c0.1-2.5-0.4-4.9-1.4-7.2
			c-0.9-1.9-2.9-2.8-5.9-2.8c-1.9,0-3.8,0.5-5.4,1.6c-1.8,1.1-3.4,2.5-4.9,4.1c-1.6,1.8-3.1,3.6-4.4,5.6c-1.4,2.1-2.8,4.1-4.1,6.2
			c0.3-1.1,0.6-2.2,1-3.5s0.8-2.6,1.2-3.9s0.8-2.7,1.1-3.9c0.3-1.1,0.5-2.2,0.5-3.4c0-1-0.6-2-1.5-2.5c-1-0.7-2.2-1-3.4-1
			c-0.9,0-1.8,0.2-2.6,0.6c-0.8,0.4-1.4,1.2-1.6,2.1c-1.2,4-2.5,8-3.7,11.9l-0.5,0.8c-2.6,4-5.4,7.7-8.5,11.3
			c-2.8,3.3-6,6.2-9.4,8.9c-3.2,2.4-6.2,3.6-9.1,3.6c-1.6,0.1-3.1-0.4-4.5-1.3c-1.2-0.9-2.2-2-2.8-3.3c-0.8-1.4-1.3-3-1.6-4.6
			c-0.3-1.7-0.5-3.4-0.5-5.1c0-0.9,0-1.9,0.1-2.8c0.1-0.9,0.2-1.7,0.4-2.6c3.6-1.7,7-3.9,10.1-6.5c3.2-2.7,6.1-5.6,8.8-8.8
			c2.4-2.9,4.5-6,6.2-9.3c1.4-2.4,2.2-5.1,2.4-7.8c0.1-1.3-0.4-2.6-1.3-3.6c-0.9-0.9-2.3-1.4-4.3-1.4c-4.3,0.1-8.5,1.5-12,4.1
			c-4,2.9-7.4,6.4-10.1,10.5c-3,4.3-5.3,9-7,13.9c-0.3,0.8-0.5,1.6-0.8,2.4c-1.5,1.9-3.3,3.6-5.2,5.1c-2.8,2.2-5.9,4.1-9.1,5.6
			c-2.3-7.8-7.1-18-14.3-30.5l-2.4-4.2c12.1-14.7,18.2-30.4,18.2-46.9c0-7.9-1.8-13.8-5.4-17.7c-3.5-3.9-8.5-6-13.7-5.9
			c-7.6,0-13.6,2.8-18.1,8.3c-4.5,5.5-6.7,12.5-6.7,20.9c0,10.8,4.7,24.6,14,41.3L129.2,232.1z M335.6,221.3
			c0.5-1.7,1.3-2.5,2.3-2.5c1-0.1,2,0.4,2.6,1.1c0.6,0.9,0.8,1.9,0.8,2.9c0,1.3-0.2,2.5-0.5,3.7c-0.3,1.4-0.7,2.7-1.1,4
			c-0.5,1.3-0.9,2.4-1.4,3.4c-0.4,0.8-0.8,1.5-1.3,2.2c-0.6-1.4-1.1-2.9-1.5-4.4c-0.4-1.5-0.7-3.1-0.7-4.7
			C334.8,225.2,335.1,223.3,335.6,221.3z M300.2,194.8c1-1.8,2.1-3.6,3.3-5.2c1.2-1.6,2.5-3.2,3.9-4.7c1.3-1.4,2.4-2,3.2-2
			s1.2,0.8,1.2,2.3c0,0.9-0.1,1.8-0.2,2.6c-0.1,1.1-0.4,2.1-0.6,3.2c-0.3,1.1-0.7,2.1-1.1,3.2c-0.4,1-0.9,1.9-1.4,2.8
			c-1.6,0.7-3.3,1.1-5.1,1.4c-1.9,0.3-3.3,0.5-4.4,0.6c-0.1-0.1-0.1-0.3-0.1-0.4C299.1,197.2,299.5,195.9,300.2,194.8z M292.4,213.4
			c1.4-3.8,3.1-7.5,4.9-11.1c0.6-0.2,1.2-0.3,1.7-0.4l1.6-0.3l2.2-0.3c0.9-0.1,2-0.3,3.6-0.6c-0.5,0.8-1.5,2.3-3,4.6
			s-3.3,4.7-5.3,7.2s-3.8,5-5.7,7.4c-1.3,1.7-2.7,3.3-4.1,4.9C289.6,221.2,291,217.4,292.4,213.4z M181.7,243.4
			c1.9-3.4,4.1-6.7,6.6-9.7c2.1-2.6,4.4-5,7-7.1c2.3-1.8,3.8-2.8,4.5-2.8c1.3,0,1.9,0.7,1.9,2s-0.7,3.4-2,6
			c-1.5,2.8-3.3,5.5-5.3,7.9c-2.3,2.8-4.8,5.5-7.4,8c-2.5,2.4-5.3,4.4-8.3,6C178.8,250.1,179.9,246.6,181.7,243.4L181.7,243.4z
			 M146.3,273.3c0,4.5-1,8.9-2.9,13c-2.7,5.5-6.4,8.3-11.1,8.3c-1.5,0-2.9-0.7-3.9-1.8c-1.3-1.4-1.9-3.2-1.8-5.1
			c0-5.7,3.1-10,9.2-13c2-0.9,5.5-2.3,10.4-4.1C146.2,271.4,146.3,272.4,146.3,273.3z M127.1,169.3c2.4-4.2,7-6.8,11.9-6.6
			c3.8-0.1,7.5,1.6,9.9,4.6c2.5,3.1,3.7,7.6,3.7,13.5c0,15.1-5.4,29.5-16.2,43.1c-9-15.9-13.4-28.9-13.4-38.9
			C122.8,179.4,124.3,174,127.1,169.3L127.1,169.3z"/>
		<g>
			<path class="st59" d="M432.3,354.9C432.3,354.9,432.3,354.9,432.3,354.9C432.3,354.9,432.3,354.9,432.3,354.9z"/>
			<path class="st59" d="M437.7,350.2c-1.2,1.8-2.4,3.7-3.6,5.5c2.1,0.9,4.4,1.4,6.8,1.4c-0.1-1.1-0.4-2.2-0.9-3.3
				C439.5,352.5,438.7,351.3,437.7,350.2z"/>
			<path class="st59" d="M433.5,355.5c-0.1,0-0.1-0.1-0.2-0.1C433.4,355.4,433.5,355.4,433.5,355.5z"/>
		</g>
		<g>
			<path class="st60" d="M436.8,351.7c0.3-0.5,0.6-0.9,0.9-1.4c0,0,0,0,0,0C437.4,350.7,437.1,351.2,436.8,351.7z"/>
			<path class="st60" d="M434,355.7c-4.1-1.8-7.4-5-9.2-8.9c-0.4,0.1-0.8,0.3-1.2,0.4c-6.4,2.7-9.3,10-6.7,16.4
				c1.2,2.9,3.4,5.1,6.1,6.4c4.5-5.3,8.8-11,12.7-16.8C435.2,354,434.6,354.9,434,355.7z"/>
		</g>
	</g>
</g>
</svg>
