<?xml version="1.0" encoding="utf-8"?>
<!-- Generator: Adobe Illustrator 24.0.0, SVG Export Plug-In . SVG Version: 6.00 Build 0)  -->
<svg version="1.1" id="Layer_1" xmlns="http://www.w3.org/2000/svg" xmlns:xlink="http://www.w3.org/1999/xlink" x="0px" y="0px"
	 viewBox="0 0 274.1 274.1" style="enable-background:new 0 0 274.1 274.1;" xml:space="preserve">
<style type="text/css">
	.st0{fill:#E6CB34;}
</style>
<title>Artboard 4_1</title>
<path class="st0" d="M131.4,0c62.8,0.2,117.4,36.1,135.9,95.2c11.5,36.8,9,74.8-13.6,109c-27.3,41.2-65.4,64.6-114.7,68.3
	c-33.2,2.6-62.6-9.5-87-31C16.7,210.4-4.2,171.1,0.7,123.2C3.6,95.4,15.6,70,34.3,47.4C63.7,11.8,85.6-0.2,131.4,0z M136.9,8.3
	C64.2,5,9.2,68.4,9,128.3c-0.2,83,56.2,132.9,116.1,133.6c80.9,0.9,134-40,139.8-125.6C269.9,64.1,196.5,0.2,136.9,8.3z"/>
<path class="st0" d="M107.2,153.8c1,2.1,1.8,4.4,3.1,6.3c1.6,2.3,1.7,2.4-1.4,3.6l8.3,3.8c-0.2,0.3-0.4,1.1-0.7,1.8
	c-0.5,1.1-1,2.1-1.3,3.2c-0.3,1.1-0.8,1.4-1.8,0.7c-0.5-0.4-1.1-0.6-1.8-0.7c0.8,2,2.3,1.8,3.8,1.7c1.6-0.2,1.6-1.4,1.6-2.6
	c0-2,1.1-3.3,2.1-4.7l0.8,0.3c-0.5,2-0.9,3.9-1.4,5.9l1,0.5c0.8-1.2,1.4-2.5,2-3.8c0.6-1.6,1.7-2.3,3.2-1.5c1.1,0.5,2,1.4,3.1,2
	c0.8,0.4,1.7,0.4,2.4,0l-1.3-1.8l5.9-0.3c0-0.2,0.1-0.4,0.1-0.6l-11.7-0.9c4-2.9,17.8-0.2,21.3,4.3l-4.7-1.4
	c0.4,1.7,0.7,3.1,1.1,4.7h2.3c0.5,1.7,0.1,3.8,2.7,4.1c0-0.4,0.1-0.8,0.2-1.1c0.2-0.6,0.3-1.3,0.5-1.9c0.6,0.3,1.2,0.6,1.7,1.1
	c0.6,0.6,1.1,1.2,1.6,1.8l0.5-0.4c-0.3-0.8-0.6-1.5-1.1-2.9c4.1,1.4,5.3,6.2,9.5,6.2c1.1,2.3,1.4,2.3,2.7,0.6l-12.5-8.9l0.5-0.9
	c0.8,0.2,1.6,0.5,2.3,0.9c3.7,2.3,7.2,5,11,7c1.7,0.9,3.9,0.8,6.3,1.3c-0.6-2.4-1.4-4.7-2.2-7c-0.5-0.9-1.4-1.6-2.3-1.9
	c-2.3-0.9-4.4-1.9-5.9-4.1c-2-2.9-4.7-5.3-7.7-6.9c-0.5-0.3-0.9-0.7-1.3-1.1l0.5-0.8c1.4,0.8,3.1,1.2,4.3,2.3c2.3,2,4.2,4.2,6.2,6.4
	c1.5,1.6,3.1,2.8,5.4,2.6c-5-2.9-8.1-7.8-12.5-11.3c-2.3-1.8-4.9-3.5-8.3-3.4c-2.9,0.1-5.7-0.9-8.6-1.8c0.9,0,1.8-0.1,2.7-0.3
	c0.8-0.4,1.4-0.9,2-1.5c-0.2-0.2-0.3-0.4-0.5-0.6c-0.3,0-0.6,0.1-0.8,0.2c-2.1,1.3-4.2,0.3-4.6-2.3c0-0.2,0-0.3,0-0.5
	c-0.2-1.7,0.7-2.9,1.5-6.1c0.8-3,2.6-4.7,4.9-6.2c0.2-0.1,0.4-0.2,0.6-0.2c0.1,0,0.2,0.1,0.5,0.3c-1,1.1-2,2.2-2.8,3.4
	c-0.3,0.8-0.6,1.5-0.7,2.3c0.6,0.2,1.2,0.3,1.9,0.5c3,0.5,6,1.3,9.1,1.4c5.3,0.3,9.9-1.6,14.6-4.2c3.7-2.1,8.2-2.9,12.4-4.1
	c1.2-0.3,3.1-0.7,3.7-0.1c1.4,1.4,2.4,3.2,2.9,5.1c0.9,3.8,0.7,7.6-2.2,10.8s-5.7,6.8-8.6,10.1c-4.8,5.5-4.7,9.5-2,15.8
	c1.4,3.1,2.8,6.1,2.2,9.8c-1,6.1-8.7,9.8-13.9,7.6c-6.3-2.9-12-6.9-16.6-12.1c-3.6-4-7.6-7.3-13.8-7.4c-5.2-0.1-10.4,0.2-15.6,1.1
	c-1.5,0.2-3.1,0.2-4.7,0.2c-1.8-0.1-2.2-1-1.4-2.6c-1.5-1.4-2.9-2.7-4.4-3.9c-0.9-0.6-1.9-1.1-2.9-1.7c-0.5-0.3-1.2-0.6-1.4-1.1
	c-0.7-1.6-1.2-3.2-1.8-4.9c-2.3,1.1-3,0.6-3.2-2l1.8,0.9c-2.3-5.6-4.7-11.3-6.6-16c-0.2,1.8,1.2,6.8,2.9,9.2
	c0.4,0.4,0.6,0.8,0.7,1.4c-0.1,0.5-0.4,0.9-0.8,1.2c-0.2,0.1-0.9-0.3-1.1-0.6c-1.6-3.8-4.1-7.1-3.8-11.6c0.2-2.7-0.8-5.6-1.3-8.3
	c-0.2-0.6-0.9-1.1-1.4-1.6c3.3-2.3,0.5-6.2,2.4-9.2l1.7,1.2c0.3-0.7,0.6-1.4,0.8-2c1.3-3.6,2.5-7.2,4-10.7c0.5-1.1,1.7-2.2,3.2-1.1
	c0.2,0.1,0.3,0.2,0.5,0.2l3,0.7l-1.7,3.6c-0.2,0.5-0.4,0.9-0.3,1.4c6.5-5.6,14.3-9.3,22.6-11l-0.2-0.8l-1.9-1
	c-0.8,1.9-2.2,1.3-3.8,1.4c-2.8,0.3-5.5,1.8-8.2,2.9c-1.2,0.5-2.4,1.2-3.6,1.9l-0.5-0.5c0.4-0.7,0.7-1.4,0.9-2.1
	c0.2-0.5,0.2-1.3-0.1-1.6c-0.5-0.3-1.1-0.4-1.6-0.2c-0.8,0.3-1.6,0.7-2.3,1.2c0.3,0.4,0.6,0.8,1.4,1.7l-3.5,0.5
	c-0.7-1.6-0.8-2.8,0.8-3.5c3-1.2,6-2.4,9.1-3.6c0.8-0.4,1.5-0.7,2.3-0.9c0.8,0,1.6,0.1,2.3,0.2l0.2,0.9c-1.8,0.5-3.7,1.1-5.5,1.7
	c-0.5,0.2-1,0.5-1.4,0.8c-0.1,0.1,0.3,0.9,0.4,0.9c0.5-0.2,1.1-0.3,1.5-0.5c0.2-0.1,0.3-0.4,0.5-0.5c1.9-0.5,3.8-0.8,5.7-1.4
	c1.4-0.5,2.6-1.1,3.8-1.9c0.5-2.9,3.8-2.6,5.9-3.1c4.6-0.8,9.3-0.8,14-0.9c2.9-0.1,5.7,0.8,8.5,0.6c7.5-0.5,15.1-1.2,22-4.7
	c1.2-0.6,2.4-1.4,3.5-2.1c3-2.1,3.2-3.5,1.7-6.8c-0.7-1.6-0.9-3.3-1.4-5l-3.9,2l-0.3-0.5l4.1-5.2l-0.7-0.6l-2.6,1.4l-0.5-0.3
	l1.5-3.2c-0.5-0.5-1.4-1.2-2.2-1.8c-1.2-0.8-1.8-1.7,0.1-2.9c-0.2-0.2-0.4-0.3-0.6-0.5c-0.6,0.3-1.6,0.5-1.7,1
	c-0.7,2.4-2.2,1.6-4.1,1.4l2.3-3.2c-2-0.3-3.5-0.3-4.9,1c-0.7,0.6-1.7,0.9-2.6,1.3c0.4-0.9,0.8-1.7,1.2-2.6c0.1-0.1,0.2-0.1,0.2-0.2
	c0.2-0.5,0.3-1.1,0.4-1.6c-0.6,0-1.3-0.2-1.7,0c-0.9,0.5-1.7,1.1-2.5,1.7c-0.4,0.2-0.8,0.2-1.2,0.2c0.1-0.4,0-0.9,0.2-1.1
	c1-1.1,2.3-2,2.9-3.2c0.5-0.9,0.3-2.3,0.5-4c-3.2,2.9-4.4,6.8-8.6,7.7l2-3.6l-0.4-0.5l-4.4,2.2c0.1-0.8-0.1-2,0.3-2.3
	c1-0.8,2.2-1.4,3.5-1.7c1.1-0.2,2.3,0.2,4,0.5c-0.7-1.4-0.9-2-1.1-2.3l-3.9,1.2l-0.3-0.6c0.6-0.9,1.3-1.8,2-2.9
	c-2.6-0.3-3.7,1.3-4.4,2.9c-0.5,1.1-0.6,2.2-2.2,2.3c-0.5,0-0.8,1.1-1.2,1.7c-0.3,0.4-0.7,0.7-1.1,1.1c-0.4-0.4-0.8-0.8-1.1-1.3
	c-0.4-0.6-0.6-1.3-1-2c-0.7,0.5-1.4,0.9-2,1.4c-1,0.9-1.8,1.8-2.8,2.8l-0.7-0.5c0.2-0.6,0.5-1.1,0.8-1.7c1.2-1.7,2.6-3.3,4-4.8
	c0.8-0.8,2.2-0.8,3.3-1.3l-1.3,3.3c2.7,0.1,2.1-2.2,3-3.1c0.5-0.2,1.2-0.4,1.6-0.8c0.8-0.9,1.5-2,2-3c0.5-0.8,1.1-2-0.7-2.4
	c-0.4,1-0.6,2.6-1,2.6c-2.6,0.3-2,2-1.9,3.5l-1.9-0.2c-0.3-1.4-0.7-2.8-1.1-4.4c-1.5,1.8-2.5,3.2-3.5,4.4c-0.2,0.3-0.9,0.2-1.4,0.3
	c0.1-0.5,0-1.1,0.2-1.4c1.7-2.4,3.6-4.7,5.3-7.2c0.5-0.8,0.6-1.8,1-3c-0.8,0.1-1.1,0.1-1.5,0.2c-0.3,0.1-0.7,0.2-1,0.3v-4.1
	l-2.7,0.4c0.4-1.9,1.7-4-0.5-5.9c-0.7,1.4-1.3,2.6-1.9,3.8c-0.2,0.3-0.7,0.5-1,0.8c-0.2-0.5-0.6-0.9-0.5-1.4
	c0.3-1.2,0.8-2.3,1.1-3.5c0-0.5-0.1-1.1-0.2-1.6c-0.5,0.2-1.2,0.2-1.5,0.5c-0.6,0.7-1.1,1.4-1.4,2.3c-1,2.2-1.8,4.4-2.8,6.6
	c-0.2,0.3-0.7,0.4-1.1,0.5c-0.2-0.4-0.5-0.9-0.3-1.2c1.1-2.9,2.3-5.7,3.4-8.6l-0.4-0.6c-0.5,0.4-1.1,0.8-1.6,1.3
	c-1.2,1.3-0.5,4.1-3.5,4.3c0.6-1.7,1.1-3.5,1.7-5.1l-0.6-0.5c-0.5,0.5-0.8,1-1.1,1.5c-0.6,1.9-1.1,3.8-1.7,5.7l-1.2-0.2
	c0.4-2.3,0.8-4.7,1.1-7.1c-4.4-0.5-2.5,3.5-4.5,5.6c-0.2-1.6-0.2-2.6-0.3-3.5c-0.1-0.7-0.2-1.4-0.4-2.1c-0.8,0.5-2.1,0.8-2.4,1.5
	c-0.5,1.1-0.5,2.4-0.7,3.6c-0.1,0.2-0.3,0.5-0.6,0.9c-1.7-1.7-0.5-3.7-0.6-5.4c-2.6-1.1-3.1,1.2-4.4,2.9c-0.2-1.1-0.5-2-0.8-3.5
	L105,44c-2-2,0.1-3.6-0.3-5.7c-2.8,0.8-2.3,3.6-3.6,5.8l-1.1-2.9c-1.8-0.4-1.1,5.1-4.1,1.8c-1.7,0.5-0.2,3.6-2.7,2.9
	c-1.3-0.5-2.5-1.1-3.6-1.7c-0.8,1.7-0.8,1.9,1.5,3c0.5,0.2,0.7,0.8,1.1,1.3c-0.5,0.3-1.1,0.5-1.6,0.7c-0.6,0.2-1.3,0.2-1.9,0.3
	c0.4,0.6,0.5,1.4,1.1,1.8c2.6,1.9,1.4,4.4,0.9,6.5c-0.7,2.6-2.1,5.1-3.1,7.7s-1.8,5.1-2.7,7.7c-0.2,0.6-0.4,1.2-0.7,1.7
	c-1.2,1.4-0.9,2.3,1.2,2.7l-4.8,9.7c-0.8,1.5-1.5,3-2.3,4.4c-0.6,1.1-2.4,0.7-2.6,2.6c-0.3,2.5-1.4,4.8-2,7.3
	c-0.2,0.8,0.4,1.7,0.5,2.5c0.2,0.5,0.1,1.1-0.1,1.6c-0.6,1.4-1.4,2.6-2.2,4.1c0.8,0,1.7,0.2,2.5,0.4c0.2,0.4,0.2,0.8,0.1,1.3
	c-0.6,0.3-1.3,0.5-2,0.7c-0.9,2.7-1.6,5.6-0.6,8.7l0.8,0.1c0-1.1-0.1-2.3,0-3.4s0.4-2.3,0.6-3.5l1.2,0.2c-0.2,2.8-0.2,5.6-0.5,8.4
	c0,0.2-1,0.3-1.6,0.5v6.1l1.9-0.3c0.4,3.2,2.3,6,1,9.1l-0.8,0.2c-0.4-1.8-0.8-3.7-1.3-5.6l-0.6,0.1c0.4,3.5,0.8,7,1.1,10.4
	c0.8-0.2,1.9-0.7,2-0.5c0.5,0.8,0.8,1.6,1.1,2.4l-2.1,0.3c0.9,3.2,1.9,6.6,2.8,10h0.3l0.4-4.2l0.5,0.1c1.6,3.9,3.1,7.9,4.7,11.8
	c-0.3,0.2-0.6,0.3-0.8,0.5l-3.5-5.3c2.5,8,7.4,14.4,13.1,20l2.7-0.8l0.5,0.4c-1.4,1.2-1.1,2,0.1,3.1c4,4,8.6,7,13.4,9.8
	c2.6,1.5,4.6,3.8,7,5.7c1.4,1.1,3,1.8,4.4,2.8c0.4,0.2,0.4,1.1,0.5,1.6c-0.6,0.1-1.5,0.5-1.9,0.2c-1-0.7-1.2-2.6-3.2-1.8
	c-1.4,0.4-2.7,0.6-4.1,0.7c0.2,0.5,0.4,1,0.5,1.4c0.2,0.7,0.2,1.4,0.2,2.2c-0.6-0.4-1.4-0.6-1.8-1.1c-1.7-2.7-3.2-5.6-4.8-8.3
	c-1-1.4-2-2.8-3.1-4.1l-0.8,0.5c2,3.4,3.9,6.8,6.2,10.6c-2.8-0.2-3.5-1.9-4.3-3.3c-1.4-2.6-2.9-5.3-4.3-7.9
	c-0.2-0.3-0.6-0.5-1.4-0.3l3.7,7.7l-1.1,0.6c-0.8-1.1-1.7-2.2-2.3-3.4c-0.9-1.5-1.4-3.5-4.1-3.2c2,2.8,3.8,5.4,5.8,7.9
	c0.6,0.7,1.7,0.8,2.7,1.2c1.3,0.6,2.4,1.3,2.6,3.4l-2.3-1.4l-0.4,0.4c2,2.2,4.1,4.4,6.1,6.6l-0.7,0.8c-1.2-0.7-2.3-1.5-3.3-2.4
	c-2.9-2.9-5.6-6.1-8.3-9.1c-0.2-0.2-0.4-0.7-0.6-0.7c-5.2-0.8-6.6-5.7-9.7-8.8c-2-2.1-4-4.4-5.9-6.6c-0.8-0.9-1.5-1.9-2.1-2.9
	c-0.2-0.4,0-1.1,0-2l12.8,14.8l0.5-0.4c-0.6-1-1.1-2-1.9-2.9c-3.2-4.1-6.4-8.3-9.6-12.4c-4.1-5.2-6.9-11.2-8.6-17.6
	c-1.7-6.5-2.6-13.3-3.9-19.9c-0.9-4.5-1.9-9-2.9-13.6c-0.3-0.9-0.5-1.8-0.6-2.7c-0.2-7.1-0.2-14.2-0.4-21.3c-0.1-2,1.2-4.4-1.3-6
	c-0.6-0.4-0.5-2-0.5-3.1c0.5-6.5,0.8-13.1,1.5-19.6c0.7-5.9,2.6-11.5,6.8-16.1c-1.5,4.7-2.9,9.5-4.5,14.3c-1.7,5-1.4,10.2-1.4,15.4
	l0.7,0.1c0.1-0.6,0.2-1.2,0.3-1.8c0.8-5.5,1.1-11.1,2.5-16.4c1.1-4.1,3.4-8,5.4-11.9c1.4-2.6,2.9-5.2,4.7-7.5
	c1.4-1.9,3.2-3.5,5.2-4.8c4-2.3,8.1-4.4,12.3-6.3c1.5-0.7,3.2-1.1,4.8-1.3c3.9-0.6,7.7-1.1,11.7-1.4c5.2-0.4,10.4-1.1,15.6-0.7
	c6.1,0.5,12.1,1.4,16.7,6.4c3.5,3.7,7.6,6.7,11.3,9.9c-0.9-1.5-1.9-3.2-2.9-4.9l0.4-0.4c0.5,0.2,1.1,0.2,1.4,0.5
	c3.2,4.2,6.2,8.3,9.3,12.6c1.7,2.4,3.2,4.9,4.9,7.3c1.1,1.5,1.1,1.5-0.1,3.1c1.1,1.6,2.2,3.2,3.3,4.7l-0.1-0.1
	c1.7,5.6,3.6,11.2,5.2,16.8c1.6,5.6,0,11-2.7,15.8c-2.4,4.3-5.6,8.1-8.4,12.1c-1.2,1.7-2.2,3.5-3.3,5.2c-3.4,5-8.3,8.9-14,10.9
	c-0.4,0.2-1-0.2-1.4-0.3l0.8-2c-1.1-0.9-2.6-2-3.8-3.2c-0.6-0.5-1.1-1.2-1.4-2c-0.2-0.9-0.3-1.9-0.2-2.9c0.8,0.2,1.6,0.5,2.4,0.7
	s1.6,0.3,2.3,0.5l0.3-0.8c-0.7-0.4-1.4-1-2.1-1.1c-5.9-0.3-11.9-0.6-17.9-0.5c-3.2,0.1-6.5,0.8-9.8,1.3c-0.6,0-1.3-0.1-1.9-0.2
	c1.7-1.7,3.2-2.6,5.3-2.6c4.3,0,8.6-0.1,12.9-0.2c0.8-0.1,1.6-0.3,2.3-0.6c-0.1-0.3-0.1-0.5-0.2-0.8c-3-0.2-6-0.5-8.9-0.4
	c-3.3,0.2-6.5,0.6-9.8,1.2c-0.8,0.2-1.4,0.8-2.3,1.1c-0.4,0.2-0.9-0.2-1.4-0.3c0.2-0.4,0.2-0.9,0.4-1.2c0.4-0.5,0.9-0.8,1.5-1
	c3.3-0.5,6.7-1.1,10-1.4c1.2-0.2,2.5,0,3.7-0.1c2.5-0.1,3.8-1.3,3.2-3.6c-0.2-0.9-2.3-2-3.4-1.8c-4.7,0.5-9.5,1.1-14,2.4
	c-5.3,1.5-10,4.1-12.8,9.2c-0.1,0.1-0.3,0.1-0.7,0.2c0-3.2,2.3-5,4.1-6.9l-0.6-0.6c-1.8,2-3.8,3.8-5.5,5.8c-1.1,1.4-2.1,2.4-4,2.7
	c-2.3,0.4-3.2,1.4-4.1,3.4c1.1-0.4,2.2-0.8,3.2-1.1c1.6-0.4,2.4,0.2,2.1,2c-0.2,1-0.4,2-0.5,2.9c-0.2,0.5-0.2,1.1-0.2,1.6
	c0.4,1,1.8,1.8,0.2,2.9c-0.9,0.6-1.8,1.2-3,2c0.3,0.3,0.7,1,1.1,1.1c1.6,0.5,4.3-1.7,4.3-3.4c0-2.2-0.1-4.4,0-6.5
	c0.2-0.8,0.4-1.6,0.7-2.3l0.8,0.1c0.2,0.7,0.3,1.4,0.3,2.1c0.1,2.4-0.1,4.8,0.1,7.2c0.1,1.5,0.7,3,0.9,4.6c0,0.6,0,1.2-0.2,1.8
	l-0.6,0.2l-2.6-3.8c-2,1.6-4.9,2.3-3.3,6.5l2.4-3.7c1.2,1.4,2.3,2.8,3.3,4.4c1,1.9,1.8,3.9,2.4,5.9c0.2,0.5-0.5,1.4-0.9,2
	c-0.7,0.7-1.4,1.3-2.3,1.9c0.1,0.2,0.2,0.5,0.2,0.8c0.8-0.1,1.7-0.3,2.4-0.5c2.9-1.4,2.8-1.4,1.7-4.5c-0.2-0.7,0.1-1.6,0.2-3
	l2.7,3.6L107.2,153.8z M166.8,165.7c-0.7-0.2-1.6-0.2-2-0.6c-1.3-1.1-2.4-2.3-3.4-3.7c-2-2.9-5.3-3.7-8-5.5
	c3.5,3.7,7.1,7.3,10.7,10.7c0.8,0.7,1.9,1,2.9,1.4l0.5-0.6C167.2,166.9,167,166.3,166.8,165.7c0.7-0.6,1.4-1.2,2-1.9
	c0.1-0.2-0.5-1.1-0.8-1.4c-1.5-1.1-3.1-2.2-4.5-3.3c-1.9-1.4-3.7-3-5.5-4.6l-0.6,0.5c0.5,0.6,0.8,1.4,1.3,1.7
	c3.8,1.8,5.4,5.6,8.2,8.3C167,165.2,166.8,165.5,166.8,165.7z M145.2,117.7c-0.2-0.4-0.3-0.6-0.5-0.6c-2.5,0.2-4.1-0.6-3.5-3.6
	c0-0.2-0.8-0.7-1.2-0.8c-0.5-0.2-1.1,0.2-1.2,0.3c-0.2,1.5-0.2,3-0.2,4.5c0,0.2,1.4,0.1,2.2,0.3c0.5,0.2,1.1,0.4,1.5,0.7
	c-0.5,0.5-0.8,1.3-1.3,1.4c-0.8,0.2-1.6-0.2-3.2-0.6c0.6,1,0.9,1.9,1.3,2c1.7,0.2,3.2,0.1,5.5,0.1
	C143,119.3,143.7,118.4,145.2,117.7L145.2,117.7z M169.4,190.6c1.9-2.3,2.3-6.2,1.1-7.7c-2-2.6-4.7,0-6.9-0.8
	c-0.2,0.4-0.5,0.8-0.7,1.2c2.3,0.4,5.2,0,6.2,1.2C170.2,185.7,169.4,188.3,169.4,190.6z M127.1,110.5l-0.4-1.1
	c-5.4,1.4-11.3,1.1-16.2,4.3c2.5-0.3,4.9-0.8,7.3-1.3c2.2-0.5,4.4-0.8,6.6-1.2C125.3,111.1,126.2,110.8,127.1,110.5z M168.9,158.1
	l0.8-0.7c-0.5-0.6-0.9-1.3-1.4-1.9c-0.4-0.5-1.1-1.1-1-1.6c0.2-2.5-0.7-3.2-3.3-1.7c0.2-1.4,0.4-2.3,0.7-3.8l-2.9,2.3L168.9,158.1z
	 M108.2,161.8l0.8-0.6l-3.4-4.7l-6.2,4.2c0.2,0.6,0.3,1.3,0.5,2.3c1.8-1.5,3.3-2.6,4.6-4c1.1-1.2,1.7-1.1,2.2,0.4
	C107.1,160.3,107.6,161.1,108.2,161.8L108.2,161.8z M161.3,153.3l-0.7,0.8c2.6,2.9,5.6,5.6,8.9,7.7c0.2,0.2,0.8-0.2,0.9-0.2
	L161.3,153.3z M135.4,109.6c-0.5,2.7-0.9,5.1-1.4,7.7h2.7c-0.2-2.6-0.2-5.1-0.4-7.7H135.4z M106.4,163.8c0.2-0.3,0.3-0.7,0.5-1
	c-0.8-0.5-2.1-1.7-2.5-1.4c-1.1,0.8-2,1.7-2.5,2.9c-0.2,0.5,0.6,1.4,1.1,2.1c0.2,0.2,0.7,0.1,1.1,0.2c0-0.6,0.1-1.2,0-1.8
	c-0.1-0.5-0.2-1-0.2-1.4L106.4,163.8z M153.5,128.1c2.7-0.6,6.3-4.7,6.3-6.7L153.5,128.1z M81.4,67.5l-6-4.1c0.2,0.9,0.2,1.8,0.5,2
	C77.5,66.2,78.4,68.6,81.4,67.5z M151.1,186.5c0.5-0.8,0.8-1.5,1.1-2.3c0-0.7-0.2-1.4-0.5-2c-0.1-0.2-0.9-0.2-1.1,0.1
	C149.2,183.4,149.6,185.7,151.1,186.5z M112.8,197.8l0.7-0.8l-5.3-4.2C108.2,196.4,111.2,196.3,112.8,197.8L112.8,197.8z M77.2,70
	c0.3,0.8,0.5,1.3,0.8,1.8c0.3-0.1,0.6-0.2,0.9-0.3c-0.1-0.6-0.4-1.2-0.7-1.7c-0.5-0.5-1.1-0.8-1.7-1.1c-0.5-0.2-1.1-0.5-1.7-0.6
	c-0.1,0.3-0.4,0.9-0.3,1c0.5,0.4,1,0.8,1.5,1C76.5,70.1,76.8,70.1,77.2,70z M96.6,149.8l0.7,0.2c0.5-0.6,1.4-1.1,1.5-1.8
	c0.1-0.5-0.6-1.3-1.1-1.7c-0.3-0.2-1.5,0.2-1.4,0.3C96.3,147.9,96.5,148.8,96.6,149.8L96.6,149.8z M105.5,167.4l-0.8,1l4.8,3.8
	l0.6-0.7L105.5,167.4z M89.2,53.7l-4-2.3c-0.2,0.4-0.6,1.1-0.5,1.1c1,0.8,2,1.4,3.2,2.1C88,54.7,88.5,54.2,89.2,53.7z M98.8,154.3
	h0.9c0.8-0.9,2-1.7,0.4-2.9c-0.4-0.3-1-0.2-1.5-0.2L98.8,154.3z M68.4,106.8c0.2,2.1,0.2,3.9,0.4,6.5
	C70.1,110.5,69.9,107.8,68.4,106.8z M133,102.8c-0.2,0.2-0.2,0.4-0.3,0.5l1.9,4.9c0.5-1.3,1.1-2.3,0.8-2.8
	C134.8,104.5,133.9,103.5,133,102.8L133,102.8z M133.5,173.5c0.6-1.3,1.1-2.5,1.8-4l-2.5,0.2C133.1,171.2,133.3,172.3,133.5,173.5
	L133.5,173.5z M70.2,77.6l-0.6,0.7l3.2,3.5c0.2-1.1,0.5-1.7,0.3-2C72.2,79.1,71.2,78.4,70.2,77.6z M149.9,112.4l-0.8-0.5l-2,2.7
	C149.4,114.8,150.5,114.2,149.9,112.4z M142.4,56.5c-0.1-1.5-0.2-2.5-0.2-3.5c-0.5,0.1-1.1,0-1.2,0.2
	C140.6,54.2,140.2,55.3,142.4,56.5z M140.2,40.3l-1.1,0.2c0.2,1,0.3,2,0.5,2.9c0.5-0.2,1.2-0.5,1.2-0.6
	C140.6,42,140.4,41.1,140.2,40.3z M74.9,73.7c0.2-0.2,0.4-0.5,0.5-0.7L72,70.2l-0.8,0.9L74.9,73.7z"/>
<path class="st0" d="M190.6,208.2c-0.1-0.8-0.7-2-1.1-2.1c-1.6-0.2-1.2,1.2-1.2,2.2c0.3,8.3-0.2,16.5-1.4,24.7
	c-1,6.2-2.6,12.2-6.6,17.3c-6,7.5-14.3,9.3-23.2,9.3c-3.8,0-7.5-0.4-11.3-0.6c-5.2-0.4-10.3-1.1-14.9-3.8c-4.6-2.7-6.9-7.6-9.3-12
	c-3.6-6.5-7.2-12.6-12.8-17.7c-5.9-5.6-12.4-10.4-19.3-14.7c-6.5-3.9-12-8.6-15.5-15.4c-2.9-5.8-5.6-11.7-7.8-17.8
	c-0.8-2.2-2.6-4.7-0.5-7.6c1.1-1.5-0.4-3.1-2.1-2.6c-0.5-1.7-1.1-3.4-1.6-5l0.8,0.1l1.3-1.3c-0.4-0.3-0.8-0.9-1.2-0.9
	c-2.1-0.2-1.6-2-1.8-3.2c-0.1-0.6,0.7-1.3,1.4-2.3c-0.5-1.9-1-4.4-1.8-6.7c-0.3-0.9-1.3-1.6-2-2.4c-0.3-0.3-0.8-0.5-1-0.8
	c-1-3.2-2-6.3-2.8-9.5c-1-3.5-1.9-7.1-2.6-10.6s-1.5-7-2.2-10.5c-0.2-1.4-0.2-2.8-0.4-4.1c-0.5-3.9-0.9-7.8-1.3-11.2
	c1.1-0.8,2.3-1.4,2.2-1.6c-0.2-0.8,0.5-2.3-1.4-2.5c-0.4-0.1-0.9-3.2-0.6-3.3c2.5-1.3,1.7-2.5,0.3-3.9c-0.2-0.4-0.4-0.8-0.3-1.3
	c0-1.9,0-3.8,0-5.7h0.3l1,2h0.7c0.2-0.9,0.7-2.3,0.3-2.6c-2.1-1.7-0.8-3.5-0.6-5.3c3.5,0.3,1.1,4.4,3.9,5.6c0.4-2.8,0.7-5.3,1-7.8
	c-1.1-0.2-2.6,0.2-2-1.9c0.6-1.8,0.8-3.7,1.3-5.5c0.9-3.6,0.8-7.5,3.3-10.7c0.8-1.1,1.1-2.6,1.8-4.4l-2,0.9c-0.1-0.3-0.1-0.6,0-0.9
	c2.3-6.5,5.3-12.8,9.8-17.9c5.9-6.8,12.5-12.7,20.7-16.2c2.5-1.1,5.1-2,7.8-2.6c4.2-0.8,8.5-0.8,12.6-1.4c9.4-1.4,18.4,0.3,27.3,2.9
	l4.8,1.4c0,0.3-0.1,0.5-0.2,0.8c-1.7-0.3-3.5-0.6-5.3-1.1s-3.6-1.1-5.3-1.6l-0.4,0.6c0.5,0.6,1,1.4,1.7,1.7c1.8,0.7,3.7,1.3,5.6,1.7
	c3.5,0.8,7.1,1.5,10.6,2.3c3,0.8,6,1.7,9,2.5l-0.1,0.6l-1.7,0.9c1.2,1.1,2,2.4,4.2,1.5l-2-1.8c0.8,0,1.4-0.2,1.7,0
	c3.5,2.5,7.7,4.5,10.4,7.7c5.2,5.9,10.8,11.3,17,16.2c0.8,0.7,1.5,1.3,2.3,1.8c0.5,0.2,1.3-0.2,1.9-0.2c-0.2-0.6-0.4-1.1-0.7-1.7
	c-0.9-1-2-1.8-3.2-2.9c-5.3-4.6-9.4-8.3-12.1-10.8c-8.6-7.9-9.8-9.7-14-11.8c-3.5-1.7-6.9-3.6-10.4-5.4c-1.7-1-3.4-1.8-5.1-2.4
	c-3.6-1.1-7.3-1.9-10.8-2.9c-6.7-1.9-13.4-3.5-20.4-3c-2.7,0.2-5.4,0.5-8,0.9c-4,0.5-8,0.8-11.9,1.7c-5.4,1.3-10,4-14.3,7.2
	c-5,3.7-9.9,7.3-13.7,12.2c-5.4,7.1-9.5,15.1-12.2,23.7C51,61.8,49.1,69,47.4,76.3C46,82.4,45,88.5,45.7,94.9
	c0.6,5.6,0.8,11.3,1.4,16.8c0.4,3.8,1,7.4,1.8,11.1c0.7,2.9,1.8,5.9,2.6,8.8c0.7,2.4,1.1,4.9,1.7,7.4c0.9,3.5,2.1,6.8,3,10.3
	c1.5,6,2.7,12.1,4.3,18.1c1.2,4.6,2.9,9.2,4.4,13.6c1.6,4.4,3.4,8.9,5.3,13.1c1.2,2.3,2.6,4.4,4.1,6.5c3.9,5.6,9.2,9.4,15,12.8
	c5.2,3.2,10.1,6.9,14.6,11c3.4,2.9,6.4,6.1,9,9.7c3.4,4.8,5.9,10.1,9,15c1.7,2.8,3.5,5.4,6.4,7.4c5.4,3.5,11.3,5,17.5,5.4
	c1.6,0.1,3.2-0.2,4.8,0.1c6.2,1.1,12.3-0.2,18.4-1.2c3.8-0.7,6.6-3.5,9.5-5.9c2.3-1.9,4.3-4.1,5.9-6.7c1.2-2,2.3-4.1,3-6.2
	c2-5.3,3.1-10.7,3.5-16.2c0.4-4.1,0.3-8.2-0.1-12.3C190.7,211.8,190.6,210,190.6,208.2z"/>
<path class="st0" d="M62.1,70.1c-0.1,1.4-0.2,2.7-0.3,4.1c-0.5,3.6-1.3,7.1-1.4,10.7c-0.5,7.2,0,14.5,1.3,21.6
	c0.8,3.8,0.8,7.7,1.1,11.5c0,0.2,0.1,0.6,0,0.7c-2.6,1.8-1.3,4.4-1.6,6.8c-0.1,0.7-0.5,1.3-1.1,1.7c-1.1-6.4-2.2-12.8-3.2-19.2
	c-2.6-0.2-3.7-1.5-3.4-3.8c0-0.2,0.2-0.5,0.1-0.7c-2.8-5.9-1.1-12-1.4-18c0.1-0.7,0.2-1.4,0.3-2.1h0.8c0.2,1.1,0.4,2.1,0.5,3.2
	c0.1,3.6-0.2,7.2,0,10.8c0.2,2.8,0.8,5.6,1.2,8.4l0.6-0.1c0-3.3,0.5-6.7-0.2-9.8c-1-4.6-0.6-9-0.4-13.6c0.1-1.4,0.2-2.9,0.5-4.3
	c0.4-1.8,1.1-3.5,2.1-5c-2.4,14.9-1,29.4,2.3,43.9h0.6c0.2-1.7,0.2-3.3,0-5c-0.5-3.9-1.5-7.8-1.9-11.8c-0.5-4.5-0.6-9.1-0.4-13.7
	c0.2-4.1,1.1-8.1,1.7-12.2c0.2-1.4,0.6-2.9,0.9-4.3L62.1,70.1z"/>
<path class="st0" d="M114.7,128.5c0.6-0.8,1-1.8,1.7-2.2c2-0.9,4.1-2,6.2-2.2c4.3-0.3,8.6-0.2,12.9-0.1c0.3,0,0.6,0.3,1.3,0.7
	l-2.6,1c1.8,0.2,3.4,0,4.3,0.7c0.5,0.5,0.1,2.2,0.1,3.3c2.8-1.1,2.8-1.1,3.5,2c0.4,0,0.9-0.2,1.2-0.1c0.7,0.2,1.4,0.7,1.8,1.3
	c0.2,0.3-0.4,1.4-0.8,1.7c-1.4,0.8-2.9,1.1-4.3,1.9c-1.7,0.9-3.2,2-4.9,3c-0.6,0.3-1.3,0.6-2,0.8l-0.5-0.8l5.2-4.7l-0.5-0.9l-11.3,4
	c1.6-3.6,6.2-3.1,8.5-5.9c-3.3-0.4-6.7,0.2-9.7,1.6c-0.5,0.3-1.1,0.5-1.7,0.7c-0.5,0-0.8-0.2-1.1-0.6c0-0.4,0.2-0.8,0.5-1.1
	c2.6-0.9,5.3-1.9,8-2.6c1.2-0.3,1.9-0.5,1.1-2.4l-12.9,3.8c0.2-1.8,2-3.1,6.3-4.1c2.6-0.6,5.3-1,8.3-1.5c-3.9-1.3-13-0.3-17.9,3
	L114.7,128.5z"/>
<path class="st0" d="M162.1,214c-1.6-1.7-2.7-1.3-3.9,1.2c-0.5,0.9-1.1,1.7-1.8,2.5c-0.2-0.2-0.4-0.2-0.6-0.4c0-0.4,0.1-0.7,0.2-1.1
	c1.1-2.8,1.1-2.7-1.7-3.7c-1-0.4-1.8-1.4-3-2.3l-3.5,6.3l-0.8-0.3c0.1-0.7,0.2-1.4,0.4-2c0.5-1.7,1.2-3.4,1.7-5.1
	c0.8-2.4,1.4-4.9,2.2-7.2c0.2-0.5,1.6-0.8,2.3-0.6c1.9,0.6,3.7,1.6,5.6,2.2c1.6,0.5,2,1.5,1.7,3c-0.3,1.4-0.7,2.7-1.1,4.4
	c1.4,0.4,2.9,0.7,3.2-1.5c0.3-1.4,0.3-2.7,0.5-4.1c0.2-0.5,0.3-1,0.5-1.4c0.5,0.2,1.1,0.6,1.6,1.1c0.2,0.5,0.2,0.9,0.1,1.4
	c-0.7,3-1.5,5.9-2.2,8.9c-0.5,2.3-2,2.3-4.3,1.4L162.1,214z M156,212l1.1-0.6c0.3-0.5,1-1.1,0.9-1.5c-0.2-0.5-0.8-0.9-1.3-1.4
	c-0.5,0.5-0.8,1.1-1.1,1.7C155.4,210.8,155.9,211.4,156,212z M156.8,207.3l0.6,0.4c0.5-0.5,1.4-1.1,1.4-1.4c-0.2-0.8-0.9-1.3-1.4-2
	l-0.6,0.3V207.3L156.8,207.3z M151.9,209.6l0.6,0.4l2.3-1.1l-2.3-1.5L151.9,209.6z"/>
<path class="st0" d="M64,136.5c2.2,8.9,4.3,17.8,6.5,26.7c0.1,0.3-0.2,0.7-0.5,1.4c-0.5-1.1-0.9-1.9-1.3-2.6l-0.7,0.2
	c1,3.5,2,7.1,3.1,10.6l-0.9,0.3c-2.2-0.8-1.2-3.2-2.1-4.7s-1.2-3.6-1.8-5.3c-0.6-1.7-1.2-3.6-1.8-5.3l0.6-0.4l2.6,3.7
	c-2-8-3.9-16-4.5-24.3L64,136.5z"/>
<path class="st0" d="M201,147.8c-1.7,1.5-3.5,3-5.3,4.4c-5.9,4.6-11.9,9.2-17.9,13.7c-0.3,0.3-0.6,0.5-0.9,0.7
	c-0.5,0.2-0.9,0.2-1.4,0.3c0.1-0.5,0.1-1.1,0.4-1.4c2.7-2.5,5.4-5,8.3-7.2c4.7-3.7,9.7-7.1,14.6-10.6c0.5-0.4,1.1-0.7,1.7-0.9
	L201,147.8z"/>
<path class="st0" d="M104.3,133.5c0.2,2.6,0.4,5.3,0.6,8.3c-2-1.4-3.6-12-2.7-14.8c1.4-4.3,9-10.4,13.1-10.1
	c-2.3,1.7-4.4,3.2-6.4,4.7c-2.5,1.8-4.6,4-5.1,7.1C103.7,130.2,104.3,131.9,104.3,133.5L104.3,133.5z"/>
<path class="st0" d="M96.2,203.9c-6.5-1.7-21.9-20.3-20.5-25c3.1,4.7,5.6,9.2,8.9,13.3C88,196.2,92,199.7,96.2,203.9z"/>
<path class="st0" d="M176.2,130.2c0.1-0.5,0-1,0.2-1.3c4.2-5.4,7-11.6,9.3-17.9c0.3-0.7,0.1-1.6,0.3-2.3c0.3-0.5,0.6-1,1.1-1.4
	c0.4,0.5,1.1,1.1,1,1.5c-0.5,2.1-0.8,4.3-1.7,6.2c-2.3,4.6-4.9,8.9-7.4,13.4c-0.6,0.8-1.4,1.7-2.2,2.3L176.2,130.2z"/>
<path class="st0" d="M185.1,132.4c0.1-0.6,0.2-1.2,0.5-1.8c2.5-4.3,5-8.4,7.4-12.8c0.9-1.7,1.1-3.8,2-5.6c0.3-0.8,1.3-1.2,1.9-1.8
	c0,0.8,0,1.4-0.1,2.2c-1.7,7.4-5.6,13.7-10.4,19.5c-0.2,0.2-0.4,0.3-0.5,0.4L185.1,132.4z"/>
<path class="st0" d="M103.8,216.3l1.5,3.5l-0.6,0.4c-1.2-0.8-2.3-1.6-3.5-2.5c-0.6-0.7-1.1-1.4-1.4-2.2h2.5c-0.1-0.2,0-0.8-0.3-1.1
	c-1.7-1.4-3.4-2.6-5.1-4c-2-1.4-3.9-2.9-5.8-4.4l0.5-0.9c0.6,0.1,1.3-0.1,1.7,0.2c1.6,1.2,2.9,2.9,4.6,3.6c2.3,0.9,3.2,4,6.2,3.6
	c0.2,0,0.9,1.2,0.9,1.9C105,215.2,104.2,215.7,103.8,216.3z"/>
<path class="st0" d="M171.7,202c2.2,2.3,0.9,5.4-0.4,8.6c-3.2-0.3-3.2-0.3-3.9,4c-0.3,2.1-0.7,2.3-2.2,1.6c0.7-4.1,1.4-8,2.1-11.9
	c0.2-0.6,1-1.1,1.5-1.6c0.2,0.6,0.4,1.2,0.5,1.8c-0.2,1.2-0.5,2.3-0.8,3.5c1.5,0.7,1.7,0.5,2.2-1.9
	C170.9,204.9,171.3,203.7,171.7,202z"/>
<path class="st0" d="M184,154.2c2.6-2.3,5.1-4.4,7.4-6.6c3.7-3.6,7.2-7.4,10.9-11c0.3-0.3,1-0.4,1.5-0.5c0,0.5,0.2,1.2-0.1,1.6
	c-4.7,6.6-11.2,11.4-17.4,16.4c-0.4,0.2-0.8,0.5-1.2,0.7C184.9,154.6,184.7,154.5,184,154.2z"/>
<path class="st0" d="M192.3,108.1c0.2,1.3,0.7,2.2,0.5,2.8c-1.3,3.5-2.6,7.1-4.2,10.4c-1.4,2.6-2.9,5.2-4.6,7.6
	c-0.5,0.7-1.2,1.1-2.3,2L192.3,108.1z"/>
<path class="st0" d="M148.8,208.6l-2.5,1.2c-0.9-1.5-1.7-2.9-2.8-4.6l3,0.5c0.4-1.6,0.8-3.2,1.3-4.9l-0.7-0.3
	c-0.3,0.7-0.7,1.4-1.1,2c-0.5,0.5-1.1,0.9-1.7,1.3c-0.1-0.8-0.1-1.7-0.1-2.6c0.1-0.8,0.6-1.6,0.7-2.3c0.1-1.4,0.8-1.7,1.8-1.1
	c1.3,0.8,2.5,1.8,3.6,2.8C150.2,203.3,146.9,205.1,148.8,208.6z"/>
<path class="st0" d="M202,121.6c0.7,3.2-8.9,17.4-13.1,19.8c0-0.6-0.2-1.2,0-1.6C193.1,133.8,197.5,127.8,202,121.6z"/>
<path class="st0" d="M166.8,178.9c-2.3,1.1-4-0.4-5.5-1.3c-4.6-2.9-9-6-13.4-9.2c-0.6-0.5-0.8-1.4-1.2-2.1l0.6-0.5L166.8,178.9z"/>
<path class="st0" d="M187.7,135.1c0.1-0.5,0.1-1.1,0.3-1.3c4.7-5.4,7.9-11.6,10.9-18.5C200.9,118.9,192.7,132.6,187.7,135.1z"/>
<path class="st0" d="M174.2,126.8c-0.1-0.5,0-1.1,0.1-1.6c1.9-3.5,3.9-7,5.6-10.6c1.1-2.3,1.7-4.7,2.5-7.1c0.2-0.4,0.8-0.6,1.1-0.9
	c0.3,0.4,0.8,0.9,0.8,1.2c-0.2,1.6-0.7,3.2-1.4,4.6c-2.6,4.7-5.3,9.4-7.9,14.1C174.9,126.6,174.7,126.6,174.2,126.8z"/>
<path class="st0" d="M188.8,146l14.4-18.1C204,131.1,194.4,143.6,188.8,146z"/>
<path class="st0" d="M76.2,187.7c0.7,0.4,1.3,0.8,1.9,1.4c2.4,2.9,5,5.8,6.8,9c1.1,1.9,2.6,2.9,3.9,4.3c0.3,0.5,0.6,1.1,0.8,1.7
	c-0.7-0.1-1.7,0.1-2-0.3c-1.5-1.6-2.9-3.2-4.4-5c-2.3-2.9-4.6-5.8-6.8-8.7c-0.4-0.5-0.6-1.1-0.8-1.8L76.2,187.7z"/>
<path class="st0" d="M58.2,132.4c2.6,1.3,6.9,18.8,5.3,21C61.6,146.1,59.9,139.3,58.2,132.4z"/>
<path class="st0" d="M174.2,200.4c0.8-0.1,1.7-0.1,2.5,0c1.5,0.5,2.4,4.8,1.4,6c-0.8,0.8-1.4,1.8-2.3,2.9l2.6,0.8
	c0.1,0.2,0.2,0.5,0.3,0.6l-5.5,2.8c0.1-1.1-0.1-1.6,0.1-1.7c3-1.6,1.8-3.8,0.9-5.9C176.7,203.7,176.8,202.6,174.2,200.4z"/>
<path class="st0" d="M187.9,197.2c0.4-3.2,12.6-12.8,16.5-12.5L187.9,197.2z"/>
<path class="st0" d="M188.8,200.9c0-2.9,10.3-10.7,14.6-11.2c-0.4,0.8-0.6,1.5-1.1,1.8c-4.2,3.1-8.5,6.1-12.8,9.2
	C189.4,200.8,189.1,200.9,188.8,200.9z"/>
<path class="st0" d="M154.1,168.7c-4.7-5.2-10.4-7.5-16.6-9.2c0.9-1.4,1.1-1.4,3.2-0.7C150.3,162.4,154.5,165.4,154.1,168.7z"/>
<path class="st0" d="M149.8,219.1c0.6-1.1,1.1-2.1,1.8-3.1c0.4-0.4,0.8-0.8,1.2-1.1c0.2,0.6,0.5,1.3,0.3,1.7c-0.9,2.3-2,4.4-3,6.5
	c-0.3,0.5-0.8,0.9-1.3,1.1c-0.2,0.1-0.6-0.7-1.1-1c-0.6-0.5-1.3-1-2-1.3c-1.8-0.5-3.4-1.5-4.6-2.9c0.2-0.2,0.2-0.5,0.4-0.8l7.7,3.5
	V219L149.8,219.1z"/>
<path class="st0" d="M172.8,123.2l2.4-6.5c1-2.6,2-5.3,3-7.9c0.2-0.5,0.9-0.8,1.4-1.1c0.2,0.5,0.8,1.2,0.6,1.5
	c-2,4.6-4.2,9.1-6.3,13.7c-0.1,0.2-0.5,0.4-0.7,0.5L172.8,123.2z"/>
<path class="st0" d="M181.7,164.8c0.8-0.5,1.6-0.9,2.3-1.4c4-2.9,7.9-5.7,11.9-8.5c0.4-0.3,1.1-0.2,1.6-0.2
	c-0.2,0.5-0.2,1.2-0.5,1.5c-4.4,3.2-8.9,6.5-13.4,9.6c-0.2,0.2-0.8-0.1-1.2-0.1L181.7,164.8z"/>
<path class="st0" d="M53.5,122.7c2.5,3.7,5.2,16.8,3.8,18.2c-0.5-1.6-0.9-3.1-1.3-4.6c-1-3.7-2-7.4-2.9-11.1
	C53,124.7,53.3,124,53.5,122.7z"/>
<path class="st0" d="M204.4,193.7c-0.5,0.7-1,1.3-1.6,1.9c-3.7,2.6-7.4,5.1-11.1,7.7c-0.4,0.2-0.8,0.5-1.3,0.7
	c0.4-2.2,10.1-9.8,13.4-10.6L204.4,193.7z"/>
<path class="st0" d="M159.1,49c0.5,0.3,0.8,0.4,1,0.5c2.9,3.3,6.5,6,8.1,10.3c0.3,0.9,2.3,1.5,0.6,2.7c-0.2,0.2-1.4-1.2-2-2
	c-2-2.6-4-5.3-5.9-8.1C160.2,51.3,159.6,50.2,159.1,49z"/>
<path class="st0" d="M86.2,204.1l11.5,8.9l-0.3,0.9c-0.8-0.2-1.6-0.1-2.2-0.5c-3-2.2-5.9-4.5-8.9-6.8c-0.5-0.5-0.8-1-1.1-1.6
	L86.2,204.1z"/>
<path class="st0" d="M198.1,184.1L185,194.3C185.2,191.3,193.9,184.3,198.1,184.1z"/>
<path class="st0" d="M166.7,31.6l11.4,12.2c-2.3,0.1-11.6-9.3-12.1-11.6L166.7,31.6z"/>
<path class="st0" d="M186.9,185.4c5-3.8,9.6-8.1,15.5-10.7l0.5,0.6l-15.2,11L186.9,185.4z"/>
<path class="st0" d="M103.7,50.6c-0.4,1.9-0.7,3.7-1.2,5.5c-0.6,2.2-1.4,4.4-2.1,6.5c-0.2,0.5-0.8,0.9-1.2,1.3
	c-0.2-0.5-0.5-1.1-0.5-1.6c0.8-3.2,1.6-6.3,2.6-9.5c0.4-0.9,0.9-1.7,1.6-2.5L103.7,50.6z"/>
<path class="st0" d="M112,142.5c0.6,1.4,1.4,2.8,1.7,4.2c0.5,3.3,2.1,6.1,3.7,8.9c0.2,0.4-0.2,1.1-0.2,1.7c-0.5-0.3-1.1-0.5-1.4-0.8
	c-1.7-3.7-3.2-7.3-4.7-11c-0.3-0.8,0.1-1.8,0.2-2.8L112,142.5z"/>
<path class="st0" d="M71.3,182.3c0.6,1.4,1.1,2.7,1.8,4.1c1.1,2.1,2.3,4.1,3.2,6.2c0.2,0.6,0.2,1.2,0.2,1.8
	c-0.5-0.2-1.3-0.3-1.4-0.7c-1.7-3-3.3-5.9-4.8-9c-0.3-0.6,0.2-1.5,0.2-2.3L71.3,182.3z"/>
<path class="st0" d="M178.8,178.7c2.2-3.5,10.1-8.6,12.2-7.4l-11.8,8L178.8,178.7z"/>
<path class="st0" d="M115.8,144.6c0.5,1,1.4,1.9,1.4,2.9c0.3,4.2,3.8,5.7,6.4,8c0.4,0.5,0.8,0.9,1.1,1.4c-0.7,0-1.7,0.4-2,0.1
	c-2.9-2.3-5.3-4.8-6.5-8.3c-0.3-0.8-0.9-1.7-1.2-2.5c-0.1-0.5,0-1.1,0.2-1.5L115.8,144.6z"/>
<path class="st0" d="M167.4,219.8l-12.9,2l-0.7-0.5c0.3-0.9,0.8-1.8,1.3-2.6c0.2-0.2,1.3,0.5,2,0.6c0.9,0.2,1.9,0.3,2.8,0.3
	c2.5-0.2,5-0.5,7.4-0.7C167.4,219.1,167.4,219.5,167.4,219.8z"/>
<path class="st0" d="M89.7,74.2c-0.8,4.1-3,7.7-5.3,11.1c-0.2,0.3-0.9,0.4-1.4,0.5c0-0.5-0.3-1.2-0.1-1.7c1.5-3,3.1-5.9,4.7-8.9
	c0.5-0.6,1-1.2,1.6-1.7L89.7,74.2z"/>
<path class="st0" d="M107.2,153.8l-0.6-1.1c0.2-0.7,0.3-1.4,0.5-2.1c0.7,0.4,1.3,0.9,1.7,1.5c1.5,2.4,2.9,4.9,4.4,7.4
	c0.2,0.5,0.4,1.1,0.5,1.7l-0.8,0.4C111,159,109.1,156.3,107.2,153.8z"/>
<path class="st0" d="M193.8,206.2c-0.2-2.6,5.5-7.2,9.3-7.7C203,199.5,197.5,204.3,193.8,206.2z"/>
<path class="st0" d="M207.5,58.5c2.4,2.2,2.9,17.7,0.4,20.7L207.5,58.5z"/>
<path class="st0" d="M203.9,57.1c2.3,1.7,2.6,14.6,0.4,18.4c-0.4-0.7-0.9-1.4-0.8-1.9c0-5.2,0.1-10.4,0.1-15.7
	C203.6,57.7,203.7,57.4,203.9,57.1z"/>
<path class="st0" d="M200.6,74c-0.3-0.8-0.5-1.5-0.6-2.4c0-4.5,0.2-9,0.3-13.5c0-0.4,0.1-0.9,0.2-1.4c1.5,1.6,1.9,13.9,0.7,17
	L200.6,74z"/>
<path class="st0" d="M212,74.6l-0.6-16.7C213.8,59.8,214.4,71,212,74.6z"/>
<path class="st0" d="M217.6,64.7c0.2,6.3,0.9,12.5-0.4,18.8h-0.8l0.1-18.8H217.6z"/>
<path class="st0" d="M196.7,58c2.3,1.4,2.6,8.7,0.8,12.1C196.6,69.4,196.1,62.1,196.7,58z"/>
<path class="st0" d="M98.4,59.1c-1.2,4.4-1.7,9.1-4.8,12.8l-0.8-0.3c0.4-1.3,0.8-2.6,1.2-3.9c0.8-2.3,1.4-4.4,2.3-6.6
	c0.5-0.9,1.1-1.7,1.7-2.4L98.4,59.1z"/>
<path class="st0" d="M179.8,80c-1.9-3.8-3.7-7.4-5.7-11.4c0.7,0.2,1.4,0.4,2,0.7C178.5,71.3,180.6,77.7,179.8,80z"/>
<path class="st0" d="M104.3,55.8c0-3.8,1-7.4,3.8-10.1C107.4,49.2,107.2,52.9,104.3,55.8z"/>
<path class="st0" d="M176.8,64.2c-0.7-0.4-1.4-0.8-2-1.4c-1.9-2.2-3.8-4.4-5.6-6.7c-0.2-0.4-0.3-0.8-0.2-1.2c0-0.2,0.8-0.3,1-0.2
	c2.3,2.8,4.7,5.6,6.9,8.3C177,63.2,177,63.4,176.8,64.2z"/>
<path class="st0" d="M138.4,193.3c-0.4,0.5-0.5,0.8-0.7,0.9c-0.2,0.2-0.5,0.3-0.7,0.4c-2.7-1.8-5.2-3.5-7.6-5.2
	c-0.5-0.4-0.8-0.8-1.1-1.4c0.6-0.1,1.4-0.4,1.9-0.1C133,189.6,135.7,191.4,138.4,193.3z"/>
<path class="st0" d="M57.3,121.9c-2-0.5-3.6-7.1-2.7-10.8C55.7,111.6,57.6,118.9,57.3,121.9z"/>
<path class="st0" d="M104.4,133.6c0.5-2.1,1-4.2,1.7-6.3c0.6-1.2,1.4-2.3,2.4-3.3c0.2-0.3,0.9-0.2,1.4-0.2c0,0.5,0.2,1.2-0.1,1.4
	c-2,1.8-3.2,4-3,6.8C106.8,133.4,105.8,134,104.4,133.6L104.4,133.6z"/>
<path class="st0" d="M179.1,65.2l4.4,10.7c-2.6-0.8-6.1-8.9-5.2-10.5L179.1,65.2z"/>
<path class="st0" d="M126.9,247.8l8.1,6.4C132.6,255.6,127.5,252,126.9,247.8z"/>
<path class="st0" d="M75.6,46.1c0.8-1.3,1.3-2.3-0.8-2.6l2.6-2.5l0.5,0.2c-0.2,0.8-0.5,1.5-1,2.9c0.9-0.7,1.3-0.9,1.7-1.3
	c1-0.9,2-2,3-2.9c0.4-0.2,0.8-0.2,1.2,0c0.2,0.3,0.3,0.6,0.2,0.9c-2,1.8-4.1,3.5-6.2,5.3C76.7,46.5,76.3,46.2,75.6,46.1z"/>
<path class="st0" d="M191.5,54.9c-2.9-1.5-5.7-2.9-8.5-4.5c-0.4-0.2-0.5-0.8-0.8-1.3c0.5-0.2,1.1-0.7,1.4-0.5
	c2.9,1.7,5.6,3.5,8.5,5.3C191.8,54.2,191.7,54.5,191.5,54.9z"/>
<path class="st0" d="M107.3,136.7l3,10.6l-0.8,0.5c-0.5-0.5-1.1-0.9-1.2-1.4c-0.8-2.4-1.5-4.8-2.1-7.2c-0.2-0.8,0.2-1.6,0.3-2.4
	L107.3,136.7z"/>
<path class="st0" d="M87.9,123.2c-0.3-1.3-0.7-2-0.5-2.6c0.7-2.2,1.5-4.3,2.4-6.4c0.2-0.4,1-0.5,1.5-0.8c0.2,0.5,0.5,1,0.4,1.4
	c-0.8,2.3-1.7,4.4-2.5,6.6C88.8,122,88.4,122.6,87.9,123.2z"/>
<path class="st0" d="M186.6,97.5l-4.1-7.7l0.7-0.7c0.8,0.6,2.1,1.1,2.3,1.8C186,93,188.5,94.6,186.6,97.5z"/>
<path class="st0" d="M137.6,238.5l8.5,3.8C143.6,243.8,139.2,241.8,137.6,238.5z"/>
<path class="st0" d="M171.5,73.1c0.4-1.3,1.2-2,2.1-0.8c1.3,1.8,2.5,3.6,3.5,5.6c0.2,0.4-0.2,1.1-0.2,1.7c-0.5-0.4-1.4-0.6-1.5-1.1
	C174.7,76.4,173.4,74.4,171.5,73.1L171.5,73.1z"/>
<path class="st0" d="M146.3,213.1c-2-0.2-6.6-4.8-6.6-7.1c1.1,0.9,1.8,1.6,2.6,2.3s1.7,1.3,2.4,2c0.8,0.8,1.4,1.4,2.2,2.2
	L146.3,213.1z"/>
<path class="st0" d="M90.3,63.9c0.1,0.8,0.1,1.5,0,2.3c-0.8,2.1-1.7,4.1-2.6,6.2c-0.2,0.3-0.5,0.5-0.8,0.7c-0.2-0.3-0.8-0.7-0.7-1
	c0.2-0.9,0.4-1.8,0.8-2.6c0.8-1.9,1.7-3.7,2.4-5.6H90.3z"/>
<path class="st0" d="M186.4,168.1l7.9-6.3C194.5,164.5,189.2,168.1,186.4,168.1L186.4,168.1z"/>
<path class="st0" d="M176.5,58.1c3.2,0.4,6.4,5,5.6,7.7C180.3,63.3,178.5,60.9,176.5,58.1z"/>
<path class="st0" d="M185.6,84.6c3.5,1.4,3.8,4.8,5.8,7C188.8,91,185.8,87.5,185.6,84.6z"/>
<path class="st0" d="M124.5,13.9c-0.4,0.4-0.8,1-1.2,1.1c-1.7,0.3-3.5,0.5-5.2,0.6c-0.4,0-0.8-0.7-1.3-1c0.5-0.5,0.9-1.2,1.4-1.2
	c2-0.2,4.1-0.1,6.1-0.1L124.5,13.9z"/>
<path class="st0" d="M186.4,168.1c-0.1,0.4,0,0.9-0.2,1.1c-2.6,1.8-5.2,3.6-7.8,5.4c-0.2-0.2-0.2-0.3-0.4-0.5
	C180.4,171.5,182.6,168.6,186.4,168.1L186.4,168.1z"/>
<path class="st0" d="M112.1,218.1c0.2,0.9,0.5,1.5,0.3,2c-0.3,0.6-0.7,1.2-1.1,1.7c-0.4,0.7-0.9,2-1.1,1.9c-0.9-0.2-1.8-0.7-2.5-1.3
	c-0.2-0.2,0.2-1.1,0.4-1.7c1.7,0.9,2.1-0.5,2.7-1.5C111,218.8,111.4,218.7,112.1,218.1z"/>
<path class="st0" d="M51.8,110.5c0.5,2.5,1.1,5,1.5,7.5c0.1,0.4-0.4,0.9-0.6,1.4c-0.4-0.4-1.1-0.7-1.2-1.1c-0.4-1.9-0.7-3.8-0.9-5.6
	c0-0.7,0.1-1.4,0.3-2.1h0.9V110.5z"/>
<path class="st0" d="M116.4,90.6c0.8-0.3,1.5-0.5,2.3-0.8c1.6-0.3,3.2-0.5,4.8-0.7c0.4-0.1,0.8,0.4,1.3,0.6
	c-0.2,0.3-0.5,0.9-0.8,0.9c-2.1,0.5-4.3,0.8-6.5,1.1c-0.3,0.1-0.7-0.2-1-0.4L116.4,90.6z"/>
<path class="st0" d="M137.3,161.5c-2.9,1.7-5.9,0.5-8.7-0.7h8.7V161.5z"/>
<path class="st0" d="M184,97.8c-2.6-0.6-4.4-4.1-3.8-7.1C183.1,92.3,182.6,95.4,184,97.8z"/>
<path class="st0" d="M79.8,198c1.3,1.4,2.6,2.7,3.8,4.1c0.3,0.4,0.2,1.1,0.2,1.6c-0.5-0.2-1.1-0.1-1.4-0.4c-1.1-1-2.2-2.1-3.2-3.3
	c-0.4-0.5-0.2-1.3-0.2-2L79.8,198z"/>
<path class="st0" d="M101,33.6c-2.1,0.7-4.2,1.4-6.4,1.9c-0.3,0.1-0.8-0.3-1.1-0.6c0-0.1,0.3-0.9,0.5-0.9c2-0.5,4-1.1,6-1.4
	c0.3-0.1,0.7,0.3,1,0.5C101,33.3,101,33.4,101,33.6z"/>
<path class="st0" d="M181.8,204c-0.1,0.8-0.2,1.6-0.3,2.3c-0.1,0.4-0.6,0.6-0.8,0.9c-0.3-0.3-0.8-0.6-0.8-1c-0.2-1.5-0.3-3-0.2-4.5
	c0-0.5,0.8-0.8,1.1-1.3c0.4,0.5,0.8,0.8,1,1.3C181.8,202.6,181.8,203.4,181.8,204z"/>
<path class="st0" d="M164.8,175c-2.9,0-4.9-1.3-6.7-3.8C159.5,170.7,163.4,172.9,164.8,175z"/>
<path class="st0" d="M179.4,102.4c-0.8-0.8-1.7-4.7-1.2-5.6c0.2-0.2,0.7-0.5,0.9-0.5c0.5,0.2,1.1,0.6,1.1,0.9
	c0.1,1.7,0.1,3.4,0.1,5.1L179.4,102.4L179.4,102.4z"/>
<path class="st0" d="M152.9,97c2.1-0.9,4.2-1.8,6.4-2.6c0.4,0,0.8,0.2,0.9,0.5c0.1,0.4,0,1.2-0.2,1.3c-2.3,0.8-4.5,1.4-6.8,2.1
	C153.2,97.8,153.1,97.4,152.9,97z"/>
<path class="st0" d="M99.2,104.5l7.2-3.9C105.8,103.2,101.4,105.5,99.2,104.5z"/>
<path class="st0" d="M150.4,228.4c-2.2,1-4,0.3-5.3-2C147.5,225.4,149.1,226,150.4,228.4z"/>
<path class="st0" d="M174.6,55.3c-1.2-1.7-2.4-3.5-3.6-5.1l0.6-0.8c0.8,0.6,1.9,1,2.4,1.7c0.6,1.2,1.1,2.4,1.5,3.8L174.6,55.3z"/>
<path class="st0" d="M185.5,222.4c0.8,1.1,1,5.9,0.3,6.5c-0.2,0.2-0.9,0.3-1,0.2c-0.3-0.5-0.8-1.1-0.8-1.6
	C184.3,225.9,184.9,224.3,185.5,222.4z"/>
<path class="st0" d="M161.4,233.3c1.4-0.2,2.9-0.5,4.3-0.6c0.3,0,0.8,0.6,1.1,1.1c0.1,0.2-0.5,0.8-0.8,0.8c-1.4,0.1-2.9,0.1-4.4,0.1
	C161.5,234.2,161.4,233.8,161.4,233.3z"/>
<path class="st0" d="M115.3,163.8l6.8,1.1C119.3,166.9,116.4,166.3,115.3,163.8z"/>
<path class="st0" d="M193.4,85.1c-1.3-1.2-2.6-2.4-3.8-3.7c-0.2-0.2-0.1-0.9,0.2-1.3c0.3-0.2,0.7-0.3,1-0.2c1.2,1.4,2.3,2.8,3.5,4.2
	L193.4,85.1z"/>
<path class="st0" d="M196.5,81.2c-1.7-1.4-3.4-2.7-5-4.1c-0.2-0.2-0.2-0.8,0-1.2c0.3-0.2,0.7-0.2,1-0.1c1.6,1.6,3.1,3.2,4.6,4.9
	L196.5,81.2z"/>
<path class="st0" d="M125.1,207.8c1.7,1.7,3,3.1,4.3,4.4C126.8,212.6,124.5,210.1,125.1,207.8z"/>
<path class="st0" d="M181.4,182.6c0.4-2.2,1.4-3.1,4.6-4.1C186.3,180.4,186.3,180.4,181.4,182.6z"/>
<path class="st0" d="M66.5,172.3c0.9,1.4,2,2.9,2.8,4.4c0.2,0.4-0.2,1.1-0.2,1.6c-0.4-0.3-1-0.5-1.2-0.9c-0.8-1.4-1.5-3-2.2-4.5
	L66.5,172.3z"/>
<path class="st0" d="M142.7,77.8c1.1-1.1,2.3-2.3,3.5-3.5c0.2-0.2,1,0.2,1,0.2c0,0.5,0,1.1-0.3,1.4c-1.1,0.9-2.3,1.7-3.4,2.5
	L142.7,77.8z"/>
<path class="st0" d="M135.8,75.1c1.7-1.7,3.5-3.5,5.3-5.3l0.8,0.8l-5.3,5.3L135.8,75.1z"/>
<path class="st0" d="M115.3,182h6.2v0.8h-6.2V182z"/>
<path class="st0" d="M122.6,160.9c0.2-0.4,0.5-0.8,0.7-1.1c1.4,0.2,2.6,0.5,4,0.7c0,0-0.2,0.8-0.2,1.1L122.6,160.9z"/>
<path class="st0" d="M73.1,180.8c-2.6-0.6-1.5-3-2.6-4.4l0.9-0.5c0.8,1.4,1.6,2.9,2.4,4.4L73.1,180.8z"/>
<path class="st0" d="M184.9,62.2c-0.9-0.9-1.7-1.9-2.5-2.9c-0.2-0.2,0.3-0.9,0.5-1.4c0.4,0.2,1,0.2,1.2,0.5c0.7,1,1.2,2.1,1.8,3.2
	L184.9,62.2z"/>
<path class="st0" d="M148.4,258.2l-3.7-1c0.2-0.7,0.3-1.9,0.7-2C147,255,147.8,256.1,148.4,258.2z"/>
<path class="st0" d="M75.1,177.3c-2.6-1.6-3.1-3.2-1.4-5.6C74.2,173.7,74.7,175.3,75.1,177.3z"/>
<path class="st0" d="M144.7,236.5c-2.4,1-4.8-0.3-5-2.8L144.7,236.5z"/>
<path class="st0" d="M153.4,256.9h4.7v0.9h-4.7C153.4,257.5,153.4,257.2,153.4,256.9z"/>
<path class="st0" d="M124.5,146.8l1.6-4.3C127.7,144.9,127.3,146,124.5,146.8z"/>
<path class="st0" d="M140.8,77.4c-1.3,1-2.6,2-3.9,3l-0.8-0.9l3.7-3.2L140.8,77.4z"/>
<path class="st0" d="M151.3,44.1c-2.3-0.4-2.9-1.7-3.5-3.1c0-0.4,0.1-0.7,0.4-0.9c0.4-0.1,0.8,0,1,0.2
	C149.8,41.4,150.4,42.6,151.3,44.1z"/>
<path class="st0" d="M133.3,221.9c0.5,0.3,1.1,0.7,1.5,1.1c0.5,0.5,0.8,1.1,1.2,1.8c0,0-0.5,0.5-0.6,0.5c-0.8-0.4-1.6-0.8-2.3-1.4
	c-0.3-0.3-0.2-1-0.3-1.5L133.3,221.9z"/>
<path class="st0" d="M103.2,182.9c-2.4,0.4-5.3-0.8-6.2-3.2L103.2,182.9L103.2,182.9z"/>
<path class="st0" d="M184.3,218.1c-1.1,0.8-2,1.4-2.9,1.9c-0.4,0.1-0.8,0-1.1-0.2c-0.2-0.2-0.3-0.5-0.2-0.8
	C180.5,217.9,182.7,217.3,184.3,218.1z"/>
<path class="st0" d="M99.8,99.9l4.8-2l0.5,1l-4.6,2.2L99.8,99.9z"/>
<path class="st0" d="M120.6,147.9l3.3,4.2l-0.9,0.7l-3.2-4.2L120.6,147.9z"/>
<path class="st0" d="M96.2,50.3c0.1-1.3,0.1-2.6,0.2-3.8c0-0.2,0.7-0.5,0.9-0.4c0.2,0.2,0.7,0.6,0.6,0.8c-0.2,1.2-0.5,2.4-0.8,3.5
	L96.2,50.3z"/>
<path class="st0" d="M177.6,251.5l-3.6,2.8C174,251.9,175.1,251,177.6,251.5z"/>
<path class="st0" d="M103.1,182.9c1,0,2,0.1,3,0.2c0.4,0.1,0.6,0.9,0.9,1.4c-0.5,0.2-1.1,0.6-1.4,0.5
	C104.8,184.4,104,183.6,103.1,182.9L103.1,182.9z"/>
<path class="st0" d="M122.7,240.5l2.9,4.1C123.2,244.4,122.2,243.2,122.7,240.5z"/>
<path class="st0" d="M131.5,232.3l2.5,3.7C131.3,236.1,130.4,234.7,131.5,232.3z"/>
<path class="st0" d="M113.7,97.7c-0.8,0.4-1.5,0.6-2.3,0.7c-0.5,0-1.1-0.5-1.7-0.8c0.5-0.3,1-0.9,1.5-0.9c0.8,0.1,1.7,0.2,2.4,0.5
	L113.7,97.7z"/>
<path class="st0" d="M139.8,222.1l3.8,3.3C140.2,225.4,139.5,224.7,139.8,222.1z"/>
<path class="st0" d="M134.4,218.2l-2.9-2.6c0.3-0.2,0.6-0.5,0.9-0.7c0.8,1,1.7,2,2.5,3L134.4,218.2z"/>
<path class="st0" d="M90,17l3.6-1.6l0.3,0.8c-0.7,1.7-1.7,2.4-3.6,1.7L90,17z"/>
<path class="st0" d="M57.9,124.5c0.2,1.3,0.4,2.6,0.5,3.8l-0.8,0.2c-1.3-1.1-1.1-2.5-0.5-4H57.9z"/>
<path class="st0" d="M129.1,206.3l3.2,3l-0.7,0.8l-3.4-2.9L129.1,206.3z"/>
<path class="st0" d="M109.8,49.2c0.8-1.8,1.4-3.1,2-4.7C112.7,47,112.3,48,109.8,49.2z"/>
<path class="st0" d="M108.3,212c-0.4,0.4-0.8,0.7-1.3,1c-0.8-0.8-1.6-1.5-2.4-2.3c0.2-0.2,0.7-0.8,0.8-0.7
	C106.4,210.5,107.2,211.2,108.3,212z"/>
<path class="st0" d="M127.6,222.4l3.7,3.1C129.3,226.3,127.9,225.3,127.6,222.4z"/>
<path class="st0" d="M126.6,226.2l2,3.3l-1,0.6l-2.2-3.2L126.6,226.2z"/>
<path class="st0" d="M155,239.7c-1.1,0-2.2,0-3.2-0.1c0,0,0-0.8,0-1.2h3.2C155,238.9,155,239.3,155,239.7z"/>
<path class="st0" d="M167.1,49.4c-0.4,0.4-0.8,0.7-1.1,1c-0.8-0.7-1.4-1.4-2.1-2.3c0.2-0.3,0.5-0.6,0.7-0.8
	C165.5,47.9,166.2,48.6,167.1,49.4z"/>
<path class="st0" d="M111.6,208.3c-0.8-1-1.5-1.8-2.1-2.6c-0.1-0.1,0.5-0.5,0.8-0.8c0.8,0.8,1.5,1.4,2.2,2.2
	C112.2,207.5,111.9,207.9,111.6,208.3z"/>
<path class="st0" d="M135,211.5l2.6,3.3C135.1,215,134.4,214.1,135,211.5z"/>
<path class="st0" d="M113.1,226l2.6,2.5c-0.2,0.2-0.5,0.5-0.8,0.8c-1.7-0.1-1.8-1.6-2.3-2.7L113.1,226z"/>
<path class="st0" d="M135.6,69.1l2.1-2.7c1.4,2.4-0.2,2.7-1.4,3.2L135.6,69.1z"/>
<path class="st0" d="M125.4,213.3c-0.2,0.2-0.5,0.4-0.8,0.5c-0.9-0.7-1.8-1.4-2.7-2.1c0,0,0.4-0.5,0.6-0.8L125.4,213.3z"/>
<path class="st0" d="M123.5,219.3c-0.5-1-1.1-1.9-1.6-2.9c0.2-0.2,0.5-0.4,0.8-0.6l1.9,2.9L123.5,219.3z"/>
<path class="st0" d="M117.7,211c-1.8,0.6-2.7,0-2.9-1.4c-0.1-0.2,0.4-0.5,0.6-0.8L117.7,211z"/>
<path class="st0" d="M156.7,225.1c0.8-0.5,1.7-0.8,2.5-1.2c0.1,0,0.5,0.8,0.8,1.1l-2.6,1.2L156.7,225.1z"/>
<path class="st0" d="M113.1,95.1l-4.2,0.5C110,93.3,110.4,93.3,113.1,95.1z"/>
<path class="st0" d="M161.4,229.9c-1.1,0-2.2,0-3.2-0.1c-0.1-0.3-0.1-0.7-0.1-1c1.1-0.2,2.1-0.3,3.2-0.4
	C161.4,228.9,161.4,229.4,161.4,229.9z"/>
<path class="st0" d="M101.5,96l3.9-1.7l0.5,1.1l-4,1.4L101.5,96z"/>
<path class="st0" d="M149.3,77.5c0.8-0.7,1.6-1.3,2.4-1.9c0.2,0.3,0.5,0.5,0.7,0.8c-0.8,0.7-1.5,1.4-2.3,2L149.3,77.5z"/>
<path class="st0" d="M136.6,208.8l1.8,2.5c-0.4,0.2-0.9,0.6-1,0.5c-0.7-0.8-1.3-1.5-1.9-2.3L136.6,208.8z"/>
<path class="st0" d="M140.4,166.5c2.6-2,3.3,0.8,4.9,0.9l-0.2,0.7L140.4,166.5z"/>
<path class="st0" d="M116.4,222.1l-2,2.9l-1-0.6l1.7-2.9L116.4,222.1z"/>
<path class="st0" d="M119.8,186.7l-2.9-0.3c0.1-0.5,0.2-0.9,0.3-1.4c0.9,0.1,1.9,0.2,2.8,0.5C119.9,185.9,119.9,186.3,119.8,186.7z"
	/>
<path class="st0" d="M140.4,201.1l2,2.3c-1.4,1.6-2-0.2-2.7-0.6c-0.3-0.2-0.1-1.1-0.2-1.7H140.4z"/>
</svg>
