<?xml version="1.0" encoding="utf-8"?>
<!-- Generator: Adobe Illustrator 24.0.0, SVG Export Plug-In . SVG Version: 6.00 Build 0)  -->
<svg version="1.1" id="Layer_1" xmlns="http://www.w3.org/2000/svg" xmlns:xlink="http://www.w3.org/1999/xlink" x="0px" y="0px"
	 viewBox="0 0 300 300" style="enable-background:new 0 0 300 300;" xml:space="preserve">
<style type="text/css">
	.st0{fill:#231F20;}
</style>
<title>Artboard 4_1</title>
<path class="st0" d="M73.2,38.3c-0.4-3.1-1.2-6.2-2.3-9.1c-1.1-3-3.1-5.6-5.7-7.4c-2.4-1.6-5.3-1.7-8.6-0.3c-2.1,0.9-3.8,2.4-5,4.4
	c-1.3,2.2-2.1,4.5-2.5,7c-0.5,2.7-0.6,5.4-0.4,8c0.2,2.5,0.8,5.1,1.7,7.4c0.8,2.2,2.3,4.2,4.2,5.6c1.5,1.2,3.5,1.5,5.3,0.8
	c0.7-0.3,1.3-0.9,1.6-1.6c0.2-0.6,0.2-1.3,0-2c-0.3-0.8-0.9-1.4-1.6-1.8c-0.6-0.3-1.3-0.3-2-0.1c-0.5,0.2-0.9,0.6-1.1,1.1
	c-0.3,0.7-0.3,1.4-0.1,2.1c-0.9-0.5-1.8-1.1-2.4-2c-0.8-1-1.5-2.1-2-3.3c-0.8-2.1-1.3-4.3-1.5-6.6c-0.2-2.4,0-4.8,0.4-7.1
	c0.4-2.2,1.2-4.2,2.3-6.1c0.9-1.7,2.3-3,4-3.7c2.5-1,4.8-0.9,6.7,0.3c2.2,1.6,3.8,3.8,4.7,6.3c1.1,2.7,1.7,5.5,2.1,8.3
	c0.4,3.3,0.6,6.6,0.4,9.8c-0.1,3.5-0.5,6.9-1.2,10.3c-0.6,3.3-1.5,6.5-2.7,9.5c-1,2.7-2.5,5.3-4.2,7.6c-1.5,2-3.4,3.6-5.7,4.6
	c-1.6,0.7-3.3,1-5,1c-1.5-0.1-2.9-0.6-4.2-1.3c-1.3-0.8-2.5-1.9-3.4-3.1c-1.1-1.4-1.9-3-2.6-4.6c-1.2-3.1-2.1-6.4-2.6-9.8
	c-0.5-3.6-0.8-7.2-0.9-10.8c0-3.3,0.1-6.7,0.4-10c0.2-2.5,0.7-5,1.5-7.4c1.1-0.5,2.1-1.2,2.9-2.1c1-1,1.8-2.1,2.5-3.2
	c0.7-1.2,1.1-2.4,1.4-3.7c0.3-1.2,0.2-2.5-0.3-3.6c-0.2-0.4-0.5-0.8-1-1.1c-0.4-0.3-1.2-0.2-2.4,0.3c-1.1,0.5-2,1.2-2.8,2
	c-1,1-1.9,2.1-2.7,3.3c-0.8,1.2-1.6,2.4-2.2,3.7c-0.6,1.1-1,2.3-1.4,3.5c-1,0.3-2,0.6-3,0.7c-1.3,0.2-2.9,0.4-4.6,0.5L21.7,35
	c-2,0.2-3.9,0.4-5.7,0.6c-1.9,0.2-3.6,0.5-5.3,0.8c-1.4,0.2-2.7,0.6-4,1.1c-1.3,0.4-2.4,1.3-3.1,2.4c-0.5,1.1-0.4,2.4,0.1,3.4
	c0.2,0.6,0.7,1,1.2,1.1c0.6,0.1,1.2,0.1,1.7-0.2c0.6-0.3,1.1-0.7,1.4-1.3c0.3-0.6,0.3-1.4,0.1-2c-0.2-0.5-0.6-1-1.1-1.3
	c1.3-0.5,2.6-0.9,4-1.1c1.6-0.3,3.4-0.6,5.3-0.8c1.9-0.2,3.8-0.5,5.8-0.6s3.8-0.3,5.5-0.5s3.1-0.3,4.4-0.4c0.8-0.1,1.6-0.2,2.4-0.5
	c-0.9,2.5-1.5,5-1.9,7.7c-0.4,3.2-0.6,6.5-0.5,9.7c0.1,3.5,0.4,7,1,10.4c0.5,3.3,1.4,6.6,2.7,9.7c0.9,2.2,2,4.3,3.5,6.1
	c1.3,1.7,2.9,3.1,4.8,4.2c1.9,1,3.9,1.6,6.1,1.6c2.7,0,5.3-0.6,7.7-1.6c2.6-1.1,4.8-2.8,6.6-5.1c2-2.5,3.7-5.3,4.9-8.3
	c1.4-3.3,2.4-6.7,3-10.3c0.7-3.6,1.1-7.3,1.3-11C73.9,45.4,73.7,41.8,73.2,38.3z M42.7,29.2l1.1-2.8c0.4-0.9,0.7-1.8,1-2.6
	c0.3-0.8,0.6-1.2,0.8-1.3c0.2-0.1,0.4,0,0.6,0.3c0.2,0.6,0.2,1.3,0,1.9c-0.2,0.9-0.5,1.7-0.9,2.6s-0.9,1.7-1.5,2.5
	c-0.5,0.7-1.1,1.2-1.9,1.6C42.1,30.9,42.3,30.2,42.7,29.2L42.7,29.2z"/>
<path class="st0" d="M139.9,18c0.9-0.4,1.7-1.1,2.2-2.1c0.5-0.8,0.8-1.8,0.8-2.8c-0.1-0.3-0.1-0.6-0.3-0.9c-0.3-0.8-0.9-1.4-1.7-1.6
	c-0.8-0.2-1.7-0.1-2.4,0.2c-0.9,0.4-1.7,1-2.2,1.9c-0.6,0.9-0.6,2-0.2,3c0.3,0.9,0.9,1.7,1.8,2.2C138.5,18.3,139.2,18.3,139.9,18z"
	/>
<path class="st0" d="M185.2,7c-0.2-0.1-0.5-0.1-0.7,0c-0.4,0.1-0.7,0.5-0.7,0.9c-0.5,3-1,6.2-1.5,9.5c-0.5,3.4-1.1,6.5-1.7,9.4
	c-0.6,2.6-1.4,5.2-2.4,7.6c-0.9,2.1-2.1,3.5-3.5,4c-0.7,0.3-1.2,0-1.5-0.9s-0.5-1.9-0.5-2.9c-0.1-1.3-0.1-2.7-0.1-4.3s0-3.3,0.1-5
	c0.1-1.8,0.1-3.5,0.1-5.1s-0.1-3.1-0.2-4.5c-0.1-1.1-0.3-2.2-0.6-3.2c-0.2-0.8-0.9-1.5-1.7-1.7c-0.7-0.1-1.5,0-2.1,0.2
	c-0.8,0.3-1.5,0.7-2.1,1.2s-1.1,0.9-1.6,1.4s-0.9,0.9-1.4,1.3c-0.4,0.4-1,0.7-1.5,1c-0.5,0.2-1.1,0.4-1.7,0.5
	c-0.8,0-1.6-0.1-2.4-0.5c0.2-0.8,0.3-1.5,0.3-2.3c0.1-0.9,0-1.9-0.1-2.8c-0.1-1-0.2-2-0.4-3c-0.2-0.9-0.5-1.8-0.8-2.7
	c-0.4-1-1-1.9-1.9-2.6c-0.8-0.6-1.9-0.6-2.8-0.2c-2.3,0.8-4,2.7-4.5,5c-0.5,2.7-0.2,5.4,0.9,7.9c0.5,1.2,1.3,2.3,2.3,3.2
	c0.8,0.7,1.8,1.3,2.9,1.6c0.5,0.1,0.9,0.2,1.4,0.3c-0.2,2.3-0.6,4.9-1,7.8S152.7,34,152,37c-0.7,2.6-1.5,5.2-2.6,7.6
	c-1,2.2-2.1,3.6-3.3,4.1c-0.4,0.1-0.7-0.1-0.9-0.8c-0.5-1.3-0.8-2.6-0.9-3.9c-0.3-1.8-0.5-3.8-0.7-6s-0.2-4.5-0.3-6.8
	c0-2.3,0-4.4,0.2-6.3c0-0.3,0-0.7-0.1-1c-0.3-0.7-0.9-1.1-1.6-1.2c-0.8-0.1-1.6-0.1-2.3,0.2c-0.6,0.2-1,0.6-1.4,1.1
	s-0.5,1.1-0.4,1.6c0,0.4,0.1,0.8,0.1,1.3c-0.7,2-1.8,3.8-3.2,5.4c-1.3,1.4-2.8,2.5-4.5,3.2c0-0.4,0-0.9,0-1.6s-0.1-1.4-0.1-2.3
	c-0.1-0.9-0.2-1.7-0.4-2.6c-0.2-0.8-0.4-1.6-0.7-2.4c-0.4-1-1-1.8-1.9-2.5c-1-0.6-2.2-0.6-3.1,0c-1.9,0.6-3.5,2-4.4,3.8
	c-0.8,1.5-0.8,3.3-0.1,4.9c0.6,1.4,1.6,2.5,2.9,3.4c1.6,1.2,3.6,1.8,5.5,1.9c0.1,1.9,0.1,3.8-0.1,5.8c-0.2,2.1-0.6,4.2-1.1,6.2
	c-0.5,1.8-1.1,3.6-1.9,5.2c-0.5,1.2-1.4,2.3-2.6,2.9c-1,0.4-1.8-0.1-2.4-1.5c-0.5-1.4-0.8-2.8-1-4.2c-0.2-1.7-0.4-3.6-0.4-5.5
	s-0.1-3.8,0-5.6c0.1-1.5,0.2-3.1,0.4-4.6c0.1-0.3,0.1-0.5,0-0.8c-0.3-0.7-1-1.1-1.8-1.2c-0.9-0.2-1.8-0.1-2.7,0.3
	c-0.9,0.3-1.6,1.1-2,2c-0.3,1.1-0.5,2.3-0.5,3.4c0,0.7,0,1.5,0,2.3c-0.1,1.1-0.3,2.4-0.4,3.6c-0.4,3.1-0.9,6.1-1.6,9.2
	c-0.6,2.6-1.4,5.1-2.4,7.6c-0.9,2.1-2,3.5-3.3,4c-0.6,0.3-1.3,0.2-1.9-0.2c-0.6-0.6-1.1-1.3-1.4-2.2c-0.6-1.5-0.9-3-1.1-4.5
	c-0.3-1.8-0.4-3.6-0.5-5.6c-0.1-1.9-0.1-3.8,0-5.5c0.1-1.5,0.2-2.9,0.4-4.3c0.1-0.5,0.1-1.1-0.1-1.6c-0.2-0.7-0.8-1.2-1.5-1.3
	c-0.7-0.2-1.4-0.1-2.1,0.1c-0.5,0.2-1,0.5-1.3,0.9c-0.4,0.5-0.6,1-0.6,1.6c-0.1,2.4-0.2,4.9-0.1,7.4c0,2.4-0.1,4.7-0.4,7.1
	c-0.2,2-0.7,3.9-1.5,5.7c-0.6,1.6-1.9,2.8-3.5,3.4c-1.1,0.5-2,0-2.5-1.4s-0.8-3-0.8-4.5c-0.1-1.9,0-3.8,0.1-5.7
	c0.1-1.9,0.3-3.6,0.5-5.1S86,49,86,48.6c0-0.3,0-0.7-0.1-1c-0.3-0.7-1-1.2-1.7-1.2c-0.8-0.1-1.7,0-2.4,0.3c-0.8,0.2-1.5,0.9-1.6,1.7
	L80,52.9c-0.1,1.7-0.1,3.3,0,5s0.2,3.3,0.5,5c0.2,1.5,0.6,2.9,1.1,4.3s1.5,2.6,2.8,3.4c1.2,0.6,2.8,0.6,4.7-0.2
	c0.9-0.3,1.7-0.9,2.4-1.5c0.6-0.6,1.1-1.2,1.6-2c0.4-0.6,0.7-1.3,0.9-2c0.2-0.7,0.4-1.2,0.6-1.6l0.8,1.9c1,2.5,2.4,4.1,4.2,4.7
	c1.7,0.6,3.5,0.5,5.2-0.2c1.3-0.6,2.5-1.6,3.3-2.9c1-1.5,1.9-3.2,2.5-5c0.7-2,1.3-4.1,1.8-6.2c0.3-1.3,0.5-2.6,0.7-3.9
	c0.3,1.8,0.8,3.6,1.5,5.3c0.6,1.5,1.5,2.9,2.8,3.9c1.2,0.9,2.7,0.9,4.4,0.2c1.9-0.8,3.5-2.1,4.6-3.9c1.2-1.9,2-3.9,2.6-6
	c0.6-2.3,1-4.6,1.3-6.9c0.2-2.4,0.3-4.5,0.4-6.5c1.5-0.6,2.8-1.4,4-2.5c1.2-1,2.2-2.1,3.2-3.3l0.4-0.5c0,1.5,0.1,3.2,0.2,5
	c0.1,2.3,0.3,4.7,0.6,7c0.2,2,0.7,4,1.4,5.9c0.4,1.2,1.2,2.1,2.2,2.8c1.2,0.5,2.5,0.5,3.7-0.1c1.6-0.8,3-2,4-3.5
	c1.2-1.9,2.2-4,3-6.1c0.8-2.4,1.5-4.8,2.1-7.3c0.5-2.6,1-5,1.3-7.2s0.5-4.1,0.6-5.6c0.1-0.9,0.1-1.5,0.1-1.9l0.1-0.1
	c1.3-0.2,2.5-0.5,3.6-1c2.1-0.9,4-2.2,5.7-3.8c-0.2,1.3-0.4,3-0.5,4.9s-0.3,3.9-0.2,6c0,2,0.2,4,0.5,6c0.2,1.8,0.7,3.5,1.3,5.2
	c0.5,1.5,1.5,2.8,2.8,3.7c1.2,0.8,2.7,0.8,4.7,0c1.6-0.7,3-1.8,3.9-3.3c1.1-1.7,2-3.6,2.7-5.6c0.8-2.2,1.4-4.5,1.9-6.7
	c0.5-2.4,0.9-4.7,1.2-7s0.6-4.3,0.7-6.1c0.2-1.8,0.4-3.3,0.7-4.4c0.1-0.3,0.1-0.5,0-0.8C185.6,7.3,185.5,7.1,185.2,7z M126.9,30.2
	c0.1,0.7,0.2,1.5,0.3,2.2s0.1,1.4,0.2,2c0,0.5,0,0.9,0.1,1.4c-0.9-0.2-1.7-0.7-2.2-1.5c-0.6-0.7-1.1-1.6-1.4-2.4
	c-0.4-1-0.7-2.1-0.7-3.2s0.2-1.7,0.7-1.8c0.5-0.3,1.1-0.2,1.5,0c0.5,0.3,0.8,0.8,1,1.3C126.6,28.9,126.8,29.6,126.9,30.2z
	 M155.5,15.2c-0.7-0.7-1.3-1.4-1.8-2.1c-0.6-0.8-1.1-1.6-1.5-2.5c-0.5-1.1-0.8-2.3-0.9-3.5c-0.1-1.1,0.2-1.7,0.7-1.9
	c0.5-0.3,1.2-0.3,1.7,0.1c0.5,0.4,0.9,0.9,1.1,1.5c0.3,0.7,0.5,1.4,0.6,2.2s0.2,1.7,0.3,2.5c0,0.8,0,1.5,0,2.3
	C155.7,14.2,155.7,14.7,155.5,15.2z"/>
</svg>
