<?xml version="1.0" encoding="utf-8"?>
<!-- Generator: Adobe Illustrator 23.0.6, SVG Export Plug-In . SVG Version: 6.00 Build 0)  -->
<svg version="1.1" id="Layer_1" xmlns="http://www.w3.org/2000/svg" xmlns:xlink="http://www.w3.org/1999/xlink" x="0px" y="0px"
	 viewBox="0 0 300 300" style="enable-background:new 0 0 300 300;" xml:space="preserve">
<style type="text/css">
	.st0{fill:#231F20;}
</style>
<title>Artboard 6</title>
<path class="st0" d="M296.7,10.8c-0.2-0.1-0.5-0.1-0.7,0.1c-0.4,0.1-0.7,0.5-0.7,0.9c-0.4,3-0.8,6.2-1.3,9.6
	c-0.4,3.4-0.9,6.5-1.5,9.5c-0.5,2.6-1.2,5.2-2.2,7.7c-0.9,2.2-2,3.5-3.4,4.1c-0.7,0.3-1.2,0-1.5-0.9c-0.3-0.9-0.6-1.9-0.6-2.9
	c-0.1-1.3-0.2-2.7-0.2-4.3c0-1.6,0-3.3,0-5c0-1.8,0-3.5-0.1-5.1s-0.2-3.1-0.3-4.5c-0.1-1.1-0.3-2.1-0.7-3.2
	c-0.2-0.8-0.9-1.5-1.7-1.7c-0.7-0.1-1.5,0-2.1,0.3c-0.7,0.3-1.4,0.7-2.1,1.3c-0.6,0.5-1.1,1-1.5,1.4c-0.5,0.5-0.9,0.9-1.3,1.4
	c-0.4,0.4-0.9,0.8-1.5,1c-0.5,0.2-1.1,0.4-1.7,0.5c-0.8,0.1-1.6-0.1-2.4-0.4c0.2-0.8,0.3-1.5,0.3-2.3c0-0.9,0-1.9-0.1-2.8
	c-0.1-1-0.3-1.9-0.5-2.9c-0.2-0.9-0.5-1.8-0.9-2.7c-0.4-1-1.1-1.9-1.9-2.6c-0.9-0.6-1.9-0.6-2.8-0.1c-2.2,0.9-3.9,2.8-4.4,5.1
	c-0.5,2.7-0.1,5.4,1.1,7.9c0.5,1.2,1.3,2.3,2.2,3.1c0.9,0.7,1.9,1.2,3,1.5c0.5,0.1,0.9,0.2,1.4,0.2c-0.1,1.1-0.2,2.5-0.3,4.1
	c-0.1,1.8-0.4,3.8-0.6,5.9c-0.2,2.1-0.5,4.1-0.9,6.3c-0.3,2-0.7,4-1.2,5.9c-0.4,1.6-1.1,3.2-1.9,4.7c-0.6,1.1-1.5,2.1-2.6,2.6
	c-1.5,0.6-2.5,0.2-3.2-1.4c-0.6-1.5-0.9-3-0.9-4.6c-0.1-2-0.1-4,0-6.2c0.1-2.2,0.3-4.3,0.5-6.4c0.2-2.1,0.4-3.8,0.5-5.3
	c0.1-0.5,0-1-0.2-1.5c-0.2-0.7-0.9-1.1-1.6-1.1c-0.8,0-1.6,0.2-2.3,0.5c-0.7,0.3-1.3,0.7-1.9,1.1c-0.5,0.3-0.8,0.8-1.1,1.3
	c-0.3,0.8-0.6,1.7-0.8,2.6c-0.3,1.1-0.6,2.4-0.8,3.8s-0.6,2.9-1,4.4c-0.4,1.5-0.8,2.9-1.3,4.2c-0.4,1.2-0.9,2.4-1.6,3.5
	c-0.5,0.9-1.2,1.5-2,2c-0.5,0.2-1.2,0.2-1.7,0c-0.7-0.3-1.2-0.9-1.4-1.6c-0.5-1.2-0.8-2.5-1-3.8c-0.2-1.7-0.3-3.4-0.3-5.1
	c0-3.6,0.4-7.2,1.2-10.7c0.3-1.4,0.8-2.8,1.5-4.1c0.4-0.9,1.1-1.7,2.1-2.2c0.6-0.2,1.2-0.2,1.7,0.2c0.5,0.3,0.9,0.8,1.2,1.4
	c0.2,0.4,0.3,0.9,0.4,1.3c0.1,0.5,0,0.8-0.4,1c-0.2,0.1-0.5,0.1-0.8,0c-0.3-0.1-0.6,0-0.9,0.1c-0.6,0.3-1.1,0.8-1.3,1.5
	c-0.2,0.7-0.2,1.5,0.2,2.1c0.2,0.5,0.7,0.9,1.2,1.1c0.6,0.2,1.3,0.2,1.9-0.1c0.6-0.2,1-0.7,1.3-1.2c0.3-0.6,0.6-1.3,0.6-1.9
	c0.1-0.8,0.1-1.5,0-2.3c-0.1-0.8-0.3-1.5-0.6-2.2c-0.4-1-1.2-1.9-2.1-2.5c-1-0.6-2.3-0.6-3.3,0c-2.4,1.1-4.4,2.8-5.8,5
	c-1.5,2.3-2.7,4.8-3.5,7.5c-0.8,2.7-1.2,5.4-1.1,8.2c0,0.2,0,0.4,0,0.5c-0.2,1.3-0.4,2.6-0.6,4c-0.5,2.8-1.1,5.6-2,8.4
	c-0.8,2.5-1.8,5-3.1,7.2c-0.9,1.8-2.4,3.3-4.2,4.2c-0.9,0.4-1.9,0.6-2.8,0.4c-0.9-0.2-1.7-0.6-2.4-1.1c-0.8-0.6-1.5-1.3-2-2.2
	c-0.6-0.9-1.1-1.8-1.5-2.7c-0.2-0.5-0.4-1.1-0.6-1.6c-0.2-0.5-0.3-1-0.4-1.5c1.6-1.9,2.9-3.9,4-6.1c1.1-2.3,2.1-4.6,2.7-7.1
	c0.6-2.2,1-4.4,1.2-6.7c0.2-1.7,0-3.4-0.6-4.9c-0.3-0.8-0.9-1.4-1.6-1.7c-0.9-0.3-1.9-0.2-2.7,0.3c-2.4,1.1-4.4,2.9-5.7,5.2
	c-1.5,2.6-2.5,5.4-3.1,8.3c-0.3,1.7-0.5,3.4-0.6,5.1c0,0.1-0.1,0.2-0.1,0.3c-0.4,3-0.8,6.2-1.3,9.6c-0.4,3.4-0.9,6.5-1.5,9.5
	c-0.5,2.6-1.2,5.2-2.2,7.7c-0.9,2.2-2,3.5-3.4,4.1c-0.6,0.3-1.2,0-1.5-0.9c-0.3-0.9-0.5-1.9-0.6-2.9c-0.1-1.3-0.2-2.7-0.2-4.3
	s0-3.3,0-5s0-3.5-0.1-5.1c-0.1-1.6-0.1-3.1-0.3-4.5c-0.1-1.1-0.3-2.1-0.7-3.2c-0.2-0.8-0.9-1.5-1.7-1.7c-0.7-0.1-1.5,0-2.1,0.3
	c-0.7,0.3-1.4,0.7-2.1,1.3c-0.6,0.5-1.1,1-1.5,1.4c-0.5,0.5-0.9,0.9-1.3,1.4c-0.4,0.4-0.9,0.8-1.5,1c-0.5,0.2-1.1,0.4-1.7,0.5
	c-0.8,0.1-1.6-0.1-2.4-0.4c0.2-0.8,0.3-1.5,0.3-2.3c0-0.9,0-1.9-0.1-2.8c-0.1-1-0.3-2-0.5-2.9c-0.2-0.9-0.5-1.8-0.9-2.7
	c-0.4-1-1.1-1.9-1.9-2.6c-0.9-0.6-1.9-0.6-2.8-0.1c-2.2,0.9-3.9,2.8-4.4,5.1c-0.5,2.7-0.1,5.4,1.1,7.9c0.5,1.2,1.3,2.3,2.2,3.1
	c0.9,0.7,1.9,1.2,3,1.5c0.4,0.1,0.8,0.2,1.3,0.2c-0.1,0.6-0.3,1.2-0.6,1.8c-0.5,1-1,1.9-1.7,2.7c-0.7,0.9-1.6,1.8-2.5,2.5
	c-0.9,0.7-1.9,1.4-2.9,1.8c-0.5,0.2-1,0.4-1.4,0.6c-0.5,0.2-0.9,0.2-1.4,0.2c0-1,0-2.2,0-3.5c-0.1-1.5-0.2-2.9-0.5-4.3
	c-0.2-1.5-0.6-3-1-4.6c-0.4-1.5-0.9-3-1.5-4.4c-0.5-1.2-1.2-2.4-1.9-3.4c-0.7-1-1.5-1.8-2.5-2.4c-0.9-0.6-2-0.9-3.1-1
	c-1.3-0.1-2.6,0.2-3.7,0.7c-2.2,1.1-3.8,3.1-4.4,5.5c-0.9,3.2-0.9,6.6-0.1,9.8c-0.4,0.1-0.8,0.3-1.2,0.4c-1.6,0.7-3,2-3.8,3.6
	c-1,1.8-1.6,3.8-1.8,5.8c-0.2,1.9-0.2,3.9,0,5.9c-0.1,0.8-0.2,1.6-0.3,2.4c-0.2,1.7-0.6,3.4-1.1,5.1c-0.5,1.7-1.1,3.3-1.8,4.9
	c-0.6,1.4-1.5,2.8-2.5,4c0.3-0.8,0.4-1.6,0.4-2.4c0-1,0-2-0.2-3c-0.2-1.2-0.4-2.3-0.7-3.4c-0.3-1.2-0.8-2.4-1.3-3.5
	c-0.6-1.3-1.2-2.5-2-3.7c-0.7-1-1.5-2-2.5-2.8c-0.9-0.7-1.9-1.2-3-1.4c-1.1-0.2-2.3-0.1-3.3,0.4c-1.3,0.6-2.4,1.6-3.1,2.8
	c-1,1.4-1.8,3-2.3,4.6c-0.7,1.8-1.2,3.7-1.6,5.6c-0.4,2-0.8,3.9-1,5.8c-0.3,1.9-0.5,3.6-0.7,5.2c-0.2,1.6-0.3,2.8-0.4,3.7
	c-0.1-1.9-0.2-3.6-0.3-5.2s-0.2-3.2-0.2-4.7c0-1.5-0.1-3.2-0.2-4.8c-0.1-1.6-0.1-3.4-0.3-5.3c0-0.7,0.2-1.9,0.4-3.6l0.8-5.9
	c0.3-2.3,0.6-4.7,0.8-7.2s0.4-5,0.5-7.4c0.1-2.3,0.1-4.5,0-6.4c0-1.5-0.3-3-0.9-4.5c-0.3-0.7-0.8-1.3-1.4-1.7
	c-0.7-0.3-1.5-0.2-2.2,0.1c-1.6,0.8-3,2.1-3.8,3.7c-1,2-1.7,4.2-2.1,6.5c-0.4,2.8-0.7,5.6-0.6,8.5c0,3.1,0.1,6.3,0.3,9.6
	c0.2,3.3,0.5,6.6,0.9,9.9c0.3,2.7,0.7,5.3,1,7.8c-0.1,1.1-0.2,2.4-0.3,4c-0.1,1.8-0.3,3.8-0.6,5.9c-0.2,2.1-0.5,4.1-0.9,6.3
	c-0.3,2-0.8,4-1.3,5.9c-0.4,1.7-1.1,3.3-1.9,4.8c-0.6,1.1-1.5,2.1-2.6,2.6c-1.5,0.6-2.5,0.2-3.2-1.4c-0.6-1.5-0.9-3-0.9-4.6
	c-0.1-2-0.1-4,0-6.2c0.1-2.2,0.3-4.3,0.5-6.4c0.2-2.1,0.4-3.8,0.5-5.3c0.1-0.5,0-1-0.2-1.5c-0.2-0.7-0.9-1.1-1.6-1.1
	c-0.8,0-1.6,0.2-2.3,0.5c-0.7,0.3-1.3,0.7-1.9,1.1c-0.5,0.3-0.8,0.8-1.1,1.3c-0.3,0.8-0.6,1.7-0.8,2.6c-0.3,1.2-0.6,2.4-0.8,3.8
	c-0.3,1.4-0.6,2.9-1,4.4s-0.8,2.9-1.3,4.2c-0.4,1.2-0.9,2.4-1.6,3.5c-0.5,0.9-1.2,1.5-2,2c-0.5,0.2-1.2,0.2-1.7,0
	c-0.7-0.3-1.2-0.9-1.4-1.6c-0.5-1.2-0.8-2.5-0.9-3.8c-0.2-1.7-0.3-3.4-0.3-5.1c0-3.6,0.4-7.2,1.2-10.7c0.3-1.4,0.8-2.8,1.5-4.1
	c0.4-0.9,1.1-1.7,2-2.2c0.6-0.2,1.2-0.2,1.7,0.2c0.5,0.3,0.9,0.8,1.2,1.4c0.2,0.4,0.3,0.9,0.4,1.4c0.1,0.5,0,0.8-0.4,1
	c-0.2,0.1-0.5,0.1-0.8,0c-0.3-0.1-0.6,0-0.9,0c-0.6,0.3-1.1,0.8-1.3,1.5c-0.2,0.7-0.2,1.5,0.2,2.1c0.2,0.5,0.7,0.9,1.2,1.1
	c0.6,0.2,1.3,0.2,1.9-0.1c0.6-0.2,1-0.7,1.3-1.2c0.3-0.6,0.5-1.3,0.6-1.9c0.1-0.8,0.1-1.5,0-2.3c-0.1-0.8-0.3-1.5-0.6-2.2
	c-0.5-1-1.2-1.9-2.2-2.5c-1.1-0.6-2.3-0.6-3.4,0c-2.3,1.1-4.3,2.8-5.7,4.9c-1.6,2.3-2.7,4.8-3.5,7.5c-0.8,2.7-1.2,5.4-1.1,8.2
	c0,2.4,0.4,4.8,1.4,7.1c0.2,0.3,0.3,0.7,0.5,1c-0.3,1.8-0.9,3.5-1.8,5.2c-0.9,1.7-2,3.4-3.3,4.9c-2.9-3.4-7.5-7.4-13.9-12.1
	l-2.1-1.6c2.8-10.1,2.4-19.3-1.2-27.6c-1.7-4-4-6.5-6.7-7.7c-2.6-1.2-5.6-1.2-8.2,0.1c-3.6,1.4-6.3,4.4-7.3,8.2c-1,4-0.6,8.3,1.2,12
	c2.4,5.4,7.8,11.3,16.2,17.7l2.2,1.7c-3.7,9.6-9.6,16.3-17.9,19.9c-5.6,2.5-11,2.3-16-0.4c-2.7-1.5-5-3.5-6.9-6l-2,0.6
	c2.2,3,5,5.5,8.2,7.2c5.5,3,11.4,3.2,17.5,0.5c8.7-3.8,14.9-10.6,18.8-20.4c4,3,6.7,5.1,8.3,6.4c2.1,1.8,4,3.7,5.7,5.8
	c-1.8,1.6-3.4,3.3-5,5c-3,3.5-3.7,7.1-2,10.8c0.7,1.7,1.9,3,3.6,3.7c1.6,0.7,3.5,0.6,5.1-0.2c1.4-0.6,2.6-1.5,3.5-2.6
	c1-1.1,1.7-2.4,2.3-3.8c0.8-2,1.1-4.2,0.9-6.3c-0.2-2.1-0.7-4.2-1.6-6.2c-0.4-0.9-0.9-1.8-1.4-2.6c2.6-2.8,4.4-6.3,5.3-10
	c0.5,0.4,1,0.8,1.6,1.1c1.7,0.8,3.8,0.6,6.3-0.5c0.9-0.4,1.7-1.1,2.4-1.9c0.8-0.9,1.5-2,2-3.1c0.6-1.2,1.1-2.3,1.4-3.6
	c0.4-1.1,0.6-2.2,0.6-3.4c0.1,0.8,0.2,1.7,0.3,2.8c0.1,1.1,0.2,2.3,0.4,3.5s0.4,2.5,0.6,3.8c0.2,1.2,0.6,2.3,1,3.4
	c0.6,1.4,1.6,2.6,2.9,3.4c1.2,0.7,2.9,0.6,4.9-0.3c1.9-0.9,3.4-2.3,4.5-4c1.3-2.1,2.3-4.3,3-6.6c0.8-2.6,1.4-5.2,1.8-7.9
	c0.3-1.9,0.5-3.8,0.6-5.6l0.1,0.5c0.4,2.5,0.8,4.5,1,6.1c0.1,0.9,0.3,1.8,0.7,2.6c0.2,0.7,0.7,1.3,1.4,1.6c0.5,0.2,1.1,0.3,1.6,0
	c0.9-0.4,1.6-1.1,2-2c0.6-1,1-2.1,1.1-3.2c0.1-0.5,0.2-1.5,0.3-3c0.1-1.5,0.3-3.2,0.5-5.2c0.2-2,0.5-4.1,0.8-6.3
	c0.3-2.1,0.7-4.2,1.2-6.2c0.4-1.7,1-3.4,1.7-5c0.4-1.1,1.1-2.1,2.2-2.7c0.9-0.4,1.9-0.1,3,0.9c1.2,1.3,2.1,2.7,2.8,4.3
	c0.8,1.9,1.4,4,1.8,6c0.4,2.2,0.6,4.5,0.4,6.7c-0.2,2.1-0.8,4.2-1.8,6.1c-1.1,1.9-2.7,3.4-4.7,4.2c-0.9,0.5-1.9,0.5-2.8,0
	c-0.7-0.4-1.2-0.9-1.5-1.6c-0.1-0.2-0.2-0.5-0.4-0.8c-0.1-0.3-0.2-0.7-0.2-1.1c0-0.3,0-0.7,0.1-1c0.1-0.3,0.4-0.6,0.7-0.7
	c0.2,0.5,0.6,1,1,1.5c0.5,0.4,1.2,0.5,1.7,0.2c0.8-0.3,1.4-0.9,1.6-1.7c0.2-0.7,0.2-1.4,0-2c-0.3-0.6-0.9-1.1-1.5-1.3
	c-0.9-0.3-1.9-0.2-2.7,0.3c-1.3,0.5-2.3,1.7-2.6,3.1c-0.4,1.3-0.3,2.8,0.3,4.1c0.3,0.6,0.6,1.2,1,1.7c0.4,0.6,0.9,1.1,1.6,1.5
	c0.7,0.4,1.5,0.6,2.3,0.7c1.1,0,2.2-0.3,3.3-0.8c2.4-1.1,4.5-2.7,6.3-4.7c2.2-2.3,4.1-4.9,5.7-7.7c1.8-3.1,3.2-6.3,4.2-9.7
	c0.2-0.7,0.4-1.5,0.6-2.2c0.2,0.5,0.3,0.9,0.6,1.4c0.6,1.4,1.4,2.7,2.4,3.9c0.9,1.1,1.9,2,3.2,2.7c1.2,0.7,2.6,1,3.9,1.1
	c1.6,0,3.2-0.3,4.7-1c1.7-0.8,3.2-2,4.4-3.5c1.3-1.6,2.3-3.4,3.1-5.2c0.8-1.9,1.4-3.8,1.8-5.8c0.3-1.7,0.5-3.4,0.4-5.1
	c1-0.2,2-0.5,2.9-0.9c2.5-1.1,4.7-2.7,6.5-4.8c0.9-1,1.7-2.2,2.3-3.4c0.5-1,0.9-2.1,1.1-3.2c1.2-0.2,2.3-0.6,3.4-1.1
	c2.1-0.9,4-2.3,5.6-4c-0.2,1.3-0.3,3-0.4,4.9s-0.1,3.8,0,5.9c0.1,2,0.3,4.1,0.6,6.1c0.3,1.8,0.8,3.5,1.5,5.2
	c0.6,1.5,1.6,2.7,2.9,3.6c1.2,0.7,2.7,0.7,4.7-0.2c1.6-0.7,2.9-1.9,3.8-3.4c1.1-1.8,1.9-3.7,2.6-5.6c0.7-2.2,1.3-4.5,1.7-6.8
	c0.4-2.4,0.8-4.7,1-7l0.2-1.5c0.3,1.2,0.7,2.4,1.2,3.5c0.6,1.4,1.4,2.7,2.4,3.9c0.9,1.1,2,2,3.3,2.6c1.3,0.6,2.7,0.9,4.1,0.9
	c1.7-0.1,3.4-0.5,5-1.3c2-0.9,3.6-2.4,4.7-4.3c1.3-2.2,2.4-4.6,3.2-7.1c0.9-2.9,1.6-5.8,2.1-8.8l0.1-0.6c0.1,0.2,0.2,0.5,0.3,0.7
	c0.7,1.8,2,3.2,3.7,4.1c1.7,0.8,3.7,0.7,6.2-0.5c0.9-0.4,1.7-1.1,2.4-1.9c0.8-0.9,1.5-2,2-3.1c0.6-1.2,1.1-2.4,1.5-3.7
	c0.4-1.1,0.6-2.2,0.6-3.4c0.1,0.8,0.2,1.7,0.3,2.8c0.1,1.1,0.2,2.3,0.4,3.5c0.2,1.3,0.4,2.5,0.6,3.7c0.2,1.2,0.6,2.3,1,3.4
	c0.6,1.4,1.6,2.6,2.9,3.4c1.2,0.7,2.9,0.6,4.9-0.3c1.8-0.9,3.4-2.2,4.4-4c1.3-2.1,2.3-4.3,3-6.6c0.8-2.6,1.4-5.2,1.8-7.9
	c0.4-2.8,0.7-5.4,0.8-7.8c0.1-1.6,0.2-3.2,0.3-4.8c0.1-0.9,0.1-1.8-0.1-2.7l0.1-0.1c1.2-0.2,2.5-0.6,3.6-1.1c2.1-0.9,4-2.3,5.6-4
	c-0.2,1.3-0.3,3-0.4,4.9c-0.1,1.9-0.1,3.9,0,6c0.1,2,0.3,4.1,0.6,6.1c0.3,1.8,0.8,3.5,1.5,5.2c0.6,1.5,1.6,2.7,2.9,3.6
	c1.2,0.7,2.7,0.7,4.7-0.2c1.6-0.7,2.9-1.9,3.8-3.4c1.1-1.8,1.9-3.7,2.6-5.6c0.7-2.2,1.2-4.5,1.6-6.8c0.5-2.4,0.8-4.7,1-7
	s0.5-4.3,0.6-6.2s0.3-3.3,0.5-4.4c0.1-0.3,0-0.5-0.1-0.8C297.1,11.1,296.9,10.9,296.7,10.8z M209.5,49.8c0.2-2.4,0.6-4.7,1.3-7
	c0.5-2,1.3-3.9,2.1-5.7c0.8-1.6,1.4-2.5,1.8-2.6c0.7-0.3,1.2-0.1,1.6,0.7c0.4,1.2,0.5,2.6,0.3,3.9c-0.2,1.9-0.5,3.8-1,5.7
	c-0.6,2.1-1.3,4.2-2.2,6.3c-0.8,1.9-1.9,3.8-3.2,5.4C209.5,54.3,209.3,52,209.5,49.8z M109.2,77.9c-0.2-1.6-0.5-3.4-0.8-5.4
	c-0.3-2-0.5-4-0.8-6.1c-0.2-2-0.3-4-0.2-6c0-1.7,0.3-3.3,0.8-4.9c0.3-1.2,1.1-2.3,2.2-2.9c0.4-0.2,0.7,0,0.9,0.5
	c0.3,0.9,0.5,1.9,0.5,2.9c0.1,1.3,0.1,2.9,0,4.6c-0.1,1.7-0.2,3.6-0.4,5.6c-0.2,2-0.4,4-0.6,5.9c-0.2,1.9-0.4,3.7-0.7,5.4
	c-0.2,1.7-0.4,3-0.6,4.1C109.5,80.4,109.4,79.1,109.2,77.9z M31.9,100.9c-1.3-2.7-1.8-5.8-1.4-8.8c0.3-2.7,2-5,4.5-6
	c1.9-0.9,4.1-0.9,6,0.1c1.9,1,3.5,3,4.8,6c3.3,7.6,3.8,16,1.4,25.3C39.2,111.5,34.1,106,31.9,100.9z M64.6,147.4
	c-0.1,3.4-1.4,5.6-3.8,6.6c-0.8,0.3-1.6,0.3-2.4,0c-0.9-0.4-1.7-1.2-2.1-2.2c-1.3-2.9-0.7-5.7,1.8-8.6c0.8-0.9,2.2-2.4,4.3-4.4
	c0.3,0.4,0.5,0.9,0.7,1.4C64.2,142.5,64.7,145,64.6,147.4z M162.7,81.1c-0.2,1.7-0.6,3.3-1.2,4.9c-0.6,1.7-1.5,3.4-2.6,4.9
	c-1.1,1.5-2.5,2.7-4.2,3.4c-1.4,0.8-3.1,0.7-4.4-0.1c-1.4-1-2.4-2.3-3-3.9c-0.7-1.7-1.2-3.5-1.5-5.4c-0.3-2-0.5-4-0.5-6
	c0-1.9,0.3-3.7,0.7-5.5c0.3-1.5,0.9-2.8,1.8-4.1c1.2,2.9,3.3,5.3,6,6.8c2.8,1.5,6.1,1.9,9.2,1.3C162.9,78.7,162.8,79.9,162.7,81.1z
	 M163.1,74.5c-1.2,0-2.4-0.3-3.5-0.8c-1.2-0.5-2.4-1.2-3.4-2c-1.1-0.8-2.1-1.8-2.9-2.9c-0.8-1.1-1.6-2.2-2.1-3.4
	c-0.5-1.2-0.9-2.4-1-3.7c-0.2-1.2-0.2-2.4-0.1-3.5c0.1-1,0.3-1.9,0.8-2.8c0.3-0.7,0.8-1.2,1.5-1.6c1.5-0.7,3.2-0.5,4.4,0.6
	c1.5,1.3,2.6,2.9,3.4,4.7c0.5,1.2,1,2.5,1.3,3.8c0.4,1.4,0.7,2.8,0.9,4.2c0.2,1.4,0.4,2.8,0.5,4.1C163,72.4,163,73.5,163.1,74.5
	L163.1,74.5z M176.3,59.7c-0.6-0.6-1.3-1.3-1.9-2.1c-0.6-0.7-1.1-1.6-1.5-2.4c-0.5-1.1-0.8-2.3-1-3.5c-0.1-1,0.1-1.7,0.7-2
	c0.5-0.3,1.2-0.3,1.7,0c0.5,0.3,0.9,0.8,1.2,1.4c0.3,0.7,0.5,1.4,0.6,2.2c0.3,1.6,0.4,3.2,0.4,4.8C176.5,58.7,176.4,59.2,176.3,59.7
	L176.3,59.7z M267.3,19.7c-0.7-0.7-1.3-1.4-1.9-2.1c-0.6-0.7-1.1-1.6-1.5-2.4c-0.5-1.1-0.8-2.3-1-3.5c-0.1-1,0.1-1.7,0.7-2
	c0.5-0.3,1.2-0.3,1.7,0c0.5,0.3,0.9,0.8,1.2,1.4c0.3,0.7,0.5,1.4,0.7,2.2c0.2,0.8,0.3,1.7,0.3,2.5c0.1,0.8,0.1,1.6,0,2.3
	C267.4,18.7,267.4,19.2,267.3,19.7L267.3,19.7z"/>
</svg>
