<?xml version="1.0" encoding="utf-8"?>
<!-- Generator: Adobe Illustrator 23.0.6, SVG Export Plug-In . SVG Version: 6.00 Build 0)  -->
<svg version="1.1" id="Layer_1" xmlns="http://www.w3.org/2000/svg" xmlns:xlink="http://www.w3.org/1999/xlink" x="0px" y="0px"
	 viewBox="0 0 600 600" style="enable-background:new 0 0 600 600;" xml:space="preserve">
<style type="text/css">
	.st0{fill:#FF0000;}
</style>
<g>
	<path class="st0" d="M428.3,488.9c-12.8,9.5-24.9,19.9-37.9,29.3c-29.1,21-53.5,50-92,55.4c-3.2,0.1-6.5,0.1-9.7,0.2
		c-15.8-0.2-31.6-0.4-47.5-0.5l0,0l0,0c-3.9-0.5-7.8-1.4-11.6-1.4c-39.8-0.6-79.7-1.1-119.5-1.7c-4.5-0.1-9-0.3-13.6-0.4
		c-1.7-0.7-2.6,0.5-3.6,1.4c-3.1-3.5-6.9-4.2-11.3-3.2c-0.3,4.8,3.5,6,6.5,8c3.1,4.9,8.2,3.4,12.5,3.5c23.7,0.3,47.5,0.3,71.2,0.5
		c4.2,0,8.6-0.5,12,2.9c5.8,5.8,12.1,4,17.4,0.1c2.2-1.7,4.1-1,6-1.9c4.6,0,9.2,0,13.9,0l0,0c3.4,0,6.7,0,10,0
		c3.7,0.2,7.4,0.4,11.1,0.6l0,0c27.6,2.7,55.1,3.7,81.8-6.1c10.9-4,21-9.7,29.4-17.4c3.9-3.6,10.3,0.4,12.4-5.6
		c1.7-5,6-7.7,9.8-10.7c19.7-15.3,39.5-30.5,58.9-46.2c2.1-1.7,9.2-2.1,5.1-8.1C435.4,481.3,431.4,486.6,428.3,488.9z"/>
	<path class="st0" d="M521.4,400.3c-10.7-35.3-23.4-69.9-33.5-105.4c-7-24.5-20.8-37.9-46.5-38.2l0,0l0,0c-4.6-0.2-9.1-0.5-13.7-0.7
		l0,0c-11.6-3.7-23.1-1.2-34.6,0.3c3.6,0.4,7.2-0.7,10.8,0.1l0,0l0,0c-0.8,1.2-1.6,2.5-2.4,3.7c-2.3,1.1-4.7,2.2-8.3,3.8
		c4.6,0,7.7,0,10.8,0l0,0l0,0c11.5,0.8,23,1.7,34.5,2.2c15.2,0.6,26.7,7.3,31.6,21.8c12.4,36.4,23.3,73.3,36.3,109.5
		c2.3,6.5,6,15.4,1,20.8c-6.2,6.8-6,15.4-10.3,22.4c-10.3-0.2-15.2,8.5-22.2,13.7l0,0c-1.9,1.4-3.9,2.7-5.8,4.1l0,0
		c-4.1,2.9-9,5.1-11.7,9.7c-0.8,0.8-1.6,1.6-2.4,2.4c-3.9-0.2-5.9,1.9-7.4,5.5c4.4,1.2,7,0.4,8.1-3.6l0,0c2.6,3.1,5.2,3,7.6-0.2l0,0
		c5.7-1.2,10-4,11.8-9.9c3,0.4,4.8-1.2,6-3.7c8.5-3.4,16.4-7.5,17.6-18.1C515.1,437.5,526.8,418.2,521.4,400.3z"/>
	<path class="st0" d="M192.1,278.6c14.8-11,31.1-16.8,49.8-16.5c34.6,0.7,69.3-0.5,104,1.6c3.6,0.2,7.5,1.4,11.2,0.4
		c1.3-0.4,4.1,1,3.7-2.6c-0.6-5.8-13.9-14.4-17.3-10.5c-4,4.6-8.1,3.3-12.2,3.2c-14.8-0.2-29.6-0.8-44.4-1.3
		c-16.5-0.8-32.9-1.1-49.4,0.2l0,0l0,0c-27.9,1.4-49.6,15.8-70.3,32.6C178.2,291.1,185,283.9,192.1,278.6z"/>
	<path class="st0" d="M74.2,563c-3.3-3-6.3-6.4-9.4-9.7c-1.2-2.4-2.5-4.8-3.7-7.2l0,0c-1.4-3.5-2.9-6.9-4.4-10.3
		c0.8-9.1-3.7-15.9-9.4-22.2c-2.2-4.7,5-13.3-6-14.3l0,0c3.2-7.8,1.6-15.2-1.3-22.9c-4.8-12.8-8.8-25.9-13.6-38.7
		c-5.5-14.6-2.5-27.4,8.8-37.5c13.3-11.9,27.5-22.9,41.3-34.3c-6.1-5.8-11.5-1.4-16.4,1.9c-6.5,4.2-13.4,8.4-18.3,14.2
		c-8.9,10.4-25.9,12.4-28.7,29.3c-1,6.3-3.8,12.4-2.5,19c4.7,25,15.9,48,23.2,72.1c0.8,2.6,3.4,2.6,5.4,3.5
		c-1.7,5.6,0.6,10.7,2.4,15.8c-0.3,2.6,1.8,3.2,3.3,4.4c0.1,2.6,0.2,5.1,0.3,7.7c-1.2,3.9,1.4,5.8,3.9,7.8l0,0l0,0
		c-0.2,0.6-0.3,1.2-0.5,1.9c-3.5,7.5,2.2,11.4,6.2,16l0,0c0.9,5.6,4.4,9.1,10.1,11.8c-0.2-3-0.3-5.2-0.5-7.4l0,0
		c0.7-0.6,1.3-1.3,1.9-2l0,0c0.2,2.9,0.4,5.8,0.5,8.7c0.1,2,1.2,2.9,3.1,2.8c4.5-0.1,1.4-7,6.4-7C76.8,566.5,75.4,564.1,74.2,563z"
		/>
	<path class="st0" d="M82,359.1c2.5,1.7,5.3-0.1,6.2-3.5c0.8-0.1,1.7-0.2,2.5-0.2c3.3-0.9,6.2-2.3,7.8-5.6c3.9-0.6,4.9-4.6,7.8-6.5
		c2.5-0.4,4.7-1.5,6.2-3.6l0,0c2.7-1.9,6-3.1,7.7-6.2l0,0l0,0c1.4-1.2,2.9-2.4,4.3-3.7c1.2-0.8,2.4-1.5,3.6-2.3
		c8.6-6.7,17.6-12.9,25.8-20.1c5.8-5.1,14.1-9.5,11.1-20c-14.6,8.4-23.5,23.4-38.8,30.1c-2.9,1.3-1.6,3.9-2.2,5.9l0,0
		c-1.7,1-3.7,1.8-3.6,4.3l0,0l0,0c-3.9,3.9-12.1-2.4-14.3,5.9c-1.8,0.9-2.1,2.3-1.6,4.1l0,0l0,0c-0.1,1.2-0.3,2.5-0.4,3.8
		c-1.9,1.4-3.9,2.9-5.8,4.3l0,0l0,0c-3.3,1.2-6.7,2.4-10.1,3.6l0,0c-2,0.3-4.6-0.8-5.8,1.9l0,0C79.3,353.7,79.5,357.3,82,359.1z"/>
	<path class="st0" d="M375.8,264L375.8,264L375.8,264L375.8,264L375.8,264c1.3,0,2.7-0.4,3.9-0.1c7.1,2.2,6-3.8,6.2-7
		c0.4-4.8-4-1.5-6-2.3c-3.8-1.6-5.5,1.9-7.8,3.9c-2.8-0.8-4.8,0.3-4.1,3.1C369.1,266.3,373,263.7,375.8,264z"/>
	<path class="st0" d="M90,552.3c1.1,6.3,5.4,7.3,10.9,7.4c57.4,0.5,114.7,1.3,172.1,1.8c25.6,0.2,49.2-6.2,70-21.7
		c15.2-11.4,30.9-22.1,45.3-34.5c6.5-5.6,14.1-10,19.5-16.9c9.2-1.6,14.7-9,21.8-13.9c6.6-6.9,15.1-10.9,22.9-16.1
		c3.4-2.3,5.5-4.7,1.1-7.8c6.3,0.1,11.2-4,16.6-6.4c3.4-1.5,5.9-5,5-9.5c14.9-0.3,28.7-21.2,22.6-39.7
		c-10.4-31.2-19.9-62.8-30.8-93.8c-3.9-11.3-10.7-21.9-24.4-23.7c-8.3-1.1-16.4-3.7-24.9-3.5c-18.5,0.3-37,0.4-55.4-0.1
		c-6-0.1-10.5,1.2-14,5.8c-4.2,0-3.4-6.7-9.4-5.9c-9.9,1.3-20.1,0.6-30.1,0.7c-8.5-0.7-17.3-2.3-23.5,6c7.9,4.3,15.6-0.5,23.5-0.2
		c13.1,3.7,26.5,1.4,39.7,1.5c21.8,0.1,43.6-0.8,65.4,0.6c29.5,1.9,35.6,2.6,44.2,33c2.5,8.9,3,19.5,6.6,26.7
		c7.5,15.2,10.9,31.6,17.9,46.8c7.7,16.9,6,31.8-9.4,43.8c-6.4,4.1-10.7,11-18.2,13.8c-1.5,0.5-1.8,2.4-1.5,4.1
		c-11.3,3.8-20.3,10.7-27.9,19.7c-7.6,3.2-14.8,7-19.7,13.9c-1.7,0-3,0.5-4.4,1.6c-13.5,10.4-27.1,20.7-40.8,30.9
		c-10.5,7.8-21.4,15.2-31.9,23c-12.6,9.3-27.4,11.2-42.2,13.6l0,0c-2.5,0.2-4.9,0.3-7.4,0.5c-13.2-0.1-26.4-0.2-39.6-0.3l0,0
		c-25.6-3.2-51.3-0.8-76.9-1.8c-25.3-1-51.1,4.6-75.7-5.8l0,0c0.1-1.8,0.1-3.5-2.2-4.1c-8.4-10-7.6-24.8-17.8-33.7l0.3-0.3
		c7.8,0.3,2.8-3.5,2-6l0,0c-0.6-1.8-1.2-3.6-1.9-5.4l0,0c-0.8-6.5-3.8-12.4-5.2-18.8c-2.3-10.4-7.2-20.1-10.8-30.2
		c-8.6-24.1-6-33.5,14.7-49.1c25-18.9,50.5-37.1,75.4-56.1c10-7.6,21.6-13.5,29-24.3c7.1-0.8,11.5-6.1,16.4-10.1
		c21.5-17.2,44.8-28.3,73.3-25.9c8.4,0.7,16.9-0.6,24.9-3.9c0.5-1.9,1.4-3.5-2-3.9c-46.4-5.4-85.8,9.4-119,41.6l0,0
		c-19.3,14.1-38.8,28-57.8,42.4c-20.4,15.4-42.4,28.8-60.9,46.8c-9,8.8-13.4,18.7-10.2,31.8c5,21.1,14.3,40.6,20.3,61.3l0,0l0,0
		c1.2,3.3,0.9,7.1,3.5,10l0,0c0.1,1,0.2,2,0.2,3c0.1,10.1,13.7,15.8,9.1,27.6c-0.4,1,1.1,3.6,2.2,4c3.5,1.3,3.9,5.1,6.5,7
		c1.3,3.2,3.4,3.6,6.1,1.8C85.2,551.7,87.6,552,90,552.3z"/>
</g>
<path class="st0" d="M287.6,305.9c0.1-1.8-1.5-2.6-3.1-2.3c-2.4,0.5-4.9,0.3-7,1.8l0,0l0,0l0,0l0,0c-2,1.8-4,3.6-6,5.3
	c-0.9,0.3-1.5,0.9-2,1.8c-0.5,0-1,0.1-1.2,0.8c-2.4,1.1-4,2.9-5.6,4.8c-0.8,0.3-1.3,0.8-1.7,1.5c-1.1,0.8-2.1,1.6-3.2,2.5l0,0
	c-1,0.2-1.9,0.6-2.4,1.5c-0.1,0-0.2,0.1-0.2,0.2c-0.2,0.2-0.5,0.4-0.7,0.6l0,0l0,0c-0.3,0.3-0.5,0.5-0.8,0.8
	c-3.2,2.7-6.8,0.5-10.2,1c-0.9-0.8-1.8-1.4-3-1.3c-1.5-0.4-3-0.3-4.4,0l0,0l0,0c-0.5-0.1-1.1-0.2-1.7-0.2c-1.4-1-2.9-1.7-4.6-1.7
	l0,0l0,0c-4.3-0.6-8.6-1.1-13-0.7c-2.9,0.3-3.2,1.5-0.9,3.3l0,0l0,0c1.4,1.6,3.2,0.5,4.8,0.8c1,1.1,2.5,1.4,3.6,2.2
	c3.1,2.1,7.2,0.9,10.2,3.2c1.1,0.9,2.5,0.9,3.9,1c0.4,0.6,1,0.8,1.7,0.8l0,0l0,0l0,0l0,0c2.5,2.6-0.6,3.3-1.6,4.7
	c-0.5,0.1-0.7,0.4-0.7,0.9c-0.8,0.6-1.4,1.3-1.7,2.3c-3,4.1-8.6,5.1-11.3,9.5c-3.9,1.6-7.6,1.6-11.5-0.1c-1.5-0.7-3.3-1.2-4.8,0.3
	c-1.1,0.2-2.2,0.6-2.4,1.8c-0.2,1.4,1.3,1.4,2.2,2c0.9,0.5,1.9,0.9,2.9,1.3l0,0c3,1.4,5.1,3.7,6.4,6.7c0.8,1.6,2.1,1.5,3.5,1l0,0
	l0,0c1.6-0.7,3.2-1.4,4.8-2.2c1.5-0.2,2.4-1.2,3.3-2.4c1.1-0.6,2.2-1.4,2.9-2.6c0.6-0.6,1.2-1.1,1.8-1.6l0,0l0,0
	c1.5,0,2.4-0.9,3.3-1.9c1.4-0.6,2.4-1.6,3.1-2.9l0,0l0,0c0.7-0.2,0.8-0.8,0.9-1.4c1-0.9,2.1-1.7,3.1-2.5l0,0l0,0
	c2.4-1.1,4-3,5.7-4.9c1.6-1.2,3.5-2.2,3.2-4.7c0.2-0.2,0.2-0.5,0.1-0.7l0,0l0,0c0.5-1.8,3.5-1.2,3.5-3.4c0-4,3-2.1,4.7-2.2
	c2.8-0.1,0-5.2,3.9-4.1c0.5,0.1,1.1,0.1,1.6,0.1c0.7,0,1.3-0.3,1.6-1c0.9-0.8,1.7-1.5,2.6-2.2c1-0.5,1.8-1.3,2.3-2.3
	c1-0.4,1.7-1.1,2.1-2l0,0l0,0c0.3-0.3,0.6-0.5,0.9-0.8c1.7-1.2,3.6-2.1,4.8-3.9l0,0l0.1-0.1c1.5-0.6,2.6-1.6,3.3-3.1
	c0.3-0.1,0.5-0.1,0.8-0.2l0,0C288.8,310.4,287.6,307.7,287.6,305.9z M259.7,329.2c0,0.1,0.1,0.1,0.1,0.2c-0.1,0-0.2,0-0.3,0
	C259.6,329.3,259.7,329.3,259.7,329.2z M266.8,325.4c0-0.1,0.1-0.1,0.1-0.2C266.8,325.3,266.9,325.3,266.8,325.4L266.8,325.4z"/>
<g>
	<path d="M157.5,452.2l-5.1,2.7c-1.4-2.6-3-4.8-4.8-6.4c-1.9-1.6-3.9-2.8-6.1-3.5c-2.2-0.7-4.5-0.9-7-0.7c-2.5,0.2-5,0.8-7.6,1.8
		c-3.9,1.5-6.9,3.3-8.8,5.6c-1.9,2.2-2.3,4.9-1.2,7.8c0.7,1.8,1.8,3,3.4,3.6c1.6,0.6,3.4,0.9,5.6,0.8s4.6-0.3,7.2-0.8
		c2.6-0.5,5.3-1,8.1-1.4c2.7-0.5,5.5-0.8,8.3-0.9s5.4,0.1,7.8,0.7c2.4,0.6,4.6,1.8,6.6,3.5s3.5,4.1,4.7,7.3c1.2,3.2,1.7,6.2,1.5,8.9
		s-1.1,5.3-2.5,7.6c-1.4,2.3-3.4,4.4-6,6.1c-2.5,1.8-5.6,3.4-9,4.6c-3.5,1.3-6.7,2.1-9.6,2.3s-5.6,0-8.1-0.6
		c-1.2-0.3-2.2-0.3-3.1,0.1c-0.4,0.1-0.8,0.8-1.3,1.8s-0.8,2.2-0.8,3.5l-5.4,2l-8.2-21.9l5.1-2.5c1.2,2.5,2.7,4.5,4.6,6.2
		c1.9,1.7,4,2.9,6.4,3.6c2.4,0.8,5,1.1,7.9,1s5.8-0.8,8.9-1.9c4.5-1.7,7.6-3.9,9.4-6.6s1.9-5.9,0.4-9.8c-0.5-1.2-1.2-2.1-2.3-2.7
		s-2.3-0.9-3.8-1s-3.1,0-4.9,0.3c-1.8,0.2-3.7,0.6-5.6,1s-4,0.8-6,1.2s-4,0.7-5.9,0.9c-2.6,0.3-5.1,0.3-7.4,0.1s-4.3-0.8-6.1-1.7
		c-1.8-0.9-3.5-2.2-4.9-3.9s-2.7-3.9-3.7-6.6c-0.8-2.1-1.2-4.2-1.2-6.4s0.5-4.4,1.5-6.6c1.1-2.1,2.7-4.2,5-6.1s5.3-3.6,9.1-5
		c3.6-1.3,6.7-2.1,9.4-2.4s5.2-0.2,7.4,0.2c1.4,0.2,2.5,0.2,3.3-0.2c0.6-0.2,1.2-0.8,1.7-1.8c0.6-1,0.9-2,1.1-3l4.3-1.6L157.5,452.2
		z"/>
	<path d="M188,415.7c4.3-1.6,8.4-2.5,12.4-2.8s7.8,0.3,11.4,1.7c3.6,1.4,6.8,3.9,9.8,7.2c2.9,3.4,5.5,7.9,7.7,13.7
		c1.8,4.7,2.7,9.2,2.9,13.5c0.1,4.3-0.5,8.2-2.1,11.9c-1.5,3.6-4,6.9-7.3,9.8s-7.6,5.3-12.7,7.3c-4.2,1.6-8.3,2.5-12.3,2.9
		c-4,0.3-7.8-0.2-11.3-1.5s-6.7-3.6-9.6-6.8c-2.9-3.2-5.4-7.6-7.5-13.1c-1.8-4.9-2.9-9.6-3.2-14s0.3-8.5,1.7-12.2s3.9-7.1,7.2-10
		C178.2,420.2,182.6,417.7,188,415.7z M190.9,422.1c-3.3,1.2-6,2.8-8,4.7c-2,1.9-3.4,4-4.3,6.5c-0.8,2.4-1.1,5.1-0.8,8.1
		s1.1,6.2,2.4,9.7c2,5.4,4.1,9.6,6.1,12.8s4.2,5.4,6.5,6.9c2.2,1.5,4.6,2.1,7,2.1s5-0.5,7.6-1.5c3.5-1.3,6.3-2.9,8.3-4.9
		c2-1.9,3.4-4.2,4-6.7c0.7-2.5,0.8-5.4,0.3-8.6s-1.4-6.7-2.9-10.5c-1.9-5-3.8-8.9-5.8-11.8s-4.1-5-6.3-6.3s-4.5-1.9-6.9-1.9
		C195.9,420.6,193.4,421.1,190.9,422.1z"/>
	<path d="M257.7,391c2.9-1.1,5.6-1.9,8.3-2.5c2.7-0.6,5.1-0.7,7.4-0.4c2.3,0.3,4.3,1.3,6.2,2.8c1.8,1.6,3.3,3.9,4.5,7.1
		c0.6,1.8,0.9,3.5,0.9,5c-0.1,1.6-0.5,3.1-1.1,4.6c-0.6,1.4-1.5,2.8-2.6,4s-2.4,2.3-3.8,3.3c5-1.3,9.3-1.3,12.8,0
		c3.6,1.3,6.2,4.1,7.8,8.4c1.2,3.4,1.8,6.3,1.6,8.9s-1,5-2.4,7.1s-3.4,4-6,5.6s-5.7,3.1-9.4,4.5l-35.6,13.3l-1.7-4.6
		c4.7-1.8,6.6-3.9,5.7-6.3l-15.9-42.5c-0.9-2.5-3.8-2.8-8.5-1l-1.8-4.9L257.7,391z M246,403.3l7,18.6l12.9-4.8
		c3.2-1.2,5.3-2.9,6.3-5s0.9-4.9-0.4-8.2c-1.1-3-2.8-5-5-5.8c-2.2-0.9-4.8-0.7-7.9,0.5L246,403.3z M254.9,427.2l8.2,21.9l15-5.6
		c2.1-0.8,3.7-1.7,4.9-2.8s2-2.3,2.6-3.6s0.7-2.8,0.5-4.3s-0.6-3.2-1.2-5c-1.4-3.7-3.3-6-5.8-6.8s-5.5-0.6-9.2,0.8L254.9,427.2z"/>
	<path d="M371.4,406c1,2.7,1,5.2,0.2,7.5s-3.2,4.2-6.9,5.6c-4.1,1.5-7.5,1.7-10,0.4c-2.5-1.3-4.3-3.4-5.3-6.2l-2.2-6
		c-1.7-4.5-3.5-7.5-5.6-9.1s-4.8-1.7-8.2-0.4l-12.1,4.5l7.5,20.1c0.9,2.4,4.3,2.6,10.2,0.4l1.7,4.6l-28.2,10.5l-1.7-4.6
		c4.7-1.8,6.6-3.9,5.7-6.3l-16-42.6c-0.9-2.4-3.8-2.8-8.5-1l-1.8-4.7l34.2-12.8c2.6-1,5.2-1.8,7.9-2.4c2.6-0.6,5.1-0.7,7.5-0.4
		c2.3,0.3,4.5,1.2,6.4,2.8s3.5,3.9,4.6,7c0.8,2.1,1.1,4,1.1,5.8c-0.1,1.8-0.4,3.5-1,5s-1.5,2.9-2.5,4c-1.1,1.2-2.3,2.2-3.6,3.1
		c1.5,0,3,0.1,4.4,0.5s2.7,1,3.9,1.9c1.2,0.9,2.3,2.1,3.4,3.7c1,1.5,2,3.5,2.9,5.9l2.8,7.3c0.4,1.2,1,1.9,1.7,2.3s1.4,0.4,2.2,0.1
		c0.8-0.3,1.4-0.8,1.6-1.6c0.3-0.7,0.2-1.7-0.2-2.9l-1.4-3.8l4.2-1.6L371.4,406z M312.2,378.2l7.1,18.8l13.1-4.9
		c3.2-1.2,5.4-2.8,6.5-4.9c1.1-2.1,1.1-4.9-0.2-8.4c-2.3-6.1-6.7-7.9-13.3-5.5L312.2,378.2z"/>
	<path d="M417.2,351.7l-5.5,2.4c-3.6-7.8-8.6-10.5-14.7-8.2l-17.9,6.7l7.2,19.3l9.1-3.4c3.2-1.2,3.8-5.1,1.9-11.7l5-1.9l8.1,25.4
		l-4.9,1.8c-3-6.4-5.9-9.1-8.7-8l-8.5,3.2l8.3,22.2l15-5.6c8.9-3.4,11.8-10.9,8.4-22.6l6-1.6l6.6,23.5l-53,19.8l-1.7-4.6
		c4.7-1.8,6.6-3.9,5.7-6.3l-16-42.7c-0.9-2.5-3.8-2.8-8.5-1l-1.8-4.7l53-19.8L417.2,351.7z"/>
</g>
<g>
	<path class="st0" d="M70.3,416.7c1-0.7,1.9-1.3,2.7-1.7c0.8-0.4,1.7-0.6,2.4-0.5c0.8,0,1.6,0.3,2.4,0.9c0.8,0.5,1.6,1.4,2.5,2.6
		s1.5,2.3,1.9,3.2c0.4,1,0.5,1.9,0.3,2.7c-0.1,0.9-0.5,1.6-1.1,2.4s-1.3,1.5-2.3,2.2l-6.2,4.6l-0.7-0.9c0.9-0.7,1.2-1.3,0.9-1.8
		l-6.3-8.5c-0.4-0.5-1-0.4-2,0.3l-0.7-0.9L70.3,416.7z M68.9,419.7l6.9,9.3l2.6-1.9c0.6-0.4,1-0.9,1.2-1.4s0.3-1.1,0.2-1.7
		s-0.3-1.2-0.7-1.9c-0.4-0.7-0.8-1.4-1.4-2.2c-0.6-0.8-1.1-1.4-1.7-1.9c-0.5-0.5-1-0.8-1.5-1s-1-0.2-1.5-0.1s-1.1,0.4-1.7,0.9
		L68.9,419.7z"/>
	<path class="st0" d="M92,412.6c1,1.4,1.4,2.7,1.2,4.1c-0.2,1.3-1,2.5-2.5,3.6c-0.6,0.4-1.2,0.8-1.8,1c-0.6,0.3-1.2,0.4-1.9,0.3
		c-0.6,0-1.2-0.2-1.9-0.6c-0.6-0.4-1.2-0.9-1.8-1.7c-1.1-1.5-1.6-2.8-1.4-4.2c0.2-1.3,1-2.5,2.5-3.7c0.6-0.4,1.2-0.8,1.8-1
		c0.6-0.2,1.3-0.4,1.9-0.3c0.6,0,1.3,0.3,1.9,0.6C90.8,411.1,91.4,411.8,92,412.6z M85.2,412.5c-0.8,0.6-1.2,1.3-1.2,2.1
		c0,0.8,0.4,1.6,1.1,2.6c0.5,0.7,1,1.3,1.5,1.7c0.4,0.4,0.8,0.6,1.2,0.8c0.4,0.1,0.8,0.2,1.1,0.1c0.3-0.1,0.7-0.3,1-0.5
		c0.8-0.6,1.2-1.3,1.1-2.2c-0.1-0.8-0.5-1.7-1.3-2.8c-0.5-0.7-0.9-1.2-1.4-1.5s-0.8-0.6-1.2-0.7s-0.7-0.1-1.1,0
		C85.9,412.1,85.6,412.2,85.2,412.5z"/>
	<path class="st0" d="M102.2,407c0.2,0.4,0.4,0.9,0.5,1.4s0.1,1,0,1.5s-0.3,1-0.6,1.5s-0.7,1-1.3,1.4c-0.6,0.5-1.3,0.8-1.9,1
		c-0.7,0.2-1.3,0.3-2,0.3c-0.6-0.1-1.3-0.3-1.9-0.6c-0.6-0.4-1.2-0.9-1.7-1.6c-1.1-1.4-1.5-2.8-1.3-4.2c0.2-1.4,1-2.5,2.3-3.6
		c0.5-0.4,1-0.7,1.5-0.9c0.5-0.2,1-0.3,1.5-0.3s0.9,0,1.3,0.2s0.7,0.4,0.9,0.7c0.3,0.3,0.4,0.7,0.3,1c0,0.4-0.2,0.7-0.6,1
		s-0.7,0.4-1,0.3s-0.6-0.2-0.8-0.5c-0.2-0.2-0.3-0.5-0.2-0.8c0-0.3,0.2-0.5,0.4-0.8c-0.3-0.1-0.7-0.1-1.1,0s-0.8,0.3-1.3,0.7
		c-0.8,0.6-1.2,1.4-1.3,2.2c0,0.9,0.4,1.9,1.2,3c0.5,0.6,0.9,1.1,1.4,1.5s0.9,0.6,1.3,0.7s0.8,0.1,1.2,0c0.4-0.1,0.8-0.3,1.1-0.5
		s0.5-0.4,0.7-0.7c0.2-0.3,0.3-0.6,0.4-0.9c0.1-0.3,0.1-0.7,0-1c-0.1-0.4-0.2-0.8-0.4-1.2L102.2,407z"/>
	<path class="st0" d="M113.6,400.3c0.4,0.5,0.9,0.4,1.8-0.2l0.7,0.9l-3.4,2.6l-1.2-1.6c0,0.3,0,0.7,0,1.1s-0.1,0.7-0.3,1.1
		c-0.1,0.4-0.4,0.7-0.6,1.1c-0.3,0.3-0.6,0.7-1,1c-0.8,0.6-1.6,0.9-2.3,0.8s-1.3-0.5-1.9-1.4l-3.2-4.3c-0.4-0.5-1-0.4-1.9,0.3
		l-0.7-0.9l3.5-2.6l3.9,5.2c0.5,0.7,0.9,1.1,1.3,1.2c0.4,0.1,0.8,0.1,1.2-0.2c0.5-0.4,0.8-0.9,1-1.6c0.1-0.7,0.1-1.5-0.1-2.3
		l-2.4-3.3c-0.2-0.2-0.4-0.3-0.7-0.3s-0.7,0.2-1.2,0.6l-0.7-0.9l3.6-2.7L113.6,400.3z"/>
	<path class="st0" d="M130.7,387.6c0.4,0.5,1,0.4,1.9-0.3l0.7,0.9l-4.6,3.4l-0.7-0.9c0.7-0.5,0.9-1,0.5-1.5l-2.6-3.5
		c-0.5-0.7-0.9-1.1-1.3-1.3c-0.4-0.2-0.7-0.1-1,0.1c-0.5,0.4-0.8,0.9-0.9,1.6c-0.2,0.7-0.1,1.5,0.1,2.4l2.4,3.3
		c0.4,0.5,0.9,0.5,1.6,0l0.7,0.9l-4.2,3.1l-0.7-0.9c0.7-0.5,0.9-1,0.5-1.5l-2.6-3.5c-0.5-0.7-0.9-1.1-1.3-1.2
		c-0.4-0.2-0.7-0.1-1.1,0.1c-0.5,0.4-0.8,0.9-0.9,1.6c-0.2,0.7-0.1,1.5,0.1,2.4l2.4,3.3c0.4,0.5,0.9,0.5,1.6-0.1l0.7,0.9l-4.6,3.4
		l-0.7-0.9c0.9-0.6,1.1-1.2,0.8-1.7l-3.6-4.9c-0.4-0.5-1-0.4-1.9,0.3l-0.7-0.9l3.5-2.6l1.2,1.7c0-0.4,0-0.7,0.1-1.1s0.2-0.8,0.3-1.1
		c0.1-0.3,0.3-0.7,0.6-1.1c0.3-0.3,0.6-0.7,1-1c0.6-0.5,1.2-0.7,1.8-0.7s1.2,0.3,1.8,0.9c0-0.8,0.1-1.6,0.4-2.3
		c0.3-0.8,0.8-1.4,1.6-2c0.7-0.5,1.4-0.8,2.1-0.7s1.4,0.5,2,1.4L130.7,387.6z"/>
	<path class="st0" d="M133.6,381.5c0.8,1.1,1.7,1.8,2.5,2.1c0.8,0.3,1.6,0.2,2.4-0.4c0.6-0.5,1-1,1.3-1.6c0.2-0.6,0.2-1.4-0.1-2.2
		l1.1-0.5c0.2,0.4,0.3,0.9,0.3,1.3c0.1,0.5,0,0.9-0.1,1.4s-0.3,0.9-0.6,1.4s-0.7,0.9-1.3,1.3s-1.1,0.7-1.8,1
		c-0.6,0.3-1.2,0.4-1.9,0.3c-0.6,0-1.3-0.2-2-0.6s-1.3-1-1.9-1.8c-0.5-0.6-0.8-1.3-1-2c-0.2-0.7-0.3-1.4-0.2-2s0.3-1.3,0.7-1.9
		c0.4-0.6,0.9-1.2,1.6-1.7c2.7-2,5.1-1.6,7.2,1.3L133.6,381.5z M137.2,377.5c-0.3-0.4-0.6-0.6-0.9-0.9c-0.3-0.2-0.6-0.4-1-0.5
		s-0.7-0.1-1-0.1c-0.4,0.1-0.7,0.2-1,0.4c-0.6,0.4-0.9,1-1,1.7c-0.1,0.7,0.1,1.5,0.7,2.5L137.2,377.5z"/>
	<path class="st0" d="M152.6,371.3c0.4,0.5,1,0.4,1.9-0.3l0.7,0.9l-4.6,3.4l-0.7-0.9c0.7-0.5,0.9-1,0.5-1.5l-2.6-3.5
		c-0.5-0.7-0.9-1.1-1.4-1.2c-0.4-0.1-0.8-0.1-1.2,0.2c-0.3,0.2-0.5,0.5-0.7,0.8c-0.2,0.3-0.3,0.6-0.4,1c-0.1,0.4-0.2,0.8-0.2,1.2
		s0,0.8,0.1,1.2l2.4,3.3c0.4,0.5,0.9,0.5,1.6-0.1l0.7,0.9l-4.6,3.4l-0.7-0.9c0.9-0.7,1.2-1.2,0.8-1.7l-3.5-4.9
		c-0.4-0.5-1-0.4-1.9,0.3l-0.7-0.9l3.6-2.6l1.2,1.6c0-0.8,0.2-1.6,0.6-2.4c0.4-0.8,0.9-1.5,1.7-2c0.8-0.6,1.6-0.9,2.3-0.8
		c0.7,0,1.4,0.5,2,1.3L152.6,371.3z"/>
	<path class="st0" d="M153.6,360.5l2.1-1.6l0.8,1.2c-0.3,0.2-0.7,0.4-1.1,0.6c-0.4,0.2-0.7,0.5-1.1,0.8l4.1,5.6
		c0.4,0.5,0.8,0.5,1.2,0.2c0.2-0.2,0.4-0.4,0.4-0.6c0-0.2-0.1-0.4-0.3-0.6l-0.7-0.9l0.8-0.6l0.5,0.7c0.2,0.3,0.4,0.6,0.5,0.9
		s0.2,0.6,0.1,0.8c0,0.3-0.1,0.6-0.3,0.9c-0.2,0.3-0.5,0.6-0.9,0.9c-0.8,0.6-1.6,0.9-2.2,0.8c-0.6-0.1-1.2-0.5-1.7-1.2l-3.8-5.1
		l-1.4,1l-0.6-0.8c0.3-0.2,0.5-0.5,0.7-0.8c0.2-0.3,0.4-0.5,0.4-0.9c0.1-0.3,0.1-0.6,0-1s-0.3-0.8-0.6-1.2l-0.3-0.4l1.3-1.2
		L153.6,360.5z"/>
	<path class="st0" d="M169.9,358.6c0.4,0.5,0.7,0.6,1,0.3c0.2-0.1,0.2-0.3,0.2-0.5c0-0.2-0.1-0.4-0.3-0.6l-0.7-0.9l0.8-0.6l0.5,0.7
		c0.3,0.4,0.4,0.7,0.5,1c0.1,0.3,0.1,0.6,0.1,0.9s-0.2,0.5-0.3,0.7c-0.1,0.2-0.4,0.4-0.6,0.6c-0.3,0.2-0.6,0.4-0.8,0.4
		s-0.5,0.1-0.8,0c-0.3,0-0.5-0.1-0.7-0.3c-0.2-0.1-0.4-0.3-0.6-0.5c0.1,0.3,0.1,0.6,0,1s-0.2,0.7-0.3,1.1c-0.1,0.4-0.4,0.8-0.7,1.1
		c-0.3,0.4-0.6,0.7-1.1,1c-1,0.7-1.9,1.1-2.6,1c-0.8-0.1-1.4-0.5-1.9-1.1c-0.3-0.4-0.5-0.8-0.5-1.2s0-0.8,0.2-1.2s0.4-0.8,0.7-1.2
		s0.6-0.8,1-1.2s0.8-0.9,1.2-1.3c0.4-0.4,0.8-0.9,1.2-1.4l-0.4-0.5c-0.2-0.3-0.4-0.5-0.6-0.7c-0.2-0.2-0.5-0.3-0.8-0.4
		c-0.3-0.1-0.6-0.1-0.9,0s-0.6,0.2-0.9,0.5c-0.5,0.4-0.9,0.8-1.2,1.2s-0.5,0.7-0.6,1.1c0.3-0.2,0.5-0.2,0.8-0.2s0.5,0.1,0.7,0.4
		s0.3,0.6,0.3,0.9c-0.1,0.3-0.3,0.6-0.6,0.9c-0.4,0.3-0.7,0.4-1.1,0.3c-0.4-0.1-0.6-0.3-0.9-0.6c-0.2-0.3-0.3-0.6-0.3-1
		s0-0.8,0.2-1.2c0.2-0.5,0.4-0.9,0.8-1.4c0.4-0.5,0.9-0.9,1.5-1.4c0.5-0.4,1-0.7,1.5-0.9c0.5-0.2,1-0.4,1.6-0.4c0.5,0,1,0,1.5,0.3
		c0.5,0.2,0.9,0.6,1.4,1.2L169.9,358.6z M165.6,357.2c-0.6,0.7-1,1.3-1.4,1.8s-0.7,1-0.9,1.4s-0.3,0.8-0.3,1.1c0,0.3,0.1,0.6,0.4,1
		c0.3,0.4,0.6,0.6,1.1,0.6c0.4,0,0.9-0.2,1.4-0.6c0.5-0.4,0.9-0.9,1.1-1.5c0.2-0.6,0.3-1.1,0.3-1.6L165.6,357.2z M158.6,354.3
		c0.2-0.4,0.4-0.8,0.6-1.2c0.2-0.4,0.3-0.8,0.4-1.2s0.3-0.7,0.5-1.1c0.2-0.4,0.4-0.6,0.7-0.8c0.3-0.2,0.6-0.3,0.9-0.3
		c0.2,0.1,0.5,0.2,0.6,0.4c0.2,0.3,0.2,0.6,0,0.9c-0.2,0.3-0.4,0.7-0.8,1.1c-0.3,0.4-0.7,0.8-1.1,1.2c-0.4,0.4-0.8,0.8-1,1.2
		L158.6,354.3z"/>
	<path class="st0" d="M172.5,348.8c-0.1-0.8-0.1-1.6,0.1-2.2c0.2-0.6,0.6-1.1,1.1-1.5c0.2-0.2,0.5-0.3,0.8-0.4
		c0.3-0.1,0.6-0.2,0.9-0.2c0.3,0,0.6,0.1,0.9,0.3c0.3,0.2,0.6,0.4,0.9,0.8c0.3,0.4,0.4,0.8,0.4,1.2s-0.2,0.8-0.6,1.1
		c-0.4,0.3-0.7,0.4-1.1,0.3c-0.4-0.1-0.6-0.2-0.8-0.5c-0.2-0.3-0.3-0.6-0.2-0.9c0-0.3,0.2-0.6,0.6-0.9c-0.2-0.1-0.4-0.1-0.7-0.1
		s-0.5,0.2-0.7,0.3s-0.4,0.3-0.5,0.6c-0.1,0.3-0.3,0.6-0.3,0.9c-0.1,0.3-0.1,0.7,0,1.2c0,0.4,0.1,0.9,0.3,1.4l2.5,3.4
		c0.2,0.2,0.5,0.3,0.8,0.2c0.4-0.1,0.8-0.3,1.3-0.7l0.7,0.9l-5.1,3.8l-0.7-0.9c0.9-0.7,1.2-1.2,0.8-1.7l-3.6-4.9
		c-0.4-0.5-1-0.4-1.9,0.3l-0.7-0.9l3.6-2.6L172.5,348.8z"/>
	<path class="st0" d="M185.6,346.8c0.3,0.5,1,0.4,1.9-0.3l0.7,0.9l-4.9,3.7l-0.7-0.9c0.9-0.7,1.2-1.2,0.8-1.7l-3.6-4.8
		c-0.4-0.5-1-0.4-1.9,0.3l-0.7-0.9l3.6-2.6L185.6,346.8z M178.9,337.5c0.3,0.4,0.4,0.8,0.3,1.2s-0.3,0.8-0.6,1.1
		c-0.2,0.1-0.4,0.2-0.6,0.3c-0.2,0-0.4,0.1-0.6,0c-0.2,0-0.4-0.1-0.6-0.2c-0.2-0.1-0.4-0.3-0.5-0.5c-0.3-0.4-0.4-0.8-0.3-1.3
		s0.3-0.8,0.7-1.1c0.4-0.3,0.8-0.4,1.2-0.3C178.3,336.9,178.7,337.1,178.9,337.5z"/>
	<path class="st0" d="M195.2,335.8c1,1.4,1.4,2.7,1.2,4.1c-0.2,1.4-1,2.5-2.5,3.6c-0.6,0.4-1.2,0.8-1.8,1c-0.6,0.3-1.2,0.4-1.9,0.3
		c-0.6,0-1.2-0.2-1.9-0.6c-0.6-0.4-1.2-0.9-1.8-1.7c-1.1-1.4-1.6-2.8-1.4-4.2s1-2.5,2.5-3.7c0.6-0.4,1.2-0.8,1.8-1
		c0.6-0.3,1.3-0.4,1.9-0.3c0.6,0,1.3,0.3,1.9,0.6C193.9,334.4,194.6,335,195.2,335.8z M188.4,335.8c-0.8,0.6-1.2,1.3-1.1,2.1
		c0.1,0.8,0.4,1.7,1.1,2.6c0.5,0.7,1,1.3,1.5,1.7c0.4,0.4,0.9,0.6,1.2,0.8c0.3,0.2,0.8,0.2,1.1,0.1c0.3-0.1,0.7-0.3,1-0.5
		c0.8-0.6,1.2-1.3,1.1-2.2c-0.1-0.8-0.5-1.7-1.3-2.8c-0.5-0.7-0.9-1.2-1.4-1.6c-0.4-0.4-0.8-0.6-1.2-0.7c-0.4-0.1-0.7-0.1-1.1,0
		C189.1,335.4,188.7,335.5,188.4,335.8z"/>
</g>
<g>
	<path class="st0" d="M313.3,291.4c-1.2,0-1.8,0.4-1.7,1l0.3,10.6c0,0.6,0.6,0.9,1.8,0.9v1.1l-6.6,0.2v-1.1c1.2,0,1.8-0.4,1.8-1
		l-0.3-10.6c0-0.6-0.6-0.9-1.8-0.9v-1.2l6.6-0.2L313.3,291.4z"/>
	<path class="st0" d="M327.3,302.5c0,0.6,0.6,0.9,1.8,0.8v1.1l-5.8,0.2v-1.1c0.9,0,1.3-0.3,1.3-0.9l-0.1-4.4c0-0.8-0.2-1.4-0.5-1.8
		c-0.3-0.4-0.6-0.5-1.1-0.5c-0.3,0-0.7,0.1-1,0.2s-0.6,0.3-1,0.6c-0.3,0.2-0.6,0.5-0.8,0.9s-0.4,0.7-0.6,1.1l0.1,4.1
		c0,0.6,0.5,0.9,1.4,0.9v1.1l-5.8,0.2v-1.1c1.1,0,1.7-0.4,1.7-0.9l-0.2-6.1c0-0.6-0.6-0.9-1.7-0.8V295l4.4-0.1l0.1,2
		c0.5-0.6,1.1-1.2,1.8-1.6c0.7-0.4,1.6-0.7,2.6-0.7s1.8,0.2,2.3,0.6c0.5,0.5,0.9,1.2,0.9,2.2L327.3,302.5z"/>
	<path class="st0" d="M334.4,294.2l2.6-0.1l-0.1,1.4c-0.4-0.1-0.8-0.1-1.2-0.1s-0.9,0-1.4,0l0.2,6.9c0,0.6,0.3,0.9,0.9,0.9
		c0.3,0,0.5-0.1,0.6-0.3c0.1-0.2,0.2-0.4,0.2-0.6v-1.1h1v0.9c0,0.4,0,0.7-0.1,1c-0.1,0.3-0.2,0.6-0.4,0.8c-0.2,0.2-0.4,0.4-0.8,0.5
		c-0.3,0.1-0.7,0.2-1.2,0.2c-1,0-1.8-0.2-2.2-0.6c-0.5-0.5-0.7-1.1-0.7-1.9l-0.2-6.4l-1.7,0.1v-0.9c0.4,0,0.7-0.1,1-0.2
		c0.3-0.1,0.6-0.2,0.8-0.4c0.2-0.2,0.4-0.5,0.5-0.9s0.2-0.8,0.2-1.4v-0.4l1.8-0.2L334.4,294.2z"/>
	<path class="st0" d="M341.5,298.9c0.1,1.4,0.4,2.4,0.9,3.1s1.2,1.1,2.2,1c0.8,0,1.4-0.2,2-0.6c0.6-0.4,1-1,1.1-1.8l1.2,0.2
		c-0.1,0.4-0.3,0.9-0.5,1.3c-0.2,0.4-0.5,0.8-0.9,1.1c-0.4,0.3-0.8,0.6-1.3,0.8c-0.5,0.2-1.1,0.3-1.8,0.3c-0.7,0-1.4,0-2-0.2
		c-0.6-0.2-1.2-0.4-1.8-0.8c-0.5-0.4-1-0.9-1.3-1.6s-0.5-1.6-0.5-2.6c0-0.8,0.1-1.6,0.3-2.2c0.2-0.6,0.5-1.2,1-1.7s1-0.9,1.7-1.2
		c0.6-0.3,1.4-0.4,2.3-0.5c3.3-0.1,5,1.6,5.1,5.1L341.5,298.9z M346.7,297.7c0-0.4-0.1-0.9-0.2-1.2c-0.1-0.3-0.3-0.7-0.5-1
		c-0.2-0.3-0.5-0.5-0.8-0.6s-0.7-0.2-1.1-0.2c-0.7,0-1.3,0.3-1.8,0.8s-0.8,1.3-0.8,2.4L346.7,297.7z"/>
	<path class="st0" d="M355,295.5c0.4-0.8,0.8-1.3,1.4-1.7c0.5-0.4,1.1-0.6,1.8-0.6c0.3,0,0.6,0,0.9,0.1s0.6,0.2,0.9,0.4
		c0.3,0.2,0.5,0.5,0.6,0.8c0.2,0.3,0.3,0.7,0.3,1.1c0,0.5-0.1,0.9-0.4,1.2c-0.3,0.3-0.6,0.5-1.1,0.5s-0.8-0.1-1.1-0.3
		c-0.2-0.2-0.4-0.5-0.4-0.9c0-0.3,0.1-0.6,0.3-0.8c0.2-0.2,0.5-0.4,1-0.4c-0.1-0.2-0.3-0.3-0.5-0.4s-0.5-0.1-0.8-0.1
		c-0.2,0-0.5,0.1-0.8,0.2s-0.5,0.3-0.8,0.6c-0.3,0.2-0.5,0.6-0.7,0.9c-0.2,0.4-0.4,0.8-0.6,1.4l0.1,4.2c0,0.3,0.2,0.5,0.5,0.6
		s0.8,0.2,1.5,0.2v1.1l-6.4,0.2v-1.1c1.1,0,1.7-0.4,1.7-0.9l-0.2-6.1c0-0.6-0.6-0.9-1.7-0.8v-1.1l4.4-0.1L355,295.5z"/>
	<path class="st0" d="M372.6,301.2c0,0.6,0.2,0.9,0.6,0.9c0.2,0,0.3-0.1,0.4-0.3c0.1-0.2,0.1-0.4,0.1-0.6V300h0.9v0.9
		c0,0.4,0,0.8-0.1,1.1c-0.1,0.3-0.2,0.6-0.4,0.8c-0.2,0.2-0.4,0.3-0.7,0.4c-0.3,0.1-0.5,0.1-0.9,0.1s-0.6,0-0.9-0.1
		s-0.5-0.2-0.6-0.4c-0.2-0.2-0.3-0.4-0.4-0.6c-0.1-0.2-0.2-0.5-0.2-0.8c-0.1,0.3-0.3,0.6-0.6,0.9c-0.3,0.3-0.5,0.5-0.9,0.7
		c-0.4,0.2-0.8,0.4-1.2,0.5c-0.4,0.1-0.9,0.2-1.5,0.2c-1.2,0-2.2-0.2-2.8-0.7c-0.6-0.5-0.9-1.2-0.9-2c0-0.5,0.1-1,0.3-1.3
		c0.2-0.4,0.5-0.6,0.8-0.9c0.4-0.3,0.8-0.5,1.2-0.6c0.5-0.2,1-0.3,1.5-0.4c0.5-0.1,1.1-0.3,1.7-0.4c0.6-0.1,1.2-0.3,1.7-0.5v-0.6
		c0-0.3-0.1-0.6-0.2-0.9c-0.1-0.3-0.2-0.5-0.4-0.8c-0.2-0.3-0.5-0.4-0.7-0.5c-0.3-0.1-0.6-0.2-1-0.2c-0.7,0-1.2,0.1-1.7,0.3
		c-0.5,0.1-0.8,0.3-1.1,0.6c0.3,0,0.6,0.1,0.8,0.3c0.2,0.2,0.3,0.4,0.3,0.7c0,0.4-0.1,0.7-0.3,0.9c-0.2,0.2-0.6,0.4-1,0.4
		s-0.8-0.1-1-0.3c-0.2-0.2-0.4-0.6-0.4-1c0-0.3,0.1-0.6,0.3-1c0.2-0.3,0.5-0.6,0.9-0.9s0.9-0.5,1.5-0.7c0.6-0.2,1.2-0.3,2-0.3
		c0.6,0,1.2,0,1.8,0.1s1.1,0.3,1.5,0.5c0.4,0.3,0.8,0.6,1.1,1.1s0.4,1.1,0.4,1.8L372.6,301.2z M369.9,297.7
		c-0.8,0.2-1.6,0.5-2.2,0.6c-0.6,0.2-1.1,0.4-1.5,0.6c-0.4,0.2-0.7,0.5-0.9,0.7c-0.2,0.2-0.3,0.6-0.3,1c0,0.5,0.2,0.8,0.5,1.1
		c0.3,0.3,0.9,0.4,1.5,0.4c0.7,0,1.3-0.2,1.8-0.5c0.5-0.3,0.9-0.7,1.1-1.1V297.7z"/>
	<path class="st0" d="M379.6,292.9l2.6-0.1l-0.1,1.4c-0.4-0.1-0.8-0.1-1.2-0.1s-0.9,0-1.4,0l0.2,6.9c0,0.6,0.3,0.9,0.9,0.9
		c0.3,0,0.5-0.1,0.6-0.3c0.1-0.2,0.2-0.4,0.2-0.6v-1.1h1v0.9c0,0.4,0,0.7-0.1,1c-0.1,0.3-0.2,0.6-0.4,0.8c-0.2,0.2-0.4,0.4-0.8,0.5
		c-0.3,0.1-0.7,0.2-1.2,0.2c-1,0-1.8-0.2-2.2-0.6c-0.5-0.5-0.7-1.1-0.7-1.9l-0.2-6.4l-1.7,0.1v-0.9c0.4,0,0.7-0.1,1-0.2
		s0.6-0.2,0.8-0.4c0.2-0.2,0.4-0.5,0.5-0.9s0.2-0.8,0.2-1.4v-0.4l1.8-0.2L379.6,292.9z"/>
	<path class="st0" d="M388.3,289.2c0,0.5-0.1,0.9-0.5,1.2c-0.3,0.3-0.7,0.5-1.2,0.5c-0.2,0-0.5,0-0.7-0.1s-0.4-0.2-0.5-0.4
		c-0.2-0.1-0.3-0.3-0.4-0.5c-0.1-0.2-0.2-0.4-0.2-0.6c0-0.5,0.1-0.9,0.5-1.2c0.3-0.3,0.7-0.5,1.2-0.5s0.9,0.1,1.2,0.5
		C388.1,288.4,388.2,288.8,388.3,289.2z M388.4,300.7c0,0.6,0.6,0.9,1.7,0.8v1.1l-6.1,0.2v-1.1c1.1,0,1.7-0.4,1.7-0.9l-0.2-6
		c0-0.6-0.6-0.9-1.7-0.9v-1.1l4.4-0.1L388.4,300.7z"/>
	<path class="st0" d="M402.8,293.3c-0.4,0-0.7,0.1-1,0.2c-0.3,0.1-0.4,0.3-0.5,0.5l-3.1,8.4l-2.6,0.1l-3.7-8.1
		c-0.2-0.5-0.7-0.7-1.4-0.6v-1.1l5.8-0.2v1.1h-1.1c-0.4,0-0.6,0.1-0.5,0.4c0,0.1,0,0.2,0.1,0.3l2.8,6.5l2.5-6.5
		c0-0.1,0.1-0.2,0.1-0.3c0-0.4-0.3-0.5-0.9-0.5h-0.8v-1.1l4.3-0.1L402.8,293.3z"/>
	<path class="st0" d="M414.8,296.8c0.1,1.7-0.4,3.1-1.3,4c-0.9,1-2.3,1.5-4.1,1.6c-0.7,0-1.4,0-2-0.2c-0.6-0.2-1.2-0.4-1.7-0.8
		c-0.5-0.4-0.9-0.9-1.2-1.6c-0.3-0.6-0.5-1.5-0.5-2.5c-0.1-1.8,0.4-3.2,1.2-4.2c0.9-1,2.3-1.5,4.1-1.6c0.7,0,1.4,0,2.1,0.2
		c0.7,0.2,1.2,0.4,1.7,0.8c0.5,0.4,0.9,0.9,1.2,1.6C414.6,294.9,414.7,295.7,414.8,296.8z M409.3,292.9c-1,0-1.7,0.4-2.1,1
		s-0.6,1.6-0.6,2.8c0,0.9,0.1,1.6,0.2,2.2c0.1,0.6,0.3,1,0.6,1.4c0.3,0.3,0.5,0.6,0.9,0.7c0.3,0.1,0.7,0.2,1.1,0.2
		c1,0,1.8-0.4,2.2-1.1s0.6-1.7,0.5-3c0-0.8-0.1-1.5-0.3-2.1c-0.1-0.5-0.3-1-0.6-1.3c-0.2-0.3-0.5-0.5-0.9-0.6
		C410.1,292.9,409.7,292.8,409.3,292.9z"/>
</g>
<g>
	<path class="st0" d="M241.3,519l-0.2,6.3l-2.9,1.1l1-20.1l3.4-1.3l13.9,14.6l-3,1.1l-4.4-4.6L241.3,519z M247.8,514.6l-4-4.2
		c-0.9-1-1.6-1.9-2.3-2.8h-0.1c0.1,1.2,0.1,2.3,0.1,3.6l-0.3,5.8L247.8,514.6z"/>
	<path class="st0" d="M253.3,501.3c1.3-0.8,3.3-1.6,5.3-2.4c3-1.1,5.1-1.4,6.9-0.9c1.4,0.4,2.4,1.3,2.9,2.7c0.9,2.3-0.4,4.5-2.5,6
		v0.1c1.9-0.2,3.3,0.7,4.5,2.3c1.6,2.2,2.8,3.6,3.5,4.1l-2.9,1.1c-0.5-0.4-1.6-1.7-3-3.6c-1.5-2.2-3-2.6-5.6-1.8l-2.7,1l2.8,7.5
		l-2.8,1L253.3,501.3z M259,508.1l2.9-1.1c3-1.1,4.4-3.1,3.7-5.1c-0.8-2.2-3.2-2.5-6.2-1.4c-1.4,0.5-2.3,1-2.7,1.2L259,508.1z"/>
	<path class="st0" d="M270.7,494.8c1.3-0.8,3.3-1.6,5.3-2.4c3-1.1,5.1-1.4,6.9-0.9c1.4,0.4,2.4,1.3,2.9,2.7c0.9,2.3-0.4,4.5-2.5,6
		v0.1c1.9-0.2,3.3,0.7,4.5,2.3c1.6,2.2,2.8,3.6,3.5,4.1l-2.9,1.1c-0.5-0.4-1.6-1.7-3-3.6c-1.5-2.2-3-2.6-5.6-1.8l-2.7,1l2.8,7.5
		l-2.8,1L270.7,494.8z M276.5,501.7l2.9-1.1c3-1.1,4.4-3.1,3.7-5.1c-0.8-2.2-3.2-2.5-6.2-1.4c-1.4,0.5-2.3,1-2.7,1.2L276.5,501.7z"
		/>
	<path class="st0" d="M290.9,487l6.5,17.4l-2.8,1l-6.5-17.4L290.9,487z"/>
	<path class="st0" d="M307.1,500.8l-13.6-14.7l3-1.1l6.6,7.3c1.8,2,3.4,3.8,4.7,5.6h0.1c-0.1-2.2,0-4.8,0.1-7.4l0.5-10l3-1.1
		l-1.4,20.3L307.1,500.8z"/>
	<path class="st0" d="M320,489.8l-0.2,6.3l-2.9,1.1l1-20.1l3.4-1.3l13.9,14.6l-3,1.1l-4.4-4.6L320,489.8z M326.6,485.4l-4-4.2
		c-0.9-1-1.6-1.9-2.3-2.8h-0.1c0.1,1.2,0.1,2.3,0.1,3.6l-0.3,5.8L326.6,485.4z"/>
	<path class="st0" d="M331.9,471.8l2.8-1l5.8,15.5l9.3-3.5l0.7,1.9l-12.2,4.5L331.9,471.8z"/>
</g>
</svg>
