<?xml version="1.0" encoding="utf-8"?>
<!-- Generator: Adobe Illustrator 24.0.0, SVG Export Plug-In . SVG Version: 6.00 Build 0)  -->
<svg version="1.1" id="Layer_1" xmlns="http://www.w3.org/2000/svg" xmlns:xlink="http://www.w3.org/1999/xlink" x="0px" y="0px"
	 viewBox="0 0 600 600" style="enable-background:new 0 0 600 600;" xml:space="preserve">
<style type="text/css">
	.st0{fill:#FCAE00;}
</style>
<g>
	<path class="st0" d="M221.8,161.3c0.5,0.1,1,0,1.4-0.4c8.9,1.6,17-1.6,25.2-4.1l0,0l0,0c4.4-0.1,8.6-0.5,11.6-4.2l0,0l0,0
		c7-0.9,14.4-0.9,19.5-7l0,0l0,0l0.8-0.1l0.8,0.1l0,0c5.1,2.6,9.4,0.3,13.8-2.1c2.7-3.5,7,2.5,9.7-1.6l0,0c2.1-0.2,4.1-0.4,6.2-0.6
		c6.8,2.7,5.3-5,8.6-6.8c-0.9-0.2-1.8-0.4-2.7-0.6l0,0c-5.4-3.9-10.8-5.4-16,0.3l0,0c-2.4-0.1-4.9-0.1-7.3-0.2l0,0l0,0l0,0l0,0
		c-1.6,1.3-3.2,2.7-4.7,4l0,0c-3.1-0.1-6.9-1.7-7.5,3.4c-3,0.2-6.1-3.1-9.2,0c-4.4,0.5-8.1,2.4-11.5,5.1l0,0
		c-3.5-1.7-7-2.2-10.3,0.6l0,0c-2.3,1.3-1.2,3.8-1.9,5.6l0,0l0,0c-6.3,0.4-12.6,0.8-18.9,1.3c-3.5,0.2-7.9-3-10,2.6l0,0
		c-5.8,0.7-12.6-0.9-15.8,6.4C210.8,168.9,215.8,168.4,221.8,161.3z"/>
	<path class="st0" d="M550.3,232.4c1.9-3.6,1.6-7.4,1.3-11.3l0,0l0,0c-0.1-0.8-0.2-1.7-0.3-2.5c0.2-1.9,0.4-3.8,0.5-5.8l0,0l0,0
		c0.1-3.5,0.4-7.1,0.3-10.6c0-4.3-2.3-5.7-6.3-4.2c-3.1-0.1-6.2-0.2-9.4-0.4l0,0l0,0c-1.5-5.2-5.1-6.4-10-5.4
		c-0.5-0.3-1.1-0.4-1.7-0.3c-3-2.2-6.3-3.4-10-3.4l0,0c-2.4-0.2-4.9-0.4-7.3-0.7l0,0c-2.9-2.6-6.2-4-10.1-3.5
		c-1.1-2.5-3.2-2.4-5.5-2.1c-2.6-0.2-5.4,0.2-7.4-2l0,0c-5.3-4.3-12.1-3.4-18.1-5.3l0,0l0,0c-1-0.2-2-0.4-3-0.6l0,0
		c-4.1-1.2-8.2-2.3-12.3-3.5l0,0l0,0c-7.8-1.9-15.5-3.8-23.2-5.7l0,0c-1.8-0.7-3.7-1.4-5.5-2.2l0,0c-5.7-1.8-11.2-4.9-17.6-3.5l0,0
		l0,0c-5.2-1.1-9.3-6.1-15.3-4.4l0,0c-6.4-1.9-12.7-3.8-19.1-5.8c-6.2-3.3-13.4-3.1-19.9-5.4c-2.1-3.1-4.9-2.5-7.8-1.6l0,0l0,0
		c-1.1-2.9-4-2.8-6.3-3.4c-4.6-1.2-7.9,1.8-10.3,5c-1.5,1.9,1.2,3.2,3,3.6c4.2,0.9,9,5.4,12.1-1.6l0,0c2.2-0.3,4.4-0.5,6,1.6l0,0
		l0,0c3.5,3.8,9.7-1.9,12.6,3.6c-2.6,0.6-6.3,1-1.6,4.3c2.4,1.6,5.2,2.1,8.1,1.6l0,0l0,0c6.4,4.3,14.3,3.7,21.3,6.2l0,0
		c2.2,2.1,5,1.6,7.6,1.4c0.7,0.1,1.3,0.3,2,0.4c2.2,2.1,5.1,2.3,7.8,3l0,0l0,0c1.3,0.1,2.6,0.3,4,0.4l0,0c1,0.2,2,0.4,2.9,0.7
		c2.2,2.9,4.9,4.2,8.5,3.2l0,0l0,0c2.6,0.6,5.2,1.3,7.8,1.9l0.7,0.4l0.8-0.1c2.3,2.4,5.2,1.9,8.1,1.7l0.6,0.4l0.7-0.1
		c6,4.4,13.6,3.2,20,6.1c2.5,2.2,5.8,0.9,8.6,1.7c6.5,5.2,14.8,4.5,22.1,7.1c1.8,0.2,3.6,0.3,5.5,0.5c2,0.9,4,1.8,5.9,2.7l0,0l0,0
		c2.3,1.8,5,0.7,7.5,1.1c6.4,5.5,14,4.6,21.5,3.8c0.6,0.4,1.2,0.7,1.7,1c0.8,3.2,3.8,2.6,6,3.4l0,0l0,0c0.9,1.7,2.4,1.6,3.9,1.3
		c0.6,0.6,1.2,1.3,1.8,1.9l0,0l0,0c-1.6,3.8-2.4,7.8-1.5,11.9c0,2.4,0.1,4.8,0.1,7.3l0,0c0.4,5.2,0.8,10.5,1.2,15.8
		c-0.1,3.4,0.5,6.7,2.4,9.6l0,0c-0.1,0.6-0.2,1.3-0.4,1.9c-0.6,2-1.2,3.9-1.9,5.9l0,0l0,0c-2.4,4.3-1.8,8.6-0.1,13
		c-0.1,2.1-0.1,4.1-0.2,6.2l0,0l0,0c-2.7,17.2-0.5,34.6-1.7,51.9c-1.2,0.2-2.4,0.4-3.6,0.6c-12.4,4.6-24.8,8.6-38.3,7.6l0,0l0,0
		c-2.9-0.1-4.3,2.3-6.2,3.8l0,0c-1.9,0.7-3.8,1.4-5.8,2.1l0,0c-3.9,1.7-8.6,1.9-11.8,5.4c-9.4,0.2-18.3,2.7-27.1,5.7
		c-4.4,1.4-8.8,2.8-13.3,4c-2,0.5-4.9-0.6-5.4,2.4c-0.7,4.1,3.7,2.1,5.1,3.9c1.9,2.4,3.9-0.4,5.9-0.4c4.2-2.4,10.7,3.7,13.5-3.7
		c4.1,0.5,7.6-3.3,11.9-1.8l0,0l0,0c3,0.5,5.7-0.1,7.9-2.2l0,0c3.5,1,6.1-2,9.4-2.1l0,0l0,0l0,0l0,0c4.5-2.1,10.8,0.1,13.9-5.5
		c1.9-0.1,3.7-0.2,5.5-0.3l0,0l0,0c5,0.5,9.6-0.6,13.7-3.6l0,0c4.9,0.1,9.5-1.2,13.7-3.7l0,0c4.1,0.8,6.7-1.7,9.2-4.3
		c4-1.5,12,5,11.3-5.7c0.1-5.8,0.1-11.6,0.2-17.4c0-7.7,0-15.4,0-23l0,0c0-3.2-0.1-6.5-0.1-9.7c0-2.6,0-5.2,0-7.8l0,0l0,0
		c0-2.6,0-5.1-0.1-7.7l0,0c0-5.1,0-10.2,0-15.3c0-1.2,0-2.4,0-3.6c1.2-2.5-0.3-4.3-1.7-6.2C552.3,239,553.3,235.8,550.3,232.4z
		 M395.2,164.6c-0.4-0.2-0.8-0.5-1.1-0.7C394.6,164,395,164.2,395.2,164.6z M549.8,307.8L549.8,307.8L549.8,307.8
		C549.8,307.9,549.8,307.8,549.8,307.8z M547.5,253.7L547.5,253.7L547.5,253.7L547.5,253.7L547.5,253.7L547.5,253.7z"/>
	<path class="st0" d="M428.8,367.5L428.8,367.5c-2.8-9.6-7.9-4.9-12.6-2l0,0l0,0c-3.4,0.2-6.8,0.1-9.3,3c-2.6,0.5-5.2,1-7.8,1.5
		c-2.9-0.3-5.8-1-8.2,1.5l0,0c-1.2,0.6-2.4,1.1-3.6,1.7c-4.9,0.4-9.8,0.6-13.8,4l0,0l0,0c-1.1,0.2-2.1,0.3-3.2,0.5
		c-2.3-0.4-4.5-0.5-6.2,1.5l0,0c-6,5.3-14.2,3.3-20.9,6.2c-2.6,0.6-5.2,1.2-7.7,1.8c-1.7-0.2-3.3,0.1-4.4,1.6
		c-1.7,0.2-3.5,0.5-5.2,0.7l0,0l0,0c-2.6,0.6-5.2,1.2-7.8,1.8l0,0l0,0c-2,0.7-3.9,1.3-5.9,2c-3.8,0-7.5,0-11.3-0.1
		c-2.8-0.3-5-2.9-8.1-1.9l0,0l0,0c-2.6-0.6-5.2-1.2-7.8-1.8l0,0c-2.4-0.2-4.8-0.5-7.1-0.8c0.1-0.6-0.1-1.1-0.7-1.4l0,0
		c-6.5-3.7-14.1-3.8-21-6l0,0c-3.5-3-7.5-2.3-11.5-1.6l0,0l0,0c-1.8-0.3-3.5-0.6-5.3-0.9c-0.2-5-3.5-3.5-6.3-3
		c-2.7-0.8-5.9,0.6-8.1-2.1c-3.6-3.9-8.2-4.1-13-4.1l0,0c-5.7-4.4-12.4-4-19.1-4.2l0,0l0,0c-11.1-5.6-23.3-7.7-35.1-11l0,0l0,0
		c-1.1-0.2-2.2-0.4-3.2-0.6c-3.5-2.9-7.7-3.7-12.2-3.5l0,0l0,0c-1.6-1.9-3.6-2.4-6-2l0,0l0,0c-3.2,0.1-6.4,0.2-9.6,0.3
		c-2.1-3.7-5.1-5.6-9.5-4.3l0,0l0,0l0,0l0,0c-3.2-3.5-8.3-0.6-11.7-3.3c-1.9-0.7-3.1-3.3-5.8-2.2c-3.8-0.7-7.7-1.5-11.6-2.2l0,0
		c-3.1-4-7.1-4.5-11.7-3.4c-0.6-0.2-1.3-0.5-1.9-0.7c-0.4-2.8-1.6-5.3-3.6-7.3l0,0c0-3-0.1-6.1-0.1-9.1c4.4-13.2,0.4-26.8,0.9-40.1
		c0.8-21.1,1.4-42.2-0.9-63.3l0,0l0,0c0.4-0.5,0.3-0.9-0.2-1.2l0,0l0,0c1.3-2.7,2.2-5.7,4.7-7.4c0.3-0.1,0.6-0.3,1-0.6
		c3.7-0.1,7.7,0.8,9.8-3.5l0,0l0,0c8.8,0.2,16.8-3.4,25.2-5.4l0,0c5.7-1.6,11.4-3.2,17.1-4.8c3.2-1.7,7.3-0.6,10-3.5l0,0l0,0
		c2.6-0.3,5.6,0.5,7.7-2l0,0c4.7-0.6,10.1,1.3,13.2-4.2l0,0l0,0c2.1-2.4,5.2-1.2,7.8-2l0,0l0,0c3.7,1.9,6.4-1.3,9.7-1.7l0,0l0,0
		l0.9,0.1l0.9-0.2c3.9,0.4,6.9-1.4,9.8-3.6l0,0l0,0l0,0l0,0c0-0.7,0-1.4,0.1-2.1c3.2-0.7,7.1,2.1,9.7-1.7l0,0l0,0l0,0l0,0
		c-0.9-2.7,4.6-5.9,0.1-7.8c-4.1-1.7-5.9,1.6-6.2,5.5c-2,0.4-1-4.6-4-2.2c-3.1,1-6.8-0.8-9.5,2.1c-2,0.4-4.2,0.2-5.6,2.1l0,0l0,0
		l0,0l0,0c-2.9-0.4-5.4,0.5-7.7,2.3c-5.7,1.2-11.4,2.5-17.1,3.7c-1.7-0.3-3,0.6-4.2,1.7c-4.9-0.1-9.5,1.1-13.6,4
		c-0.6-0.1-1.1-0.1-1.6,0.3l0,0c-0.7,0-1.4,0.1-2.1,0.1l0,0l0,0c-8.2,3.1-18.1,1.4-24.6,9c-5.4-3.7-9.6-0.2-13.9,2.3
		c-0.7,0-1.3,0.1-2,0.1c-3.8,0-7.7,0.1-11.6,0.1l0,0l0,0c-1.3,0-2.6,0-3.9-0.1c-5.6-1.1-6.7,2.9-7.9,6.9l0,0
		c-1.9,1.7-1.6,4.1-1.6,6.2c0,25.2,0.1,50.3,0.2,75.5c-0.1,7.1-0.2,14.2-0.3,21.3l0,0l0,0c-0.9,1.3-2.6,2.5-0.1,3.8
		c0.1,4.5,0.3,8.9,0.4,13.4l0,0c-0.1,3.4,0,6.9-0.5,10.2c-1,7.5,2.6,10.2,9.6,9.5l0,0l0,0c0.8,1.9,2.5,1.9,4.2,1.7l0,0l0,0
		c2.9,2.1,6.3,1.7,9.5,1.9c1.9,1.4,3.8,2.7,6.3,2.2l0,0l0,0c1.1-0.1,2.1-0.1,3.2-0.2c0.3-0.3,0.7-0.5,1.1-0.7
		c-0.3,0.2-0.7,0.5-1.1,0.7c2.7-0.1,5.3-0.2,8-0.3l-0.2,0.3l0,0c0.3,1.4-4.1,1.8-0.8,3.8c2.5,1.6,4.9,2.6,7-0.7l0,0
		c5.7,2.3,10.4,7.2,17.3,6c2.1,1.2,4.2,2.6,6.8,2.3c0.5,0,0.9,0,1.4,0c-0.4,0-0.9,0-1.4,0c2.4,2.5,5.5,1.7,8.4,2l0,0l0,0
		c4.8,5.4,12,2.8,17.6,5.3l0,0l0,0c9.8,4.2,20.3,6,30.6,8.2l0,0l0,0c3.9,3,9.9,1.5,13.1,6c2.4,6.8,6.7,2.4,10.4,1.7l0,0l0,0
		c1.2,0,2.3,0,3.5,0c0.7,0.4,1.2,0.5,1.6,0.4c6.7,1.7,12.9,5.3,20.1,5c2.4,1,4.7,2.8,7.6,2.3c0.7,0.2,1.3,0.4,1.9,0.6
		c3.8,1.1,7.6,2.2,11.4,3.3l0,0c4.6,1.5,9.1,3,13.7,4.5l0,0c2.8,2.8,5.2,0.4,7.8-0.4c4.7,5.9,11.1,5.7,17.7,5.2l0,0
		c0.5,0.2,1,0.3,1.5,0.4c5.3,5,10.6,4.6,15.9,0.1l0,0l0,0l0,0l0,0h-0.1c5.6,0.2,11,0.2,15.5-3.9c7.5,1.3,13.8-3.5,20.9-4.3
		c3.4,0.3,6.4-0.6,8.6-3.3l0,0l0,0c7,1.3,12.2-3.4,18.2-5.5l0,0l0,0c2.4,2.7,4.5,1.1,6.7-0.3l0,0c5.7-1.9,11.4-3.8,17-5.7l0,0l0,0
		c2.5-0.3,5.9,0.8,6-3.6l0,0l0,0c4.4-0.2,8.8-0.5,13.2-0.7l0,0l0,0C429.2,372.8,430,372.2,428.8,367.5L428.8,367.5z M149,181.2
		c0.1-1,0.4-1.6,0.9-1.9c0,0.8,0.1,1.4,0.2,1.9C149.7,181.2,149.3,181.2,149,181.2z M66.9,307.9c0-0.3,0-0.6,0-0.9
		c0.2,0.2,0.3,0.5,0.4,0.9C67.1,307.9,67,307.9,66.9,307.9z M105.2,344.6c0.1,0,0.1,0,0.2,0l-0.1,0.1c0.2,0,0.3,0,0.5,0
		c-0.1,0.1-0.2,0.2-0.2,0.4c-0.1-0.1-0.2-0.2-0.2-0.3C105.3,344.7,105.3,344.7,105.2,344.6z"/>
</g>
<path class="st0" d="M301.7,198.7c-0.1-0.1-0.2-0.1-0.2-0.1h0.1C301.5,198.5,301.7,198.7,301.7,198.7c2.5,1.7,3-0.9,4.2-1.9l0,0
	c2.2-0.6,3.1-2,2.5-4.3l0,0l0,0c0.1-1.9,0.1-3.8,0.1-5.8c0-4.2,0-4.2-4.2-2.7l0,0c-2,0.4-4.2,0-5.5,2.1l0,0c-0.7,0.1-1.3,0.2-2,0.3
	c-1.5-0.5-2.8,0.3-4.1,0.7c-1.3-0.4-2.6,1.4-3.8-0.1l0,0l0,0c-0.5-3,2.6-3.1,3.8-4.7c4.3-1.7,8.8-3.1,12.4-6.1
	c0.2,0,0.4-0.1,0.7-0.2c1.5,0,2.7-0.4,2.7-2.1c0.1-1.6,0-3.1,0-4.6l0,0c0.5-2.6-0.5-5.4,0.8-8c0,0,0.1,0,0.1,0.1
	c1.8,0,3.5,0.1,5,1.3c0.1,0,0.3,0,0.4-0.1c0,1.6,0.1,3.1,0.1,4.7h0.1c-0.3,0.3-0.6,0.5-0.9,0.8c-0.4,1.3-0.4,2.7-0.3,4
	c0.1,1.8-0.1,3.7,2.3,4.3c0.4,0,0.6-0.1,0.8-0.3c0.2,0.1,0.4,0.1,0.5,0.1c0.8,0.7,1.6,1.4,2.8,1.4l0,0l0,0l0,0
	c0.5,0.7,1.3,1,2.1,1.2c1.2,0.4,2,1.5,3.4,1.5c2.7,1.4,5.4,2.8,8,4.2l0,0c0.2,1.2,0.5,2.4-0.5,3.3c-1.1-0.6-2.2-0.7-3.4-0.7l0,0
	c-1.7-0.9-3.5-1.5-5.4-1.4l0,0c-1.5-0.9-3.1-1.4-4.9-1.4c-1.3-0.8-2.6-1.3-4.1-1.3c-1.4,1.7-0.4,3.6-0.6,5.4c0,1.9,0,3.7,0,5.5
	c-0.1,0.5-0.2,1.1,0.4,1.4l0,0c1.2,0.9,2.4,1.9,3.6,2.8c0,0.6,0.1,1.2,0.1,1.9l0,0l0,0c-0.6,1.6-1.5,1.6-2.8,0.7l0,0
	c-0.5-0.2-1-0.4-1.5-0.7c-1.7-2.9-3.9-2.4-6.3-0.9l0,0c-1,0.3-2.1,0.5-2.8,1.4l0,0C304.1,200.4,301.8,201.6,301.7,198.7z"/>
<path class="st0" d="M321.1,333.8c0.1,0.1,0.2,0.1,0.2,0.1h-0.1C321.3,334,321.1,333.8,321.1,333.8c-2.5-1.7-3,0.9-4.2,1.9l0,0
	c-2.2,0.6-3.1,2-2.5,4.3l0,0l0,0c-0.1,1.9-0.1,3.8-0.1,5.8c0,4.2,0,4.2,4.2,2.7l0,0c2-0.4,4.2,0,5.5-2.1l0,0c0.7-0.1,1.3-0.2,2-0.3
	c1.5,0.5,2.8-0.3,4.1-0.7c1.3,0.4,2.6-1.4,3.8,0.1l0,0l0,0c0.5,3-2.6,3.1-3.8,4.7c-4.3,1.7-8.8,3.1-12.4,6.1c-0.2,0-0.4,0.1-0.7,0.2
	c-1.5,0-2.7,0.4-2.7,2.1c-0.1,1.6,0,3.1,0,4.6l0,0c-0.5,2.6,0.5,5.4-0.8,8c0,0-0.1,0-0.1-0.1c-1.8,0-3.5-0.1-5-1.3
	c-0.1,0-0.3,0-0.4,0.1c0-1.6-0.1-3.1-0.1-4.7h-0.1c0.3-0.3,0.6-0.5,0.9-0.8c0.4-1.3,0.4-2.7,0.3-4c-0.1-1.8,0.1-3.7-2.3-4.3
	c-0.4,0-0.6,0.1-0.8,0.3c-0.2-0.1-0.4-0.1-0.5-0.1c-0.8-0.7-1.6-1.4-2.8-1.4l0,0l0,0l0,0c-0.5-0.7-1.3-1-2.1-1.2
	c-1.2-0.4-2-1.5-3.4-1.5c-2.7-1.4-5.4-2.8-8-4.2l0,0c-0.2-1.2-0.5-2.4,0.5-3.3c1.1,0.6,2.2,0.7,3.4,0.7l0,0c1.7,0.9,3.5,1.5,5.4,1.4
	l0,0c1.5,0.9,3.1,1.4,4.9,1.4c1.3,0.8,2.6,1.3,4.1,1.3c1.4-1.7,0.4-3.6,0.6-5.4c0-1.9,0-3.7,0-5.5c0.1-0.5,0.2-1.1-0.4-1.4l0,0
	c-1.2-0.9-2.4-1.9-3.6-2.8c0-0.6-0.1-1.2-0.1-1.9l0,0l0,0c0.6-1.6,1.5-1.6,2.8-0.7l0,0c0.5,0.2,1,0.4,1.5,0.7
	c1.7,2.9,3.9,2.4,6.3,0.9l0,0c1-0.3,2.1-0.5,2.8-1.4l0,0C318.7,332.1,321,330.9,321.1,333.8z"/>
<g>
	<path d="M202.2,285.9v4.2c0,2.1-0.4,4.1-1.2,6s-1.9,3.6-3.3,5.1c-1.4,1.5-3.1,2.7-5,3.5c-1.9,0.9-4,1.3-6.1,1.3
		c-1.9,0-3.8-0.2-5.7-0.8s-3.7-1.4-5.2-2.7c-1.5-1.3-2.8-3-3.8-5s-1.5-4.6-1.5-7.8v-37.9c0-2.3,0.4-4.4,1.2-6.3c0.8-2,1.9-3.6,3.3-5
		s3.1-2.5,5.1-3.3s4.1-1.2,6.5-1.2c4.6,0,8.4,1.5,11.3,4.5c1.4,1.5,2.5,3.2,3.3,5.3c0.8,2,1.2,4.2,1.2,6.6v3.9h-9.9V253
		c0-1.9-0.5-3.6-1.6-5s-2.6-2.1-4.4-2.1c-2.4,0-4.1,0.8-4.9,2.3s-1.2,3.4-1.2,5.8v35.2c0,2,0.4,3.7,1.3,5c0.9,1.4,2.4,2,4.7,2
		c0.6,0,1.3-0.1,2.1-0.4c0.7-0.2,1.4-0.6,2.1-1.1c0.6-0.5,1.1-1.2,1.4-2.1c0.4-0.9,0.6-2,0.6-3.4v-3.4L202.2,285.9L202.2,285.9z"/>
	<path d="M210.2,305.5v-68.9h15.9c11.6,0,17.4,6.7,17.4,20.2c0,4.1-0.6,7.5-1.9,10.4c-1.3,2.8-3.5,5.1-6.6,6.9l10.6,31.5h-10.4
		l-9.2-29.4h-5.9v29.4L210.2,305.5L210.2,305.5L210.2,305.5z M220.1,245.9v21.5h5.6c1.7,0,3.1-0.2,4.1-0.7s1.8-1.2,2.4-2.1
		c0.5-0.9,0.9-2,1.1-3.3c0.2-1.3,0.3-2.9,0.3-4.6s-0.1-3.3-0.3-4.6s-0.6-2.5-1.2-3.4c-1.2-1.8-3.6-2.7-7-2.7L220.1,245.9
		L220.1,245.9L220.1,245.9z"/>
	<path d="M251.4,305.5v-68.9h29.4v9.3h-19.5v20.2h17v9.3h-17v20.2h19.5v9.9H251.4L251.4,305.5L251.4,305.5z M259.4,233.5l8.7-13.6
		h10.5l-12.8,13.6H259.4z"/>
	<path d="M287.2,305.5v-68.9h14.6c5.7,0,10,1.5,12.9,4.6s4.4,7.5,4.4,13.2v32.2c0,6.5-1.6,11.2-4.7,14.3s-7.6,4.6-13.5,4.6
		L287.2,305.5L287.2,305.5z M297.1,245.9v50.3h4.5c2.8,0,4.7-0.7,5.9-2.1c1.2-1.4,1.7-3.5,1.7-6.5v-33.2c0-2.7-0.5-4.8-1.6-6.3
		s-3.1-2.2-6-2.2H297.1L297.1,245.9z"/>
	<path d="M328.7,305.5v-68.9h9.9v68.9H328.7L328.7,305.5z"/>
	<path d="M354.7,305.5v-59.6h-11.5v-9.3h32.7v9.3h-11.4v59.6H354.7z"/>
	<path d="M378.6,252.9c0-2.8,0.5-5.2,1.5-7.4c1-2.1,2.3-3.9,3.9-5.3c1.5-1.4,3.3-2.4,5.3-3.1c2-0.7,3.9-1.1,6-1.1s4,0.4,6,1.1
		s3.8,1.7,5.4,3.1c1.5,1.4,2.8,3.2,3.8,5.3s1.5,4.6,1.5,7.4v36.4c0,2.9-0.5,5.4-1.5,7.5s-2.2,3.8-3.8,5.1c-1.6,1.4-3.4,2.5-5.4,3.2
		c-2,0.7-4,1.1-6,1.1s-4-0.4-6-1.1s-3.7-1.8-5.3-3.2c-1.6-1.4-2.9-3.1-3.9-5.1c-1-2.1-1.5-4.5-1.5-7.5V252.9z M388.4,289.3
		c0,2.4,0.7,4.1,2,5.3c1.3,1.1,2.9,1.7,4.7,1.7c1.8,0,3.4-0.6,4.7-1.7c1.3-1.1,2-2.9,2-5.3v-36.4c0-2.4-0.7-4.1-2-5.3
		s-2.9-1.7-4.7-1.7c-1.8,0-3.4,0.6-4.7,1.7c-1.3,1.1-2,2.9-2,5.3V289.3z"/>
	<path d="M452.3,256.5h-9.9v-2.2c0-2.3-0.5-4.2-1.6-5.9s-2.9-2.5-5.4-2.5c-1.4,0-2.5,0.2-3.3,0.8s-1.5,1.2-2,1.9
		c-0.5,0.8-0.9,1.8-1.1,2.9s-0.3,2.2-0.3,3.3c0,1.4,0,2.5,0.1,3.4s0.4,1.7,0.7,2.4c0.4,0.7,1,1.3,1.7,1.8s1.8,1,3,1.5l7.5,3
		c2.2,0.8,4,1.8,5.3,3c1.4,1.1,2.4,2.4,3.2,3.9c0.7,1.5,1.2,3.3,1.5,5.3s0.4,4.2,0.4,6.7c0,2.9-0.3,5.6-0.9,8.1s-1.5,4.6-2.8,6.3
		c-1.4,1.8-3.1,3.2-5.3,4.2c-2.2,1-4.9,1.5-8,1.5c-2.4,0-4.6-0.4-6.7-1.3c-2.1-0.8-3.8-2-5.3-3.5s-2.7-3.2-3.5-5.2s-1.3-4.1-1.3-6.4
		v-3.7h9.9v3.1c0,1.8,0.5,3.4,1.6,4.9s2.9,2.2,5.4,2.2c1.7,0,3-0.2,3.9-0.7s1.7-1.2,2.2-2.1c0.5-0.9,0.8-2,0.9-3.2
		c0.1-1.2,0.1-2.7,0.1-4.2c0-1.8-0.1-3.3-0.2-4.4c-0.1-1.2-0.4-2.1-0.8-2.8c-0.4-0.7-1-1.3-1.8-1.7c-0.7-0.4-1.7-0.9-3-1.5l-7.1-2.9
		c-4.2-1.7-7.1-4.1-8.6-6.9c-1.5-2.9-2.2-6.5-2.2-10.8c0-2.6,0.4-5,1.1-7.4c0.7-2.3,1.8-4.3,3.2-6c1.4-1.7,3.1-3,5.2-4
		s4.6-1.5,7.5-1.5c2.5,0,4.7,0.4,6.7,1.4s3.8,2.1,5.3,3.6c3,3.1,4.4,6.6,4.4,10.6L452.3,256.5L452.3,256.5L452.3,256.5z"/>
</g>
</svg>
