<?xml version="1.0" encoding="utf-8"?>
<!-- Generator: Adobe Illustrator 24.0.0, SVG Export Plug-In . SVG Version: 6.00 Build 0)  -->
<svg version="1.1" id="Layer_1" xmlns="http://www.w3.org/2000/svg" xmlns:xlink="http://www.w3.org/1999/xlink" x="0px" y="0px"
	 viewBox="0 0 600 600" style="enable-background:new 0 0 600 600;" xml:space="preserve">
<style type="text/css">
	.st0{fill:#0015C4;}
	.st1{fill:#AF1049;}
</style>
<g>
	<path class="st0" d="M443.5,330L443.5,330c1.5-1.3,1.6-2.5-0.5-3.4c-0.1-0.4-0.2-0.8-0.1-1.2h0.1l0,0l0,0c0.4,0,0.9-0.2,1.3-0.3
		c2.6-1.7,2.6-4.4,2.5-7.1l0,0c0-1.5,0.1-3,0.2-4.5l0,0c0-1.9,0.1-3.8,0.2-5.8c1.2-4.5-2.4-7.9-2.1-13.3c-2.9,2.7-1.7,5.1-2.3,7
		c-5,1.1-1.8,4.8-2.4,7.3l0,0c-0.2,1.6-0.3,3-0.5,4.6l0,0l0,0c-1,0.3-2.7-0.6-2.6,1.6l0,0l0,0c-0.3,1,0.2,1.4,1.2,1.6
		c0,0.5,0.2,0.9,0.3,1.3c-0.5,1.2-1.1,2.6,0.8,3.2l0,0l0,0c-2.3,1.2-3.2,3.4-3.6,5.8c-1.6,1.6-2.2,3.5-0.7,5.4l0,0
		c-0.5,0.6-1,1.2-1.4,1.7c-2.6,1-4.2,2.9-4.4,5.8l0,0l0,0c-0.4,1.1-0.8,2.1-1.3,3.2l0,0l0,0l-0.2-0.1c-0.5,0.5-0.9,1.1-1.4,1.6l0,0
		l0,0h0.2c-0.5,0.5-1,1.1-1.6,1.4l0.1,0.1c-0.1,0-0.2,0.1-0.2,0.2c-0.5,0.4-0.9,0.8-1.4,1.2l0,0c-1.2,0.2-2.4,0-2.8,1.5l0,0l0,0
		c-2.1-0.4-3.3,0.9-4.6,2.1c-0.5,0.4-1.1,0.8-1.6,1.2c-1.5,1-3,2-4.5,3l0,0l0,0c-1.6,1-4,1.3-4.2,3.9l0,0l0,0
		c-1.7-0.3-3,0.4-4.1,1.6c-1.5-0.7-2,0.8-2.9,1.4c-2.9-0.6-5.1,1.6-7.7,2.1l0,0l0,0c-2.8,0.7-5.4,1.8-7.4,4.1l0,0l0,0
		c-3.8-1.3-7.2,0-10.5,1.5l0,0l0,0c-0.9-0.2-1.2,0.3-1.3,1.2c-4,0.7-8.3-1.2-12.1,1.5c-3.3,0.2-6.6,0.3-9.9,0.5l0,0
		c-5.8,1.6-11.9,0.9-17.8,1.5c-4,0-7.9,0-11.9,0l0,0c-3.5-0.2-6.9-1-10.4-0.1c-1-0.1-1.9-0.2-2.9-0.2c-3-2.2-6-2.1-9.1-0.3l0,0
		l-0.2,0.1l0,0l0,0c-1.2-0.5-2.4-1.1-3.6-1.6c-2.5-1.7-5.4-0.8-8.1-0.9l0,0l0,0c-0.5,0-1-0.1-1.5-0.1l0,0c-4.9,0-9.6-2.7-14.7-1.3
		l0,0l0,0c-0.5-1.2-1.6-1.6-2.8-1.6l0,0c-1.6-3.3-3-0.4-4.5,0.2l0,0l0,0c-2.5-0.5-5.4,0.3-7.4-2l0,0l0,0c-0.5-0.5-1.1-1-1.6-1.4
		c-0.9-2.1-2.9-1.1-4.4-1.4l0,0l0,0c-2.2-1.9-5.1-1.7-7.7-2.5c-0.9-0.2-1.8-0.2-2.7-0.4l0,0l0,0c-4.5-2.3-9.2-3.7-14.3-3l0,0l0,0
		c-1.3-0.9-2.6-1.7-3.9-2.6l0,0c-2.6-2-5-4.2-8.4-1.5c-0.9-0.6-1.9-1.2-2.8-1.7c-2.3-2.9-6-2.7-9.1-4.1c-0.9-0.2-1.8-0.4-2.6-0.6
		c-1.9-4.9-7.2-4.5-10.9-6.7c-0.2-0.3-0.6-0.4-1-0.3c-1.6-2.1-4.4-1.6-6.3-2.8c-1.4-0.5-2.9-1-4.3-1.5c-0.4-0.2-0.9-0.3-1.3-0.4
		c-0.8-3.6-3-4.8-6.3-3c-1.8,0-3.6-0.1-5.4-0.1c0.1-0.5-0.1-0.8-0.5-1.1c-0.6-2.2-2.6-1.5-4-1.8c-0.7-0.8-1.2-1.7-1.9-2.6l0,0
		c-1.2-3.6-3.5-5.4-7.3-4.9c0.7-3.3-0.2-5.2-4-4.3c-1.6-3-3.7-3.6-6.3-1.2c-1.8-0.2-4,1-4,2.1c0.1,1.3,2.1,2.1,3.8,2.4
		c0.3,0.8,0.7,1.5,1.8,1.2l0,0l0,0c1.4,1.2,2.8,2.2,4.3,3.4c0.4,1.5,1.6,1.5,2.8,1.6l0,0c2,1.3,4,2.6,5.9,4l0,0
		c1.1,0.7,2.1,1.2,3.1,1.9c0.2,1.3,1.2,1.3,2.3,1.2l0,0l0,0c0.8,1.2,2,1.9,3.5,1.7c1.4,2.2,3.9,3,6.1,3.9c1.4,0.7,2.9,1.3,4.3,2l0,0
		l0,0c0.6,1.6,1.7,1.5,3,1.1c2.2,0.7,3.1,4.3,6.3,2.9c0.8,0.1,1.6,0.2,2.4,0.3c0.6,0.6,1.2,1.1,1.6,1.6c1.7,2.8,4.4,3.6,7.5,4
		c2,1,4,2,5.9,3l0,0l0,0c2.5,1,4.9,2.1,7.4,3l0,0c0.5,0.1,1,0.2,1.6,0.2l0,0l0,0c2,0.9,4,1.7,5.8,2.6l0,0c0.9,0.2,1.9,0.3,2.8,0.6
		l0,0l0,0c1.7,1.6,3.9,1.8,6,2.1l0,0c4-0.5,6.3,3.8,10.3,3.3l0,0l0,0c2,2.2,5.2,1.3,7.4,3l0,0l0.7,0.2l0.7-0.2
		c2.5,0.3,4.7,2.3,7.4,1.6c1.6,1.6,3.7,1.8,5.9,1.5c0.6,0.2,1.1,0.5,1.6,0.7l0,0l0,0c4-0.2,7.7,4,11.9,0.8c2.1,1.3,4.5,1.6,7,1.6
		l0,0l0,0c0.7,0.5,1.4,1,2.1,1.5l0,0c2.4,1.6,4.7,2.3,7.2,0.2l0,0l0,0c0.9,0.5,1.8,1,2.7,1.5c2.1,1.3,4.2,2.3,6.2-0.2
		c0.9,0,1.8,0,2.7,0c0.7,1.2,1.7,1.6,3,1.2l0,0l0,0c4.7,3.2,10,1.2,15,1.6c1.2,0,2.3,0.1,3.5,0.2c6.1,1.6,12.3,1.3,18.5,0.7l0,0
		c2.1,0.4,4.1,0.2,6-0.7c4-0.1,7.9-0.2,11.9-0.3l0,0l0,0c3.5-0.5,7-1,10.5-1.5c4-0.7,8.1-0.3,11.7-2.6l0,0l0,0l0,0
		c2.1-0.7,5.6,1.6,6.3-2.6c0.5,0,0.8-0.2,1.1-0.6l0,0l0,0l0.7,0.1h0.7c3,2.8,4.9-0.5,7.4-1.2l0,0c2.6-1.2,5-2.3,7.6-3.4
		c0.9-0.1,1.8-0.2,2.7-0.2l0,0l0,0c0.6-0.3,1.2-0.7,1.6-1l0,0c1.5-0.6,3-1.2,4.4-1.8l0,0l0,0c1.5-0.9,3-1.8,4.4-2.6l0,0l0,0
		c3.9-0.7,5.8-4.3,8.8-6.3l0,0l0,0c3-0.8,4.4-3.4,6.1-5.6c3.9-1.6,2.6-5.9,4.4-8.7c2.7,0.9,4.7-0.2,5.9-2.5
		C440.3,337.3,441.8,333.6,443.5,330z M337.9,379.9C337.9,379.9,337.9,380,337.9,379.9C337.9,380,337.9,380,337.9,379.9
		C337.9,380,337.9,379.9,337.9,379.9z M349.6,376.9L349.6,376.9C349.6,377,349.6,377,349.6,376.9C349.6,377,349.6,376.9,349.6,376.9
		S349.6,376.8,349.6,376.9L349.6,376.9C349.7,376.9,349.7,376.9,349.6,376.9z M376.5,377.2L376.5,377.2c0.1-0.2,0.3-0.4,0.5-0.5
		C376.8,376.8,376.6,377,376.5,377.2z"/>
	<path class="st0" d="M51.7,208.2c2.2,0.6,6,2.1,7.2-2.3c0.5-1.9,1.1-3.7,1.6-5.6c0.4-1.6,0.8-3.2,1.2-4.8c0.4-0.2,0.9-0.5,1.3-0.7
		l0,0l0,0c2.1-0.7,1.2-2.6,1.6-3.9l0,0l0,0c2.5-0.6,3.1-2.7,4-4.6c1.1-1.4,2.2-2.8,3.3-4.3l0,0c2.5-3,4.9-5.9,7.4-8.9
		c2.2,0.2,3.6-0.9,4.6-2.7c1.3-1.2,2.7-2.4,4-3.6c2.1,0.4,3.5-0.6,4.5-2.3l0,0l0,0c2.1-0.3,3.6-1.2,4.5-3.2l0,0l0,0
		c2.1-2,6.5-0.2,7.3-4.4c0.9-0.2,1.7-0.2,2.6-0.4l0,0l0,0c3.5,0.2,6.2-1.8,9.2-3c1.8-1.6,4.6-0.3,6.2-2.5l0,0l0,0
		c1.6-0.2,3.4,0.2,4.4-1.5c1.5-0.3,3.5,0.6,4.3-1.6l0,0l0,0c4.8,0.1,9.3-1.1,13.7-2.8l0,0c2.3-0.2,4.6-0.2,6.9-0.4l0,0l0,0l0.7,0.2
		l0.7-0.2c2.3-1.6,4.9-1.2,7.5-1.6l0,0l0,0c3.1,0.2,6.3,0.5,9.2-0.9l0,0c2.2,0.7,3.4-1.6,5.3-1.9l0,0c1.9,1.2,3.8,1.5,5.8,0.2
		c0.1-0.1,0.2-0.2,0.2-0.3c0.1,0.1,0.1,0.2,0.2,0.2l-0.3,0.1c5.4,3,11,0.8,16.5,1.2c0.1-0.4,0-0.7-0.1-1.1c0.1,0,0.1,0,0.2,0
		l-0.1-0.4c0.2,0,0.2,0,0.4,0c-0.1,0.2-0.2,0.2-0.3,0.4c0,0.3-0.1,0.7-0.1,1.1c3.9,0.1,7.7,0.1,11.6,0.2c0.7,0.2,1.4,0.2,2.1,0.4
		l0,0l0,0c6.3,0.8,12.6,1.6,18.8,2.4c2.7,0.2,5.5,0.2,8.2,0.4c3.3,2.1,7.3,1,10.8,2.5l0,0l0,0c1.8,0.2,3.7,0.3,5.5,0.5
		c1.8,1.9,4.1,1.2,6.3,1.4c2,2.1,4.6,1.4,7,1.6c2.1,2.1,4.1,1.2,6.3,0.2c1.2,2.3,3.4,2.9,5.8,2.9l0,0l0,0c0.8,1.4,2.1,1.2,3.3,1l0,0
		l0,0c2.5,1,4.9,1.9,7.3,2.9c1.4,0.2,2.8,0.3,4.1,0.5l0,0l0,0c1.6,1.9,4.1,1.6,6.1,2.5l0,0l0,0c0.9,0.1,1.9,0.2,2.9,0.3l0,0
		c3,1.2,6,2.4,9.1,3.6l0,0l0,0c2.1,1.5,4.7,0.2,6.9,1l0,0l0,0c1.2,1,2.2,1.9,3.3,2.9l0,0l0,0c0.8,1.8,2.8,1.2,4.1,2l0,0
		c3.1,1.2,6.2,2.6,9.3,3.8l0,0c2.2,1.9,4.4,3.5,7.6,2.6c0.8,0.2,1.6,0.3,2.6,0.5c-0.1,0.4,0,0.7,0.3,1l0,0c1.8,3.6,5.8,2.6,8.6,4.1
		l0,0c0.7,2.2,3.1,2.1,4.4,3.5c1.1,1.8,3,2,4.8,2.7l0,0c2,1.2,4,2.4,5.9,3.5l0,0l0,0c0.4,1.5,1.8,1.1,2.9,1.4c1,1.5,2.2,2.7,4,1.9
		c0.5-0.2,0.2-2.2,0.2-3.5l0,0c0.2-0.5,0.5-1,0.8-1.6c1,0.7,0.9,3,3,2.4c1.2-0.4,1.1-1.6,0.8-2.4c-0.6-2.3-2.5-1.7-4-1.6
		c-1-0.6-2.1-1.2-3-1.8l0,0c-3-3-5.9-6.2-10.5-6.8c-1.6-1.4-3.3-2.2-5.4-2c-0.4-3.2-2.1-4-4.9-2.6c-0.6-0.6-1.2-1.2-1.6-1.6l0,0
		c-0.7-3.5-3.6-0.9-5.3-1.9c0-3.9-2.6-3-4.9-2.5c-0.4-0.2-0.8-0.3-1.3-0.3l0,0l0,0c-0.3-4-3.8-3.2-6.1-4.3c-2-0.9-4-1.8-5.9-2.7l0,0
		l0,0c-0.5,0-1,0-1.4,0c-2.6-2.4-5.7-2.1-8.8-1.9c-1.1-2.8-3.5-3-5.9-3c-1.4-3.9-4.4-3.3-7.3-2.6c-0.4-0.2-0.9-0.3-1.4-0.3
		c-2-3.5-5.4-4-9-4.4c-0.2-0.2-0.6-0.4-0.8-0.4c-3-1.5-6-2.8-9.5-1.3c-1.8-1.6-3.8-2.6-6.1-3l0,0l0,0c-1.6-2.1-2.9,0.5-4.3,0.5
		c-0.3-0.3-0.7-0.5-1.2-0.4c-0.2-3.5-2.9-2.4-4.9-2.6l0,0l0,0c-0.8-0.2-1.7-0.2-2.6-0.4c-2.8-2.3-6-1.2-9.1-1.3l0,0l0,0l0,0
		c-1.5-2.1-3.9-1.8-5.9-2.5l0,0c-1.6-0.1-3-0.2-4.6-0.2c-5.8-2-11.6-2.6-17.7-2.7c-1.5-0.2-2.9-0.2-4.4-0.4L224,136l0,0
		c0.1-0.1,0.2-0.2,0.2-0.2c-3.8-2-7.9-1.2-11.9-1.1c-3-0.2-6.1-0.3-9.1-0.5l0,0l0,0c-6.7-1.8-13.5-0.7-20.2-0.9l0,0
		c-2-0.1-4-0.2-5.9-0.2c-1.8-0.1-3.6-0.3-4.8,1.6l0,0c-1.9,0.1-3.7,0.1-5.6,0.2c-2.8-0.3-5.7-0.7-8.2,1.1c-2.2,0.2-4.4,0.2-6.7,0.4
		l0,0l0,0c-3.3,0.6-6.6,1.2-10,1.7l0,0c-1.2,0.4-2.3,0.7-3.4,1.2l0,0l0,0c-4.6-0.2-8.2,2.2-11.9,4.4c-4.3-0.8-8.4-0.7-11.7,2.7
		c-1.5,0.7-3.5-0.7-4.9,1.2l0,0l0,0l0,0l0,0c-0.4,0.7-0.9,1.2-1.3,1.9c-2.7,0.3-6.1-1-7.3,2.9l0,0c-2,1.1-3.9,2.1-5.8,3.2
		c-2.6-0.6-4.8,0.2-6,2.7c-1.1,0.2-2.5-0.2-2.9,1.4c-2,0.2-3.7,0.8-4.3,3c-1,1.2-3.1,0.7-3.5,2.6c-0.5-0.1-0.8,0.2-1,0.7l0,0l0,0
		c-0.5,0.4-1.1,0.8-1.6,1.2c-3.5,2.3-6.4,5.3-8.9,8.6c-1.9,1.6-4.6,2.8-4.1,6.1l0,0c-2.1,1.6-4,3.4-4.9,6c-0.8,0.2-1.3,0.4-1,1.3
		l0,0l0,0c-0.9,1.9-2.6,3.6-1.6,6l0,0c-0.7,1.7-4.1,1.6-3,4.5l0,0l0,0c-0.4,1.2-0.9,2.2-1.1,3.3C51.2,204.8,48,207.2,51.7,208.2z
		 M67.2,178.7c0-0.1,0-0.2,0-0.2c0.2,0,0.3,0,0.5,0C67.5,178.6,67.4,178.7,67.2,178.7L67.2,178.7L67.2,178.7z"/>
	<path class="st0" d="M386.3,203c2.1,1.1,4.4,0.6,6.3,1.6c0.5,0.3,0.9,0.7,1.3,1c0.7,0.4,1.3,0.8,1.6,1.6l0,0c1.5,2.8,5.3,1.9,7,4.3
		c-0.1,4.2,2.6,5.8,7.4,6.8c-2.4-3-4.1-5.2-5.8-7.3l0,0l0,0c0-4.9-4-4.5-7-5.5c-0.5-3,1.2-7.2-4.4-7c-0.7-0.6-1.3-1.2-1.9-1.6
		c-0.2-2.1-1.9-2.6-3.5-2.8c-0.2,0-0.7,1.6-1,2.5C381.4,198.6,381.1,200.4,386.3,203z"/>
	<path class="st0" d="M56.8,217.1c-3-3.2-4.9-5.1-6.7-7.2c-1.2,2.9-3.3,5.7-1.6,7.7C49.4,218.6,53,217.4,56.8,217.1z"/>
	<path class="st0" d="M318.2,191.8c2.1,0.7,4.2,1.3,6.3,2c0.7,2.1,2.9,1.5,4.2,2.5l0,0c1.8,0.9,3.5,2.9,5.8,0.8
		c1.8,1.8,2.5,5.3,6.3,4c1.2-0.4,1.3-1.1,1.2-2.1c-0.2-2.8-1.4-4.9-4.4-5.3c-0.5-0.1-0.9-0.1-1.4-0.1c-0.6-1-1.3-1.7-2.6-1.2
		c-0.5,0-1,0-1.5,0c0,0.2,0,0.4,0,0.6l0,0c0-0.2,0-0.4,0-0.6c-0.9-0.4-1.4,0-1.6,0.9l0,0l-0.2,0.2c-2,0.2-3.9,0.2-5.5-1.2l0,0
		c-0.9-1.1-1.7-2.1-2.6-3.1l0,0c-2.7-1.2-3.2-8-8.2-3.1l0,0l0,0c-0.4-0.1-0.8,0.1-1.2,0.4c-1.8-0.8-3.3-3-5.7-1.5
		c-3-2.5-1.3-9.2-7.7-8.7l0,0l0,0c-3.1-2.1-6.7-1.2-10.1-1.8l0,0c-4.9-4.6-9.9-6.4-15.6-1.3c-2.1-0.1-4.4-0.2-6.5-0.2l0,0
		c-2.3-1.6-2.3-5.6-6-5.8c-0.4-4.3-3.6-2.6-5.8-2.8l0,0c-3.5,0.1-7.1,0.1-10.6,0.2c-3.7-1.7-6.6,2.1-10.1,1.6
		c-2.8-1.2,0.1-5.2-3.2-6.1c-0.9-0.8-1.9-0.7-2.9-0.4l0,0l0,0c-2.8-1.7-5.8-1.2-8.7-1l0,0l0,0c-1.9-0.3-3.7-0.7-5.6-1l0,0l0,0l0,0
		l0,0c-1.6-0.2-3.2-0.2-4.9-0.4l0,0l0,0c-2.1-1-3.9,0.2-5.7,0.9c-1.5-2.6-4.1-0.7-6-1.6c-4.9-1.9-9.8-2-14.7,0l0,0
		c-0.6,0.2-1.1,0.3-1.6,0.5l0,0l0,0c-0.7-0.1-1.5-0.3-2.1-0.2c-1.7,0.5-5-1.6-4.9,1.8c0.1,2.4,2.9,2.7,5.1,2.6
		c0.9-0.1,1.9-0.1,2.9-0.2c1.2,0.1,2.3,0.1,3.5,0.2c0.6,1.3-2.6,1.9-0.8,3.5c1.3,1.2,2.6,0.2,3.8-0.4c4,2,7.9-1.2,11.9,0l0,0l0,0
		c1.6,2.5,4,1,6,1.1l0,0l0,0c1,0,2,0.1,3,0.1c1.9,0,3.8,0,5.7,0l0,0l0,0c3.7-0.4,1.5-3.1,1.8-4.9c0.9-0.3,1.9-0.7,2.9-0.9l0,0l0,0
		c1.7,1.2,3.6,2.2,5.8,1.5c0.1-0.1,0.2-0.2,0.4-0.2c-0.2,0.1-0.2,0.2-0.4,0.2c1.6,0.5,1.2,2.1,1.9,3.1l0,0c-0.7,0.6-2,1.1-2.1,1.8
		c-0.3,1.4,1.2,1.1,1.9,1.2c1.6,0.2,3.3,0.2,4.9,0.2l0,0c4.6,0.7,9.1,3.3,14,1.5l0,0c2.6,2.4,6.2-0.4,8.9,1.4c3,4,8.2,1.7,11.9,4.1
		c4.5-0.8,7.7,3.5,12.1,3.2l0,0l0,0c1.1,1.4,2.6,1.5,4.1,1.2c1.7,1.4,3.8,1.8,5.9,1.8l0,0c2.6,1.7,5.7,2.4,8.8,2.9
		c2.6,2.3,6.2,2.6,9.2,3.7c2.1,0.1,3.5,3.5,6,0.9l0.4,0.2l0.4-0.1l0,0l0,0C315.3,189.4,316.8,190.6,318.2,191.8z"/>
	<path class="st0" d="M470.9,309.1L470.9,309.1L470.9,309.1c0-0.5-0.1-1.1-0.1-1.6l0,0c0.2-3,0.5-5.9-0.5-8.8l0,0l0,0
		c-0.8-2.5-1.6-4.9-2.4-7.3c1.1-5.4-3-9-4.6-13.4c0.7-1.8-0.5-3.1-1.4-4.4c-0.7-2.6-1.9-4.8-4-6.3c-1.2-5.1-1.2-5.1-9.5-3.2
		c0.7,3.7,5.1,0.5,6.3,3.5c-2.2,1.1-2.1,2.7-1.2,4.5c-0.3,3.5,2,6,3.1,8.9l0,0l0,0c1.5,4.4,3,8.8,4.5,13.2l0,0l0,0
		c0.6,2.1,0.1,5.4,4,4.2l0,0c1.8,0.4,1.4,2.1,1.7,3.2c-0.1,0.5-0.2,0.9-0.3,1.4c-0.8,0.2-1.6,0.3-1.4,1.6l0,0
		c-0.2,0.5-0.2,1,0.2,1.4c-2.3,6.3-3,12.8-1.8,19.4l0,0c-0.5,1.4-1,2.8-1.4,4.2c-1.7,0.5-1.4,1.9-1.4,3.1c-1.5,1.2-1.4,2.9-1.6,4.4
		l0,0l0,0c-0.9,2-1.7,4-2.6,5.9c-1.2,1.9-3.5,3.2-2.8,6c-0.2,1.9-3.2,0.7-3.1,2.9c-0.7,1-1.3,2-2.1,3c-1.4,1.4-2.7,2.8-4.1,4.2l0,0
		l0,0l0,0l0,0c-0.7,2.1-4.4,2.5-3.1,5.6c-2.4-0.1-3,1.2-2.5,3.3c-0.2,1.9-1.4,4.3,0.3,5.6c0.8,0.7,2-1.3,2.6-2.6l0,0l0,0
		c0.9-0.9,1.8-1.8,2.7-2.7c3.5,0.3,3.3-2.1,3.1-4.3l0,0c0.4-0.5,0.9-1,1.3-1.5l0,0c0.5-0.5,1-1,1.5-1.5l0,0l0,0
		c3.1,0.1,4.2-2.1,5.1-4.5l0,0l0,0c0.7-1.5,1.6-3,2.3-4.4l0,0l0,0c2.8-0.2,4.7-1.2,4.1-4.4l0,0c1.2-2.4,4.1-4,3.4-7.3
		c0.4-0.6,0.8-1.1,1.2-1.6l0,0l0,0c2.1-2.1,2-4.9,2.7-7.5l0,0l0,0c0.5-2.5,1-4.9,1.5-7.4l0,0c0.1-4.3,0.2-8.6,0.2-12.8l0,0
		C471,310.3,470.9,309.7,470.9,309.1z M466.4,303.1L466.4,303.1c-0.4,0.6-0.8,1-1.4,1.5C465.5,304.1,466,303.6,466.4,303.1z"/>
	<path class="st0" d="M429.8,239.5c0.6,2.3,2.5,3.4,4.1,4.7l0,0l0,0c1.2,1.2,0.3,4.3,4,3c3-1.1,5.8,0.2,5.3,4.4l0,0
		c-0.1,0.4-0.2,0.9-0.3,1.3l0,0l0,0c2.4,3.7,5.4,1.5,6.4-0.4c1-1.6-1.4-2.8-3.5-2.6c-0.5-2.5,0.2-5.7-3.8-6l0,0l0,0
		c-0.2-3.2-3-4.3-5-6.1c0-0.5-0.2-0.9-0.4-1.2c-0.7-2.5-3.2-1.2-4.6-2.4c-1.6-1.3-3-0.7-4.3,1.5
		C425.7,239.1,430.3,237.7,429.8,239.5z"/>
	<path class="st0" d="M398.6,232.3L398.6,232.3c-2.1-2.4-3.1-6.5-7.7-5.6c-0.2,0.2-0.2,0.6-0.3,0.8c-1,1.1-3.9,0.8-2.6,3.4l0,0l0,0
		c0.4,3.5,3.7,4.3,6,5.9l0,0l0,0c2.4,3.8,5.2,5.2,8.9,1.6c1.1-0.2,2.1-0.4,3.1-0.6C404.6,234.6,402.1,232.8,398.6,232.3z"/>
	<path class="st0" d="M347.9,203.9c-0.4,0-0.8,0-1.2,0C347.2,204.6,347.6,204.4,347.9,203.9z"/>
	<path class="st0" d="M389.7,223.9c-1.5-2.6-3.8-3.6-5.9-5c-1.6-1-3.1-2-4.7-3l0,0c-1.5-2.7-5.1-2.1-6.8-4.5l0,0l0,0
		c-0.6-0.5-1.2-1-1.8-1.5l0,0l0,0c-2.7-3.1-6.6-2.9-10.2-3.2c0.2-6-4-4.4-7.3-4.3c-3.9-9.4-3.9-0.7-5,1.5c1.4,0,3.1,0,4.8,0
		c1.6,0.3,3.3,0.3,3.4,2.9c0.1,2.1,1.1,4.8,4,1.9c3.6-1.3,5.7,2.1,8.6,3l0,0l0,0c0.1,0.9,0.2,1.8,0.2,2.7l0,0
		c-1.1,0.2-2.9-0.3-2.7,1.5c0.2,2.4,2.5,2.6,4.3,3.2c2.2,2.2,4.4,4.9,6.7,0c1.7,0.5,3.5,0.9,5.2,1.4l0,0l0,0
		C384.2,222.5,385.3,226.1,389.7,223.9z"/>
	<path class="st0" d="M413.2,223.4L413.2,223.4L413.2,223.4c1,2.1,2.8,3.1,4.6,4.2c0.7,0.6,1.2,1.2,1.9,1.8c2.7,3.4,3.4,3.3,4.8-0.4
		l0,0c-0.4-0.9-0.8-1.9-1.2-2.8l0,0l0,0c0.5-2-0.2-3.1-2.3-3.2l0,0l0,0c-1-1.3-1.9-2.8-3-4c-2.5-2.6-1.5,0.5-2,1.2l0,0l0,0
		c-2,1.2-4.1-2.3-5.5-0.3C409.6,221.4,411.9,222.6,413.2,223.4z"/>
	<path class="st0" d="M154.6,165.9c0.4,0,0.7-0.1,1.2-0.1c4.1,2.6,7.9,0.5,12.3-0.5c-2.2-2-3-4.6-6-4.4c0.1-0.4-0.1-0.8-0.3-1.2
		c-1.9-2.9-4.3-1.4-6.7-0.9l0,0c-1.2,0.6-1.7,2.4-3.5,2l0,0c-2,0.2-4,0.3-6,0.5c-3.1-0.7-5.9,0.4-8.7,1.6l0,0
		c-2.6,1.5-6.5,0.2-7.9,4l0,0l0,0c-0.5-0.1-0.8,0.1-1.2,0.4l0,0l0,0c-0.5-0.2-0.9-0.2-1.4-0.1c-4.5,1.4-9,2.8-13.5,4.2l0,0l0,0
		c-1.9,0.3-3.5,1.1-4.4,3c-1.5,1.1-3,2.1-4.5,3.2c-1.1,0-2.5-0.7-2.7,1.2c-0.2,0.5-0.3,0.9-0.5,1.4l0,0c-1.1,0.1-2.2,0.1-2.6,1.5
		c-2,0-3.6,0.3-3.4,2.9c-2.4,0-4.5,0.7-5.5,3.1c-1.9,0.7-1.1,2.8-2.3,3.9c-4.7,0.7-5.1,4.1-5.1,7.8c-2.1-0.1-3.2,0.7-2.8,3l0,0l0,0
		c-2,1.5-2.8,3.6-2.9,6c-1.4,2.8-3.6,5.5-1.3,8.9c-0.2,0.6-0.5,1.2-0.7,1.8l0,0c-2.1,3.1-1.5,6.6-1,10c-0.7,1.6-0.4,3,0.2,4.4
		c0,2.6-1.1,5.4,1.2,7.7c-0.1,3.7,0.7,7.2,2.9,10.3l0,0l0,0c0.1,0.5,0.2,1,0.3,1.5c1.1,3,2,6,4.1,8.4c0.1,1.9,1.2,3,3,3.4
		c0.2,2.9,1.6,5.1,3.1,7.4l0,0c0.7,1.1,1.6,2.1,2.3,3.1l0,0l0,0c0,0.5,0.2,0.9,0.7,1.2c1.4,2,2.8,4,4.2,5.9l0,0
		c1.1,1.7,2.3,3.4,4.3,4.2l0,0c0.5,0.2,1,0.3,1.4,0.4l0,0l0,0c1.1,1.4,2.1,2.9,3.2,4.3l0,0l0,0c-0.3,3,1.9,3.8,4,4.6
		c1.5,2.6,3.7,4.4,6.1,6.1c0.6,0.3,1.2,0.6,1.7,0.9c1,0.5,2,1.1,2.9,1.6c-0.5,2.5,1.2,3.6,3,4.7l0,0l0,0c1.6,1.7,3.4,3.1,5.9,2.5
		l0.7,0.2l0.7-0.1c2.9-1.4,2.5-2.9,0-4.2l0,0l0,0c-0.3-0.3-0.7-0.6-1.2-0.7l0,0c-2.1-2.5-3.9-5.4-7.7-5.4l0,0
		c-0.1-0.5-0.2-1-0.3-1.5l0,0l0,0c0.2-1.8-1.2-2.3-2.3-3c-0.1-2.1-1.2-3.6-3-4.4c-0.7-1.1-1.3-2.1-2-3.1l0,0c-0.4-2.2-1.9-2.9-4-3
		l0,0c-0.5-0.5-0.9-0.9-1.4-1.3c-1.6-2-1.6-5-4.4-5.9c-0.2-0.8-0.7-1.5-1.6-1.2l0,0l0,0c-0.3-0.2-0.7-0.3-1.2-0.2
		c-0.2-0.5-0.2-1-0.4-1.5l0,0l0,0c0.5-3.1-1.7-5.1-3.2-7.4c-1.9-3-3.9-6.1-5.8-9.1l0,0c0.3-1.2,0.1-2.3-1.2-2.8
		c-1-2-1.9-3.9-2.8-5.8l0,0l0,0c-0.6-1-1.1-2-1.6-3l0,0l0,0c-0.3-0.9-0.7-1.8-1-2.8c-1.1-4.2,3-10.5-4.8-12.1c0-0.5-0.2-0.9-0.3-1.3
		c2.1-4.5-2.3-4.6-4.4-6.3c0-0.7,0.1-1.5,0.1-2.2c2.2-1.4,5.4,1,7.3-1.7c0.1,0,0.1,0,0.2,0l0,0l0,0l-0.1-0.1l0,0c0,0,0,0-0.1-0.1
		l0,0c0,0,0,0,0.1,0.1c2.2-0.8,1.7-2,0.2-3.1l0,0l0,0c1.2-1.7,2.1-3.5,0.4-5.4c2.8-0.5,3.1-2.4,2.6-4.7c3.7,0.1,2.6-2.5,2.5-4.4
		c0.2-0.5,0.3-0.9,0.5-1.4c0.6-0.1,1.1-0.2,1.6-0.3l0,0l0,0c2.2-1.2,3-3.5,4.1-5.6c1.5-1.5,3-3,4.4-4.4l0,0l0,0c1.5-1.6,3-3,4.6-4.6
		c0.9-0.5,1.8-1.1,2.7-1.6l0,0c1.1-0.7,2.1-1.6,3.3-2.4l0,0l0,0c2.9-1.3,5.8-2.5,8-4.9l0,0c1.4,0,2.8-0.1,3.6-1.6l0,0l0,0
		c1.5-0.4,2.3-1.5,3-2.7c4.5,1.2,8-1.6,11.9-3c0.9-0.2,1.8-0.4,2.7-0.7l0,0c3-0.7,6.3-0.5,9.1-2.5l0,0l0,0
		C150,168.7,153,169.1,154.6,165.9z M89.5,199.6L89.5,199.6L89.5,199.6L89.5,199.6c0.1,0,0.1,0,0.2,0H89.5v0.2
		C89.5,199.7,89.5,199.7,89.5,199.6z M96.9,189.4L96.9,189.4L96.9,189.4L96.9,189.4C97,189.4,97,189.4,96.9,189.4z"/>
	<path class="st0" d="M88.3,298.3c-0.3-0.4-0.6-0.9-0.9-1.3l0,0c-0.3-4.9-6.4-5.6-7.1-10.2c-1-2.1-5.4-1.2-4.5-4.9
		c-0.5-3.3-1.5-6.3-5.4-6.9l0,0l0,0c-0.2-0.9-0.3-1.9-0.5-2.8l0,0c0-2.6-1.6-3.3-4-3.3c0-0.5-0.1-0.9-0.3-1.3l0,0l0,0
		c0.7-3,0.2-5.8-2.4-7.8c-0.1-2.5,0.2-5.3-3.4-5.7l0,0l0,0c1.7-5.1-2.6-8.9-3-13.5l0,0c-0.1-2.3-0.2-4.7-0.3-7l0,0l0,0
		c0-2,0.7-4.1-1-5.8l0,0c-1.6-1.8-3.1-4-6.2-2.8l0,0c-3,2.5-0.8,5.6-1.1,8.5l0,0c-0.6,2.3,0.1,4.3,1.4,6.2c-0.2,2-0.4,4,1.2,5.6
		c0.5,1.6,0.9,3.1,1.4,4.8c-0.5,2.7,1.1,4.9,1.9,7.4l0,0l0,0c0.8,2.1,1.2,4.3,3,5.8c0.1,2.3,0.8,4.4,2.6,5.9l0,0l0,0
		c-0.3,2.7,1.8,4.1,3.1,5.9l0,0l0,0c0.5,0.9,1,1.8,1.5,2.8l0,0l0,0c0.4,2.4,2.2,3.6,4.1,4.7l0,0l0,0c-0.1,1.6,0.5,3,1.7,4.1l0,0
		c2.5,4,5,8,9.1,10.7l0,0c-0.1,1.6,1,2.4,2.3,3l0,0c3,0.2,5.8,0.2,8.5-1.6C89.6,298.6,88.9,298.5,88.3,298.3z"/>
	<path class="st0" d="M264,390.3L264,390.3c-2-0.9-4-1.3-5.9-0.3l0,0l0,0c-2-0.5-4-1-5.9-1.6l0,0c-1.6-5.3-5.8-1.6-8.8-2.5l0,0
		c-0.3-1.4-0.6-3-2.5-3c-2,0-2,1.7-2.4,3.1c-0.9-0.5-1.7-1.1-2.6-1.6c0-0.1,0-0.1,0-0.2c-0.1,0-0.1,0-0.2,0c-0.5-2.3-3.2-1.6-4.3-3
		l0,0l0,0c-1.4-1.6-3.3-1.6-5.1-1.5c-2.3-2.5-5.1-1.3-7.8-1.4c-0.5-1.8-1.8-1.8-3.3-1.3c-0.8-0.2-1.5-0.2-1.7,0.7
		c-0.1,0.1-0.1,0.2-0.2,0.3c0.1-0.1,0.2-0.2,0.2-0.3c-0.4-0.4-0.9-0.7-1.3-1.2l0,0l0,0c-0.9-4.2-4.4-3.6-7.4-4l0,0
		c-1-0.5-2-1.1-3-1.6l0,0l0,0c-0.5,0-1,0-1.5,0c-0.9-0.6-1.8-1.2-2.7-1.6c-2.1-1.6-4.6-2.6-7.2-3c-1.6-2.1-4.2-2.1-6.4-2.6l0,0
		c-0.9,0-1.8-0.1-2.7-0.1c-2.7-1.8-5.4-3.5-8.8-3.3c-0.6-1-1.2-2-1.8-3c-1.8-2.3-4.5-3-7.2-4l0,0c-0.6,0-1.1,0-1.6,0l0,0
		c-0.9-0.3-1.7-0.6-2.6-0.9c0.1-3.1-2.6-3-4.4-3.7c-0.5-1.4-1.6-1.5-2.8-1.6c-1.9-2.5-4.8-3.5-7.6-4.6l0,0l0,0
		c-0.7-1.2-1.7-2.1-3.2-2.3l0,0l0,0c-1.3-0.2-2.6-0.5-3.9-0.7l0,0l0,0c-1.6-2-3.6-3.5-6.2-4.1c0.2-4.5-4.4-2.6-6.1-4.5l0,0
		c-0.5-6.6-5.2-1.6-7.6-2.7l0,0c-0.2-0.3-0.6-0.5-0.9-0.3v-0.1l0,0l0,0c-0.6-0.6-1.2-1.2-1.7-1.8l0,0l0,0c-0.5-0.2-1-0.5-1.5-0.8
		c1.2-4.1-1.6-5.7-4.6-7.2l0,0c-1.9-0.2-0.7-3.3-2.9-3.3l0,0c-2.9-3-5.8-5.9-8.6-9l0,0l0,0l0,0l0,0c-2.9-2.5-6.4-2.5-8.8-0.2
		c-1.5,1.3,0,4,2.7,4.5l0,0l0,0c2,0.1,4,0.1,5.9,0.2l0,0l0,0c0.4,1.1,3.5,1.3,1.9,2.6c-4.4,3.3,2.1,1.4,1.2,2.8
		c-1,3.5,1.6,4.3,3.9,5.4l0,0l0,0c0.7,4.8,4.4,4.1,7.7,4.1l0,0c0.1,0.5,0.2,1.1,0.2,1.6l0,0l0,0c-0.1,2.4,1.8,1,2.8,1.5
		c0.5,0.5,1,1,1.5,1.5l0,0l0,0c-1,4.9,3.9,4.9,6.1,7.2c1.1,1.6,2.8,1.5,4.4,1.6c1,3.7,3.6,5.2,7.2,5.5l0,0c0.7,0.6,1.2,1.2,1.9,1.7
		c-0.2,2,1.4,1.4,2.4,1.6c1.7,3,4.6,3,7.5,3.1c0.2,0.9,0.8,1.2,1.7,1.2c0.4,0.4,0.8,0.7,1.2,1.2l0,0l0,0c1.1,3.7,4.6,4,7.3,5.3l0,0
		c2.3,1.6,4.3,4.2,7.7,2.5c0.4,0.1,0.8,0.2,1.2,0.2l0,0l0,0c0.1,0.5,0.2,0.9,0.3,1.3c0.5,3.3,3.6,3,5.7,4.2l0,0l0,0
		c2.5,1,4.9,2.1,7.4,3c2.1,1.5,4.4,2.7,7,2.9c2.1,2.3,4.8,3,7.7,3c0.4,0.2,0.8,0.2,1.3,0.2c1.6,2.1,3.5,3.2,6.3,2.6
		c1.3,0.8,2.5,2.3,4.4,1.5l0,0l0,0l0.7,0.2l0.7-0.2l0,0c2.3-0.4,3,1.8,4.4,2.8l0,0l0,0c1.8,1.2,3.6,2.4,5.9,1.9
		c2.4,1.4,4.7,4,7.6,0.7l0,0c1.2-1.6,4.4,2.1,4.5-1.8c2.9,0.5,2.3,3.8,4.2,5.1l0,0l0,0c2.3,1.3,3.9,5.1,7.3,2l0,0
		c1.4,0.5,2.8,0.9,4.2,1.4c0.3,1.7,1.6,1.6,3,1.6l0,0l0,0c3.4,1.4,6.7,3.5,10.5,1.5c3.8,5.4,4.2-0.4,6-1.8c1.6,0.2,3.8,1.9,4.2-0.8
		C268.6,388.7,265.6,390.8,264,390.3z M145.4,350.7c-0.2-0.2-0.3-0.4-0.5-0.6C145.2,350.3,145.3,350.5,145.4,350.7z M185.7,368.1
		L185.7,368.1C185.7,368.1,185.7,368,185.7,368.1L185.7,368.1z"/>
	<path class="st0" d="M433.1,369.8c-0.9-0.5-1.7,0-2.1,0.9l0,0l0,0c-2.3,0.4-4,1.9-5.4,3.5c-1.1,1.4,0.9,0.4,1.2,1l0,0l0,0l0,0l0,0
		c2.3,0.7-1.9,5.5,3,4.8c3.8-0.6,4.9-2.6,4-6.1C433.9,372.6,434.9,370.9,433.1,369.8z"/>
	<path class="st0" d="M312.4,396.6L312.4,396.6C312.4,396.5,312.4,396.5,312.4,396.6C312.4,396.5,312.4,396.5,312.4,396.6
		C312.4,396.5,312.4,396.5,312.4,396.6c-1.9-2.7-4.6-1.4-7-1.5c-3,0-6.1-0.1-9.1-0.2c-0.9-0.3-1.7-0.8-2.6,0c-1-0.1-2.1-0.2-3-0.4
		l0,0c-3.2-4.9-3.3,3.5-5.8,1.3c0-1.1,0.3-2.3-1.2-2.9c-2.4-2.1-5.3-0.9-8-1.2l0,0l0,0c-1.3-2.1-3.1-2-4.9-0.9
		c-0.6,0.3-1,1.8-0.7,2.5c0.9,2.1,2.8,1.2,4.4,1.2c0.4,0,0.8,0.1,1.2,0.2l0,0c1.5,1.4,2.9,2.9,4.4,4.3l0,0c4,3.5,8,0.8,11.9-0.2l0,0
		l0,0c1.1,0,2.1-0.1,3.1-0.2l0,0c2,0.5,3.5,3.1,6,1.1l0,0l0.3-0.2c2.3,0.7,4.6,1.6,6.9,2.3l0,0l0,0c2.5,0.7,5.4,2,4.9-2.6
		C315.2,397.7,312.5,397.6,312.4,396.6z"/>
	<path class="st0" d="M419.8,378.7c-1.8-0.9-3.5,0.1-5,1.2l0,0c-2.8,0.4-5.2,1.6-7.5,3.3l0,0c-2,0.7-3.9,1.4-5.8,2.1l0,0
		c-1.9,1-4.3,0.2-5.8,2.1l0,0c-1.6,0.2-3.3-0.4-4.4,1.3c-1.6,0.5-3.8-0.4-5.1,1.4c-2.8,0.5-5.9-0.5-8.3,2l0,0l0,0
		c-2.3-0.1-4.6-0.7-6.5,1.2c-2.2,0.2-4.4,0.4-6.7,0.7l0,0l0,0c-1.9-0.3-3,1.1-4.3,2l0,0l0,0c-1.9-1.9-4-0.7-6.2-0.7l0,0l0,0
		c-1,0-2,0-3,0l0,0c-3-0.2-7.2-2.1-6,4c-1,0.2-1.9,0.3-2.9,0.5l0,0c-2.6,0.2-5.4-1.6-7.6,0.9l0,0l0,0c-2.9,1.2-4.4-0.4-5.7-2.7
		c-1.6-3-4.3-1.2-6.3-1c-0.9,0.1,0.5,1.4,0.7,2.2c-1,1.5-4.1,1.3-3.4,3.8c0.7,2.1,3,1.2,4.5,1.2c1.9,0.1,3.9-0.2,5.8-0.3l0,0l0,0
		c3,0,6.1-0.1,9.1-0.1l0,0l0,0c2.4,0.7,3.2-0.4,3-2.6l0.7-0.1l0.7,0.2l0,0l0,0c3.4,5.2,6.8,1.9,10.2,0.1c0,0,0.1,0,0.2-0.1
		c0.9-0.2,1.8-0.3,2.7-0.5c1.2-0.5,2.2-1,3.4-1.5l0,0l0,0c5.7-0.7,11.2,3.8,17,0.7c2.3-0.7,4.9,0.5,6.9-1.6c1.3,0.1,2.4-0.4,2.7-1.8
		c0.8,0,1.6,0.1,2.4,0.1l0,0l0,0l0,0l0,0c4-0.9,8.6,0.3,11.2-4.2c1.3-0.2,2.6-0.3,3.9-0.5c3.1,0.6,5.6-0.7,7.9-2.5
		c1.5-0.3,3.3-0.1,4-2l0,0l0,0c5.1-0.7,1.7-4.9,3-7.1C420.1,379.8,420.8,379.2,419.8,378.7z M345.3,399L345.3,399L345.3,399
		L345.3,399z M373.6,394.1L373.6,394.1c0.1,0,0.1,0,0.2,0C373.7,394.1,373.7,394.1,373.6,394.1z"/>
	<path class="st0" d="M271.3,168.1c-0.4,0.3-0.5,1.1-0.7,1.6c1.6,0.5,3.1,0.7,4.8-0.3C274,168.4,273.2,166.5,271.3,168.1z"/>
	<path class="st0" d="M423.8,257.5c-0.5-0.2-0.9-0.3-1.4-0.3c0.4-4.4-1.6-6.9-6-7.5c0.3-4.2-3.8-4-5.8-5.8c0-3.1-3.4-3.6-4.4-5.9
		l0.2-0.2l0,0l0,0c-0.1,0-0.2,0-0.2,0s0,0.1,0.1,0.2c-2,1.8-3,4.5-5.7,5.1c0.9,3.4,5.4,1.9,5.8,5.4l0,0l0,0c2.3,0.9,2.1,4.7,5.4,4.4
		c1.7,4.5,4.3,8.3,8.7,10.5l0,0l0,0c0.2,3.6,2.6,6.1,4.6,8.7l0,0c0.6,1,1.2,1.9,1.8,2.9l0,0l0,0c0.2,3.3,4.2,4.2,4.5,7.3l0,0l0,0
		c-0.3,1,0.2,1.3,1.1,1.6c0.1,0.5,0.2,1,0.3,1.4c-1,2.6,0.7,4.8,1.6,6.7c1.7,3.4,3.1,1.2,4.3-0.8c0.5-0.5,0.9-1,1.4-1.5l0,0
		c4.9-2.4,1.2-5.1,0.3-7.7l0,0l-0.1-0.1c-0.4-3.1-2.5-5.2-4.5-7.2l0,0l0,0c0.1-2.2-0.7-4.1-2.1-5.8l0,0l0,0c-1.9-3.7-3.9-7.4-8-9.1
		c-0.2-0.5-0.4-1-0.7-1.5C425,257.7,424.8,257.2,423.8,257.5z"/>
</g>
<g>
	<path class="st1" d="M232.1,231.2c-2.5-0.9-4.4-1.3-5.6-1.2c-1.2,0.1-2.1,0.4-2.7,1l-39.3,47.3l-12-4.1l-1.3-61.2
		c0-0.9-0.6-1.8-1.7-2.7c-1-0.9-2.6-1.6-4.3-2.1l1.7-4.9l30.4,10.5l-1.7,4.9l-7.4-2.6c-1.6-0.5-2.6-0.3-2.8,0.6
		c-0.1,0.3-0.3,0.8-0.1,1.2l0.8,49.8l31-38.1c0.3-0.3,0.5-0.6,0.6-1c0.4-1.4-0.5-2.5-3.1-3.4l-5.2-1.8l1.7-4.9l22.6,7.8L232.1,231.2
		z"/>
	<path class="st1" d="M288.8,266l-5.9-1.7c2.2-8.7,0.1-14-6.3-16.2l-18.6-6.3l-7,20.2l9.4,3.4c3.4,1.2,6.3-1.6,9.2-8.1l5.2,1.8
		l-10.1,25.6l-5.2-1.7c1.8-7,1.3-11.1-1.7-12.2l-8.8-3.1l-7.9,23.1l15.6,5.3c9.3,3.2,16.6-0.9,21.5-12.4l5.7,2.7l-10.1,23l-55.1-19
		l1.6-4.7c4.9,1.7,7.9,1.3,8.7-1.3l15.3-44.5c0.9-2.6-1.2-4.7-6.1-6.3l1.7-4.9l55.1,19L288.8,266z"/>
	<path class="st1" d="M350.7,325.1c-0.9,2.7-2.6,4.8-4.8,6.1s-5.3,1.3-9.2,0c-4.4-1.6-7-3.5-8.1-6.2c-1.2-2.7-1.2-5.4-0.3-8.5
		l2.1-6.3c1.6-4.7,2.1-8.3,1.6-10.9c-0.6-2.6-2.7-4.5-6.2-5.7l-12.7-4.4l-7.1,20.9c-0.9,2.6,1.8,4.9,7.9,7l-1.7,4.8l-29.4-10
		l1.7-4.8c4.9,1.7,7.9,1.3,8.7-1.3l15.3-44.4c0.9-2.6-1.2-4.7-6.1-6.3l1.7-4.9l35.6,12.2c2.7,0.9,5.3,2.1,7.8,3.4
		c2.5,1.3,4.5,2.7,6.2,4.5c1.6,1.8,2.7,3.9,3.4,6.3c0.5,2.5,0.3,5.3-0.9,8.7c-0.8,2.1-1.7,3.9-3,5.3c-1.3,1.4-2.6,2.6-4,3.4
		c-1.6,0.8-3,1.3-4.7,1.6c-1.6,0.3-3.4,0.3-4.9,0.1c1.3,0.9,2.3,2.1,3.2,3.4c0.9,1.2,1.6,2.6,1.9,4c0.3,1.6,0.4,3.2,0.3,5.2
		c-0.1,1.9-0.8,4-1.6,6.5l-2.7,7.6c-0.4,1.2-0.4,2.2-0.3,3c0.3,0.8,0.9,1.3,1.6,1.6c0.9,0.3,1.6,0.3,2.3-0.3
		c0.8-0.4,1.3-1.3,1.7-2.5l1.4-4l4.4,1.6L350.7,325.1z M321.9,264.2l-6.7,19.5l13.6,4.7c3.4,1.2,6.2,1.3,8.4,0.3
		c2.3-0.9,4-3.2,5.3-6.9c2.1-6.3-0.3-10.7-7-13.1L321.9,264.2z"/>
</g>
<path class="st0" d="M378.3,334.1c-0.2-0.2-0.2-0.2-0.4-0.4h0.2C378.1,333.9,378.3,334.1,378.3,334.1c2.3,3.1,4.1,0.4,6.2-0.4l0,0
	c3.1,0.2,5.1-1,5.2-4.1l0,0l0,0c1-2.3,2.1-4.9,2.9-7.2c2.1-5.2,2.1-5.2-4.1-5.4l0,0c-2.7-0.4-5.3-1.9-8,0l0,0
	c-0.8-0.2-1.8-0.4-2.5-0.6c-1.6-1.4-3.7-1-5.4-1.2c-1.4-1.2-3.9,0.4-4.7-1.9l0,0l0,0c0.8-4.1,4.9-2.7,7-4.1c6.2,0,12.4,0.4,18.5-1.8
	c0.4,0,0.6,0,1,0.2c1.9,0.8,3.5,0.8,4.5-1.4c0.8-1.9,1.4-3.9,2.3-5.8l0,0c1.9-3.1,2.1-7,4.9-9.7c0,0,0,0.2,0.2,0.2
	c2.3,1,4.3,1.9,5.8,4.1c0.2,0,0.4,0,0.4,0.2c-0.8,2.1-1.4,4.1-2.3,6c0,0,0,0.2,0.2,0.2c-0.4,0.2-1,0.4-1.4,0.4
	c-1.2,1.4-1.7,3.1-2.3,5.1c-0.8,2.3-1.9,4.7,0.8,6.6c0.4,0.2,0.8,0.2,1.2,0c0.2,0.2,0.4,0.4,0.6,0.4c0.6,1.4,1.4,2.5,2.9,3.1l0,0
	l0,0l0,0c0.4,1.2,1.2,1.9,2.1,2.5c1.4,1.2,1.9,2.9,3.5,3.5c2.7,3.1,5.4,6,8,9.3l0,0c-0.4,1.6-0.4,3.1-2.3,4.1
	c-1.2-1.4-2.3-1.9-4.1-2.5l0,0c-1.8-1.9-3.7-3.5-6-4.5l0,0c-1.4-1.9-3.3-3.3-5.6-4.1c-1.2-1.6-2.7-2.9-4.7-3.5
	c-2.5,1.4-2.3,4.3-3.3,6.4c-1,2.3-1.8,4.7-2.7,7c-0.4,0.6-0.8,1.4-0.4,1.9l0,0c1.2,1.8,2.1,3.5,3.1,5.3c-0.2,0.8-0.4,1.6-0.8,2.3
	l0,0l0,0c-1.4,1.8-2.7,1.4-3.9-0.4l0,0c-0.4-0.4-1-1-1.4-1.6c-0.8-4.5-3.9-5.1-7.6-4.1l0,0c-1.4-0.2-2.9-0.4-4.1,0.4l0,0
	C380.2,337.4,376.9,337.8,378.3,334.1z"/>
<path class="st0" d="M102,235.6c-0.2-0.2-0.2-0.2-0.4-0.4h0.2L102,235.6c2.4,3.2,4.2,0.4,6.3-0.4l0,0c3.2,0.2,5.1-1,5.3-4.2l0,0l0,0
	c1-2.4,2.2-4.9,3-7.3c2.2-5.3,2.2-5.3-4.2-5.5l0,0c-2.8-0.4-5.3-2-8.1,0l0,0c-0.8-0.2-1.8-0.4-2.6-0.6c-1.6-1.4-3.8-1-5.5-1.2
	c-1.4-1.2-4,0.4-4.8-2l0,0l0,0c0.8-4.2,4.9-2.8,7.1-4.2c6.3,0,12.7,0.4,18.8-1.8c0.4,0,0.6,0,1,0.2c2,0.8,3.6,0.8,4.6-1.4
	c0.8-2,1.4-4,2.4-5.9l0,0c2-3.2,2.2-7.1,4.9-9.9c0,0,0,0.2,0.2,0.2c2.4,1,4.4,2,5.9,4.2c0.2,0,0.4,0,0.4,0.2
	c-0.8,2.2-1.4,4.2-2.4,6.1c0,0,0,0.2,0.2,0.2c-0.4,0.2-1,0.4-1.4,0.4c-1.2,1.4-1.8,3.2-2.4,5.1c-0.8,2.4-2,4.8,0.8,6.7
	c0.4,0.2,0.8,0.2,1.2,0c0.2,0.2,0.4,0.4,0.6,0.4c0.6,1.4,1.4,2.6,3,3.2l0,0l0,0l0,0c0.4,1.2,1.2,2,2.2,2.6c1.4,1.2,2,3,3.6,3.6
	c2.8,3.2,5.5,6.1,8.1,9.5l0,0c-0.4,1.6-0.4,3.2-2.4,4.2c-1.2-1.4-2.4-2-4.2-2.6l0,0c-1.8-2-3.8-3.6-6.1-4.6l0,0
	c-1.4-2-3.4-3.4-5.7-4.2c-1.2-1.6-2.8-3-4.8-3.6c-2.6,1.4-2.4,4.4-3.4,6.5c-1,2.4-1.8,4.8-2.8,7.1c-0.4,0.6-0.8,1.4-0.4,2l0,0
	c1.2,1.8,2.2,3.6,3.2,5.3c-0.2,0.8-0.4,1.6-0.8,2.4l0,0l0,0c-1.4,1.8-2.8,1.4-4-0.4l0,0c-0.4-0.4-1-1-1.4-1.6
	c-0.8-4.6-4-5.1-7.7-4.2l0,0c-1.4-0.2-3-0.4-4.2,0.4l0,0C104.2,239.2,100.8,239.6,102,235.6z"/>
</svg>
