<?xml version="1.0" encoding="utf-8"?>
<!-- Generator: Adobe Illustrator 23.0.6, SVG Export Plug-In . SVG Version: 6.00 Build 0)  -->
<svg version="1.1" id="Layer_1" xmlns="http://www.w3.org/2000/svg" xmlns:xlink="http://www.w3.org/1999/xlink" x="0px" y="0px"
	 viewBox="0 0 600 600" style="enable-background:new 0 0 600 600;" xml:space="preserve">
<style type="text/css">
	.st0{fill:#FCAE00;}
</style>
<g>
	<path class="st0" d="M218.6,66.7c0.5,0.1,1,0,1.4-0.4c8.9,1.6,17-1.6,25.2-4.1l0,0l0,0c4.4-0.1,8.6-0.5,11.6-4.2l0,0l0,0
		c7-0.9,14.4-0.9,19.5-7l0,0l0,0l0.8-0.1l0.8,0.1l0,0c5.1,2.6,9.4,0.3,13.8-2.1c2.7-3.5,7,2.5,9.7-1.6l0,0c2.1-0.2,4.1-0.4,6.2-0.6
		c6.8,2.7,5.3-5,8.6-6.8c-0.9-0.2-1.8-0.4-2.7-0.6l0,0c-5.4-3.9-10.8-5.4-16,0.3l0,0c-2.4-0.1-4.9-0.1-7.3-0.2l0,0l0,0l0,0l0,0
		c-1.6,1.3-3.2,2.7-4.7,4l0,0c-3.1-0.1-6.9-1.7-7.5,3.4c-3,0.2-6.1-3.1-9.2,0c-4.4,0.5-8.1,2.4-11.5,5.1l0,0
		c-3.5-1.7-7-2.2-10.3,0.6l0,0c-2.3,1.3-1.2,3.8-1.9,5.6l0,0l0,0c-6.3,0.4-12.6,0.8-18.9,1.3c-3.5,0.2-7.9-3-10,2.6l0,0
		c-5.8,0.7-12.6-0.9-15.8,6.4C207.6,74.3,212.6,73.8,218.6,66.7z"/>
	<path class="st0" d="M547.1,137.8c1.9-3.6,1.6-7.4,1.3-11.3l0,0l0,0c-0.1-0.8-0.2-1.7-0.3-2.5c0.2-1.9,0.4-3.8,0.5-5.8l0,0l0,0
		c0.1-3.5,0.4-7.1,0.3-10.6c0-4.3-2.3-5.7-6.3-4.2c-3.1-0.1-6.2-0.2-9.4-0.4l0,0l0,0c-1.5-5.2-5.1-6.4-10-5.4
		c-0.5-0.3-1.1-0.4-1.7-0.3c-3-2.2-6.3-3.4-10-3.4l0,0c-2.4-0.2-4.9-0.4-7.3-0.7l0,0c-2.9-2.6-6.2-4-10.1-3.5
		c-1.1-2.5-3.2-2.4-5.5-2.1c-2.6-0.2-5.4,0.2-7.4-2l0,0c-5.3-4.3-12.1-3.4-18.1-5.3l0,0l0,0c-1-0.2-2-0.4-3-0.6l0,0
		c-4.1-1.2-8.2-2.3-12.3-3.5l0,0l0,0c-7.8-1.9-15.5-3.8-23.2-5.7l0,0c-1.8-0.7-3.7-1.4-5.5-2.2l0,0c-5.7-1.8-11.2-4.9-17.6-3.5l0,0
		l0,0c-5.2-1.1-9.3-6.1-15.3-4.4l0,0c-6.4-1.9-12.7-3.8-19.1-5.8c-6.2-3.3-13.4-3.1-19.9-5.4c-2.1-3.1-4.9-2.5-7.8-1.6l0,0l0,0
		c-1.1-2.9-4-2.8-6.3-3.4c-4.6-1.2-7.9,1.8-10.3,5c-1.5,1.9,1.2,3.2,3,3.6c4.2,0.9,9,5.4,12.1-1.6l0,0c2.2-0.3,4.4-0.5,6,1.6l0,0
		l0,0c3.5,3.8,9.7-1.9,12.6,3.6c-2.6,0.6-6.3,1-1.6,4.3c2.4,1.6,5.2,2.1,8.1,1.6l0,0l0,0c6.4,4.3,14.3,3.7,21.3,6.2l0,0
		c2.2,2.1,5,1.6,7.6,1.4c0.7,0.1,1.3,0.3,2,0.4c2.2,2.1,5.1,2.3,7.8,3l0,0l0,0c1.3,0.1,2.6,0.3,4,0.4l0,0c1,0.2,2,0.4,2.9,0.7
		c2.2,2.9,4.9,4.2,8.5,3.2l0,0l0,0c2.6,0.6,5.2,1.3,7.8,1.9l0.7,0.4l0.8-0.1c2.3,2.4,5.2,1.9,8.1,1.7l0.6,0.4l0.7-0.1
		c6,4.4,13.6,3.2,20,6.1c2.5,2.2,5.8,0.9,8.6,1.7c6.5,5.2,14.8,4.5,22.1,7.1c1.8,0.2,3.6,0.3,5.5,0.5c2,0.9,4,1.8,5.9,2.7l0,0l0,0
		c2.3,1.8,5,0.7,7.5,1.1c6.4,5.5,14,4.6,21.5,3.8c0.6,0.4,1.2,0.7,1.7,1c0.8,3.2,3.8,2.6,6,3.4l0,0l0,0c0.9,1.7,2.4,1.6,3.9,1.3
		c0.6,0.6,1.2,1.3,1.8,1.9l0,0l0,0c-1.6,3.8-2.4,7.8-1.5,11.9c0,2.4,0.1,4.8,0.1,7.3l0,0c0.4,5.2,0.8,10.5,1.2,15.8
		c-0.1,3.4,0.5,6.7,2.4,9.6l0,0c-0.1,0.6-0.2,1.3-0.4,1.9c-0.6,2-1.2,3.9-1.9,5.9l0,0l0,0c-2.4,4.3-1.8,8.6-0.1,13
		c-0.1,2.1-0.1,4.1-0.2,6.2l0,0l0,0c-2.7,17.2-0.5,34.6-1.7,51.9c-1.2,0.2-2.4,0.4-3.6,0.6c-12.4,4.6-24.8,8.6-38.3,7.6l0,0l0,0
		c-2.9-0.1-4.3,2.3-6.2,3.8l0,0c-1.9,0.7-3.8,1.4-5.8,2.1l0,0c-3.9,1.7-8.6,1.9-11.8,5.4c-9.4,0.2-18.3,2.7-27.1,5.7
		c-4.4,1.4-8.8,2.8-13.3,4c-2,0.5-4.9-0.6-5.4,2.4c-0.7,4.1,3.7,2.1,5.1,3.9c1.9,2.4,3.9-0.4,5.9-0.4c4.2-2.4,10.7,3.7,13.5-3.7
		c4.1,0.5,7.6-3.3,11.9-1.8l0,0l0,0c3,0.5,5.7-0.1,7.9-2.2l0,0c3.5,1,6.1-2,9.4-2.1l0,0l0,0l0,0l0,0c4.5-2.1,10.8,0.1,13.9-5.5
		c1.9-0.1,3.7-0.2,5.5-0.3l0,0l0,0c5,0.5,9.6-0.6,13.7-3.6l0,0c4.9,0.1,9.5-1.2,13.7-3.7l0,0c4.1,0.8,6.7-1.7,9.2-4.3
		c4-1.5,12,5,11.3-5.7c0.1-5.8,0.1-11.6,0.2-17.4c0-7.7,0-15.4,0-23l0,0c0-3.2-0.1-6.5-0.1-9.7c0-2.6,0-5.2,0-7.8l0,0l0,0
		c0-2.6,0-5.1-0.1-7.7l0,0c0-5.1,0-10.2,0-15.3c0-1.2,0-2.4,0-3.6c1.2-2.5-0.3-4.3-1.7-6.2C549.1,144.4,550.1,141.2,547.1,137.8z
		 M392,70c-0.4-0.2-0.8-0.5-1.1-0.7C391.4,69.4,391.8,69.6,392,70z M546.6,213.2C546.6,213.2,546.6,213.2,546.6,213.2
		C546.6,213.2,546.6,213.2,546.6,213.2C546.6,213.3,546.6,213.2,546.6,213.2z M544.3,159.1C544.3,159.1,544.3,159.1,544.3,159.1
		C544.3,159.1,544.3,159.1,544.3,159.1C544.3,159.1,544.3,159.1,544.3,159.1C544.3,159.1,544.3,159.1,544.3,159.1
		C544.3,159.1,544.3,159.1,544.3,159.1z"/>
	<path class="st0" d="M425.6,272.9C425.6,272.9,425.6,272.9,425.6,272.9c-2.8-9.6-7.9-4.9-12.6-2l0,0l0,0c-3.4,0.2-6.8,0.1-9.3,3
		c-2.6,0.5-5.2,1-7.8,1.5c-2.9-0.3-5.8-1-8.2,1.5l0,0c-1.2,0.6-2.4,1.1-3.6,1.7c-4.9,0.4-9.8,0.6-13.8,4l0,0l0,0
		c-1.1,0.2-2.1,0.3-3.2,0.5c-2.3-0.4-4.5-0.5-6.2,1.5l0,0c-6,5.3-14.2,3.3-20.9,6.2c-2.6,0.6-5.2,1.2-7.7,1.8
		c-1.7-0.2-3.3,0.1-4.4,1.6c-1.7,0.2-3.5,0.5-5.2,0.7l0,0l0,0c-2.6,0.6-5.2,1.2-7.8,1.8l0,0l0,0c-2,0.7-3.9,1.3-5.9,2
		c-3.8,0-7.5,0-11.3-0.1c-2.8-0.3-5-2.9-8.1-1.9l0,0l0,0c-2.6-0.6-5.2-1.2-7.8-1.8l0,0c-2.4-0.2-4.8-0.5-7.1-0.8
		c0.1-0.6-0.1-1.1-0.7-1.4l0,0c-6.5-3.7-14.1-3.8-21-6l0,0c-3.5-3-7.5-2.3-11.5-1.6l0,0l0,0c-1.8-0.3-3.5-0.6-5.3-0.9
		c-0.2-5-3.5-3.5-6.3-3c-2.7-0.8-5.9,0.6-8.1-2.1c-3.6-3.9-8.2-4.1-13-4.1l0,0c-5.7-4.4-12.4-4-19.1-4.2l0,0l0,0
		c-11.1-5.6-23.3-7.7-35.1-11l0,0l0,0c-1.1-0.2-2.2-0.4-3.2-0.6c-3.5-2.9-7.7-3.7-12.2-3.5l0,0l0,0c-1.6-1.9-3.6-2.4-6-2l0,0l0,0
		c-3.2,0.1-6.4,0.2-9.6,0.3c-2.1-3.7-5.1-5.6-9.5-4.3l0,0l0,0l0,0v0c-3.2-3.5-8.3-0.6-11.7-3.3c-1.9-0.7-3.1-3.3-5.8-2.2
		c-3.8-0.7-7.7-1.5-11.6-2.2l0,0c-3.1-4-7.1-4.5-11.7-3.4c-0.6-0.2-1.3-0.5-1.9-0.7c-0.4-2.8-1.6-5.3-3.6-7.3l0,0
		c0-3-0.1-6.1-0.1-9.1c4.4-13.2,0.4-26.8,0.9-40.1c0.8-21.1,1.4-42.2-0.9-63.3l0,0l0,0c0.4-0.5,0.3-0.9-0.2-1.2l0,0l0,0
		c1.3-2.7,2.2-5.7,4.7-7.4c0.3-0.1,0.6-0.3,1-0.6c3.7-0.1,7.7,0.8,9.8-3.5l0,0l0,0c8.8,0.2,16.8-3.4,25.2-5.4l0,0
		c5.7-1.6,11.4-3.2,17.1-4.8c3.2-1.7,7.3-0.6,10-3.5l0,0l0,0c2.6-0.3,5.6,0.5,7.7-2l0,0c4.7-0.6,10.1,1.3,13.2-4.2l0,0l0,0
		c2.1-2.4,5.2-1.2,7.8-2l0,0l0,0c3.7,1.9,6.4-1.3,9.7-1.7l0,0l0,0l0.9,0.1l0.9-0.2c3.9,0.4,6.9-1.4,9.8-3.6l0,0l0,0l0,0l0,0
		c0-0.7,0-1.4,0.1-2.1c3.2-0.7,7.1,2.1,9.7-1.7l0,0l0,0l0,0l0,0c-0.9-2.7,4.6-5.9,0.1-7.8c-4.1-1.7-5.9,1.6-6.2,5.5
		c-2,0.4-1-4.6-4-2.2c-3.1,1-6.8-0.8-9.5,2.1c-2,0.4-4.2,0.2-5.6,2.1l0,0l0,0l0,0c0,0,0,0,0,0c-2.9-0.4-5.4,0.5-7.7,2.3
		c-5.7,1.2-11.4,2.5-17.1,3.7c-1.7-0.3-3,0.6-4.2,1.7c-4.9-0.1-9.5,1.1-13.6,4c-0.6-0.1-1.1-0.1-1.6,0.3l0,0c-0.7,0-1.4,0.1-2.1,0.1
		l0,0l0,0c-8.2,3.1-18.1,1.4-24.6,9c-5.4-3.7-9.6-0.2-13.9,2.3c-0.7,0-1.3,0.1-2,0.1c-3.8,0-7.7,0.1-11.6,0.1l0,0l0,0
		c-1.3,0-2.6,0-3.9-0.1c-5.6-1.1-6.7,2.9-7.9,6.9l0,0c-1.9,1.7-1.6,4.1-1.6,6.2c0,25.2,0.1,50.3,0.2,75.5
		c-0.1,7.1-0.2,14.2-0.3,21.3l0,0l0,0c-0.9,1.3-2.6,2.5-0.1,3.8c0.1,4.5,0.3,8.9,0.4,13.4l0,0c-0.1,3.4,0,6.9-0.5,10.2
		c-1,7.5,2.6,10.2,9.6,9.5l0,0l0,0c0.8,1.9,2.5,1.9,4.2,1.7l0,0l0,0c2.9,2.1,6.3,1.7,9.5,1.9c1.9,1.4,3.8,2.7,6.3,2.2l0,0
		c0,0,0,0,0,0c1.1-0.1,2.1-0.1,3.2-0.2c0.3-0.3,0.7-0.5,1.1-0.7c-0.3,0.2-0.7,0.5-1.1,0.7c2.7-0.1,5.3-0.2,8-0.3
		c0,0-0.2,0.3-0.2,0.3l0,0c0.3,1.4-4.1,1.8-0.8,3.8c2.5,1.6,4.9,2.6,7-0.7l0,0c5.7,2.3,10.4,7.2,17.3,6c2.1,1.2,4.2,2.6,6.8,2.3
		c0.5,0,0.9,0,1.4,0c-0.4,0-0.9,0-1.4,0c2.4,2.5,5.5,1.7,8.4,2l0,0l0,0c4.8,5.4,12,2.8,17.6,5.3l0,0l0,0c9.8,4.2,20.3,6,30.6,8.2
		l0,0l0,0c3.9,3,9.9,1.5,13.1,6c2.4,6.8,6.7,2.4,10.4,1.7l0,0l0,0c1.2,0,2.3,0,3.5,0c0.7,0.4,1.2,0.5,1.6,0.4
		c6.7,1.7,12.9,5.3,20.1,5c2.4,1,4.7,2.8,7.6,2.3c0.7,0.2,1.3,0.4,1.9,0.6c3.8,1.1,7.6,2.2,11.4,3.3l0,0c4.6,1.5,9.1,3,13.7,4.5l0,0
		c2.8,2.8,5.2,0.4,7.8-0.4c4.7,5.9,11.1,5.7,17.7,5.2l0,0c0.5,0.2,1,0.3,1.5,0.4c5.3,5,10.6,4.6,15.9,0.1l0,0l0,0l0,0l0,0l-0.1,0
		c5.6,0.2,11,0.2,15.5-3.9c7.5,1.3,13.8-3.5,20.9-4.3c3.4,0.3,6.4-0.6,8.6-3.3l0,0l0,0c7,1.3,12.2-3.4,18.2-5.5l0,0c0,0,0,0,0,0
		c2.4,2.7,4.5,1.1,6.7-0.3l0,0c5.7-1.9,11.4-3.8,17-5.7l0,0l0,0c2.5-0.3,5.9,0.8,6-3.6l0,0l0,0c4.4-0.2,8.8-0.5,13.2-0.7l0,0l0,0
		C426,278.2,426.8,277.6,425.6,272.9C425.6,272.9,425.6,272.9,425.6,272.9z M145.8,86.6c0.1-1,0.4-1.6,0.9-1.9
		c0,0.8,0.1,1.4,0.2,1.9C146.5,86.6,146.1,86.6,145.8,86.6z M63.7,213.3c0-0.3,0-0.6,0-0.9c0.2,0.2,0.3,0.5,0.4,0.9
		C63.9,213.3,63.8,213.3,63.7,213.3z M102,250c0.1,0,0.1,0,0.2,0l-0.1,0.1c0.2,0,0.3,0,0.5,0c-0.1,0.1-0.2,0.2-0.2,0.4
		c-0.1-0.1-0.2-0.2-0.2-0.3C102.1,250.1,102.1,250.1,102,250z"/>
</g>
<path class="st0" d="M100.4,195.9c-0.1-0.1-0.2-0.1-0.2-0.1c0,0,0.1,0,0.1,0C100.3,195.7,100.4,195.9,100.4,195.9
	c2.5,1.7,3-0.9,4.2-2l0,0c2.2-0.6,3.1-2,2.6-4.3l0,0l0,0c0.1-1.9,0.1-3.8,0.1-5.8c0-4.2,0-4.2-4.2-2.7l0,0c-1.9,0.4-4.2,0-5.5,2.1
	l0,0c-0.7,0.1-1.3,0.2-2,0.3c-1.5-0.5-2.8,0.3-4.1,0.7c-1.3-0.4-2.6,1.4-3.8-0.1l0,0l0,0c-0.5-3,2.6-3.1,3.8-4.7
	c4.3-1.7,8.8-3.1,12.4-6.1c0.2,0,0.4-0.1,0.7-0.2c1.5,0,2.7-0.4,2.7-2.1c0.1-1.5,0-3.1,0-4.6l0,0c0.5-2.6-0.5-5.4,0.8-8
	c0,0,0.1,0,0.1,0.1c1.8,0,3.5,0.1,5,1.3c0.2,0,0.3,0,0.4-0.1c0,1.6,0.1,3.1,0.1,4.7c0,0,0.1,0,0.1,0c-0.3,0.3-0.6,0.5-0.9,0.8
	c-0.4,1.3-0.3,2.7-0.3,4c0.1,1.8-0.1,3.7,2.3,4.3c0.4,0,0.6-0.1,0.8-0.3c0.2,0.1,0.3,0.1,0.5,0.1c0.8,0.7,1.6,1.4,2.8,1.4l0,0l0,0
	l0,0c0.5,0.7,1.3,1,2.1,1.2c1.2,0.4,2.1,1.5,3.4,1.5c2.7,1.4,5.4,2.8,8,4.2l0,0c0.2,1.2,0.5,2.4-0.5,3.3c-1.1-0.6-2.2-0.7-3.4-0.7
	l0,0c-1.7-0.9-3.5-1.5-5.4-1.5l0,0c-1.5-0.9-3.2-1.4-4.9-1.4c-1.3-0.8-2.6-1.3-4.1-1.3c-1.4,1.7-0.4,3.6-0.6,5.4c0,1.9,0,3.7,0,5.5
	c-0.1,0.5-0.2,1.1,0.3,1.5l0,0c1.2,0.9,2.4,1.9,3.6,2.8c0,0.6,0.1,1.2,0.1,1.9l0,0l0,0c-0.6,1.6-1.6,1.6-2.8,0.7l0,0
	c-0.5-0.2-1-0.4-1.4-0.7c-1.7-2.9-3.9-2.4-6.3-0.9l0,0c-1,0.3-2.1,0.5-2.8,1.5l0,0C102.8,197.6,100.6,198.8,100.4,195.9z"/>
<path class="st0" d="M491.6,192c-0.1-0.1-0.2-0.1-0.2-0.1c0,0,0.1,0,0.1,0L491.6,192c2.5,1.7,3-0.9,4.2-2l0,0c2.2-0.6,3.1-2,2.5-4.3
	l0,0l0,0c0.1-1.9,0.1-3.8,0.1-5.8c0-4.2,0-4.2-4.2-2.7l0,0c-2,0.4-4.2,0-5.5,2.1l0,0c-0.7,0.1-1.3,0.2-2,0.3
	c-1.5-0.5-2.8,0.3-4.1,0.7c-1.3-0.4-2.6,1.4-3.8-0.1l0,0l0,0c-0.5-3,2.6-3.1,3.8-4.7c4.3-1.7,8.8-3.1,12.4-6.1
	c0.2,0,0.4-0.1,0.7-0.2c1.5,0,2.7-0.4,2.7-2.1c0.1-1.5,0-3.1,0-4.6l0,0c0.5-2.6-0.5-5.4,0.8-8c0,0,0.1,0,0.1,0.1
	c1.8,0,3.5,0.1,5,1.3c0.1,0,0.3,0,0.4-0.1c0,1.6,0.1,3.1,0.1,4.7c0,0,0.1,0,0.1,0c-0.3,0.3-0.6,0.5-0.9,0.8c-0.4,1.3-0.4,2.7-0.3,4
	c0.1,1.8-0.1,3.7,2.3,4.3c0.4,0,0.6-0.1,0.8-0.3c0.2,0.1,0.4,0.1,0.5,0.1c0.8,0.7,1.6,1.4,2.8,1.4l0,0l0,0l0,0
	c0.5,0.7,1.3,1,2.1,1.2c1.2,0.4,2,1.5,3.4,1.5c2.7,1.4,5.3,2.8,8,4.2l0,0c0.2,1.2,0.5,2.4-0.5,3.3c-1.1-0.6-2.2-0.7-3.4-0.7l0,0
	c-1.7-0.9-3.5-1.5-5.4-1.5l0,0c-1.5-0.9-3.1-1.4-4.9-1.4c-1.3-0.8-2.6-1.3-4.1-1.3c-1.4,1.7-0.4,3.6-0.6,5.4c0,1.9,0,3.7,0,5.5
	c-0.1,0.5-0.2,1.1,0.4,1.5l0,0c1.2,0.9,2.4,1.9,3.6,2.8c0,0.6,0.1,1.2,0.1,1.9l0,0l0,0c-0.6,1.6-1.5,1.6-2.8,0.7l0,0
	c-0.5-0.2-1-0.4-1.5-0.7c-1.7-2.9-3.9-2.4-6.3-0.9l0,0c-1,0.3-2.1,0.5-2.8,1.5l0,0C493.9,193.8,491.7,195,491.6,192z"/>
<path class="st0" d="M298.5,104.1c-0.1-0.1-0.2-0.1-0.2-0.1c0,0,0.1,0,0.1,0C298.3,103.9,298.5,104.1,298.5,104.1
	c2.5,1.7,3-0.9,4.2-1.9l0,0c2.2-0.6,3.1-2,2.5-4.3l0,0l0,0c0.1-1.9,0.1-3.8,0.1-5.8c0-4.2,0-4.2-4.2-2.7l0,0c-2,0.4-4.2,0-5.5,2.1
	l0,0c-0.7,0.1-1.3,0.2-2,0.3c-1.5-0.5-2.8,0.3-4.1,0.7c-1.3-0.4-2.6,1.4-3.8-0.1l0,0l0,0c-0.5-3,2.6-3.1,3.8-4.7
	c4.3-1.7,8.8-3.1,12.4-6.1c0.2,0,0.4-0.1,0.7-0.2c1.5,0,2.7-0.4,2.7-2.1c0.1-1.6,0-3.1,0-4.6l0,0c0.5-2.6-0.5-5.4,0.8-8
	c0,0,0.1,0,0.1,0.1c1.8,0,3.5,0.1,5,1.3c0.1,0,0.3,0,0.4-0.1c0,1.6,0.1,3.1,0.1,4.7c0,0,0.1,0,0.1,0c-0.3,0.3-0.6,0.5-0.9,0.8
	c-0.4,1.3-0.4,2.7-0.3,4c0.1,1.8-0.1,3.7,2.3,4.3c0.4,0,0.6-0.1,0.8-0.3c0.2,0.1,0.4,0.1,0.5,0.1c0.8,0.7,1.6,1.4,2.8,1.4l0,0l0,0
	l0,0c0.5,0.7,1.3,1,2.1,1.2c1.2,0.4,2,1.5,3.4,1.5c2.7,1.4,5.4,2.8,8,4.2l0,0c0.2,1.2,0.5,2.4-0.5,3.3c-1.1-0.6-2.2-0.7-3.4-0.7l0,0
	c-1.7-0.9-3.5-1.5-5.4-1.4l0,0c-1.5-0.9-3.1-1.4-4.9-1.4c-1.3-0.8-2.6-1.3-4.1-1.3c-1.4,1.7-0.4,3.6-0.6,5.4c0,1.9,0,3.7,0,5.5
	c-0.1,0.5-0.2,1.1,0.4,1.4l0,0c1.2,0.9,2.4,1.9,3.6,2.8c0,0.6,0.1,1.2,0.1,1.9l0,0l0,0c-0.6,1.6-1.5,1.6-2.8,0.7l0,0
	c-0.5-0.2-1-0.4-1.5-0.7c-1.7-2.9-3.9-2.4-6.3-0.9l0,0c-1,0.3-2.1,0.5-2.8,1.4l0,0C300.9,105.8,298.6,107,298.5,104.1z"/>
<g>
	<path d="M199,191.3v4.2c0,2.1-0.4,4.1-1.2,6c-0.8,1.9-1.9,3.6-3.3,5.1c-1.4,1.5-3.1,2.7-5,3.5c-1.9,0.9-4,1.3-6.1,1.3
		c-1.9,0-3.8-0.2-5.7-0.8s-3.7-1.4-5.2-2.7s-2.8-3-3.8-5c-1-2-1.5-4.6-1.5-7.8v-37.9c0-2.3,0.4-4.4,1.2-6.3c0.8-2,1.9-3.6,3.3-5
		s3.1-2.5,5.1-3.3s4.1-1.2,6.5-1.2c4.6,0,8.4,1.5,11.3,4.5c1.4,1.5,2.5,3.2,3.3,5.3c0.8,2,1.2,4.2,1.2,6.6v3.9h-9.9v-3.3
		c0-1.9-0.5-3.6-1.6-5s-2.6-2.1-4.4-2.1c-2.4,0-4.1,0.8-4.9,2.3s-1.2,3.4-1.2,5.8v35.2c0,2,0.4,3.7,1.3,5c0.9,1.4,2.4,2,4.7,2
		c0.6,0,1.3-0.1,2.1-0.4c0.7-0.2,1.4-0.6,2.1-1.1c0.6-0.5,1.1-1.2,1.4-2.1c0.4-0.9,0.6-2,0.6-3.4v-3.4L199,191.3L199,191.3z"/>
	<path d="M207,210.9V142h15.9c11.6,0,17.4,6.7,17.4,20.2c0,4.1-0.6,7.5-1.9,10.4c-1.3,2.8-3.5,5.1-6.6,6.9l10.6,31.5H232l-9.2-29.4
		h-5.9v29.4L207,210.9L207,210.9L207,210.9z M216.9,151.3v21.5h5.6c1.7,0,3.1-0.2,4.1-0.7s1.8-1.2,2.4-2.1c0.5-0.9,0.9-2,1.1-3.3
		c0.2-1.3,0.3-2.9,0.3-4.6c0-1.7-0.1-3.3-0.3-4.6c-0.2-1.3-0.6-2.5-1.2-3.4c-1.2-1.8-3.6-2.7-7-2.7L216.9,151.3L216.9,151.3
		L216.9,151.3z"/>
	<path d="M248.2,210.9V142h29.4v9.3h-19.5v20.2h17v9.3h-17v20.2h19.5v9.9L248.2,210.9L248.2,210.9L248.2,210.9z M256.2,138.9
		l8.7-13.6h10.5l-12.8,13.6H256.2z"/>
	<path d="M284,210.9V142h14.6c5.7,0,10,1.5,12.9,4.6s4.4,7.5,4.4,13.2V192c0,6.5-1.6,11.2-4.7,14.3c-3.1,3.1-7.6,4.6-13.5,4.6
		L284,210.9L284,210.9z M293.9,151.3v50.3h4.5c2.8,0,4.7-0.7,5.9-2.1c1.2-1.4,1.7-3.5,1.7-6.5v-33.2c0-2.7-0.5-4.8-1.6-6.3
		s-3.1-2.2-6-2.2L293.9,151.3L293.9,151.3z"/>
	<path d="M325.5,210.9V142h9.9v68.9L325.5,210.9L325.5,210.9z"/>
	<path d="M351.5,210.9v-59.6H340V142h32.7v9.3h-11.4v59.6H351.5z"/>
	<path d="M375.4,158.3c0-2.8,0.5-5.2,1.5-7.4c1-2.1,2.3-3.9,3.9-5.3c1.5-1.4,3.3-2.4,5.3-3.1c2-0.7,3.9-1.1,6-1.1s4,0.4,6,1.1
		s3.8,1.7,5.4,3.1c1.5,1.4,2.8,3.2,3.8,5.3s1.5,4.6,1.5,7.4v36.4c0,2.9-0.5,5.4-1.5,7.5c-1,2.1-2.2,3.8-3.8,5.1
		c-1.6,1.4-3.4,2.5-5.4,3.2c-2,0.7-4,1.1-6,1.1c-2,0-4-0.4-6-1.1s-3.7-1.8-5.3-3.2c-1.6-1.4-2.9-3.1-3.9-5.1c-1-2.1-1.5-4.5-1.5-7.5
		V158.3z M385.2,194.7c0,2.4,0.7,4.1,2,5.3c1.3,1.1,2.9,1.7,4.7,1.7c1.8,0,3.4-0.6,4.7-1.7c1.3-1.1,2-2.9,2-5.3v-36.4
		c0-2.4-0.7-4.1-2-5.3s-2.9-1.7-4.7-1.7c-1.8,0-3.4,0.6-4.7,1.7c-1.3,1.1-2,2.9-2,5.3V194.7z"/>
	<path d="M449.1,161.9h-9.9v-2.2c0-2.3-0.5-4.2-1.6-5.9s-2.9-2.5-5.4-2.5c-1.4,0-2.5,0.2-3.3,0.8s-1.5,1.2-2,1.9
		c-0.5,0.8-0.9,1.8-1.1,2.9s-0.3,2.2-0.3,3.3c0,1.4,0,2.5,0.1,3.4c0.1,0.9,0.4,1.7,0.7,2.4c0.4,0.7,1,1.3,1.7,1.8
		c0.7,0.5,1.8,1,3,1.5l7.5,3c2.2,0.8,4,1.8,5.3,3c1.4,1.1,2.4,2.4,3.2,3.9c0.7,1.5,1.2,3.3,1.5,5.3s0.4,4.2,0.4,6.7
		c0,2.9-0.3,5.6-0.9,8.1c-0.6,2.5-1.5,4.6-2.8,6.3c-1.4,1.8-3.1,3.2-5.3,4.2c-2.2,1-4.9,1.5-8,1.5c-2.4,0-4.6-0.4-6.7-1.3
		c-2.1-0.8-3.8-2-5.3-3.5c-1.5-1.5-2.7-3.2-3.5-5.2s-1.3-4.1-1.3-6.4v-3.7h9.9v3.1c0,1.8,0.5,3.4,1.6,4.9s2.9,2.2,5.4,2.2
		c1.7,0,3-0.2,3.9-0.7c0.9-0.5,1.7-1.2,2.2-2.1s0.8-2,0.9-3.2s0.1-2.7,0.1-4.2c0-1.8-0.1-3.3-0.2-4.4c-0.1-1.2-0.4-2.1-0.8-2.8
		c-0.4-0.7-1-1.3-1.8-1.7c-0.7-0.4-1.7-0.9-3-1.5l-7.1-2.9c-4.2-1.7-7.1-4.1-8.6-6.9c-1.5-2.9-2.2-6.5-2.2-10.8c0-2.6,0.4-5,1.1-7.4
		c0.7-2.3,1.8-4.3,3.2-6c1.4-1.7,3.1-3,5.2-4c2.1-1,4.6-1.5,7.5-1.5c2.5,0,4.7,0.4,6.7,1.4s3.8,2.1,5.3,3.6c3,3.1,4.4,6.6,4.4,10.6
		L449.1,161.9L449.1,161.9L449.1,161.9z"/>
</g>
<g>
	<path class="st0" d="M218,242.9c0.6,0.9,0.9,1.9,1.1,3s0.1,2.3-0.3,3.6c-0.5,1.8-1.4,3.2-2.7,4.4c-1.3,1.1-2.8,1.7-4.6,1.9
		c-0.2,0.9-0.2,1.7,0.1,2.5c0.3,0.8,0.8,1.3,1.5,1.5c0.4,0.1,0.8,0.2,1.1,0.2s0.6,0.1,0.9,0.1l-0.3,1c-0.5,0.1-1.1,0.1-2,0
		c-0.9-0.1-1.7-0.2-2.6-0.4c-1.2-0.4-2.1-1-2.7-1.9c-0.6-1-0.7-2.1-0.5-3.4c-1-0.4-1.9-0.9-2.7-1.6c-0.8-0.7-1.4-1.4-1.9-2.3
		c-0.5-0.9-0.8-1.8-0.9-2.9c-0.1-1,0-2.1,0.3-3.3c0.4-1.3,0.9-2.4,1.6-3.3c0.7-0.9,1.6-1.6,2.5-2.1c0.9-0.5,2-0.8,3.1-0.9
		c1.1-0.1,2.3,0,3.5,0.3c1.2,0.3,2.2,0.8,3.1,1.5C216.7,241.2,217.4,242,218,242.9z M212.1,253.1c0.5-0.6,1-1.3,1.3-2
		c0.4-0.8,0.7-1.7,1-2.8c0.2-0.9,0.4-1.8,0.5-2.7s0.1-1.7,0-2.5c-0.1-0.8-0.4-1.4-0.8-1.9c-0.4-0.5-1-0.9-1.8-1.1
		c-1.3-0.4-2.5,0-3.5,1c-1,1.1-1.9,2.7-2.5,5c-0.3,1-0.4,1.9-0.5,2.8s-0.1,1.7,0.1,2.5c0.1,0.7,0.4,1.4,0.8,1.9s1,0.9,1.7,1.1
		c0.7,0.2,1.4,0.2,2,0C211.1,254.1,211.6,253.7,212.1,253.1z"/>
	<path class="st0" d="M240.1,248c-0.2,0-0.5-0.1-0.9-0.1c-0.4,0-0.8,0-1.1,0.1c-0.3,0.1-0.6,0.4-0.9,0.8c-0.2,0.4-0.5,1.1-0.8,2.1
		l-1.6,5.8c-0.5,1.7-1.4,2.9-2.9,3.6c-1.4,0.7-3.1,0.8-5,0.3c-2.2-0.6-3.8-1.6-4.7-2.9c-0.9-1.3-1.1-2.9-0.7-4.7l2.2-7.9
		c0.1-0.2,0.1-0.5,0-0.7c0-0.2-0.2-0.4-0.4-0.6c-0.1-0.1-0.4-0.3-0.6-0.4c-0.2-0.1-0.5-0.2-0.6-0.3l0.2-0.8l8.1,2.3l-0.2,0.8
		c-0.2-0.1-0.5-0.1-0.7-0.1s-0.5,0-0.8,0c-0.3,0-0.5,0.1-0.7,0.3c-0.1,0.2-0.3,0.4-0.3,0.7l-2.2,7.8c-0.4,1.5-0.4,2.7,0.1,3.6
		s1.4,1.5,2.6,1.9c1.3,0.4,2.4,0.2,3.3-0.3c0.9-0.6,1.6-1.6,2-3.1l1.5-5.2c0.2-0.9,0.4-1.6,0.4-2.1s-0.1-0.9-0.3-1.2
		c-0.1-0.2-0.4-0.4-0.9-0.7c-0.4-0.2-0.7-0.4-0.9-0.5l0.2-0.9l6.7,1.9L240.1,248z"/>
	<path class="st0" d="M253.7,255.2l-0.8-0.2c0-0.6-0.2-1.3-0.6-2.1s-0.8-1.2-1.2-1.5c-0.2-0.1-0.5-0.2-0.9-0.4s-0.7-0.2-1-0.3
		l-2.2-0.6l-1.7,6l1.6,0.4c0.4,0.1,0.8,0.2,1.1,0.1c0.4,0,0.7-0.1,1-0.3c0.2-0.1,0.5-0.4,0.8-0.7c0.3-0.4,0.5-0.7,0.6-1l0.8,0.2
		l-1.8,6.5l-0.8-0.2c0-0.3,0-0.7,0-1.2c-0.1-0.5-0.1-0.9-0.2-1.1c-0.2-0.3-0.4-0.6-0.7-0.8s-0.7-0.4-1.1-0.5l-1.6-0.4l-1.2,4.5
		c-0.1,0.5-0.2,0.9-0.2,1.1c0,0.3,0.1,0.5,0.2,0.7c0.1,0.2,0.4,0.4,0.7,0.5c0.3,0.1,0.7,0.3,1.3,0.4c0.2,0.1,0.6,0.1,0.9,0.2
		s0.7,0.1,1,0.2c0.3,0.1,0.6,0.1,0.9,0.1s0.5-0.1,0.7-0.1c0.4-0.2,1-0.7,1.6-1.3c0.6-0.6,1.1-1.1,1.3-1.4l0.8,0.2l-1.6,4.7l-14.5-4
		l0.2-0.9c0.2,0,0.5,0.1,0.9,0.1c0.4,0.1,0.6,0.1,0.8,0.1c0.3,0,0.5-0.1,0.7-0.3s0.2-0.4,0.3-0.6l3-10.9c0.1-0.3,0.1-0.5,0.1-0.7
		c0-0.2-0.2-0.4-0.4-0.6c-0.2-0.1-0.4-0.3-0.7-0.5c-0.3-0.2-0.6-0.3-0.7-0.4l0.2-0.9l13.7,3.8L253.7,255.2z"/>
	<path class="st0" d="M274.2,273.3l-8.4-2.3l0.2-0.9c0.2,0,0.6,0.1,1,0.1c0.4,0.1,0.6,0.1,0.8,0c0.3,0,0.5-0.1,0.7-0.3
		s0.3-0.4,0.4-0.7l3.2-11.5l-9.1,12.1l-1.4-0.4c0-0.2,0-0.8-0.1-1.6s-0.1-1.4-0.1-1.9l-1-11.7l-2.6,9.4c-0.2,0.9-0.4,1.6-0.4,2.1
		c0,0.5,0.1,0.9,0.3,1.2c0.1,0.2,0.4,0.4,0.9,0.7c0.4,0.3,0.7,0.4,0.9,0.5l-0.2,0.9l-6.6-1.9l0.2-0.9c0.2,0,0.5,0.1,0.9,0.1
		c0.4,0,0.8,0,1.1-0.1c0.4-0.1,0.6-0.4,0.9-0.9s0.5-1.1,0.7-2l2.1-7.7c0.1-0.5,0.2-0.9,0.1-1.2c0-0.4-0.1-0.6-0.3-0.9
		c-0.2-0.3-0.5-0.5-0.8-0.7c-0.3-0.1-0.6-0.3-0.9-0.4l0.2-0.9l7.1,2l1,11.3l5.5-7.4c0.2-0.3,0.4-0.6,0.6-1c0.2-0.4,0.4-0.7,0.4-0.8
		l6.9,1.9l-0.2,0.9c-0.2-0.1-0.5-0.1-0.8-0.1s-0.5,0-0.8,0c-0.3,0-0.5,0.1-0.7,0.3c-0.1,0.2-0.2,0.4-0.3,0.6l-3,11
		c-0.1,0.2-0.1,0.5,0,0.7c0,0.2,0.2,0.4,0.4,0.6c0.1,0.1,0.4,0.2,0.7,0.4c0.3,0.1,0.6,0.2,0.7,0.3L274.2,273.3z"/>
	<path class="st0" d="M344.5,271.3c-1,0.2-1.9,0.4-2.7,0.4c-0.9,0-1.7-0.1-2.3-0.3l-0.5,1l-0.9,0.2l-1.6-5.6l1-0.2
		c0.4,0.5,0.8,1,1.3,1.5s1,0.9,1.6,1.3c0.6,0.4,1.2,0.6,1.8,0.8s1.3,0.1,2-0.1c1-0.3,1.7-0.7,2.1-1.3c0.4-0.6,0.5-1.3,0.3-2
		c-0.1-0.6-0.5-1-1.1-1.4c-0.6-0.3-1.4-0.5-2.4-0.5c-0.7,0-1.3-0.1-1.8-0.1c-0.6,0-1.1-0.1-1.6-0.1c-1.2-0.1-2.1-0.5-2.8-1.2
		s-1.2-1.4-1.5-2.4c-0.1-0.6-0.2-1.2-0.1-1.9s0.4-1.2,0.7-1.8c0.4-0.5,0.9-1,1.6-1.5s1.5-0.8,2.3-1s1.7-0.3,2.5-0.3
		c0.8,0,1.5,0.1,2,0.2l0.5-0.8l1-0.2l1.5,5.3l-1,0.2c-0.4-0.5-0.8-1-1.2-1.5c-0.5-0.5-0.9-0.9-1.3-1.2c-0.5-0.3-1-0.6-1.5-0.7
		s-1.1-0.1-1.7,0.1c-0.8,0.2-1.4,0.6-1.8,1.2s-0.5,1.2-0.3,1.9c0.2,0.6,0.5,1.1,1.1,1.4c0.5,0.3,1.3,0.4,2.3,0.5
		c0.6,0,1.2,0.1,1.8,0.1c0.6,0,1.2,0.1,1.6,0.1c1.2,0.1,2.1,0.5,2.9,1c0.7,0.6,1.3,1.4,1.5,2.5c0.2,0.7,0.2,1.4,0.1,2.1
		c-0.1,0.7-0.4,1.4-0.9,1.9c-0.5,0.6-1,1.2-1.7,1.6C346.4,270.6,345.5,271,344.5,271.3z"/>
	<path class="st0" d="M363,251.1c1,0.5,1.8,1.2,2.5,2s1.2,1.9,1.6,3.2c0.3,1.1,0.4,2.3,0.3,3.4c-0.1,1.1-0.4,2.1-0.9,3.1
		c-0.5,1-1.3,1.8-2.2,2.5c-0.9,0.7-2,1.2-3.4,1.6c-1.1,0.3-2.2,0.4-3.4,0.3c-1.1-0.1-2.1-0.4-3.1-0.9c-1-0.5-1.8-1.2-2.5-2
		s-1.2-1.9-1.6-3.1c-0.4-1.3-0.4-2.5-0.3-3.6c0.1-1.1,0.5-2.2,1.1-3.1c0.6-0.9,1.3-1.7,2.2-2.4c0.9-0.7,2-1.2,3.1-1.5
		s2.3-0.4,3.4-0.3C361.1,250.3,362.1,250.6,363,251.1z M363.2,262.9c0.1-0.8,0.2-1.6,0.1-2.5c-0.1-0.9-0.3-1.9-0.5-2.9
		c-0.2-0.9-0.5-1.8-0.9-2.6s-0.8-1.5-1.3-2.1s-1-1-1.7-1.3c-0.6-0.3-1.3-0.3-2.1-0.1c-1.3,0.4-2.1,1.3-2.5,2.7
		c-0.4,1.4-0.2,3.3,0.4,5.6c0.3,1,0.6,1.9,1,2.7s0.8,1.5,1.3,2.1s1.1,1,1.7,1.2c0.6,0.2,1.3,0.2,2,0c0.7-0.2,1.3-0.5,1.7-1
		C362.8,264.3,363.1,263.6,363.2,262.9z"/>
	<path class="st0" d="M392,258l-8.4,2.3l-0.2-0.9c0.2-0.1,0.5-0.2,0.9-0.4c0.4-0.1,0.6-0.3,0.7-0.4c0.2-0.2,0.4-0.4,0.5-0.6
		c0.1-0.2,0.1-0.5,0-0.8l-3.1-11.6l-1.7,15.1l-1.4,0.4c-0.1-0.2-0.4-0.7-0.9-1.3c-0.4-0.6-0.8-1.2-1.1-1.5l-6.8-9.6l2.5,9.4
		c0.2,0.9,0.5,1.6,0.7,2c0.2,0.4,0.5,0.7,0.9,0.9c0.2,0.1,0.6,0.1,1.1,0.2c0.5,0,0.9,0,1.1,0l0.2,0.9l-6.7,1.8l-0.2-0.9
		c0.2-0.1,0.5-0.2,0.9-0.4c0.4-0.2,0.7-0.4,0.9-0.7c0.2-0.3,0.4-0.7,0.3-1.2c0-0.5-0.1-1.2-0.4-2.1l-2.1-7.7
		c-0.1-0.5-0.3-0.8-0.5-1.1c-0.2-0.3-0.4-0.5-0.7-0.6c-0.4-0.1-0.7-0.2-1-0.2c-0.3,0-0.6,0.1-1,0.1l-0.2-0.9l7.1-1.9l6.6,9.2l1-9.2
		c0-0.3,0-0.7,0-1.2c0-0.4,0-0.7-0.1-0.9l6.9-1.9l0.2,0.9c-0.2,0.1-0.5,0.2-0.7,0.3s-0.5,0.2-0.7,0.4c-0.2,0.2-0.4,0.4-0.4,0.6
		c0,0.2,0,0.5,0,0.7l3,11c0.1,0.3,0.2,0.5,0.3,0.6c0.1,0.1,0.4,0.2,0.7,0.3c0.1,0,0.4,0,0.8,0c0.4,0,0.6-0.1,0.8-0.1L392,258z"/>
	<path class="st0" d="M404.3,240c1,0.5,1.8,1.2,2.5,2s1.2,1.9,1.6,3.2c0.3,1.1,0.4,2.3,0.3,3.4c-0.1,1.1-0.4,2.1-0.9,3.1
		c-0.5,1-1.3,1.8-2.2,2.5c-0.9,0.7-2,1.2-3.4,1.6c-1.1,0.3-2.2,0.4-3.4,0.3c-1.1-0.1-2.1-0.4-3.1-0.9c-1-0.5-1.8-1.2-2.5-2
		c-0.7-0.9-1.2-1.9-1.6-3.1c-0.4-1.3-0.4-2.5-0.3-3.6c0.1-1.1,0.5-2.2,1.1-3.1c0.6-0.9,1.3-1.7,2.2-2.4c0.9-0.7,2-1.2,3.1-1.5
		s2.3-0.4,3.4-0.3C402.3,239.2,403.3,239.5,404.3,240z M404.5,251.8c0.1-0.8,0.2-1.6,0.1-2.5c-0.1-0.9-0.3-1.9-0.5-2.9
		c-0.2-0.9-0.5-1.8-0.9-2.6s-0.8-1.5-1.3-2.1c-0.5-0.6-1-1-1.7-1.3c-0.6-0.3-1.3-0.3-2.1-0.1c-1.3,0.4-2.1,1.3-2.5,2.7
		c-0.4,1.4-0.2,3.3,0.4,5.6c0.3,1,0.6,1.9,1,2.7c0.4,0.8,0.8,1.5,1.3,2.1s1.1,1,1.7,1.2s1.3,0.2,2,0c0.7-0.2,1.3-0.5,1.7-1
		C404,253.1,404.3,252.5,404.5,251.8z"/>
	<path class="st0" d="M418.6,251.4c-1,0.2-1.9,0.4-2.7,0.4c-0.9,0-1.7-0.1-2.3-0.3l-0.5,1l-0.9,0.2l-1.6-5.6l1-0.2
		c0.4,0.5,0.8,1,1.3,1.5c0.5,0.5,1,0.9,1.6,1.3c0.6,0.4,1.2,0.6,1.8,0.8s1.3,0.1,2-0.1c1-0.3,1.7-0.7,2.1-1.3c0.4-0.6,0.5-1.3,0.3-2
		c-0.1-0.6-0.5-1-1.1-1.4c-0.6-0.3-1.4-0.5-2.4-0.5c-0.7,0-1.3-0.1-1.8-0.1c-0.6,0-1.1-0.1-1.6-0.1c-1.2-0.1-2.1-0.5-2.8-1.2
		s-1.2-1.4-1.5-2.4c-0.1-0.6-0.2-1.2-0.1-1.9c0.1-0.6,0.4-1.2,0.7-1.8c0.4-0.5,0.9-1,1.6-1.5c0.7-0.5,1.5-0.8,2.3-1s1.7-0.3,2.5-0.3
		c0.8,0,1.5,0.1,2,0.2l0.5-0.8l1-0.2l1.5,5.3l-1,0.2c-0.4-0.5-0.8-1-1.2-1.5c-0.4-0.5-0.9-0.9-1.3-1.2c-0.5-0.3-1-0.6-1.5-0.7
		s-1.1-0.1-1.7,0.1c-0.8,0.2-1.4,0.6-1.8,1.2s-0.5,1.2-0.3,1.9c0.2,0.6,0.5,1.1,1.1,1.4c0.5,0.3,1.3,0.4,2.3,0.5
		c0.6,0,1.2,0.1,1.8,0.1c0.6,0,1.2,0.1,1.6,0.1c1.2,0.1,2.1,0.5,2.9,1c0.7,0.6,1.3,1.4,1.5,2.5c0.2,0.7,0.2,1.4,0.1,2.1
		c-0.1,0.7-0.4,1.4-0.9,1.9c-0.5,0.6-1,1.2-1.7,1.6C420.5,250.7,419.7,251.1,418.6,251.4z"/>
</g>
</svg>
