<?xml version="1.0" encoding="utf-8"?>
<!-- Generator: Adobe Illustrator 24.0.0, SVG Export Plug-In . SVG Version: 6.00 Build 0)  -->
<svg version="1.1" id="Layer_1" xmlns="http://www.w3.org/2000/svg" xmlns:xlink="http://www.w3.org/1999/xlink" x="0px" y="0px"
	 viewBox="0 0 600 600" style="enable-background:new 0 0 600 600;" xml:space="preserve">
<style type="text/css">
	.st0{fill:#00AFFE;}
	.st1{fill:#BC400A;}
</style>
<g>
	<path class="st0" d="M463.4,302c2,0.1,3.9,0.2,5.9,0.3c3.4,0.6,6.8,3.5,9.9-0.3c2.9,0.8,5-1.5,4-3.1c-1.6-2.9-5.4-2.1-8.5-2.1
		c-0.3-0.3-0.8-0.6-1.3-0.6l0,0c-2-0.7-4-1.4-6-2.1c-1.3-0.3-2.6-0.5-3.8-0.8l0,0l0,0c-3.9,0.8-7.3-1-11-1.6l0,0l0,0
		c-6.9-1.2-13.5-3.6-20.7-2.8l0,0c-3.3-1.4-6.8-2.7-10.5-2c-0.2,0-0.5,0-0.8,0.2c-0.4-0.3-0.9-0.5-1.4-0.2c-4.8-1.3-9.4-4-14.8-2.5
		l0,0l0,0c-1.2-0.2-2.4-0.3-3.5-0.5c-2.8-3.2-6.7,1.1-9.7-1.5c-1.9-0.8-3.6-2.1-5.7-0.4c-2,0.2-4-2.3-5.8,0.3
		c0.7,1.1,1.6,2.1,2.3,3.1l0,0v0.1l0,0l0,0c-0.1,2.4,1.8,2.3,3.3,2.7c3.9,5,10,1.8,14.6,4l0,0c0.5,0.4,1,0.6,1.6,0.8l0,0
		c2.9,0.5,6,3.4,8.2-1c4.3,1.1,8.4,2.2,12.7,3.3c3.4,2.1,6.9,2.5,10.1-0.4l0,0l0,0c5.8,3.6,11.7,6.3,18.5,2.7
		C454.8,299.8,458.7,301.9,463.4,302z"/>
	<path class="st0" d="M72.6,440.2c0-2.8-1.4-4.8-3-7c1.4-3.2,0.9-6-1.7-8.4c-0.2-2-0.5-3.8-0.7-5.8c0.6-3.8-3.8-5-4.4-8.3
		c-0.7-2-1.5-3.9-2.2-5.9c0.7-2.8,0.9-5.6-1.8-7.6l0,0l0,0c-0.8-1.2-1.6-2.4-2.4-3.5l0,0l0,0c-0.5-0.7-0.9-1.3-1.4-2.1
		c-0.3-1.4-0.6-2.7-0.9-4.1c1-1.6-0.1-2.7-0.6-4l0,0c-0.9-3.9,0.1-8.5-4.5-11c-2.3-1.9-0.1-4.1-0.5-6.2l0,0l0,0
		c-0.7-2.7-2.2-4.9-4.9-5.8l0,0l0,0c0.2-0.6,0.1-1.1,0-1.7l0,0l0,0c0.5-1.3-0.4-1.8-1.2-2.4l0,0l0,0c-0.4-0.8-0.8-1.5-1.1-2.2
		c0.1-0.6,0.2-1.2,0.2-1.8l0,0l0,0c0.2-0.7,0.4-1.2,0.7-1.9c0.3-2-1-3.3-2.2-4.7c-1.3-4,0.7-7.5,1.3-11.2c2.9-3.5,5.8-7.1,8.6-10.6
		c1.4-1.5,2.6-3.2,2.2-5.4l0,0l0,0c3.4-2.3,7.1-4.3,7.1-9.2c4.4-0.6,5.8-3.8,6.4-7.7l0,0l0,0c0.2-0.7,0.4-1.3,0.7-2c0,0,0,0,0-0.1
		c0.5,0,1-0.1,1.4-0.2c-0.3-0.6-0.7-1.3-1-1.9l0,0c0.2-0.4,0.5-0.9,0.8-1.4l0,0c4.8-1.7,9.4-3.7,6.5-10.3l0,0c0.1-0.4,0.3-0.7,0.6-1
		c2.1-1.2,5.5,0,6.3-3.6l0,0c1.7,0.6,2.5-0.1,2.8-1.7l0,0l0,0c1.4-2.4,4.8-4.2,2.8-7.8c-1.5-2.7-3.4-3.2-5.7-1.1
		c-1.8,2.1-3.5,4.2-5.3,6.3l0,0l0,0c-2.6,2.2-4.2,4.8-2.9,8.3c-4.2,1.8-4.8,6.6-7.5,9.7l0,0c-0.5-0.1-1-0.2-1.6-0.1l0,0l0,0
		c-1.1-0.5-1.8,0-2.2,1c-1.5,0.2-1.9,0.8-0.7,1.9l0,0l0,0c-0.6,1.7-1.2,3.4-1.8,5.2c0,0-0.1,0-0.1,0.1c-0.8,0.4-1.5,0.7-2.2,1.1l0,0
		c-4.8,2-8.2,5-7.3,10.8l0,0l0,0v0.1c-5.3-0.1-6.7,3.8-7.8,7.8c-1.4,2.1-2.9,4.2-4.3,6.3c-4.4,0.8-5.2,4.2-5.9,7.9
		c-1.8,4.7-0.1,7.8,4.4,9.5c0.2,0.7,0.4,1.5,0.6,2.3l0,0c-0.2,0.6-0.1,1.1,0.1,1.7l0,0c-1.1,2.6,1,3.6,2.5,4.9l0,0l0,0l0,0
		c-0.2,1.4-1.1,2.9,0.1,4.2l0,0l0,0c-1.4,4.2,0.8,7.5,2.8,10.7c0.8,1.4,1.6,2.8,2.6,4.3l0,0c-0.7,2.5-0.7,4.9,2,6.4l0,0l0,0
		c0.2,2.1,0.4,4,0.6,6.1l0,0l0,0c0.6,3.1,1.2,6.2,4.6,7.7c0.1,3.7,0.4,7.4,2.7,10.6l0,0c-0.4,3.4,1.9,5.7,3.5,8.3l0,0
		c0.7,2.2,1.4,4.4,2.2,6.5l0,0l0,0c1.1,3.7,2.3,7.5,3.5,11.3l0.1,0.1l0,0c0.1,3.3,1,6.3,3.6,8.5c0,0.3-0.1,0.6-0.1,0.9
		c0.2,4.6,2.2,8.5,5.5,11.6c0.6,0.6,3.9-0.1,4.1-0.8C77.7,447.4,74.2,444.1,72.6,440.2z M63.5,296.6L63.5,296.6L63.5,296.6
		L63.5,296.6h-0.3l0,0c0-0.1,0-0.1,0.1-0.2C63.2,296.4,63.3,296.5,63.5,296.6z M58.7,303.1L58.7,303.1
		C58.7,303.1,58.7,303.2,58.7,303.1L58.7,303.1z M66.9,440.4L66.9,440.4c0.4,0.5,0.8,0.9,1.3,1C67.6,441.4,67.3,441.2,66.9,440.4z"
		/>
	<path class="st0" d="M305.1,276.8c3.2,0.6,6.4,1.2,9.6,1.8l0,0c2.1-0.2,4.6,2.4,6-1.3l0,0l0,0c1.3-0.1,2.6-0.2,3.9-0.5
		c0,5.3,4.5,2.4,6.7,3.6c3.5,1.9,7.1,3.1,11.1,2.2c1.5-0.1,3.5,0.5,4.4-0.3c1.8-1.4-0.4-3.1-1.2-3.5c-4.5-2.4-8.1-7.4-14.1-6.1
		c-3.2-1-6.3-1.3-9.5-0.7c-2.8-2-6-0.4-9-1.1c-1-1.2-1.9-0.8-2.5,0.4c-0.2,0.8-0.8,1-1.6,1.2c0.5-0.4,1.1-0.7,1.6-1.2
		c-4.4-0.1-8.5-3.2-13.1-1.4l0,0c-3.4-1.2-4.6,1.1-6.5,4.3C296.5,272.8,299.9,279.1,305.1,276.8z"/>
	<path class="st0" d="M494.7,302.7L494.7,302.7c-1.8,6.8,4.2,4.2,6.7,5c3.5,1.1,7.9,0.4,9.2,5.3l0,0c1.1,2.4,0.8,5.4,3.3,7.2l0,0
		l0.5,0.6l0.7,0.1c-0.2,1.2,0.2,2.1,1.4,2.5l0,0l0,0c0.6,0.7,1.1,1.4,1.8,2l0,0l0,0c-3.8,3.5-0.5,5.7,1.6,8.1l0,0l0,0
		c0.4,0.5,0.8,0.9,1.3,1c-0.2,0.4-0.3,1-0.1,1.4c-0.6,0.5-0.7,0.9-0.5,1.6c-0.8,1.2,0,1.9,0.9,2.4c-1.5,4.4,2.3,7.1,3.2,10.8
		c-0.5,1.7,0.6,2.3,2,2.8c0.3,1.5,0.5,3.2,0.8,4.8c-0.2,1.3-0.3,2.6,1.3,3.1c0.3,0.5,0.7,0.8,1.2,0.9c0.3,1.3,0.7,2.6,1.1,4
		c-1.6,3.9,1.2,6.5,2.7,9.3c1.3,2.4,2.6,4.7,4,7.1c5.8,4.7,3.2-1.9,4.6-3.3l0,0c0.9-3.4-2.6-5.3-2.7-8.5l0,0c0.2-2-1.3-3.2-2.3-4.7
		c1.5-3.9-1.3-6.4-3.3-9c-0.3-1.4-0.5-2.9-0.7-4.3c0.2-1.2-0.4-1.6-1.5-1.6c-0.5-0.4-0.9-0.7-1.5-0.9l0,0c0.3-1.8,0.6-3.6,0.9-5.4
		c-0.9-5-3.9-8.6-7.2-12.2c0-2.6,0-5.1,0-7.7l0,0l0,0l0,0l0,0c-0.9-2.4-1.8-4.7-2.7-7.1l0,0l0,0c0.4-3.4-2.1-5.1-4.3-6.7l0,0
		c-0.5-0.4-1-0.7-1.5-1.1c3.3-2.2,2.9-4.5,0.3-7.1c-2.1-4.6-4.8-3.2-7.6-0.8l0,0c-3.8-1.1-7.5-2-11.2-3.1
		C492.4,298,494.9,301.2,494.7,302.7L494.7,302.7z M518,322.4C518.1,322.3,518.1,322.3,518,322.4c0.1-0.1,0.2,0.1,0.2,0.1
		S518.1,322.5,518,322.4z"/>
	<path class="st0" d="M275.1,272.6c2.3,0.1,5.1,3.4,6.6-1.2c0.5-1.7,1.2-3.7-1.1-4.6c-3.4-1.4-3.4,2.5-5.2,3.7
		c-2.6-1.4-5.4-1.2-9.9-0.8C269.7,271,272.4,271.8,275.1,272.6L275.1,272.6z"/>
	<path class="st0" d="M166,255.1c0.8-0.4,1.7-0.8,2.6-1.3c1,0.1,2,0.2,3,0.4c2.3,3.6,5.5,4.4,9.5,3.4c3.7,0.9,7.2,2.5,11.1,1.6l0,0
		c1.1,0.2,2.1,0.3,3.2,0.6c6.7,2.8,13.6,3.1,20.6,3l0,0c2.3,0.6,4.7,1.1,6.9,1.7c4.3,2.5,9,1.2,13.5,2.3c1.7,0.4,4.9,3.4,5.7-1.3
		l0,0l0,0l0,0l0,0c-1.9-1.5-1.3-4.8-4.1-5.7l0,0c-3.6-3.9-7.9-3.6-12.3-2.6c-0.2,0-0.4,0.1-0.7,0.2c-1.7-0.5-3.5-1-5.3-1.5l0,0l0,0
		l0,0l0,0c-2.1,0.8-3.9,0.1-5.4-1.4l0,0l0,0c-4.9-2.8-11.3-1.1-15.8-5c-1.1-0.5-2.1-1.1-3.2-1.6c-4-2.4-7.8-5.3-12.8-3.9l0,0
		c-0.2,0.2-0.3,0.4-0.4,0.6c0,0.4,0.1,0.9,0.2,1.3l0,0c-0.5,1.7-1.3,3.2-3.3,3.3c-2.5-1.2-4.9-2.1-7.7-0.9l0,0l0,0
		c-1.8-0.3-3.5-0.8-5.3-1.1c-2.6-1.3-5.4-2.3-8.3-1.2c-2.8-0.5-5.6-1.1-8.4-1.8l0,0l0,0c-5.9,0.1-11.3-3.3-17.4-2.3
		c-3-0.7-5.8-2.4-9-1.3c0,0,0,0,0,0.1l-0.1-0.1c-1.2-0.2-2.4-0.3-3.7-0.5l0,0l0,0c-4.3-0.8-8.7-1.9-13.2-0.2l0,0l0,0
		c-0.5,1.1-0.9,2.2-1.4,3.3c-0.6-0.1-1.2-0.1-1.8-0.2c-3.1,0-3,1.3-1.2,3.3l0,0c0,0.6-0.1,1.1-0.5,1.6c-0.8,0.4-1.6,0.7-2.3,1.1l0,0
		c-4.1,0.9-6.5,3.6-7.9,7.4c-4.4,2.7-4.9,5.9-1.5,9.8h0.2c0.1,1.1,0.2,2.1,0.3,3.1c0.7-0.8,1.4-1.5,2.2-2.4l0,0
		c2.6-1.5,4.4-3.7,5.3-6.5c2.1-0.6,3-2.2,3.7-4.1c2.7-1.7,3.4-4.6,4.2-7.4l0.4-0.3l-0.1-0.4l0,0c2.3-2.1,5-1,7.7-0.8l0,0l0,0
		c2.5,1.3,5.1,0.7,7.8,0.6c5.5,1.7,11,3.6,16.9,1.8l0,0l0,0c1.4-0.4,1.5,3.5,3.5,1.1l0,0l0,0c4.6,0.5,8.5,3.9,13.4,2.5
		C158.6,254.5,162.1,256.4,166,255.1L166,255.1z M215.8,262.2L215.8,262.2c0.2,0.1,0.2,0.3,0.4,0.4
		C216.2,262.7,215.8,262.2,215.8,262.2z M155.1,251.3L155.1,251.3C155.2,251.3,155.2,251.3,155.1,251.3
		C155.2,251.3,155.1,251.3,155.1,251.3z M125.2,246c0.1,0,0.2,0.1,0.3,0.1l0,0l0,0h0.1c0,0,0,0,0,0.1c-0.1,0.1-0.1,0.1-0.3,0.1
		C125.3,246.1,125.3,246,125.2,246z"/>
	<path class="st0" d="M86.1,450.4c-1.7-0.6-2.9-0.6-3.4,1.5c-0.7,2.8,0.8,3.8,3.2,4.2c1.3,0.3,3.1,1.8,3-0.9
		C88.8,453.2,88.9,450.7,86.1,450.4z"/>
	<path class="st0" d="M555.8,416.7L555.8,416.7c0.7-2.9-0.3-5.2-2.2-7.4c-1.4-1.6-1-5.8-4.4-4.4c-2.3,1-5.2,3.4-2.9,7l0,0l0,0
		c0.2,0.7,0.4,1.5,0.6,2.3l0,0l0,0c-0.4,1.9-0.8,3.6-1.2,5.5c-3,1.9-4.6,4.6-4.6,8.2c-1.9,2.5-6.4,3.7-4.6,8.3
		c-4.9-0.6-4.8,3.1-5.5,6.1l0,0l0,0c-0.4,0.5-0.6,1-0.9,1.5c-2.1,0.1-3.3,1.3-4.1,3c-3.1,1.1-4.3,3.2-2.6,6.3l-0.3,0.1l0,0
		c-2.8,0.4-4.7,1.6-3.6,4.8c-0.3,0.5-0.4,1-0.6,1.6c-5.7,1.5-8.1,5.9-10.4,10.8c-2.6,1.2-3.3,3.8-4.7,5.9l0,0
		c-0.9,1.3-1.8,2.7-2.7,4l0,0l0,0c-2.7,1.2-3.6,3.5-3.6,6.2l0,0l0,0c-1.6,1.5-3.1,2.9-4.7,4.4l0,0l0,0c-1.6,2.8-5,4.5-4.9,8.2l0,0
		l0,0c-0.2,0.4-0.5,1-0.8,1.4c-2.8,0.3-4.4,1.8-4.9,4.6c-1.2,1.5-2.4,3.1-3.6,4.6l0.2,0.3l0,0c-0.1-0.1-0.1-0.3-0.2-0.4
		c-6,2.2-11.3-3.7-17.4-1.7c-3.2-0.9-6.3-2.5-9.9-1.2l0,0c-4.3-0.7-8.3-3.2-12.9-2.1l0,0c-2.4-0.5-4.7-2.3-7.2-0.1l0,0h-0.1l0,0l0,0
		c-3.7-0.9-6.9-4.4-11.1-1.7l0,0l0,0c-2.2-2-4.4-3.9-7.8-2.4c-3-0.3-5.9-2.7-9.1-0.7l0,0l0,0c-0.5-0.3-1-0.4-1.5-0.2l0,0l0,0
		c-2,0.4-3.7-0.5-5.4-1.6l0,0l0,0c-5.5-2.1-11.1-3.8-16.9-1c3.2,6.2,7.9,9.3,14.9,7.8c3.8,1.1,7.4,3.1,11.5,1.9l0,0
		c1.7,0.3,3.4,0.8,5.1,1.1l0,0l0,0c7.1-0.4,13.8,5.5,21.3,1.7l0,0l0,0h0.2c1,0.2,2,0.4,3,0.6l0,0l0,0c3.1,5.1,7.4,2.4,11.4,1.7
		c0.2,2.1,1.9,2.4,3.5,2.5c2.9,1.3,5.9,1.1,9,1c3,1.8,6.3,1.3,9.6,1.2c1.8,0.5,3.6,1,5.4,1.5c4.9,2.1,8.9,1.7,11.2-3.8l0,0
		c2.8-2.2,5-4.7,6.2-8.1c2.3-0.7,2.9-2.7,3.1-4.8c-0.1-0.3-0.2-0.5-0.2-0.7c0,0.2,0.1,0.4,0.2,0.7c0.3-2.9,4.6-3.2,4-6.6l0,0l0,0
		c2.8-2,6.5-3.3,6.3-7.8c0.4-0.5,0.6-1.1,1-1.6c3.7-0.1,4.6-3,5.5-5.7c5.1-3.5,6.6-9.8,10.6-14.2l0,0c0.8-0.9,1.7-1.8,2.5-2.7l0,0
		l0,0c2.6-1,2.7-3.4,3.7-5.5c2.5-0.8,2.9-3,3.5-5.1c0.3-0.3,0.6-0.6,0.7-1c1.9-0.1,2.3-1.9,3.1-3.1l0,0c1.8-0.5,2-2.1,2.6-3.4l0,0
		l0,0c2.4-2.4,5.7-4.3,4.5-8.5l0,0l0,0c5.5-1.1,5.6-7.2,9.1-10c1.7-0.4,2.3-1.1,0.7-2.4C552.5,420.8,560.2,421.9,555.8,416.7z"/>
	<path class="st0" d="M260.7,268.7c0.7-0.6,1-2.9,0.5-3.3c-3.1-2.4-4.9,0.9-8,1.8C256.1,269.4,258.2,270.9,260.7,268.7z"/>
	<path class="st0" d="M353.1,492.3L353.1,492.3L353.1,492.3c-5.4,0.9-9.6-4.8-15.1-2.8c-2.3-0.5-4.5-0.9-6.7-1.4l0,0l0,0
		c-2.5-1.2-4.8-1.2-6.6,1.2c-4.2-4.2-9.1-5.1-14.7-2.7l-0.1,0.1c-1.1-0.3-2.1-0.6-3.2-0.9c-2.1-4.1-6.2-1.2-9-2.6l0,0l0,0l0,0l0,0
		c-3.3,1.5-5.6-4.1-9.1-1.1l0,0l0,0c-0.9,0.3-1.9,0.8-2.9,1.2c-1.2-0.3-2.3-0.6-3.5-0.9l0,0l0,0c-6-2.2-11.8-5.2-18.6-4.3
		c-1.1-0.2-2.2-0.4-3.3-0.6l0,0c-1.2-0.3-2.4-0.6-3.6-0.9l0,0l0,0c-1.4-0.6-2.7-1.1-4.1-0.1c-0.6,0-1.2-0.1-1.9-0.1
		c-4-1.5-8-2.9-12.4-2.2c-4.9-1.6-10-2.9-15.3-2.4c-3.3-1.2-6.4-2.5-10.1-1.6l0,0c-3.6-0.9-7.1-2.6-10.9-1.5l0,0
		c-4.9,3.7-7.9-4.6-12.7-2.1c-1.4,0.4-2.8,0.8-4.2,1.2c-1.1-0.5-2.3-0.8-3.4-1.3c-1.7-3.8-4.9-1.4-7.3-2l0,0l0,0
		c-4-2-8.2-2.7-12.6-2.2l0,0c-2,0-4,0-6,0l0,0l0,0c-4.1-2.7-8.5-3.3-13.1-2.3l0,0l0,0c-1.8-0.2-3.6-0.3-5.3-0.4l0,0
		c-2.7-2.6-6.2-1.2-9.4-1.9l0,0c-3-0.8-6-1.8-9-2.6l0,0l0,0c-3.8-0.6-7.5-1-11.4-1.5l0,0l0,0c-1.8-0.9-3.6-1.6-5.5-0.5
		c-3.2-0.8-7.1-2.2-7.8,2.7c-0.5,3.6,2.7,4,5.7,3.9c2.3,2.1,5,1.4,7.7,1.2c3.2,1.1,6.3,2.7,9.8,1.5c1.6,0.3,3.3,0.6,4.9,0.9l0,0l0,0
		c3,1,5.9,3,9.4,1.9l0,0c4.2,1,8.3,1.5,12.5-0.3l0,0l0,0l0.6,0.3l0.7-0.2l0,0l0,0c0.6,0.1,1.2,0.2,1.8,0.2l0,0l0,0
		c4.1,5.7,10.5,3.7,15.9,4.6l0,0l0,0c6.4,0.4,12.4,3.5,18.9,2.8l0,0l0,0c1.2,0.3,2.4,0.4,3.7,0.7l0,0l0,0c1.9,0.8,3.6,2,5.7,0.9l0,0
		c5.2,0.4,9.9,3.4,15.4,2.3l0,0c1.6,0.3,3.2,0.6,4.9,0.9c3.8,0.7,6.5,4.9,11,3.1l0,0l0,0c4.6-1.2,8.4,1.8,12.8,2.2
		c2.1,0.3,4.2,0.6,6.3,0.9c2.4,2.2,4.8,2,7-0.3c2.7,0.7,5.3,1.9,8.1,0.8c3,0.8,5.9,2.6,9.1,1.3l0,0c5.2-0.7,10.1,6.4,15.4,0.6
		c0.5,0.1,1,0.2,1.5,0c2.6,2.1,5.6,3,8.9,3.1l0,0c5.1,0.5,9.9,5.6,15.4,1.1l0,0l0,0c0.6,0.1,1.2,0.2,1.8,0.2l0,0l0,0
		c1.7,2.5,3.7,3.8,6.8,2.1c0.4-0.4,1-0.5,1.6-0.4c-0.6,0.1-1,0.3-1.6,0.4c3.8,1.1,7.4,2,11.1,3l0,0l0,0c5.1,0.5,10.1,1.1,15.3,1.6
		c4.3,0.5,8.4,3.7,13.1,1.8C357,495.9,358.9,492.8,353.1,492.3z M147.4,463.5c0.1-0.1,0.3-0.1,0.4-0.3c0,0.1-0.1,0.3-0.1,0.4
		C147.6,463.6,147.6,463.6,147.4,463.5z"/>
	<path class="st0" d="M365.2,496.2c-3.5-1.6-3.8,1.4-5.2,2.6c0,0,0.7,1.5,1.2,1.6c2.2,0.5,4.3,0.1,5.4-2.1
		C367.2,496.8,365.6,496.6,365.2,496.2z"/>
	<path class="st0" d="M379.5,281.9L379.5,281.9L379.5,281.9L379.5,281.9c0,0.1,0,0.1-0.1,0.2h0.1l0,0V281.9
		C379.6,282,379.6,282,379.5,281.9L379.5,281.9z"/>
	<path class="st0" d="M375.4,282.6L375.4,282.6L375.4,282.6c-1.2-0.3-2.4-0.6-3.7-0.9c-2.4-0.7-3.3-4.3-6.5-3.5
		c-2.7,0.8-5.2-4.4-7.8-0.3c-1.2,1.8,0.5,3.3,2.3,4.2l0,0l0,0c2.1,4.5,5.6,3.8,9.3,2.6c2,3.1,5.1,4.1,8.4,4.4c2.6,0.2,3-1.3,1.4-3.2
		c0.3-1.2,0.5-2.5,0.7-3.7C378.1,281.7,376.6,280.9,375.4,282.6z"/>
</g>
<path class="st0" d="M122.2,355.8L122.2,355.8L122.2,355.8c1.4-6.5-5.4-2.5-6.8-5.4l0,0c-0.9-0.5-1.8-1-2.7-1.5l0,0l0,0
	c-0.7-7-6.2-5.1-10.5-5.4c3-4.2-2.5-6.4-2.7-9.8c0-0.3,0.1-0.6,0.1-0.9c0.5-4.8,3.6-9.8-1.3-14c0.4-0.2,0.6-0.5,0.6-1l0,0
	c1.5,0.7,3,1.1,3.4-1c0.4-2-0.4-3.8-2.4-4.2c-2.8-0.5-4.6,0.8-4.9,3.8c-3.6,3.8-3.4,8.5-3,13.2l0,0l-0.2,0.3
	c-0.3,1.7-0.7,3.3-1.1,4.9l0,0l0,0c-0.8,0.5-1.4,0.9-2.2,1.4l0,0l0,0c-1.9-0.2-3.5,0.4-4.8,1.7c-4.3,0.7-8.9,1-9.7,6.7l0,0l0,0
	c-3.3,0.3-6.2-4-9.6-0.7l0,0c-2.8,1.5-8.4-0.1-8.1,4c0.3,3.8,5.2,3,8.4,2c3-0.9,6-1.8,9-2.6l0,0l0,0c5.4,6.7,6.1-4.7,10.3-2.7
	l0.7,0.5l0.9,0.2l0,0c-3.2,4.2,2.5,2.7,3,4.6c-0.7,2.4-2.1,4.8-0.7,7.4c-0.9,3.7-3.4,7.8,2.9,9.3c-0.2,0.4-0.3,0.9-0.1,1.2
	c-1.2,1-2.2,2-3.3,3.2c-4.2-0.4-6.8,1.6-9.3,5.5c3.8-0.1,6.5,0.1,8.6-1.9l0,0l0,0c7.8,3.2,9.7-0.1,8-7.3c0.8-3.1,2.4-6.1,1-9.3l0,0
	c-0.2-1.3-0.4-2.6-0.7-3.9l0,0c1.7-1.5,3.5-3,5.2-4.5c0.7,0.3,1.5,0.7,2.2,1c2.1,2.6,5.1,3.3,8.1,4l0,0l0,0c1.7,0.6,3.3,1.2,4.9,1.8
	l0,0c1.9,1.1,3.5,2.8,5.5,3.3c2.3,0.7,5.8,4,7.1,0.2C129.3,355.3,123.6,358.1,122.2,355.8z"/>
<path class="st0" d="M522.5,418.1L522.5,418.1L522.5,418.1c1.4-6.5-5.4-2.5-6.8-5.4l0,0c-0.9-0.5-1.8-1-2.7-1.5l0,0l0,0
	c-0.8-6.9-6.2-5.1-10.5-5.4c3-4.2-2.5-6.4-2.7-9.8c0-0.3,0.1-0.6,0.1-0.9c0.5-4.8,3.6-9.8-1.3-14c0.4-0.2,0.6-0.5,0.6-1l0,0
	c1.5,0.7,2.9,1.1,3.4-1.1c0.4-2-0.4-3.8-2.4-4.2c-2.8-0.5-4.6,0.8-4.9,3.8c-3.6,3.8-3.3,8.5-3,13.2l0,0l-0.2,0.3
	c-0.4,1.7-0.7,3.3-1,5l0,0l0,0c-0.8,0.5-1.4,0.9-2.2,1.4l0,0l0,0c-1.9-0.2-3.5,0.4-4.8,1.7c-4.3,0.7-8.9,1-9.7,6.7l0,0l0,0
	c-3.3,0.3-6.2-4-9.6-0.7l0,0c-2.8,1.5-8.4-0.1-8.1,4c0.3,3.8,5.2,3,8.4,2c3-0.9,6-1.8,9-2.6l0,0l0,0c5.4,6.7,6.1-4.7,10.3-2.7
	l0.7,0.5l0.9,0.2l0,0c-3.2,4.2,2.5,2.7,2.9,4.6c-0.7,2.4-2.1,4.8-0.7,7.4c-0.9,3.7-3.4,7.8,2.9,9.3c-0.2,0.4-0.3,0.9,0,1.3
	c-1.2,1-2.2,2-3.3,3.2c-4.2-0.4-6.8,1.6-9.3,5.5c3.8-0.1,6.5,0.1,8.6-1.9l0,0l0,0c7.8,3.2,9.7-0.1,8-7.3c0.8-3.1,2.4-6.1,1-9.3l0,0
	c-0.2-1.3-0.4-2.6-0.7-3.9l0,0c1.7-1.5,3.5-3,5.2-4.5c0.7,0.3,1.5,0.7,2.2,1c2.1,2.6,5.2,3.3,8.1,4l0,0l0,0c1.7,0.6,3.3,1.2,4.9,1.8
	l0,0c1.9,1.1,3.5,2.8,5.5,3.3c2.3,0.7,5.8,4,7.1,0.2C529.5,417.8,523.9,420.4,522.5,418.1z"/>
<g>
	<path class="st1" d="M152.1,349.9c3.2-21,15.5-31.8,30.1-29.5c14.6,2.2,22.9,16.3,19.7,37.3c-3.3,21.4-15.6,32.4-30.2,30.2
		C157.2,385.6,148.8,371.3,152.1,349.9z M193.4,356.4c2.5-16.3-2.5-27.1-12.4-28.6c-9.8-1.5-17.8,7.2-20.3,23.6
		c-2.6,16.7,2.3,27.6,12.1,29.3C182.8,381.9,190.9,372.9,193.4,356.4z"/>
	<path class="st1" d="M213.4,367.8l6.2-40.5l8.4,1.4l-6.4,40.7c-2.1,13.4,3,19.2,10.8,20.3c7.9,1.2,14.6-2.6,16.6-16.2l6.4-40.7
		l8,1.2l-6.2,40.5c-2.9,18.6-13.1,24.4-25.8,22.4C218.5,395,210.5,386.6,213.4,367.8z"/>
	<path class="st1" d="M275.6,336.1l9,1.4l5,36.7c1.1,8,1.8,14.4,2.9,22.4h0.4c3.6-7.2,6.2-13.1,9.5-20.4l15.7-33.5l8.6,1.4
		l-30.6,61.8l-9.7-1.4L275.6,336.1z"/>
	<path class="st1" d="M331.2,404l16.2,2.6l7.9-50.9l-16.2-2.6l1.1-7l40.7,6.4l-1.1,7l-16.2-2.6l-7.9,50.9l16.2,2.6l-1.1,7l-40.7-6.4
		L331.2,404z"/>
	<path class="st1" d="M400.1,355.4l20.3,3.2c13.1,2.1,22,8.3,20,21.8c-2.1,13-12.6,17.8-25.7,15.7l-11.9-1.8l-4.3,27.5l-8.4-1.4
		L400.1,355.4z M414.4,389.2c10.1,1.5,16.3-1.7,17.5-9.9c1.4-8.6-3.7-12.4-13.8-13.9l-10.8-1.8l-3.7,24.2L414.4,389.2z M420.5,390.2
		l14.6,37.3l-9.4-1.5l-12.3-32.3L420.5,390.2z"/>
</g>
<g>
	
		<rect x="154" y="395.5" transform="matrix(0.1517 -0.9884 0.9884 0.1517 -260.3164 490.2648)" class="st0" width="3" height="2.5"/>
	<path class="st0" d="M161.3,399.2l0.5-3l4.9,0.8l-0.5,3L161.3,399.2z M171.1,400.7l0.5-3l4.9,0.8l-0.5,3L171.1,400.7z M180.9,402.2
		l0.5-3l4.9,0.8l-0.5,3L180.9,402.2z M190.7,403.8l0.5-3l4.9,0.8l-0.5,3L190.7,403.8z M200.5,405.2l0.5-3l4.9,0.8l-0.5,3
		L200.5,405.2z M210.3,406.7l0.5-3l4.9,0.8l-0.5,3L210.3,406.7z M220.1,408.2l0.5-3l4.9,0.8l-0.5,3L220.1,408.2z M229.9,409.7l0.5-3
		l4.9,0.8l-0.5,3L229.9,409.7z M239.7,411.2l0.5-3l4.9,0.8l-0.5,3L239.7,411.2z M249.5,412.7l0.5-3l4.9,0.8l-0.5,3L249.5,412.7z
		 M259.4,414.3l0.5-3l4.9,0.8l-0.5,3L259.4,414.3z M269.2,415.7l0.5-3l4.9,0.8l-0.5,3L269.2,415.7z M279,417.2l0.5-3l4.9,0.8l-0.5,3
		L279,417.2z M288.8,418.7l0.5-3l4.9,0.8l-0.5,3L288.8,418.7z M298.5,420.3l0.5-3l4.9,0.8l-0.5,3L298.5,420.3z M308.3,421.8l0.5-3
		l4.9,0.8l-0.5,3L308.3,421.8z M318.1,423.2l0.5-3l4.9,0.8l-0.5,3L318.1,423.2z M327.9,424.7l0.5-3l4.9,0.8l-0.5,3L327.9,424.7z
		 M337.7,426.2l0.5-3l4.9,0.8l-0.5,3L337.7,426.2z M347.5,427.8l0.5-3l4.9,0.8l-0.5,3L347.5,427.8z M357.3,429.3l0.5-3l4.9,0.8
		l-0.5,3L357.3,429.3z M367.1,430.7l0.5-3l4.9,0.8l-0.5,3L367.1,430.7z M376.9,432.2l0.5-3l4.9,0.8l-0.5,3L376.9,432.2z
		 M386.7,433.7l0.5-3l4.9,0.8l-0.5,3L386.7,433.7z M396.5,435.3l0.5-3l4.9,0.8l-0.5,3L396.5,435.3z M406.3,436.8l0.5-3l4.9,0.8
		l-0.5,3L406.3,436.8z M416.1,438.2l0.5-3l4.9,0.8l-0.5,3L416.1,438.2z"/>
	<rect x="426" y="437.2" transform="matrix(0.1517 -0.9884 0.9884 0.1517 -70.7445 794.4395)" class="st0" width="3" height="2.5"/>
</g>
</svg>
