<?xml version="1.0" encoding="utf-8"?>
<!-- Generator: Adobe Illustrator 23.0.6, SVG Export Plug-In . SVG Version: 6.00 Build 0)  -->
<svg version="1.1" id="Layer_1" xmlns="http://www.w3.org/2000/svg" xmlns:xlink="http://www.w3.org/1999/xlink" x="0px" y="0px"
	 viewBox="0 0 569.7 250.6" style="enable-background:new 0 0 569.7 250.6;" xml:space="preserve">
<style type="text/css">
	.st0{fill:#F7F4CB;}
	.st1{fill:#0F3D5B;}
	.st2{fill:none;stroke:#0F3D5B;stroke-miterlimit:10;}
	.st3{fill:#E82F37;}
	.st4{fill:#BCD62E;}
	.st5{fill:#79CCF4;}
	.st6{fill:#1E5C92;}
	.st7{fill:#1B4892;}
	.st8{fill:#154721;}
	.st9{fill:#67A19B;}
	.st10{fill:#E67132;}
	.st11{fill:#BA2430;}
	.st12{fill:#913B8E;}
	.st13{fill:#90C8D7;}
	.st14{fill:#5DB436;}
	.st15{fill:#46ADDA;}
	.st16{fill:#D3DE1F;}
	.st17{fill:#92CC91;}
	.st18{fill:#D11B79;}
	.st19{fill:#EC565C;}
	.st20{fill:#EEEC5F;}
	.st21{fill:#F1EC58;}
	.st22{fill:#6E1640;}
	.st23{fill:#AB4248;}
	.st24{fill:#CB1C78;}
	.st25{fill:#DB8452;}
	.st26{fill:#F5D958;}
	.st27{fill:#F48A4F;}
	.st28{fill:#7D6523;}
	.st29{fill:#646533;}
	.st30{fill:#102720;}
	.st31{fill:#0E2317;}
	.st32{fill:#DFC225;}
	.st33{fill:#4C5622;}
	.st34{fill:#B42B1E;}
	.st35{fill:#19421F;}
	.st36{fill:#4D8B33;}
	.st37{fill:#359337;}
	.st38{fill:#87232C;}
	.st39{fill:#3D8184;}
	.st40{fill:#3D2213;}
	.st41{fill:#0C324E;}
	.st42{fill:#3C358D;}
	.st43{fill:#311E70;}
	.st44{fill:#1E4921;}
	.st45{fill:#581F27;}
	.st46{fill:#0D3F7C;}
	.st47{fill:#40AD39;}
	.st48{fill:#388534;}
	.st49{fill:#1C381A;}
	.st50{fill:#1B3218;}
	.st51{fill:#8F481D;}
	.st52{fill:#EA851D;}
	.st53{fill:#74BD4F;}
	.st54{fill:#54AD36;}
	.st55{fill:#164C38;}
	.st56{fill:#C4212E;}
	.st57{fill:#650913;}
	.st58{fill:#84121B;}
	.st59{fill:#452612;}
	.st60{fill:#FFFFFF;}
	.st61{fill:#8D2577;}
	.st62{fill:#EFD15E;}
	.st63{font-family:'Yessy';}
	.st64{font-size:40.6727px;}
</style>
<path class="st0" d="M569.5,197.5c-3.7-3.4-3.6-14.8,0.1-19.8c-3.8-3.6-3.8-15-0.1-19.7c-5.3-5.1-0.7-12-3.3-17.7
	c-2-0.1-3.9-0.3-6-0.4c0-9.9,0-19.5,0-29.2c2.3-0.1,4.2-0.3,6.1-0.4c2.2-6.2-2.1-13.3,3.4-18.6c-3.9-3.7-3.9-15.1-0.1-19.9
	c-3.7-3.8-3.8-15,0-20.2c-3.8-3.5-3.8-14.9,0.1-19.8c-3.8-3.8-3.8-14.9-0.1-20.2c-0.8-0.9-2-1.7-2.5-2.8c-3.4-8.2-4.1-8.7-12.7-8.7
	c-43.7,0-87.3,0.1-131-0.1c-5.7,0-10.6,0.7-13.6,6.8C406.7,1,402.3,0,396.9,0C269.7,0.1,142.6,0.1,15.5,0.1c-1.5,0-3-0.1-4.5,0.1
	C6.9,0.5,4.3,2.8,2.9,6.6c-0.7,1.9-1.7,3.6-2.6,5.7C3.7,16.4,3.8,27.7,0.1,32C3.8,36.5,3.7,48,0,51.8C3.7,56.5,3.8,67.7,0.1,72
	C3.7,76.5,3.7,88,0,91.9c5.4,5.4,0.9,12.5,3.2,18.4c2.1,0.1,4,0.3,6.1,0.4c0,9.9,0,19.5,0,29.2c-2.2,0.2-4.2,0.3-6.1,0.4
	c-0.6,6.1-1.2,12-1.9,19.2c2.5,3,2.4,14.5-1.3,18.4c3.8,4.7,3.7,16.2-0.1,19.8c3.8,4.9,3.8,16.2,0.1,20.3c3.7,4.6,3.7,16.1-0.1,19.8
	c0.9,1.2,2,2.3,2.5,3.6c3.4,8.7,3.8,9.1,12.8,9.1c126.8,0,253.6,0,380.4,0.1c5.8,0,10.9-0.6,14.2-6.6h-0.5v-6h1v6h-0.5
	c3,5.7,7.5,6.6,12.8,6.6c44.8-0.1,89.6-0.1,134.5-0.1c1.2,0,2.3,0,3.5,0c3.7-0.2,5.6-2.2,6.3-5.9c0.4-2.4,1.3-4.8,2.1-7.5
	c-3.3-3-3.2-14.5,0.6-19.4C565.9,214.1,565.8,203.2,569.5,197.5z M409.3,6.8h1v6h-1V6.8z M409.3,24.7h1v11.8h-1V24.7z M409.3,48.4h1
	v11.8h-1V48.4z M409.3,72.1h1v11.8h-1V72.1z M409.3,95.8h1v11.8h-1V95.8z M409.3,119.5h1v11.8h-1V119.5z M409.4,143.1h1v11.8h-1
	V143.1z M409.4,166.8h1v11.8h-1V166.8z M409.4,190.5h1v11.8h-1V190.5z M409.4,226.1v-11.8h1v11.8H409.4z"/>
<path class="st1" d="M207.2,104.6c1.5,0.1,2.9,0.1,4.2,0.2c4.6,0.4,9.2,0.9,13.8,1.3c0.2,0,0.6-0.2,0.8-0.4c1.3-1.8,2.6-3.5,3.9-5.3
	c0.3-0.5,0.7-0.6,1.2-0.6c0.8,0,1.5,0,2.4,0c-0.1,0.4-0.2,0.6-0.3,0.9c-0.7,1.8-1.4,3.6-2.1,5.3c-0.6,1.5-0.6,3,0,4.5
	c0.8,1.8,1.5,3.6,2.2,5.4c0.1,0.2,0.1,0.4,0.2,0.7c-1,0-2,0-2.9,0c-0.2,0-0.5-0.3-0.6-0.5c-1.3-1.8-2.7-3.6-4-5.4
	c-0.3-0.4-0.5-0.4-0.9-0.4c-4.2,0.4-8.5,0.9-12.7,1.2c-1.6,0.1-3.3,0.2-5.1,0.3c1.9,8.1,3.7,16.1,5.6,24.2c-1.5,0-2.9,0-4.3,0
	c-0.2,0-0.5-0.3-0.6-0.6c-3.9-7-7.8-14.1-11.8-21.1c-0.4-0.8-0.7-1.9-1.4-2.3s-1.7-0.1-2.6-0.2c-4.2-0.2-8.5-0.3-12.7-0.6
	c-1.9-0.1-3.8-0.6-5.7-1c-0.5-0.1-1-0.4-1.5-0.7c-1-0.7-1-2.1,0.1-2.7c1.1-0.5,2.3-1,3.4-1.1c4-0.4,8-0.7,12-1
	c2.2-0.1,4.3-0.1,6.5-0.2c0.6,0,0.7-0.4,0.9-0.7c4.2-7.6,8.5-15.1,12.7-22.7c0.3-0.6,0.6-0.8,1.3-0.7c1.2,0.1,2.4,0,3.7,0
	C210.9,88.5,209,96.5,207.2,104.6z"/>
<line class="st2" x1="53.8" y1="108.2" x2="166.3" y2="108.2"/>
<line class="st2" x1="238" y1="108.2" x2="350" y2="108.2"/>
<g>
	<g>
		<path class="st3" d="M446.8,164.6c8.7,3.2,18.5,2.3,26.4-2.7c-4.9-15.8-21.7-24.7-37.5-19.8c-2.5,0.8-4.9,1.9-7.1,3.2
			C431.3,154.2,438,161.3,446.8,164.6z"/>
		<path class="st4" d="M450.6,139.4c0,3.8-3,6.8-6.8,6.8s-6.8-3-6.8-6.8s3-6.8,6.8-6.8l0,0C447.5,132.6,450.5,135.6,450.6,139.4z"/>
		<ellipse class="st5" cx="488" cy="111.6" rx="52.5" ry="52.5"/>
		<path class="st6" d="M460.1,92.3c-7.8,0-15.5,1.7-22.6,5.1c-1.3,4.6-1.9,9.4-1.9,14.2c0,29,23.5,52.5,52.5,52.5
			c7.8,0,15.5-1.7,22.6-5.1c1.3-4.6,1.9-9.4,1.9-14.2C512.6,115.8,489.1,92.3,460.1,92.3z"/>
		<path class="st7" d="M454.9,142.6c-3.4-1.3-7-1.9-10.6-1.9c6.8,10.2,17,17.7,28.7,21.2l0.1-0.1C470.4,153,463.7,145.9,454.9,142.6
			z"/>
		<path class="st8" d="M443.8,132.6c-1.2,0-2.4,0.3-3.5,0.9c1.9,4.1,4.3,8,7.2,11.5c3.1-2.1,4-6.3,1.9-9.4
			C448.2,133.7,446,132.6,443.8,132.6L443.8,132.6z"/>
		<ellipse transform="matrix(0.9013 -0.4332 0.4332 0.9013 6.1325 217.3203)" class="st9" cx="480" cy="95.2" rx="33.9" ry="33.9"/>
		<path class="st10" d="M519.3,166.1c-15.2,5.7-32.3,4-46-4.7c8.6-27.7,37.9-43.1,65.5-34.6c4.3,1.3,8.5,3.2,12.3,5.6
			C546.4,148,534.6,160.5,519.3,166.1z"/>
		<path class="st11" d="M533.4,73.3c-3.2,2.5-5.1,6.3-5.1,10.4c7,1.9,14.2-2.3,16-9.3c0.3-1.1,0.4-2.2,0.4-3.4
			C540.8,70,536.6,70.8,533.4,73.3z"/>
		<path class="st12" d="M468.3,63c-1,5.6,0.6,11.5,4.5,15.7c9.1-4.7,12.6-15.9,7.9-24.9c-0.7-1.4-1.6-2.7-2.7-3.9
			C472.9,52.5,469.3,57.4,468.3,63z"/>
		<path class="st13" d="M532.7,101.1c2.9,6.2,8.5,10.8,15.2,12.2c5.6-10.8,1.4-24.2-9.4-29.8c-1.7-0.9-3.5-1.5-5.4-1.9
			C529.9,87.7,529.8,94.9,532.7,101.1z"/>
		<path class="st14" d="M512,65c-15.1,24.7-7.3,57,17.4,72.2c1.1,0.7,2.2,1.3,3.3,1.9c15.1-24.7,7.3-57-17.4-72.2
			C514.2,66.2,513.1,65.6,512,65z"/>
		<path class="st15" d="M438.2,95c16,13,39.4,10.5,52.4-5.4c5.4-6.6,8.3-14.9,8.3-23.5c0-2-0.2-4-0.5-5.9
			C472.5,55,446.7,69.9,438.2,95z"/>
		<circle class="st16" cx="451.7" cy="84.9" r="12.2"/>
		<circle class="st17" cx="485.1" cy="166.7" r="6.5"/>
		<circle class="st18" cx="428.5" cy="97.2" r="6.5"/>
		<path class="st19" d="M526.7,86.1c0,3.6-2.9,6.5-6.5,6.5s-6.5-2.9-6.5-6.5s2.9-6.5,6.5-6.5l0,0C523.8,79.5,526.7,82.5,526.7,86.1z
			"/>
		<path class="st20" d="M438.5,104.2c0,2.8-2.2,5-5,5s-5-2.2-5-5s2.2-5,5-5l0,0C436.2,99.2,438.5,101.4,438.5,104.2z"/>
		<path class="st21" d="M518.7,63.5c0,2.8-2.2,5-5,5s-5-2.2-5-5c0-2.8,2.2-5,5-5l0,0C516.5,58.5,518.7,60.7,518.7,63.5L518.7,63.5z"
			/>
		<path class="st22" d="M551,142.4c0,2.8-2.2,5-5,5s-5-2.2-5-5s2.2-5,5-5S551,139.6,551,142.4L551,142.4z"/>
		<path class="st23" d="M443,77.3c0,1.9-1.6,3.5-3.5,3.5s-3.5-1.6-3.5-3.5s1.6-3.5,3.5-3.5l0,0C441.4,73.8,443,75.4,443,77.3z"/>
		<path class="st24" d="M546,119.7c0,1.9-1.6,3.5-3.5,3.5s-3.5-1.6-3.5-3.5s1.6-3.5,3.5-3.5l0,0C544.5,116.2,546,117.8,546,119.7z"
			/>
		<path class="st25" d="M435.5,138.8c0,1.9-1.6,3.5-3.5,3.5s-3.5-1.6-3.5-3.5s1.6-3.5,3.5-3.5l0,0
			C434,135.3,435.5,136.9,435.5,138.8z"/>
		<circle class="st13" cx="542.5" cy="147.8" r="3.5"/>
		<path class="st26" d="M529.1,147.8c0,4.9-4,8.8-8.8,8.8s-8.8-4-8.8-8.8s4-8.8,8.8-8.8S529.1,142.9,529.1,147.8L529.1,147.8z"/>
		<path class="st27" d="M517.3,53.5c0,3.6-2.9,6.5-6.5,6.5c-3.6,0-6.5-2.9-6.5-6.5s2.9-6.5,6.5-6.5l0,0
			C514.4,47,517.3,50,517.3,53.5z"/>
		<path class="st28" d="M488,164.1c-2.9,0-5.7-0.2-8.6-0.7c-0.2,0.4-0.4,0.7-0.5,1.1c4,1.8,8.1,3.2,12.4,4c0.4-1.5,0.3-3.1-0.3-4.5
			C490,164.1,489,164.1,488,164.1z"/>
		<path class="st29" d="M538.3,126.7c-27.5-8.2-56.5,7.3-64.9,34.8c0.5,0.3,1.1,0.7,1.7,1C502.2,169.4,530.2,153.7,538.3,126.7z"/>
		<path class="st30" d="M473.3,161.5c0.5,0.3,1.1,0.7,1.7,1c11.9,3,24.5,1.8,35.6-3.5c3-10.7,2.5-22.1-1.4-32.5
			c-1.4,0.4-2.8,0.8-4.2,1.4C489.9,133.5,478.1,145.9,473.3,161.5z"/>
		<path class="st31" d="M488,164.1c1,0,2,0,3-0.1c-1.5-3.3-5.3-4.7-8.6-3.3c-1.2,0.6-2.3,1.5-2.9,2.7
			C482.3,163.9,485.1,164.1,488,164.1z"/>
		<path class="st32" d="M528.5,144.9c-1.6-4.6-6.6-7-11.2-5.4c-4.6,1.6-7,6.6-5.4,11.2c0.8,2.2,2.4,4,4.5,5
			C521,152.8,525.1,149.1,528.5,144.9z"/>
		<path class="st33" d="M515.8,125.1c4.6,5.8,10.4,10.5,17,13.9c0.5-0.8,1-1.7,1.5-2.6l0,0c1.7-3.1,3-6.3,4-9.7
			C531,124.5,523.3,124,515.8,125.1z"/>
		<path class="st34" d="M450.3,141.3c-4.3-0.8-8.7-0.8-12.9,0.3c1.2,3.6,5.1,5.4,8.6,4.2C448.1,145.1,449.6,143.4,450.3,141.3z"/>
		<path class="st35" d="M444.3,140.7c1,1.5,2.1,2.9,3.2,4.3l0,0c0.2-0.1,0.4-0.3,0.6-0.5l0.1-0.1l0.3-0.3l0,0
			c0.1-0.1,0.1-0.1,0.2-0.2l0.1-0.1c0.1-0.1,0.1-0.2,0.2-0.3l0.1-0.1l0.2-0.2l0.1-0.1l0.2-0.3l0.1-0.1l0.1-0.2
			c0-0.1,0.1-0.1,0.1-0.1s0.1-0.2,0.1-0.3c0.1-0.1,0.1-0.1,0.1-0.1s0.1-0.1,0.1-0.2c0-0.1,0.1-0.1,0.1-0.2s0.1-0.2,0.1-0.3
			c0.1-0.1,0-0.1,0.1-0.2V141C448.3,140.9,446.3,140.7,444.3,140.7z"/>
		<path class="st36" d="M504.3,92.3c0,7.2,1.5,14.4,4.4,21c7.5-11.9,6.9-27.1-1.4-38.3C505.3,80.5,504.3,86.4,504.3,92.3z"/>
		<path class="st37" d="M540.5,110.2c-0.3-9.5-3.1-18.8-8.2-26.8C528.2,93.2,531.7,104.4,540.5,110.2z"/>
		<path class="st38" d="M532,84.1c1.7-0.1,3.5-0.5,5.1-1.2c-1.3-0.6-2.6-1-4-1.3C532.7,82.4,532.3,83.3,532,84.1z"/>
		<path class="st39" d="M498.9,66.9c-15.6-10.4-36.7-6.3-47.1,9.3c-3.8,5.6-5.8,12.2-5.8,18.9c0,1.6,0.1,3.3,0.3,4.9
			c18.8,8.4,40.8,0.1,49.2-18.7C497.7,76.8,498.8,71.9,498.9,66.9z"/>
		<path class="st40" d="M529.1,79.1c-0.6,1.5-0.8,3-0.8,4.6c1.4,0.4,2.9,0.5,4.4,0.4C531.6,82.3,530.4,80.7,529.1,79.1z"/>
		<path class="st1" d="M505.2,117.9c-12.1-20.3-36.3-30-59.1-23.7c0,0.3,0,0.6,0,0.9c0,18.8,15.2,33.9,33.9,33.9
			C489.6,129.1,498.7,125,505.2,117.9L505.2,117.9z"/>
		<path class="st41" d="M446,96.2c0,0.2,0,0.3,0,0.5c0,0.1,0,0.2,0,0.3c0,0.2,0,0.5,0,0.6s0,0.3,0,0.5c0,0.1,0,0.2,0,0.3
			c0,0.2,0,0.3,0.1,0.5l0,0c0.1,0.4,0.1,0.8,0.1,1.2c11.6,5.2,25.1,4.1,35.8-2.9c-11.2-5.2-23.9-6.2-36-2.9c0,0.3,0,0.6,0,0.9
			s0,0.5,0,0.8V96.2z"/>
		<path class="st42" d="M482.5,65.6c0.4-2,0.4-4.1,0.1-6.1c-4.9,0.5-9.7,1.7-14.3,3.6c-1,5.6,0.6,11.5,4.5,15.7
			C477.9,76.1,481.4,71.2,482.5,65.6z"/>
		<path class="st43" d="M468.2,63.3c-0.9,5.6,0.8,11.3,4.5,15.4c5.1-2.6,8.7-7.5,9.7-13.2c0.3-1.4,0.3-2.9,0.3-4.3
			c-0.9-0.1-1.8-0.1-2.8-0.1C476,61.2,472,61.9,468.2,63.3z"/>
		<path class="st44" d="M512.1,151.4c0.3-2.2,0.4-4.4,0.4-6.6c0-0.5,0-0.9,0-1.3C511.2,145.9,511,148.8,512.1,151.4L512.1,151.4z"/>
		<path class="st45" d="M539,119.7c0,0.6,0.2,1.3,0.5,1.8c0.3-1.5,0.5-3,0.7-4.5C539.4,117.8,539,118.7,539,119.7z"/>
		<path class="st46" d="M461.7,103.3c7.3,0,14.4-2.1,20.5-6.2c-13.3-6.2-28.6-6.5-42.2-0.8C446.3,100.9,453.9,103.3,461.7,103.3z"/>
		<path class="st47" d="M440.4,89.6c2.6,6.3,9.7,9.3,15.9,6.7c6.2-2.6,9.3-9.7,6.7-15.9c-1.7-4.3-5.7-7.2-10.3-7.6
			C447.6,77.5,443.4,83.2,440.4,89.6z"/>
		<path class="st48" d="M454.2,73c-5.3,6.2-8.2,14-8.2,22.2c0,0.2,0,0.4,0,0.6c6,3.1,13.4,0.8,16.5-5.2s0.8-13.4-5.2-16.5
			C456.4,73.6,455.3,73.2,454.2,73L454.2,73z"/>
		<path class="st49" d="M460.1,92.3c-5.3,0-10.6,0.8-15.7,2.4c5.4,4,13,3,17.1-2.4C461,92.3,460.5,92.3,460.1,92.3z"/>
		<path class="st41" d="M458.6,92.4c-0.3,0-0.7,0-1,0h-0.1c-0.4,0-0.8,0.1-1.2,0.1H456c-0.3,0-0.6,0.1-1,0.1h-0.2
			c-0.4,0-0.8,0.1-1.1,0.1h-0.3c-0.3,0-0.6,0.1-0.9,0.1h-0.3c-0.4,0.1-0.7,0.1-1.1,0.2l-0.3,0.1c-0.3,0.1-0.6,0.1-0.8,0.2l-0.3,0.1
			c-0.4,0.1-0.7,0.1-1.1,0.2l-0.3,0.1l-0.8,0.2l-0.3,0.1c-0.3,0.1-0.7,0.2-1,0.3c0,0.3,0,0.6,0,0.9c0,1.6,0.1,3.3,0.3,4.9
			c11.6,5.2,25.1,4.1,35.8-2.9c-3.6-1.7-7.4-2.9-11.2-3.7H471l-0.6-0.1h-0.1l-0.6-0.1h-0.1c-0.6-0.1-1.2-0.2-1.8-0.3h-0.3
			c-0.1,0-0.3,0-0.5-0.1l-0.3-0.1l-0.4-0.1h-0.4h-0.4l-0.5-0.1h-0.3c-0.3,0-0.5,0-0.8-0.1h-0.3h-0.5h-0.3h-0.5H462h-0.6H461
			c-0.3,0-0.6,0-0.8,0c-0.4,0-0.8,0-1.2,0L458.6,92.4z"/>
		<path class="st50" d="M446,95.8c5.3,2.8,11.8,1.3,15.4-3.4h-0.3h-0.3c-0.3,0-0.6,0-0.8,0c-0.4,0-0.8,0-1.2,0h-0.3
			c-0.3,0-0.7,0-1,0h-0.1c-0.4,0-0.8,0.1-1.2,0.1h-0.3c-0.3,0-0.6,0.1-1,0.1h-0.2c-0.4,0-0.8,0.1-1.1,0.1h-0.3
			c-0.3,0-0.6,0.1-0.9,0.1h-0.3c-0.4,0.1-0.7,0.1-1.1,0.2l-0.3,0.1c-0.3,0.1-0.6,0.1-0.8,0.2l-0.3,0.1c-0.4,0.1-0.7,0.1-1.1,0.2
			l-0.3,0.1l-0.8,0.2l-0.3,0.1c-0.3,0.1-0.7,0.2-1,0.3l0,0c0,0.3,0,0.6,0,0.9C446,95.4,446,95.6,446,95.8L446,95.8z"/>
		<path class="st51" d="M443,77.3c0-0.3,0-0.6-0.1-0.8c-1.2,1.2-2.1,2.7-2.7,4.3C441.9,80.4,443,79,443,77.3z"/>
		<path class="st52" d="M510.1,60c0.2,0,0.5,0,0.7,0c1.5,0,2.9-0.5,4.1-1.4C513.2,58.3,511.3,58.8,510.1,60L510.1,60z"/>
		<path class="st53" d="M508.7,63.4L508.7,63.4c0,2.9,2.2,5.1,5,5.1c1,0,2-0.3,2.9-0.9C514.1,66,511.4,64.6,508.7,63.4z"/>
		<path class="st54" d="M514.7,66.5L514.7,66.5c-0.9-0.5-1.8-1-2.7-1.5c-0.5,0.8-1,1.6-1.4,2.5c1.7,1.4,4.1,1.4,6,0.2
			c-0.3-0.2-0.6-0.4-0.9-0.6l0,0C515.3,66.8,515,66.6,514.7,66.5z"/>
		<path class="st55" d="M436.7,100.4c-0.6,2.7-1,5.5-1.1,8.3c2.5-1.2,3.6-4.1,2.4-6.7C437.7,101.4,437.3,100.8,436.7,100.4z"/>
		<path class="st56" d="M428.5,103.7c2.8,0,5.2-1.8,6.2-4.4c-2.7-0.6-5.4,1-6,3.7C428.6,103.2,428.5,103.5,428.5,103.7z"/>
		<path class="st57" d="M546,137.4c-2.8,0-5,2.2-5,5c0,2,1.2,3.8,3,4.6c1.9-2.7,3.5-5.6,4.9-8.7C548.1,137.7,547.1,137.4,546,137.4z
			"/>
		<path class="st58" d="M542.5,144.3c-0.3,0-0.7,0.1-1,0.1c0.5,1.1,1.4,2,2.6,2.5c0.3-0.5,0.7-1,1-1.6
			C544.4,144.7,543.5,144.3,542.5,144.3z"/>
		<path class="st59" d="M541,177c-0.3,2.5-8-0.7-29.3,6.4c-3.4,1.2-6.8,2.6-10,4.2c4.6-3.4,9.3-6.9,14.7-9.8
			c8.7-4.7,15.1-7.1,19.6-8.4C539.4,170.8,541.5,173.3,541,177z M477.3,170.7c-19.5-1.2-15.2-13.5-26.4-15.8
			c-6.1-1.2-10.5,2.7-11.5,4.6c-1,2,16.9,6.8,15.4,20.9c-0.7,6.3-14.6,8-11.4,15.4c2.9,6.7,13,8.8,29.7,2.9
			c16.3-5.7,25.8-17.4,40.8-25.5c20.4-11.1,28.9-9.7,28.7-12.1c-0.8-8.6-16.1-7.5-27.2-2.9C509.4,160.7,491.6,171.5,477.3,170.7z"/>
		<path class="st60" d="M510.9,108.5c-0.5,0-0.9,0.1-1.3,0.4s-0.6,0.8-0.6,1.3c0,0.6,0.1,1,0.4,1.2c0.2,0.2,0.5,0.4,0.8,0.4
			c0.5,0,0.9-0.2,1.3-0.5s0.7-0.6,0.8-1.1c0-0.1,0.1-0.3,0-0.4c0-0.4-0.2-0.8-0.5-1C511.6,108.6,511.2,108.5,510.9,108.5z"/>
		<path class="st60" d="M458.1,112.1c-3.7,3.8-7.9,5.7-12.5,5.7c-3.2,0-5.6-1.2-7.4-3.5c-1-1.3-1.6-2.7-2-4.2c0,0-0.3-1.2-0.4-2.6
			c-0.1,1.4-0.2,2.7-0.2,4.1c0.5,1.2,1.1,2.4,1.9,3.4c2,2.6,4.7,3.8,8.1,3.8c4.9,0,9.2-1.9,13.1-5.7c1.2,2.2,2.1,3.8,2.5,4.7
			c0.6,1.3,1.1,2.6,1.5,3.9c-1.2,0.4-2.3,0.8-3.4,1.4c-2.1,1-3.1,2.6-3.1,4.7c0,0.9,0.3,1.8,0.9,2.5c0.6,0.6,1.5,1,2.4,1
			c0.8,0,1.5-0.2,2.2-0.5s1.3-0.8,1.9-1.3c0.8-0.8,1.4-1.7,1.7-2.8c0.4-1,0.5-2.1,0.5-3.2c0-0.5,0-1-0.1-1.5
			c1.2-0.5,2.3-1.3,3.3-2.2c-0.1,0.5-0.1,0.9-0.1,1.4c0,0.7,0.1,1.4,0.3,2.1c0.2,0.6,0.5,1.2,0.9,1.7s1,0.9,1.6,1.1
			c0.8,0.3,1.6,0.4,2.3,0.4c1,0,2-0.4,2.8-1c1-0.7,1.9-1.5,2.7-2.4c0.5-0.6,1.1-1.3,1.6-1.9c-0.3,1.1-0.7,2.2-1,3.3
			c0,0.1,0,0.2,0,0.3c0,0.2,0.1,0.5,0.3,0.6c0.3,0.1,0.5,0.2,0.8,0.2s0.6-0.1,0.8-0.2c0.3-0.1,0.5-0.3,0.6-0.5
			c0.4-0.8,0.8-1.7,1.4-2.7c0.5-1,1.1-2,1.7-2.9c0.5-0.8,1.1-1.6,1.8-2.3c0.6-0.6,1.2-1,1.7-1c0.1,0,0.2,0.1,0.2,0.3
			c-0.1,0.6-0.2,1.1-0.4,1.6c-0.3,0.7-0.6,1.6-0.8,2.4s-0.6,1.8-0.8,2.8c-0.3,0.8-0.4,1.7-0.4,2.6c0,0.7,0.1,1.4,0.5,2.1
			c0.3,0.5,0.8,0.8,1.7,0.8c1.1,0,2.1-0.4,3.1-1.3c1.1-1,2.1-2,2.9-3.2c0.7-1,1.4-2,2.1-3.2c0,0.2,0,0.4,0,0.6
			c0,1.2,0.2,2.1,0.7,2.8c0.5,0.7,1.3,1,2.4,1c0.7,0,1.4-0.3,1.9-0.7c0.7-0.5,1.4-1,2-1.7c0.5-0.5,0.9-1,1.4-1.5
			c-0.1,0.4-0.2,0.8-0.3,1.2c-0.3,0.9-0.4,1.8-0.4,2.8c0,0.6,0.1,1.1,0.5,1.6c0.3,0.4,0.8,0.6,1.6,0.6c0.8,0,1.6-0.3,2.3-0.8
			c0.9-0.6,1.7-1.3,2.3-2.1c0.8-0.9,1.5-1.8,2.2-2.8s1.3-1.9,1.8-2.9c0.5-0.9,0.9-1.6,1.2-2.3c0.1-0.3,0.3-0.5,0.3-0.7
			c0.4,0.1,0.7,0.1,1.1,0.1c1.1,0,2.1-0.2,3.1-0.6c-0.3,0.5-0.7,1.2-1.1,2c-0.4,0.8-0.8,1.6-1.1,2.5s-0.6,1.8-0.8,2.7
			c-0.2,0.8-0.3,1.6-0.3,2.5c0,0.7,0.2,1.4,0.6,2.1c0.4,0.5,1,0.8,2,0.8c0.8,0,1.6-0.3,2.3-0.7c0.8-0.5,1.5-1.2,2.1-1.9
			c0.7-0.8,1.4-1.7,2-2.6c0.3-0.4,0.5-0.7,0.7-1.1l0,0l0.1-0.1c0.2-0.3,0.4-0.7,0.6-1c3.9-6.4,7.9-10.5,12.4-11.2
			c0-0.4,0-0.7-0.1-1.1c-7,0.7-11.9,9.5-13.3,11.9c-0.6,0.9-1.1,1.8-1.7,2.6c-0.7,1-1.5,2-2.4,2.9c-0.8,0.8-1.5,1.1-2.2,1.1
			c-0.3,0-0.5-0.2-0.5-0.6c0-0.5,0.1-0.9,0.3-1.3c0.2-0.6,0.4-1.2,0.7-1.9c0.3-0.7,0.6-1.4,0.9-2.1s0.6-1.5,0.9-2.2
			c0.3-0.7,0.5-1.4,0.7-1.9s0.3-1,0.3-1.5s-0.1-0.8-0.4-1c-0.3-0.2-0.6-0.3-1-0.3s-0.7,0.1-1.1,0.1c-0.3,0.1-0.6,0.2-0.9,0.3
			c-0.3,0.1-0.6,0.2-0.8,0.3c-0.3,0.1-0.5,0.1-0.8,0.1s-0.5,0-0.8-0.1c-0.4-0.1-0.7-0.3-0.9-0.6c0.2-0.3,0.4-0.6,0.6-0.9
			c0.2-0.4,0.4-0.8,0.5-1.2c0.1-0.4,0.2-0.9,0.3-1.4c0.1-0.4,0.1-0.9,0.1-1.3c0-0.5-0.1-1-0.3-1.5c-0.3-0.4-0.7-0.6-1.2-0.6
			c-1.1-0.1-2.2,0.5-2.8,1.4c-0.7,0.9-1,2.1-1,3.6c0,0.6,0.1,1.2,0.4,1.7c0.2,0.5,0.6,0.9,1,1.2c0.4,0.3,0.8,0.5,1.2,0.6
			c-0.5,0.8-1,1.8-1.7,2.9c-0.7,1.2-1.5,2.4-2.3,3.5c-0.7,1-1.6,1.9-2.5,2.8c-0.8,0.8-1.5,1.2-2.1,1.2c-0.2,0-0.3-0.2-0.3-0.5
			c0-0.6,0.1-1.2,0.3-1.9c0.2-0.8,0.5-1.7,0.8-2.7s0.7-1.9,1.1-3c0.4-1,0.8-1.9,1.2-2.7c0.1-0.1,0.1-0.3,0.1-0.5
			c0-0.3-0.2-0.6-0.5-0.8c-0.3-0.2-0.7-0.3-1-0.3s-0.5,0.1-0.8,0.2c-0.2,0.1-0.4,0.4-0.5,0.6c-0.1,0.4-0.4,1-0.7,1.9
			c-0.1,0.4-0.3,0.8-0.5,1.2l-0.1,0.2c-0.6,1-1.3,1.9-2,2.7c-0.6,0.8-1.3,1.5-2,2.1c-0.5,0.5-1.2,0.8-1.9,0.8
			c-0.3,0-0.5-0.1-0.6-0.4s-0.2-0.7-0.2-1.1c0-0.8,0.1-1.5,0.3-2.3c0.2-0.9,0.4-1.8,0.6-2.7c0.3-0.9,0.5-1.9,0.8-2.7
			s0.6-1.6,0.8-2.3c0.6-0.6,1.2-1.3,1.9-2.1c0.6-0.8,1.3-1.5,1.9-2.3s1.2-1.6,1.8-2.5c0.6-0.8,1.2-1.6,1.7-2.4l1.6-0.5
			c0.6-0.2,1.2-0.4,1.9-0.5c0.6-0.2,1.3-0.3,2-0.4s1.4-0.2,2-0.2c0.3,0,0.6,0,0.9,0c0.3,0,0.6,0.1,0.8,0.1c-0.3,0.1-0.5,0.2-0.8,0.4
			c-0.1,0.1-0.2,0.3-0.2,0.5c0,0.3,0.1,0.5,0.3,0.7s0.5,0.3,0.8,0.3s0.6-0.1,0.8-0.3c0.3-0.2,0.5-0.6,0.5-1c0-0.3-0.1-0.6-0.3-0.8
			c-0.3-0.2-0.5-0.4-0.8-0.5c-0.4-0.1-0.7-0.2-1.1-0.3c-0.3-0.1-0.7-0.1-1-0.1c-0.6,0-1.2,0.1-1.8,0.1c-0.6,0.1-1.2,0.2-1.8,0.4
			l-1.8,0.5c-0.6,0.1-1.2,0.3-1.7,0.4c0.3-0.4,0.5-0.8,0.5-1.2c0.1-0.6,0.2-1.2,0.2-1.7s-0.1-1-0.3-1.4c-0.2-0.4-0.6-0.6-1-0.6
			c-0.8,0-1.7,0.3-2.3,0.8c-0.7,0.5-1.3,1.1-1.9,1.8c-0.5,0.7-1,1.4-1.4,2.1s-0.7,1.2-0.9,1.6c-0.3,0.1-0.7,0.1-1.1,0.1
			c-0.4,0.1-0.9,0.1-1.3,0.1c-0.7,0-1.4-0.1-2-0.2s-1-0.3-1.2-0.6c0.3,0,0.5-0.1,0.7-0.4c0.1-0.2,0.2-0.4,0.3-0.6
			c0-0.2-0.1-0.5-0.3-0.6c-0.2-0.2-0.4-0.3-0.6-0.3c-0.3,0-0.5,0.1-0.7,0.3c-0.3,0.2-0.4,0.6-0.4,0.9c0,0.4,0.1,0.8,0.4,1.2
			c0.3,0.3,0.7,0.5,1.1,0.7c0.5,0.2,1,0.3,1.5,0.3c0.5,0.1,1.1,0.1,1.6,0.1c0.3,0,0.6,0,0.9,0s0.5,0,0.8-0.1
			c-0.2,0.6-0.4,1.2-0.7,1.8c-0.3,0.8-0.7,1.6-1.1,2.6s-0.8,2-1.2,3.2c-0.4,1.1-0.8,2.3-1.2,3.4c-0.3,1.1-0.6,2.2-0.8,3.2
			c-0.3,0.6-0.7,1.2-1.1,1.8c-0.5,0.9-1.1,1.7-1.7,2.6c-0.5,0.8-1.1,1.5-1.7,2.2c-0.5,0.6-1.1,1.1-1.7,1.6c-0.4,0.3-0.9,0.6-1.5,0.6
			c-0.3,0-0.4-0.2-0.4-0.5c0.1-0.6,0.2-1.2,0.4-1.7c0.3-0.7,0.6-1.6,0.8-2.5c0.3-0.9,0.6-1.8,0.8-2.7c0.3-0.8,0.4-1.7,0.4-2.6
			c0-0.7-0.1-1.4-0.4-2c-0.3-0.5-0.8-0.8-1.7-0.8c-0.5,0-1.1,0.1-1.5,0.5c-0.5,0.3-1,0.7-1.4,1.2c-0.5,0.5-0.9,1-1.2,1.6
			c-0.4,0.6-0.8,1.2-1.2,1.7c0.1-0.3,0.2-0.6,0.3-1c0.1-0.4,0.2-0.7,0.3-1.1c0.1-0.4,0.2-0.8,0.3-1.1c0.1-0.3,0.1-0.6,0.1-1
			c0-0.3-0.2-0.6-0.4-0.7c-0.3-0.2-0.6-0.3-1-0.3c-0.3,0-0.5,0.1-0.7,0.2s-0.4,0.3-0.5,0.6c-0.3,1.1-0.7,2.3-1,3.4l-0.1,0.2
			c-0.7,1.1-1.5,2.2-2.4,3.2c-0.8,0.9-1.7,1.7-2.7,2.5c-0.9,0.7-1.7,1-2.6,1c-0.5,0-0.9-0.1-1.3-0.4c-0.3-0.3-0.6-0.6-0.8-0.9
			c-0.2-0.4-0.4-0.8-0.5-1.3s-0.1-1-0.1-1.4c0-0.3,0-0.5,0-0.8s0.1-0.5,0.1-0.7c1-0.5,2-1.1,2.9-1.8c0.9-0.8,1.7-1.6,2.5-2.5
			c0.7-0.8,1.3-1.7,1.7-2.6c0.4-0.7,0.6-1.4,0.7-2.2c0-0.4-0.1-0.7-0.4-1s-0.6-0.4-1.2-0.4c-1.2,0-2.4,0.4-3.4,1.2
			c-1.1,0.8-2.1,1.8-2.9,3s-1.5,2.5-2,3.9c-0.1,0.2-0.1,0.5-0.2,0.7c-0.4,0.5-0.9,1-1.5,1.4c-0.8,0.6-1.7,1.2-2.6,1.6
			c-0.6-2.2-2-5.1-4-8.6l-0.7-1.2c3.4-4.1,5.1-8.6,5.1-13.2c0-2.2-0.5-3.9-1.5-5s-2.4-1.7-3.9-1.7c-2.1,0-3.8,0.8-5.1,2.3
			c-1.3,1.6-1.9,3.5-1.9,5.9c0,3,1.3,6.9,4,11.7L458.1,112.1z M516.3,109c0.1-0.5,0.4-0.7,0.6-0.7c0.3,0,0.6,0.1,0.7,0.3
			c0.2,0.3,0.2,0.5,0.2,0.8c0,0.4-0.1,0.7-0.1,1c-0.1,0.4-0.2,0.8-0.3,1.1c-0.1,0.4-0.3,0.7-0.4,1c-0.1,0.2-0.2,0.4-0.4,0.6
			c-0.2-0.4-0.3-0.8-0.4-1.2c-0.1-0.4-0.2-0.9-0.2-1.3C516.1,110.1,516.2,109.6,516.3,109z M506.3,101.6c0.3-0.5,0.6-1,0.9-1.5
			s0.7-0.9,1.1-1.3s0.7-0.6,0.9-0.6c0.2,0,0.3,0.2,0.3,0.6c0,0.3,0,0.5-0.1,0.7c0,0.3-0.1,0.6-0.2,0.9s-0.2,0.6-0.3,0.9
			c-0.1,0.3-0.3,0.5-0.4,0.8c-0.5,0.2-0.9,0.3-1.4,0.4s-0.9,0.1-1.2,0.2v-0.1C506,102.2,506.1,101.9,506.3,101.6z M504.1,106.8
			c0.4-1.1,0.9-2.1,1.4-3.1c0.2-0.1,0.3-0.1,0.5-0.1l0.5-0.1l0.6-0.1c0.3,0,0.6-0.1,1-0.2c-0.1,0.2-0.4,0.6-0.8,1.3
			c-0.4,0.6-0.9,1.3-1.5,2s-1.1,1.4-1.6,2.1c-0.4,0.5-0.8,0.9-1.2,1.4C503.3,109,503.7,107.9,504.1,106.8z M472.9,115.3
			c0.5-1,1.2-1.9,1.9-2.7c0.6-0.7,1.2-1.4,2-2c0.6-0.5,1.1-0.8,1.3-0.8c0.4,0,0.5,0.2,0.5,0.6s-0.2,1-0.6,1.7
			c-0.4,0.8-0.9,1.6-1.5,2.2c-0.6,0.8-1.4,1.6-2.1,2.3c-0.7,0.7-1.5,1.2-2.3,1.7C472.1,117.2,472.4,116.2,472.9,115.3L472.9,115.3z
			 M462.9,123.7c0,1.3-0.3,2.5-0.8,3.7c-0.8,1.6-1.8,2.3-3.1,2.3c-0.4,0-0.8-0.2-1.1-0.5c-0.4-0.4-0.5-0.9-0.5-1.4
			c0-1.6,0.9-2.8,2.6-3.7c0.6-0.3,1.6-0.6,2.9-1.2C462.9,123.2,462.9,123.5,462.9,123.7z M457.5,94.4c0.7-1.2,2-1.9,3.4-1.9
			c1.1,0,2.1,0.5,2.8,1.3c0.7,0.9,1,2.1,1,3.8c0,4.3-1.5,8.3-4.6,12.2c-2.5-4.5-3.8-8.2-3.8-11C456.2,97.2,456.7,95.7,457.5,94.4
			L457.5,94.4z"/>
		<g>
			<path class="st61" d="M543.6,146.7L543.6,146.7L543.6,146.7z"/>
			<path class="st61" d="M545.1,145.4c-0.3,0.5-0.7,1-1,1.6c0.6,0.3,1.2,0.4,1.9,0.4c0-0.3-0.1-0.6-0.3-0.9
				C545.6,146.1,545.4,145.7,545.1,145.4z"/>
			<path class="st61" d="M543.9,146.9L543.9,146.9L543.9,146.9z"/>
		</g>
		<g>
			<path class="st62" d="M544.9,145.8c0.1-0.1,0.2-0.3,0.3-0.4l0,0C545,145.6,544.9,145.7,544.9,145.8z"/>
			<path class="st62" d="M544.1,147c-1.2-0.5-2.1-1.4-2.6-2.5c-0.1,0-0.2,0.1-0.3,0.1c-1.8,0.8-2.6,2.8-1.9,4.6
				c0.3,0.8,1,1.4,1.7,1.8c1.3-1.5,2.5-3.1,3.6-4.7C544.4,146.5,544.2,146.7,544.1,147z"/>
		</g>
	</g>
</g>
<g>
	<path class="st10" d="M247.6,97.2H239V65.3h8.6V97.2z"/>
	<path class="st10" d="M252.1,97.2V65.3h8.2l4.3,11.2c0.2,0.7,0.5,1.4,0.8,2.3s0.6,1.8,1,3l0.9,2.8c-0.3-2.8-0.6-5.1-0.7-7.1
		c-0.2-2-0.2-3.6-0.2-5v-7.2h8.2v31.9h-8.2L262,85.5c-0.5-1.3-0.9-2.4-1.2-3.5c-0.4-1.1-0.7-2.1-1-3.1c0.2,2.2,0.3,4.2,0.4,5.9
		c0.1,1.7,0.1,3.1,0.1,4.4v8.1h-8.2L252.1,97.2L252.1,97.2z"/>
	<path class="st10" d="M287.6,97.2H279V65.3h8.6V97.2z M289.5,55.5l-4,7.2h-4.8l2.1-7.2H289.5z"/>
	<path class="st10" d="M310,87.4l-0.5,9.2c-1.9,0.8-3.6,1.2-5.1,1.2c-3.6,0-6.6-1.3-9-3.9c-2.7-2.9-4.1-7.1-4.1-12.5
		c0-5,1.3-9.1,3.8-12.1c2.6-3,6-4.5,10.3-4.5c1.4,0,2.8,0.3,4.3,0.8v9.1c-1.3-1.3-2.6-1.9-3.9-1.9c-1.8,0-3.1,0.8-4.1,2.3
		s-1.5,3.6-1.5,6.3c0,1.3,0.1,2.5,0.4,3.5c0.2,1,0.6,1.9,1.1,2.6s1,1.2,1.7,1.6s1.4,0.6,2.3,0.6C307.1,89.5,308.5,88.8,310,87.4z"/>
	<path class="st10" d="M322,97.2h-8.6V65.3h8.6V97.2z"/>
	<path class="st10" d="M350,81.4c0,4.9-1.1,8.8-3.3,11.9c-2.2,3-5.1,4.5-8.6,4.5c-3.1,0-5.8-1.2-8.1-3.5c-2.8-2.9-4.2-7.4-4.2-13.3
		c0-5.6,1.5-10,4.4-13c2.2-2.2,4.8-3.3,7.8-3.3c3.7,0,6.6,1.5,8.8,4.5S350,76.3,350,81.4z M341,81.4c0-5.8-1-8.7-3.1-8.7
		c-1,0-1.8,0.8-2.4,2.3c-0.6,1.4-0.9,3.5-0.9,6.2s0.3,4.8,0.8,6.3c0.6,1.5,1.3,2.2,2.3,2.2s1.8-0.7,2.4-2.2
		C340.7,86.1,341,84,341,81.4z"/>
</g>
<g>
	<path class="st10" d="M396.9,0C269.7,0.1,142.6,0.1,15.5,0.1c-1.5,0-3-0.1-4.5,0.1C7.2,0.5,4.8,2.5,3.3,5.7h405.9
		C406.1,0.9,401.9,0,396.9,0z"/>
	<path class="st10" d="M554.4,0.1c-43.7,0-87.3,0.1-131-0.1c-5.3,0-9.9,0.6-13,5.7h155.4C563.3,0.5,561.8,0.1,554.4,0.1z"/>
</g>
<path class="st10" d="M410.3,12.8h-1v-3H1.4c-0.4,0.8-0.8,1.6-1.2,2.4c0.5,0.6,1,1.5,1.3,2.4H568c0.4-1.1,0.9-2.2,1.5-3.1
	c-0.5-0.6-1.2-1.1-1.8-1.7H410.3V12.8z"/>
<g>
	<path class="st39" d="M410.4,243.9h-0.5c0.2,0.3,0.3,0.6,0.5,0.9V243.9z"/>
	<path class="st39" d="M0,218c3.7,4.6,3.7,16.1-0.1,19.8c0.9,1.2,2,2.3,2.5,3.6c3.4,8.7,3.8,9.1,12.8,9.1c126.8,0,253.6,0,380.4,0.1
		c5.8,0,10.9-0.6,14.2-6.6h-0.5v-6h1v-59.6l0,0v0.3h-1v-0.3H0.3c3.4,5,3.3,15.8-0.4,19.3C3.7,202.6,3.7,213.9,0,218z M410.4,226.1
		h-1v-11.8h1V226.1z M410.4,190.5v11.8h-1v-11.8H410.4z"/>
</g>
<g>
	<path class="st10" d="M67.1,96.7h-7.2l-6-30.8h7.5l1.3,8.8c0.5,3.4,0.9,7.1,1.2,11.3c0.1-1.8,0.3-3.6,0.5-5.2s0.4-3.2,0.6-4.7
		l1.7-10.2h7.7L67.1,96.7z"/>
	<path class="st10" d="M94.8,81.4c0,4.7-0.9,8.5-2.7,11.5c-1.8,2.9-4.2,4.4-7.1,4.4c-2.6,0-4.8-1.1-6.7-3.4
		c-2.3-2.8-3.5-7.1-3.5-12.8c0-5.5,1.2-9.6,3.6-12.5c1.8-2.1,3.9-3.2,6.4-3.2c3,0,5.4,1.5,7.2,4.4C93.9,72.5,94.8,76.5,94.8,81.4z
		 M87.4,81.4c0-5.6-0.8-8.4-2.5-8.4c-0.8,0-1.5,0.7-2,2.2c-0.5,1.4-0.7,3.4-0.7,6s0.2,4.6,0.7,6s1.1,2.1,1.9,2.1s1.5-0.7,1.9-2.1
		C87.1,85.9,87.4,83.9,87.4,81.4z"/>
	<path class="st10" d="M110.2,96.7H97.8V65.9h7.1v23.4h5.3C110.2,89.3,110.2,96.7,110.2,96.7z"/>
	<path class="st10" d="M120.8,96.7h-7.1V73.2h-3.9v-7.4h15.1v7.4h-4.1V96.7z"/>
	<path class="st10" d="M145,96.7h-7.3l-0.5-3.9h-4.8l-0.6,3.9h-7.3l6.3-30.8h8.7L145,96.7z M136.3,86.2l-0.5-3.6c0,0,0-0.2-0.1-0.5
		c0-0.3-0.1-1.5-0.4-3.5c0-0.2-0.1-0.5-0.1-0.9s-0.1-0.9-0.1-1.5l-0.2-2.9c0,0.3-0.1,0.6-0.1,0.9s-0.1,0.7-0.1,1.1
		c-0.1,0.8-0.1,1.4-0.2,1.7c0,0.3-0.1,0.5-0.1,0.6l-0.5,3.7l-0.7,4.8h3.1L136.3,86.2L136.3,86.2z"/>
	<path class="st10" d="M165.8,96.7h-7.7l-3.5-11c0-0.2-0.1-0.4-0.2-0.7c-0.1-0.3-0.2-0.7-0.3-1.1l0.1,2v10.8h-7.1V65.9h7.3
		c3.2,0,5.6,0.7,7.2,2.2c2,1.9,3,4.6,3,8.1c0,3.7-1.4,6.3-4.1,7.7L165.8,96.7z M154.2,80.1h0.5c0.8,0,1.5-0.4,2-1.1s0.8-1.7,0.8-2.8
		c0-2.3-1-3.5-3.1-3.5h-0.3v7.4H154.2z"/>
</g>
<text transform="matrix(1 0 0 1 193.5776 92.2867)" class="st59 st63 st64">ao</text>
<g>
	<path class="st0" d="M25.5,194.3h2.2c1.8,0,3,0.6,3,2.3c0,1.7-1.2,2.4-2.9,2.4h-1.3v3.1h-1V194.3z M27.7,198.2c1.4,0,2-0.5,2-1.6
		c0-1.1-0.7-1.5-2.1-1.5h-1.1v3.1H27.7z"/>
	<path class="st0" d="M33.3,194.3h1.1l2.7,7.9H36l-1.4-4.4c-0.3-0.9-0.5-1.7-0.8-2.7h0c-0.2,0.9-0.5,1.8-0.8,2.7l-1.4,4.4h-1
		L33.3,194.3z M32,199h3.6v0.8H32V199z"/>
	<path class="st0" d="M37.6,201.1l0.6-0.7c0.6,0.6,1.4,1,2.2,1c1,0,1.6-0.5,1.6-1.3c0-0.8-0.6-1.1-1.3-1.4l-1.1-0.5
		c-0.7-0.3-1.6-0.9-1.6-2c0-1.2,1-2.1,2.5-2.1c0.9,0,1.8,0.4,2.3,1l-0.5,0.6c-0.5-0.5-1.1-0.7-1.8-0.7c-0.9,0-1.5,0.4-1.5,1.1
		c0,0.8,0.7,1,1.3,1.3l1.1,0.5c0.9,0.4,1.6,0.9,1.6,2.1c0,1.2-1,2.2-2.7,2.2C39.3,202.3,38.3,201.9,37.6,201.1z"/>
	<path class="st0" d="M43.9,201.1l0.6-0.7c0.6,0.6,1.4,1,2.2,1c1,0,1.6-0.5,1.6-1.3c0-0.8-0.6-1.1-1.3-1.4l-1.1-0.5
		c-0.7-0.3-1.6-0.9-1.6-2c0-1.2,1-2.1,2.5-2.1c0.9,0,1.8,0.4,2.3,1l-0.5,0.6c-0.5-0.5-1.1-0.7-1.8-0.7c-0.9,0-1.5,0.4-1.5,1.1
		c0,0.8,0.7,1,1.3,1.3l1.1,0.5c0.9,0.4,1.6,0.9,1.6,2.1c0,1.2-1,2.2-2.7,2.2C45.5,202.3,44.6,201.9,43.9,201.1z"/>
	<path class="st0" d="M52.5,194.3h1.1l2.7,7.9h-1.1l-1.4-4.4c-0.3-0.9-0.5-1.7-0.8-2.7h0c-0.2,0.9-0.5,1.8-0.8,2.7l-1.4,4.4h-1
		L52.5,194.3z M51.2,199h3.6v0.8h-3.6V199z"/>
	<path class="st0" d="M56.8,198.2c0-2.5,1.5-4.1,3.6-4.1c1.1,0,1.8,0.5,2.3,1l-0.5,0.7c-0.4-0.4-0.9-0.7-1.7-0.7
		c-1.6,0-2.6,1.2-2.6,3.2c0,2,0.9,3.2,2.6,3.2c0.6,0,1.1-0.2,1.4-0.5v-2h-1.7v-0.8h2.6v3.3c-0.5,0.5-1.4,0.9-2.4,0.9
		C58.3,202.3,56.8,200.8,56.8,198.2z"/>
	<path class="st0" d="M64.7,194.3h4.5v0.8h-3.5v2.5h3v0.8h-3v2.9h3.7v0.8h-4.7V194.3z"/>
	<path class="st0" d="M71,194.3h1v7.9h-1V194.3z"/>
	<path class="st0" d="M74.2,194.3h2.5c1.6,0,2.8,0.6,2.8,2.2c0,1.6-1.2,2.3-2.8,2.3h-1.5v3.3h-1V194.3z M76.5,198
		c1.2,0,1.9-0.5,1.9-1.5c0-1-0.7-1.4-1.9-1.4h-1.3v2.9H76.5z M76.4,198.6l0.8-0.5l2.4,4.1h-1.1L76.4,198.6z"/>
	<path class="st0" d="M80.5,198.2c0-2.5,1.4-4.1,3.4-4.1s3.4,1.5,3.4,4.1c0,2.5-1.4,4.1-3.4,4.1S80.5,200.7,80.5,198.2z M86.2,198.2
		c0-2-0.9-3.2-2.3-3.2s-2.3,1.2-2.3,3.2s0.9,3.2,2.3,3.2S86.2,200.2,86.2,198.2z"/>
	<path class="st0" d="M184.2,195.1h-2.4v-0.8h5.8v0.8h-2.4v7h-1V195.1z"/>
	<path class="st0" d="M189,194.3h4.5v0.8H190v2.5h3v0.8h-3v2.9h3.7v0.8H189V194.3z"/>
	<path class="st0" d="M195.3,194.3h2.5c1.6,0,2.8,0.6,2.8,2.2c0,1.6-1.2,2.3-2.8,2.3h-1.5v3.3h-1V194.3z M197.6,198
		c1.2,0,1.9-0.5,1.9-1.5c0-1-0.7-1.4-1.9-1.4h-1.3v2.9H197.6z M197.6,198.6l0.8-0.5l2.4,4.1h-1.1L197.6,198.6z"/>
	<path class="st0" d="M202.1,194.3h1.2l1.5,4.2c0.2,0.5,0.4,1.1,0.6,1.6h0c0.2-0.5,0.4-1.1,0.5-1.6l1.5-4.2h1.2v7.9h-0.9v-4.3
		c0-0.7,0.1-1.6,0.1-2.3h0l-0.6,1.8l-1.5,4.1h-0.7l-1.5-4.1l-0.6-1.8h0c0.1,0.7,0.1,1.6,0.1,2.3v4.3h-0.9V194.3z"/>
	<path class="st0" d="M210.9,194.3h1v7.9h-1V194.3z"/>
	<path class="st0" d="M214,194.3h1l2.8,4.9l0.8,1.6h0c-0.1-0.8-0.1-1.7-0.1-2.5v-4.1h1v7.9h-1l-2.8-5l-0.8-1.6h0
		c0.1,0.8,0.1,1.6,0.1,2.5v4.1h-1V194.3z"/>
	<path class="st0" d="M223.4,194.3h1.1l2.7,7.9h-1.1l-1.4-4.4c-0.3-0.9-0.5-1.7-0.8-2.7h0c-0.2,0.9-0.5,1.8-0.8,2.7l-1.4,4.4h-1
		L223.4,194.3z M222.1,199h3.6v0.8h-3.6V199z"/>
	<path class="st0" d="M228.3,194.3h1v7h3.4v0.8h-4.4V194.3z"/>
	<path class="st0" d="M271.4,194.3h1.1l1.3,4.3c0.3,0.9,0.5,1.7,0.8,2.6h0c0.3-0.9,0.5-1.7,0.8-2.6l1.3-4.3h1l-2.5,7.9h-1.2
		L271.4,194.3z"/>
	<path class="st0" d="M278.1,198.2c0-2.5,1.4-4.1,3.4-4.1s3.4,1.5,3.4,4.1c0,2.5-1.4,4.1-3.4,4.1S278.1,200.7,278.1,198.2z
		 M283.8,198.2c0-2-0.9-3.2-2.3-3.2s-2.3,1.2-2.3,3.2s0.9,3.2,2.3,3.2S283.8,200.2,283.8,198.2z M280.9,192.1h1l1.2,1.3l-0.4,0.3
		l-1.3-1.1h0l-1.3,1.1l-0.4-0.3L280.9,192.1z"/>
	<path class="st0" d="M286.1,198.2c0-2.5,1.4-4.1,3.4-4.1c2,0,3.4,1.5,3.4,4.1c0,2.5-1.4,4.1-3.4,4.1
		C287.4,202.3,286.1,200.7,286.1,198.2z M291.7,198.2c0-2-0.9-3.2-2.3-3.2s-2.3,1.2-2.3,3.2s0.9,3.2,2.3,3.2
		S291.7,200.2,291.7,198.2z"/>
	<path class="st0" d="M322.5,194.3h1.1l2.7,7.9h-1.1l-1.4-4.4c-0.3-0.9-0.5-1.7-0.8-2.7h0c-0.2,0.9-0.5,1.8-0.8,2.7l-1.4,4.4h-1
		L322.5,194.3z M321.2,199h3.6v0.8h-3.6V199z"/>
	<path class="st0" d="M326.8,201.1l0.6-0.7c0.6,0.6,1.4,1,2.2,1c1,0,1.6-0.5,1.6-1.3c0-0.8-0.6-1.1-1.3-1.4l-1.1-0.5
		c-0.7-0.3-1.6-0.9-1.6-2c0-1.2,1-2.1,2.5-2.1c0.9,0,1.8,0.4,2.3,1l-0.5,0.6c-0.5-0.5-1.1-0.7-1.8-0.7c-0.9,0-1.5,0.4-1.5,1.1
		c0,0.8,0.7,1,1.3,1.3l1.1,0.5c0.9,0.4,1.6,0.9,1.6,2.1c0,1.2-1,2.2-2.7,2.2C328.5,202.3,327.5,201.9,326.8,201.1z"/>
	<path class="st0" d="M333.1,201.1l0.6-0.7c0.6,0.6,1.4,1,2.2,1c1,0,1.6-0.5,1.6-1.3c0-0.8-0.6-1.1-1.3-1.4l-1.1-0.5
		c-0.7-0.3-1.6-0.9-1.6-2c0-1.2,1-2.1,2.5-2.1c0.9,0,1.8,0.4,2.3,1l-0.5,0.6c-0.5-0.5-1.1-0.7-1.8-0.7c-0.9,0-1.5,0.4-1.5,1.1
		c0,0.8,0.7,1,1.3,1.3l1.1,0.5c0.9,0.4,1.6,0.9,1.6,2.1c0,1.2-1,2.2-2.7,2.2C334.7,202.3,333.8,201.9,333.1,201.1z"/>
	<path class="st0" d="M340.1,194.3h4.5v0.8h-3.5v2.5h3v0.8h-3v2.9h3.7v0.8h-4.7V194.3z"/>
	<path class="st0" d="M346.4,194.3h1l2.8,4.9l0.8,1.6h0c0-0.8-0.1-1.7-0.1-2.5v-4.1h1v7.9h-1l-2.8-5l-0.8-1.6h0
		c0.1,0.8,0.1,1.6,0.1,2.5v4.1h-1V194.3z"/>
	<path class="st0" d="M355.8,195.1h-2.4v-0.8h5.8v0.8h-2.4v7h-1V195.1z"/>
	<path class="st0" d="M359.8,198.2c0-2.5,1.4-4.1,3.4-4.1c2,0,3.4,1.5,3.4,4.1c0,2.5-1.4,4.1-3.4,4.1
		C361.2,202.3,359.8,200.7,359.8,198.2z M365.5,198.2c0-2-0.9-3.2-2.3-3.2c-1.4,0-2.3,1.2-2.3,3.2s0.9,3.2,2.3,3.2
		C364.6,201.4,365.5,200.2,365.5,198.2z"/>
</g>
</svg>
