<?xml version="1.0" encoding="utf-8"?>
<!-- Generator: Adobe Illustrator 24.0.0, SVG Export Plug-In . SVG Version: 6.00 Build 0)  -->
<svg version="1.1" id="Layer_1" xmlns="http://www.w3.org/2000/svg" xmlns:xlink="http://www.w3.org/1999/xlink" x="0px" y="0px"
	 viewBox="0 0 300 300" style="enable-background:new 0 0 300 300;" xml:space="preserve">
<style type="text/css">
	.st0{fill:#231F20;}
</style>
<title>Artboard 5</title>
<path class="st0" d="M14.8,42.5c1.4,0.1,2.8-0.2,4-0.8c1.9-0.9,3.7-1.9,5.4-3.1c2.4-1.5,5-3.2,7.9-5.1l9.1-6.1l9.2-6.2
	c2.9-2,5.7-3.7,8.1-5.2c1.9-1.2,3.9-2.3,6-3.3c0.5-0.2,1-0.5,1.6-0.6c0.5-0.2,1.1-0.3,1.7-0.4c0.5,0,1,0,1.4,0.2s0.8,0.6,1,1
	c-0.7,0.3-1.1,0.9-1.2,1.6c-0.1,0.6-0.1,1.2,0.2,1.8c0.2,0.4,0.4,0.7,0.8,1c0.3,0.2,0.7,0.3,1.1,0.4c0.3,0,0.7,0,1,0
	c0.2,0,0.5-0.1,0.7-0.2c0.8-0.3,1.4-0.9,1.7-1.7c0.1-0.6,0.1-1.3-0.2-1.9c-1.1-2.4-2.7-3.8-4.8-4c-2.4-0.2-4.8,0.3-6.9,1.4
	c-1.7,0.9-3.4,1.8-5,2.9c-2.3,1.4-4.8,3.1-7.6,4.9S44.1,23,41,25c-3.1,2.1-6.1,4.1-8.9,5.9c-2.8,1.8-5.3,3.5-7.5,4.9
	c-1.5,1-3.1,1.9-4.7,2.7c-0.8,0.4-1.7,0.6-2.5,0.8c-0.9,0.2-1.4,0-1.7-0.5c0.6-0.2,1-0.7,1.2-1.3c0.2-0.5,0.2-1,0-1.5
	c-0.2-0.6-0.8-1.1-1.5-1.3c-0.7-0.1-1.5,0-2.1,0.4c-0.7,0.3-1.2,1-1.4,1.7c-0.2,1.2,0,2.4,0.6,3.5C12.6,41.4,13.6,42.3,14.8,42.5z"
	/>
<path class="st0" d="M47.9,38.5c-0.4-2.5-0.5-5-0.5-7.5c0.1-2,0.5-3.2,1.4-3.6c0.2-0.1,0.4-0.3,0.5-0.5s0.1-0.5,0-0.7
	c-0.2-0.3-0.4-0.5-0.8-0.5c-0.6,0-1.3,0.2-1.8,0.5c-1.9,0.9-3.4,2.6-4,4.7c-0.7,2.6-1,5.2-0.9,7.9c0.2,3.4,0.6,6.8,1.2,10.1
	c0.6,3.7,1.3,7.4,2,11.2c0.7,3.9,1.3,7.6,1.9,11.3c0.5,3.4,0.7,6.9,0.6,10.3c-0.1,2.8-0.6,5.6-1.6,8.2C45,92.2,43.2,94,41,95
	c-1.1,0.5-2.3,0.8-3.5,0.9c-1.5,0.2-2.9,0.2-4.4,0c1.2-1.9,2.2-4,2.8-6.2c0.7-2.4,1.2-4.8,1.4-7.3c0.3-2.4,0.2-4.9-0.1-7.4
	c-0.2-2.3-0.8-4.5-1.8-6.6c-0.5-1.2-1.2-2.3-2.1-3.4c-0.8-1-1.8-1.8-2.8-2.5c-1.1-0.6-2.2-1-3.5-1c-1.3-0.1-2.7,0.2-3.9,0.8
	c-2.1,0.9-3.9,2.3-5.2,4.2c-1.2,1.7-2,3.7-2.4,5.8c-0.4,2.2-0.3,4.5,0.1,6.7c0.4,2.3,1.1,4.6,2.1,6.7c1.2,2.6,2.7,5,4.6,7.2
	c1.7,2,3.9,3.5,6.2,4.6c-0.6,0.9-1.4,1.7-2.3,2.3c-1,0.6-2,1.2-3.1,1.6c-1.5,0.7-3.1,1.2-4.8,1.5c-1.6,0.3-3.2,0.4-4.8,0.2
	c-1.5-0.2-2.9-0.7-4.1-1.4s-2.2-1.8-2.8-3.1c-0.5-1-0.7-2.1-0.8-3.3c0.7,0.2,1.5,0.1,2.1-0.1c0.8-0.3,1.4-0.9,1.8-1.7
	s0.3-1.8-0.1-2.6c-0.3-0.6-0.8-1-1.4-1.2c-0.9-0.2-1.9-0.1-2.7,0.4c-0.8,0.3-1.4,0.9-1.7,1.7c-0.4,0.8-0.6,1.6-0.6,2.5
	c-0.1,0.9,0,1.7,0.2,2.6C3.5,97.6,3.8,98.3,4,99c0.8,2,2.2,3.7,3.9,4.9c1.6,1.1,3.4,1.7,5.3,2s3.9,0.2,5.8-0.2
	c1.9-0.4,3.7-1,5.4-1.7c1.5-0.7,2.9-1.5,4.2-2.6c1.1-0.8,2-1.8,2.8-2.8c2.1,0.3,4.2,0.4,6.2,0.2c1.7-0.2,3.4-0.6,4.9-1.3
	c2.6-1.2,4.7-3.2,6.1-5.7c1.5-2.8,2.4-5.8,2.9-8.9c0.5-3.6,0.7-7.3,0.5-11c-0.2-3.9-0.6-7.9-1.1-11.8c-0.5-4-1.1-7.8-1.8-11.6
	C48.9,44.8,48.3,41.5,47.9,38.5z M30.2,95.5c-2.3-0.6-4.4-2-5.9-3.9c-1.7-2.2-3.1-4.5-4.3-7c-0.8-1.8-1.5-3.8-1.9-5.7
	c-0.4-1.8-0.4-3.6-0.2-5.4c0.2-1.7,0.9-3.3,1.9-4.7c1.1-1.5,2.6-2.7,4.3-3.4c1-0.6,2.3-0.6,3.2,0.2c1.1,1.1,2,2.4,2.6,3.9
	c0.9,2,1.5,4.1,2,6.3c0.5,2.4,0.8,4.7,0.8,7.1c0.1,2.3-0.1,4.7-0.5,7C31.9,91.9,31.2,93.8,30.2,95.5z"/>
<path class="st0" d="M188.4,6.6c-0.2-0.1-0.5,0-0.7,0.1c-0.4,0.1-0.7,0.5-0.7,0.9c-0.4,3-0.8,6.2-1.1,9.6c-0.4,3.4-0.8,6.5-1.4,9.5
	c-0.5,2.6-1.2,5.2-2.1,7.7c-0.9,2.2-2,3.6-3.3,4.2c-0.6,0.3-1.2,0-1.6-0.8c-0.4-0.9-0.6-1.9-0.6-2.9c-0.1-1.3-0.2-2.7-0.3-4.3
	c-0.1-1.6-0.1-3.3-0.1-5s0-3.5-0.1-5.1s-0.2-3.1-0.4-4.5c-0.1-1.1-0.4-2.1-0.8-3.2c-0.2-0.8-0.9-1.4-1.7-1.6c-0.7-0.1-1.5,0-2.1,0.3
	c-0.7,0.3-1.4,0.8-2,1.3s-1.1,1-1.5,1.5c-0.5,0.5-0.9,0.9-1.3,1.4c-0.4,0.4-0.9,0.8-1.5,1c-0.5,0.2-1.1,0.4-1.7,0.5
	c-0.8,0.1-1.6-0.1-2.4-0.4c0.2-0.8,0.3-1.6,0.3-2.3c0-0.9,0-1.9-0.2-2.8c-0.1-1-0.3-2-0.6-2.9c-0.2-0.9-0.5-1.8-0.9-2.7
	c-0.4-1-1.1-1.9-2-2.5c-0.9-0.5-2-0.6-2.8-0.1c-2.2,0.9-3.9,2.8-4.3,5.2c-0.4,2.7,0,5.5,1.2,7.9c0.5,1.2,1.3,2.3,2.3,3.1
	c0.9,0.7,1.9,1.2,3,1.5c0.5,0.1,0.9,0.2,1.4,0.2c-0.1,1.1-0.2,2.5-0.3,4.1c-0.1,1.8-0.3,3.8-0.5,5.8c-0.2,2.1-0.5,4.2-0.8,6.3
	c-0.3,2-0.7,4-1.2,6c-0.4,1.6-1,3.2-1.8,4.7c-0.5,1.2-1.4,2.1-2.5,2.7c-1.4,0.7-2.5,0.2-3.2-1.3c-0.6-1.5-0.9-3-1-4.6
	c-0.1-2.1-0.2-4.1-0.1-6.2c0.1-2.2,0.2-4.3,0.4-6.4s0.3-3.8,0.4-5.3c0.1-0.5,0-1-0.2-1.5c-0.2-0.7-0.9-1.1-1.6-1
	c-0.8,0-1.6,0.2-2.3,0.6c-0.7,0.3-1.3,0.7-1.9,1.2c-0.5,0.4-0.8,0.8-1.1,1.4c-0.3,0.8-0.5,1.7-0.7,2.6c-0.3,1.1-0.5,2.4-0.8,3.8
	s-0.6,2.8-0.9,4.4c-0.4,1.6-0.8,3-1.2,4.3c-0.4,1.2-0.9,2.4-1.5,3.5c-0.4,0.9-1.1,1.6-2,2c-0.5,0.3-1.2,0.3-1.7,0
	c-0.7-0.3-1.2-0.9-1.4-1.5c-0.5-1.2-0.8-2.5-1-3.8c-0.2-1.7-0.4-3.4-0.4-5.1c0-1.8,0.1-3.7,0.3-5.5c0.2-1.7,0.5-3.5,0.8-5.2
	c0.3-1.4,0.8-2.8,1.4-4.1c0.4-0.9,1.1-1.7,2-2.2c0.6-0.3,1.2-0.2,1.7,0.2c0.5,0.3,0.9,0.8,1.2,1.4c0.2,0.4,0.3,0.9,0.4,1.3
	c0.1,0.5,0,0.8-0.4,1c-0.2,0.1-0.5,0.1-0.8,0s-0.6,0-0.9,0.1c-0.6,0.3-1.1,0.8-1.3,1.5s-0.1,1.5,0.2,2.1c0.2,0.5,0.7,0.9,1.2,1.1
	c0.6,0.2,1.3,0.2,1.9-0.2c0.6-0.3,1-0.7,1.3-1.2c0.3-0.6,0.5-1.3,0.6-2s0.1-1.5,0-2.3s-0.3-1.5-0.6-2.2c-0.5-1-1.2-1.9-2.2-2.5
	c-1.1-0.6-2.3-0.5-3.4,0c-2.4,1.1-4.3,2.9-5.7,5.1c-1.5,2.3-2.7,4.9-3.4,7.6c-0.6,2.1-0.9,4.4-1,6.6l-0.2,0.9c-0.4,2-0.8,4.3-1.4,7
	s-1.4,5.3-2.3,7.9c-0.9,2.4-2,4.8-3.3,7c-1,1.9-2.6,3.4-4.5,4.3c-1.7,0.8-3.1,0.9-4.2,0.4c-1.2-0.7-2.1-1.7-2.6-3
	c-0.7-1.6-1.2-3.3-1.5-5c-0.4-2.1-0.6-4.3-0.7-6.4c-0.1-2.3-0.1-4.5,0-6.8c0.1-2.1,0.3-4.3,0.7-6.4c0.3-1.7,0.8-3.4,1.5-5
	c0.4-1.1,1.2-2.1,2.3-2.7c0.2-0.1,0.5-0.2,0.8-0.1l0.9,0.1c-0.5,0.2-0.7,0.7-0.7,1.3c0,0.5,0,1,0.2,1.5c0.5,1.3,2,1.9,3.3,1.4
	c0.1,0,0.1,0,0.2-0.1c0.5-0.3,1-0.7,1.2-1.2c0.3-0.7,0.3-1.5-0.1-2.2c-0.5-1.2-1.6-2.2-2.8-2.7c-1.3-0.5-2.7-0.5-3.9,0.1
	c-2.7,1.2-4.9,3.3-6.4,5.9c-1.6,2.8-2.6,5.9-3.1,9c-0.3,2.1-0.5,4.2-0.4,6.3c-0.1,0.6-0.3,1.1-0.5,1.6c-0.4,1-1,1.9-1.7,2.7
	c-0.7,0.9-1.6,1.8-2.5,2.5c-0.9,0.8-1.9,1.4-2.9,1.9c-0.5,0.2-1,0.4-1.4,0.7c-0.5,0.2-0.9,0.3-1.4,0.2c0-1,0-2.2-0.1-3.5
	c-0.1-1.5-0.3-2.9-0.5-4.3c-0.3-1.5-0.6-3-1-4.6c-0.4-1.5-0.9-2.9-1.6-4.4c-0.5-1.2-1.2-2.3-2-3.4c-0.7-1-1.5-1.8-2.5-2.4
	c-0.9-0.6-2-0.9-3.1-1c-1.3-0.1-2.6,0.2-3.7,0.8c-2.1,0.9-3.5,2.8-4.4,5.5c-0.8,3.2-0.8,6.6,0.1,9.8c-0.4,0.1-0.8,0.3-1.2,0.4
	c-1.7,0.8-3,2.1-3.8,3.7c-0.9,1.8-1.5,3.8-1.7,5.9c-0.2,2.3-0.2,4.6,0.2,6.8c0.3,2.3,1,4.5,1.9,6.6c0.6,1.4,1.4,2.7,2.4,3.9
	c0.9,1.1,2,2,3.2,2.7c1.2,0.6,2.6,1,4,1c1.6,0,3.2-0.4,4.6-1.1c1.7-0.8,3.2-2,4.3-3.6c1.2-1.6,2.2-3.4,2.9-5.3
	c0.8-1.9,1.4-3.8,1.7-5.8c0.3-1.7,0.4-3.3,0.3-5c1-0.2,2-0.5,2.9-1c1.2-0.6,2.4-1.3,3.5-2.1c1.1-0.8,2.1-1.8,3-2.8
	c0.4-0.5,0.8-1.1,1.2-1.6c0.3,2.7,1.1,5.4,2.2,7.9c1,2.5,2.8,4.5,5.1,5.9c2.2,1.2,4.8,1.1,7.8-0.2c2.5-1.1,4.6-2.9,6.2-5.2
	c1.6-2.4,2.9-4.9,3.8-7.6c1-2.9,1.7-5.8,2.3-8.7l0.2-1.2c0.2,0.5,0.4,1,0.6,1.5c0.7,1.8,2.1,3.2,3.8,4s3.7,0.6,6.2-0.5
	c0.9-0.5,1.7-1.1,2.3-1.9c0.8-0.9,1.5-2,2-3.1c0.6-1.2,1-2.4,1.4-3.6c0.4-1.1,0.5-2.2,0.6-3.4c0.1,0.8,0.2,1.7,0.3,2.8
	c0.1,1.1,0.2,2.3,0.4,3.5s0.4,2.5,0.6,3.8c0.2,1.2,0.6,2.3,1.1,3.4c0.6,1.4,1.6,2.6,2.9,3.3c1.2,0.7,2.9,0.5,4.9-0.4
	c1.8-0.9,3.3-2.3,4.4-4.1c1.3-2.1,2.3-4.3,2.9-6.7c0.8-2.6,1.3-5.3,1.7-7.9c0.4-2.8,0.6-5.4,0.7-7.8c0.1-1.6,0.2-3.2,0.3-4.7
	c0.1-0.9,0-1.8-0.1-2.7l0.1-0.1c1.2-0.2,2.5-0.6,3.6-1.1c2.1-1,4-2.3,5.5-4c-0.2,1.6-0.3,3.3-0.3,4.9c-0.1,1.9,0,3.9,0.1,6
	c0.1,2,0.4,4.1,0.7,6.1c0.3,1.8,0.8,3.5,1.5,5.1c0.6,1.5,1.6,2.7,2.9,3.6c1.2,0.7,2.7,0.6,4.6-0.2c1.6-0.7,3-1.9,3.9-3.5
	c1.1-1.8,1.9-3.7,2.5-5.7c0.7-2.2,1.2-4.5,1.6-6.8c0.4-2.4,0.7-4.7,0.9-7s0.4-4.3,0.5-6.2s0.3-3.3,0.5-4.4c0.1-0.3,0-0.5-0.1-0.8
	C188.9,6.8,188.7,6.6,188.4,6.6z M82.8,66.2c-0.2,1.7-0.6,3.3-1.2,4.9c-0.6,1.7-1.4,3.4-2.5,4.9c-1,1.5-2.5,2.7-4.2,3.5
	c-1.4,0.8-3.1,0.8-4.4-0.1c-1.4-1-2.4-2.3-3.1-3.9c-0.8-1.7-1.3-3.5-1.6-5.3c-0.4-2-0.5-4-0.5-6c0-1.9,0.2-3.7,0.6-5.6
	c0.3-1.5,0.9-2.9,1.7-4.1c2.5,6.1,9,9.4,15.4,7.9C83.1,63.8,83,65,82.8,66.2z M83.1,59.6c-1.2,0-2.4-0.3-3.5-0.7
	c-2.5-1-4.7-2.7-6.4-4.8c-0.9-1-1.6-2.2-2.2-3.4c-0.5-1.2-0.9-2.4-1.1-3.7c-0.2-1.2-0.2-2.4-0.1-3.5c0.1-1,0.3-1.9,0.7-2.8
	c0.3-0.7,0.8-1.2,1.5-1.6c1.4-0.8,3.2-0.6,4.4,0.5c1.5,1.2,2.7,2.8,3.4,4.6c0.6,1.2,1,2.5,1.4,3.8c0.4,1.4,0.7,2.7,0.9,4.2
	c0.3,1.4,0.4,2.7,0.6,4C82.9,57.4,83.1,58.6,83.1,59.6L83.1,59.6z M159.1,15.9c-0.7-0.7-1.3-1.3-1.9-2.1c-0.6-0.7-1.2-1.5-1.6-2.4
	c-0.5-1.1-0.9-2.3-1-3.5c-0.1-1,0.1-1.7,0.6-2s1.2-0.3,1.7,0s0.9,0.8,1.2,1.4c0.3,0.7,0.5,1.4,0.7,2.2s0.3,1.7,0.4,2.5
	c0.1,0.8,0.1,1.5,0.1,2.3C159.3,14.8,159.2,15.4,159.1,15.9L159.1,15.9z"/>
</svg>
