<?xml version="1.0" encoding="utf-8"?>
<!-- Generator: Adobe Illustrator 24.0.0, SVG Export Plug-In . SVG Version: 6.00 Build 0)  -->
<svg version="1.1" id="Layer_1" xmlns="http://www.w3.org/2000/svg" xmlns:xlink="http://www.w3.org/1999/xlink" x="0px" y="0px"
	 viewBox="0 0 207.5 295.5" style="enable-background:new 0 0 207.5 295.5;" xml:space="preserve">
<style type="text/css">
	.st0{fill:#EFC401;}
	.st1{fill:#747684;}
	.st2{fill:#44475A;}
	.st3{fill:#E37E00;}
	.st4{fill:#ECB400;}
</style>
<path class="st0" d="M34.7,181.6c-0.8-0.1-0.5-0.8-0.5-1.2c0-4.1,0-8.2,0-12.2c0-1-0.2-1.3-1.2-1.4c-4.1-0.4-8.3-0.8-12.4-1.2
	c-0.9-0.1-0.9-0.4-0.8-1.1c0.9-4.1,1.8-8.2,2.7-12.3c0.2-0.9-0.1-1.2-0.9-1.4c-4-1.2-7.9-2.6-11.8-3.8c-0.9-0.3-1-0.6-0.6-1.4
	c1.8-3.8,3.4-7.6,5.2-11.4c0.3-0.7,0.2-1-0.4-1.4c-3.7-2.1-7.3-4.2-10.9-6.2c-0.9-0.5-0.9-0.8-0.3-1.6c2.5-3.3,4.9-6.7,7.4-10
	c0.5-0.7,0.4-1-0.2-1.5c-3.1-2.7-6.1-5.5-9.2-8.2c-0.9-0.8-0.8-1.1,0-1.8c3-2.6,6-5.4,9.1-8c0.8-0.7,0.7-1.1,0.1-1.9
	c-2.4-3.2-4.7-6.5-7.2-9.7c-0.7-0.9-0.5-1.2,0.4-1.7c3.6-2,7.1-4.1,10.7-6.1c0.7-0.4,0.8-0.7,0.5-1.5c-1.7-3.8-3.4-7.6-5.1-11.3
	c-0.4-0.8-0.3-1.2,0.6-1.5c4-1.2,7.9-2.6,11.8-3.8c0.9-0.3,1-0.7,0.8-1.5c-0.9-4-1.7-8.1-2.6-12.2c-0.2-0.8-0.2-1.1,0.8-1.2
	c4.2-0.4,8.4-0.9,12.6-1.3c0.8-0.1,1-0.4,1-1.1c0-4.2,0-8.3,0-12.5c0-1,0.3-1.2,1.2-1.1c4.1,0.5,8.2,0.9,12.3,1.4
	c0.8,0.1,1.2,0,1.4-0.9c0.8-4.1,1.7-8.1,2.5-12.2c0.2-1,0.6-1.1,1.4-0.8c3.8,1.3,7.7,2.5,11.5,3.8c1,0.3,1.4,0.3,1.9-0.8
	c1.6-3.8,3.3-7.5,4.9-11.3c0.3-0.8,0.6-0.9,1.4-0.4c3.6,2.1,7.2,4.2,10.8,6.3c0.7,0.4,1.1,0.5,1.7-0.3c2.4-3.4,4.9-6.7,7.3-10.1
	c0.5-0.7,0.8-0.8,1.5-0.2c3,2.8,6.1,5.5,9.1,8.3c0.7,0.6,1.1,0.7,1.8,0c3-2.8,6.2-5.6,9.2-8.4c0.6-0.6,0.9-0.6,1.4,0.2
	c2.4,3.4,4.8,6.6,7.2,10c0.6,0.9,1.1,0.9,2,0.4c3.5-2.1,7.1-4.1,10.5-6.2c0.8-0.5,1.1-0.3,1.4,0.5c1.7,3.8,3.4,7.7,5,11.5
	c0.3,0.7,0.6,0.9,1.3,0.6c3.9-1.3,7.8-2.5,11.7-3.9c1-0.3,1.4-0.3,1.6,0.9c0.8,4,1.7,8,2.5,12.1c0.2,0.8,0.5,1,1.3,0.9
	c4-0.5,8-0.9,12-1.3c1.5-0.2,1.5-0.2,1.5,1.3c0,4,0,8.1,0,12.1c0,0.8,0.1,1.1,1,1.2c4.2,0.4,8.4,0.9,12.6,1.3c0.9,0.1,1,0.4,0.8,1.1
	c-0.9,4-1.7,8-2.6,12c-0.2,1,0,1.4,1,1.7c3.9,1.2,7.7,2.5,11.6,3.7c0.9,0.3,1.1,0.5,0.7,1.5c-1.8,3.8-3.4,7.6-5.1,11.3
	c-0.4,0.8-0.2,1.1,0.5,1.6c3.7,2,7.3,4.2,10.9,6.2c0.7,0.4,0.8,0.6,0.3,1.3c-2.5,3.4-4.9,6.8-7.4,10.1c-0.5,0.7-0.5,1,0.2,1.6
	c3.1,2.7,6.1,5.5,9.2,8.2c0.7,0.6,0.9,1,0,1.7c-3.1,2.7-6.2,5.5-9.3,8.3c-0.6,0.6-0.6,0.9-0.1,1.5c2.5,3.4,4.9,6.8,7.4,10.1
	c0.5,0.7,0.4,1-0.3,1.4c-3.6,2-7.2,4.1-10.8,6.2c-0.8,0.4-1,0.8-0.6,1.6c1.7,3.7,3.3,7.5,5.1,11.2c0.5,1,0.2,1.2-0.7,1.5
	c-3.9,1.2-7.7,2.5-11.6,3.7c-0.9,0.3-1.1,0.7-0.9,1.6c0.9,4,1.7,8.1,2.7,12.2c0.2,0.8,0.1,1-0.7,1.1c-4.2,0.4-8.3,0.8-12.5,1.2
	c-0.9,0.1-1.2,0.4-1.2,1.3c0.1,4.1,0,8.2,0,12.3c0,0.4,0.3,1.1-0.6,1.1c-4.3-0.5-8.6-0.9-12.8-1.4c-1-0.1-1.2,0.2-1.4,1.1
	c-0.8,4-1.7,8-2.5,11.9c-0.2,1-0.5,1.1-1.5,0.8c-3.8-1.3-7.7-2.5-11.6-3.8c-0.9-0.3-1.3-0.1-1.7,0.8c-1.6,3.8-3.3,7.5-4.9,11.3
	c-0.4,0.8-0.6,0.9-1.4,0.5c-3.6-2.1-7.2-4.2-10.7-6.3c-0.7-0.4-1.1-0.4-1.6,0.3c-2.4,3.4-4.8,6.7-7.2,10c-0.6,0.8-1,0.9-1.7,0.2
	c-3-2.8-6-5.5-9-8.2c-0.6-0.6-1.1-0.7-1.8,0c-3,2.8-6.2,5.6-9.2,8.4c-0.7,0.7-1,0.5-1.5-0.2c-1-1.4-2-2.8-3.1-4.1l0,0
	c-0.1-0.1-0.1-0.2-0.2-0.3c-1.4-1.9-2.7-3.8-4.1-5.8c-0.5-0.7-0.8-0.7-1.5-0.3c-3.6,2.1-7.2,4.2-10.7,6.3c-0.8,0.5-1.1,0.5-1.5-0.4
	c-1.6-3.8-3.3-7.6-5-11.4c-0.3-0.8-0.7-1-1.5-0.7c-4,1.3-7.9,2.6-11.9,3.9c-0.7,0.3-1,0.2-1.2-0.7c-0.8-4.1-1.7-8.3-2.6-12.4
	c-0.2-0.8-0.4-1-1.2-0.9c-1.7,0.2-3.3,0.3-5,0.5C40,181,37.3,181.3,34.7,181.6z M103.4,189.8c47.8,0.3,85.2-38.2,85.9-83.8
	c0.8-49.1-38.4-87.3-85.4-87.3c-47.9,0-84.8,38.3-85.7,83.7C17.2,151.5,57,189.9,103.4,189.8z"/>
<path class="st1" d="M89.1,202.8c1,1.4,2.1,2.7,3.1,4.1c0.5,0.7,0.7,0.9,1.5,0.2c3-2.8,6.2-5.6,9.2-8.4c0.7-0.7,1.1-0.6,1.8,0
	c3,2.8,6,5.5,9,8.2c0.7,0.7,1.1,0.7,1.7-0.2c2.4-3.4,4.8-6.7,7.2-10c0.5-0.7,0.9-0.8,1.6-0.3c3.6,2.1,7.2,4.2,10.7,6.3
	c0.8,0.5,1.1,0.4,1.4-0.5c1.6-3.8,3.3-7.5,4.9-11.3c0.4-0.9,0.8-1.1,1.7-0.8c3.8,1.3,7.7,2.5,11.6,3.8c0.9,0.3,1.3,0.2,1.5-0.8
	c0.8-4,1.7-8,2.5-11.9c0.2-0.9,0.4-1.2,1.4-1.1c4.3,0.5,8.6,1,12.8,1.4c2.1,6.4,4.1,12.8,6.2,19.2c7.3,22.5,14.6,45,21.9,67.4
	c0.3,0.9,0.2,1.3-0.9,1.2c-6-0.6-11.9-1.1-17.9-1.6c-5.9-0.5-11.8-1.1-17.6-1.6c-2.9-0.3-5.9-0.5-8.8-0.8c-0.7-0.1-1.3,0.1-1.8,0.6
	c-9.9,8.7-19.8,17.3-29.8,26c-1.3,1.1-2.6,2.2-3.9,3.4c-0.7,0.7-0.9,0.5-1.2-0.4c-2.4-7.5-4.9-15-7.3-22.5
	c-2.5-7.8-5.1-15.6-7.6-23.4c-0.1-0.4-0.2-0.8-0.5-1.1c-0.4-2.5-1.4-4.9-2.2-7.3c-3.4-10.5-6.8-21-10.2-31.5
	C90.5,207.2,89.5,205,89.1,202.8z"/>
<path class="st2" d="M89.1,202.8c0.4,2.3,1.3,4.4,2,6.6c3.4,10.5,6.9,21,10.2,31.5c0.8,2.4,1.8,4.8,2.2,7.3
	c-2.9,9.1-5.9,18.1-8.8,27.2c-0.7,2.2-1.5,4.4-2.1,6.6c-0.3,0.9-0.5,0.9-1.2,0.3c-9.5-8.3-18.9-16.6-28.4-24.8
	c-1.8-1.6-3.6-3.1-5.4-4.7c-0.5-0.4-0.9-0.6-1.5-0.5c-5.7,0.5-11.4,1-17.1,1.5c-6.8,0.6-13.6,1.2-20.4,1.8c-2.6,0.2-5.2,0.5-7.8,0.7
	c-0.2,0-0.3,0-0.6,0c1.2-3.7,2.4-7.3,3.6-11c6.8-20.9,13.6-41.8,20.4-62.7c0.1-0.3,0.2-0.5,0.2-0.8c2.7-0.3,5.4-0.6,8.1-1
	c1.7-0.2,3.3-0.3,5-0.5c0.7-0.1,1,0.1,1.2,0.9c0.8,4.1,1.8,8.3,2.6,12.4c0.2,0.8,0.4,0.9,1.2,0.7c4-1.3,8-2.6,11.9-3.9
	c0.8-0.3,1.2-0.1,1.5,0.7c1.6,3.8,3.4,7.6,5,11.4c0.4,1,0.7,0.9,1.5,0.4c3.6-2.1,7.2-4.2,10.7-6.3c0.7-0.4,1.1-0.4,1.5,0.3
	c1.3,1.9,2.7,3.8,4.1,5.8C89,202.6,89.1,202.7,89.1,202.8L89.1,202.8z"/>
<path class="st3" d="M103.4,189.8c-46.4,0.2-86.3-38.3-85.2-87.5c0.9-45.4,37.8-83.7,85.7-83.7c47.1,0,86.2,38.2,85.4,87.3
	C188.6,151.5,151.2,190.1,103.4,189.8z M154.4,52.9c-1.2-1.5-2.8-2.6-4.2-3.9c-5.7-4.9-12-8.7-18.9-11.5c-8.7-3.6-17.7-5.3-27.1-5.5
	c-3.9,0-7.8,0.4-11.6,0.9c-6.6,0.9-12.8,2.9-18.8,5.6c-9.4,4.3-17.5,10.4-24.3,18.2c-5.2,5.9-9.2,12.5-12.3,19.7
	c-3.2,7.4-5,15.2-5.5,23.2c-0.3,4.3-0.2,8.7,0.4,13c0.6,4.8,1.6,9.5,3.1,14.1c2.5,7.6,6.2,14.7,11,21.1c1.9,2.5,3.9,4.9,6.1,7
	c0.8,1,1.7,1.7,2.6,2.6c3.4,3.2,7.1,5.9,11,8.4C76,172,87,175.5,98.7,176.3c5.1,0.4,10.3,0.2,15.5-0.6c8.7-1.3,16.8-4,24.5-8.3
	c10-5.5,18.1-13,24.6-22.4c4.4-6.4,7.7-13.4,9.8-20.9c1.7-6.1,2.7-12.3,2.8-18.7c0-3-0.1-6-0.4-8.9c-0.5-4.6-1.4-9.2-2.8-13.6
	c-2.3-7.5-5.8-14.5-10.4-20.9C159.9,58.7,157.4,55.6,154.4,52.9z"/>
<path class="st1" d="M89.1,202.8c-0.1-0.1-0.1-0.2-0.2-0.3C89,202.6,89.1,202.7,89.1,202.8z"/>
<path class="st4" d="M52.2,154.8c-2.3-2.1-4.2-4.5-6.1-7c-4.9-6.4-8.5-13.5-11-21.1c-1.5-4.6-2.5-9.3-3.1-14.1
	c-0.5-4.3-0.6-8.7-0.4-13c0.5-8,2.3-15.8,5.5-23.2c3.1-7.2,7.1-13.8,12.3-19.7c6.8-7.8,14.9-13.9,24.3-18.2c6-2.7,12.3-4.7,18.8-5.6
	c3.9-0.6,7.7-1,11.6-0.9c9.4,0.1,18.4,1.9,27.1,5.5c6.9,2.9,13.2,6.6,18.9,11.5c1.4,1.2,3,2.4,4.2,3.9c-0.6,0-0.9,0.5-1.2,0.9
	c-10.6,10.6-21.2,21.2-31.8,31.8c-0.3,0.3-0.5,0.6-0.8,0.9c-1,0.2-1.4-0.2-1.7-1.2c-0.4-1.1-0.9-2.2-1.4-3.3
	c-3.6-8.9-7.3-17.8-10.9-26.6c-0.6-1.5-1.1-3.1-2-4.6c-0.2,0.2-0.2,0.3-0.3,0.4c-2.8,6.9-5.6,13.7-8.4,20.6
	c-1.9,4.6-3.7,9.2-5.6,13.9c-0.2,0.4-0.4,0.9-1,0.9c-4.1,0.3-8.2,0.6-12.4,0.9c-2.7,0.2-5.3,0.3-8,0.5c-4.1,0.4-8.2,0.7-12.2,1
	c-1.7,0.1-3.5,0-5.3,0.5c0.5,0.5,0.9,0.9,1.4,1.3c4.7,4,9.5,7.9,14.2,11.8c4.4,3.7,8.7,7.4,13.1,11.1c0.5,0.4,0.6,0.9,0.5,1.5
	c-1.2,5.1-2.5,10.1-3.8,15.2c-0.6,0-0.8,0.5-1.1,0.8c-7.6,7.6-15.2,15.2-22.9,22.9C52.7,154.2,52.5,154.5,52.2,154.8z"/>
<path class="st0" d="M52.2,154.8c0.2-0.3,0.4-0.6,0.7-0.8c7.6-7.6,15.2-15.2,22.9-22.9c0.3-0.3,0.6-0.8,1.1-0.8c0,0.3,0,0.6-0.1,0.8
	c-1.3,5.3-2.6,10.6-3.9,15.9c-0.4,1.6-0.7,3.1-1.1,5c2.5-1.6,4.8-2.9,7.1-4.3c8.4-5.2,16.8-10.5,25.1-15.7c0.4-0.3,0.8-0.3,1.3,0
	c4.5,2.8,9.1,5.6,13.6,8.4c5.9,3.7,11.9,7.3,17.8,11c0.2,0.1,0.5,0.4,0.7,0.2c0.2-0.2,0.1-0.5,0-0.8c-0.6-2.2-1.1-4.5-1.7-6.7
	c-2.4-9.6-4.8-19.2-7.2-28.8c-0.1-0.5-0.2-1,0.3-1.4c0.6-0.5,1.2-1,1.8-1.6c4.4-3.7,8.8-7.4,13.2-11.1c3.6-3,7.1-6,10.6-9
	c1-0.9,2.2-1.6,3.1-2.9c-1.8-0.2-3.4-0.3-5.1-0.4c-3.7-0.2-7.4-0.6-11-0.9c-2.8-0.2-5.6-0.3-8.5-0.5c-4.2-0.3-8.3-0.6-12.5-1
	c0.3-0.3,0.5-0.6,0.8-0.9c10.6-10.6,21.2-21.2,31.8-31.8c0.4-0.4,0.6-0.9,1.2-0.9c3,2.7,5.5,5.9,7.9,9.1c4.6,6.4,8.1,13.3,10.4,20.9
	c1.4,4.5,2.3,9,2.8,13.6c0.3,3,0.5,5.9,0.4,8.9c-0.1,6.4-1,12.6-2.8,18.7c-2.1,7.5-5.4,14.5-9.8,20.9c-6.5,9.4-14.6,16.9-24.6,22.4
	c-7.7,4.3-15.8,7-24.5,8.3c-5.2,0.8-10.3,1-15.5,0.6C87,175.5,76,172,65.9,165.7c-3.9-2.5-7.6-5.2-11-8.4
	C54,156.5,53,155.8,52.2,154.8z"/>
<path class="st3" d="M120.6,86.4c4.2,0.3,8.3,0.7,12.5,1c2.8,0.2,5.6,0.3,8.5,0.5c3.7,0.3,7.4,0.6,11,0.9c1.7,0.1,3.3,0.1,5.1,0.4
	c-0.8,1.2-2,2-3.1,2.9c-3.5,3.1-7.1,6-10.6,9c-4.4,3.7-8.8,7.4-13.2,11.1c-0.6,0.5-1.2,1-1.8,1.6c-0.5,0.4-0.4,0.9-0.3,1.4
	c2.4,9.6,4.8,19.2,7.2,28.8c0.6,2.2,1.1,4.5,1.7,6.7c0.1,0.3,0.2,0.6,0,0.8c-0.3,0.2-0.5,0-0.7-0.2c-5.9-3.7-11.9-7.3-17.8-11
	c-4.5-2.8-9.1-5.6-13.6-8.4c-0.5-0.3-0.8-0.3-1.3,0c-8.4,5.2-16.8,10.5-25.1,15.7c-2.3,1.4-4.5,2.8-7.1,4.3c0.4-1.8,0.7-3.4,1.1-5
	c1.3-5.3,2.6-10.6,3.9-15.9c0.1-0.3,0.1-0.6,0.1-0.8c1.3-5.1,2.5-10.1,3.8-15.2c0.1-0.5,0-1-0.5-1.5c-4.4-3.7-8.7-7.4-13.1-11.1
	c-4.7-4-9.5-7.9-14.2-11.8c-0.5-0.4-0.9-0.9-1.4-1.3c1.7-0.5,3.5-0.4,5.3-0.5c4.1-0.3,8.2-0.6,12.2-1c2.7-0.2,5.3-0.3,8-0.5
	c4.1-0.3,8.2-0.6,12.4-0.9c0.6,0,0.8-0.5,1-0.9c1.9-4.6,3.7-9.2,5.6-13.9c2.8-6.9,5.6-13.7,8.4-20.6c0-0.1,0.1-0.2,0.3-0.4
	c0.9,1.5,1.4,3.1,2,4.6c3.7,8.9,7.3,17.8,10.9,26.6c0.5,1.1,1,2.2,1.4,3.3C119.1,86.2,119.6,86.6,120.6,86.4z"/>
</svg>
