<?xml version="1.0" encoding="utf-8"?>
<!-- Generator: Adobe Illustrator 24.0.0, SVG Export Plug-In . SVG Version: 6.00 Build 0)  -->
<svg version="1.1" id="Layer_1" xmlns="http://www.w3.org/2000/svg" xmlns:xlink="http://www.w3.org/1999/xlink" x="0px" y="0px"
	 viewBox="0 0 1920 1080" style="enable-background:new 0 0 1920 1080;" xml:space="preserve">
<style type="text/css">
	.st0{opacity:0.5;fill:#80DEFF;}
	.st1{opacity:0.5;fill:#EFCAAB;}
	.st2{opacity:0.5;fill:#F94343;}
	.st3{opacity:0.5;fill:#EE8640;}
	.st4{opacity:0.5;fill:#C8383D;}
	.st5{opacity:0.5;fill:#CF2FE8;}
	.st6{opacity:0.5;fill:#9FD4DF;}
	.st7{opacity:0.5;fill:#C8DD37;}
	.st8{opacity:0.5;fill:#2070A2;}
	.st9{opacity:0.5;fill:#DFFF00;}
	.st10{opacity:0.5;fill:#9AE2A5;}
	.st11{opacity:0.5;fill:#DA368B;}
	.st12{opacity:0.5;fill:#F76D6D;}
	.st13{opacity:0.5;fill:#F4EE6E;}
	.st14{opacity:0.5;fill:#82234F;}
	.st15{opacity:0.5;fill:#B95758;}
	.st16{opacity:0.5;fill:#D73589;}
	.st17{opacity:0.5;fill:#E19564;}
	.st18{opacity:0.5;fill:#F7DE68;}
	.st19{opacity:0.5;fill:#F79C5E;}
	.st20{opacity:0.5;fill:#F8F55E;}
</style>
<ellipse transform="matrix(0.7071 -0.7071 0.7071 0.7071 485.5175 1474.8993)" class="st0" cx="2023.1" cy="151.4" rx="687.6" ry="687.6"/>
<ellipse transform="matrix(0.7071 -0.7071 0.7071 0.7071 630.8954 1587.4213)" class="st1" cx="2231.6" cy="32.2" rx="445" ry="445"/>
<path class="st2" d="M1295-341.7c-36.3,121.6-10.9,246.9,57.9,342.5c109.9-42.3,199.8-133.2,236-254.8
	c36.3-121.6,10.9-246.9-57.9-342.5C1421.1-554.3,1331.3-463.3,1295-341.7z"/>
<path class="st3" d="M1337.7,609c-90.9-202-76.1-424.7,20.9-606c200,47.7,376.6,184.2,467.5,386.2c90.9,202,76.1,424.7-20.9,606
	C1605.1,947.5,1428.6,811,1337.7,609z"/>
<path class="st4" d="M760.3-60.4c-37.7-40.6-90.4-58.8-141.6-54.2c-8.5,50.7,5.8,104.7,43.5,145.3c37.7,40.6,90.4,58.8,141.6,54.2
	C812.2,34.2,798-19.8,760.3-60.4z"/>
<path class="st5" d="M2641.8-149.1c-77.8-8.8-151.1,20.3-201.6,72.4c37.6,62.1,102.6,106.8,180.4,115.5
	c77.8,8.8,151.1-20.3,201.6-72.4C2784.5-95.7,2719.5-140.3,2641.8-149.1z"/>
<path class="st6" d="M416.3-27.9c-81.9,45-133.3,123.7-146.7,209.4C349,216.2,443.1,215,525,170.1c81.9-45,133.3-123.8,146.7-209.4
	C592.2-74,498.1-72.8,416.3-27.9z"/>
<path class="st7" d="M2654.2,424.6c-108.4-56.9-233.4-85.5-364.5-76.8c-265.8,17.7-486.1,184.2-585.3,412.8
	c108.4,56.9,233.4,85.5,364.5,76.8C2334.6,819.7,2555,653.2,2654.2,424.6z"/>
<path class="st6" d="M2197-514c-62.4,88.2-96,197.7-88.3,313.9c17.9,268.9,250.4,472.3,519.3,454.4c26.2-1.7,51.8-5.6,76.6-11.2
	c6-44.7,7.6-90.7,4.5-137.5C2689-197.3,2475.5-441.3,2197-514z"/>
<path class="st8" d="M2251.1-230.3c-7.1-105.9-37.8-204.6-86.6-291.3c-60.1-12.6-122.9-17.3-187.1-13
	c-378.9,25.3-665.6,352.9-640.3,731.8c7.1,105.9,37.8,204.6,86.6,291.3c60.1,12.6,122.9,17.3,187.1,13
	C1989.7,476.2,2276.4,148.6,2251.1-230.3z"/>
<ellipse transform="matrix(0.7071 -0.7071 0.7071 0.7071 930.4685 1553.4232)" class="st9" cx="2340.4" cy="-346.5" rx="160.3" ry="160.3"/>
<ellipse transform="matrix(0.9978 -6.653899e-02 6.653899e-02 0.9978 -7.8348 86.8955)" class="st10" cx="1300.6" cy="161.1" rx="85.5" ry="85.5"/>
<ellipse transform="matrix(5.615452e-02 -0.9984 0.9984 5.615452e-02 2677.3262 1553.2128)" class="st11" cx="2160.2" cy="-639.5" rx="85.5" ry="85.5"/>
<path class="st12" d="M2391.4,635.7c-47.1,3.1-87.8-32.5-90.9-79.6c-3.1-47.1,32.5-87.8,79.6-90.9c47.1-3.1,87.8,32.5,90.9,79.6
	C2474.1,591.8,2438.5,632.5,2391.4,635.7z"/>
<path class="st13" d="M2077.6-502.7c-36.1,2.4-67.3-24.9-69.7-61c-2.4-36.1,24.9-67.3,61-69.7c36.1-2.4,67.3,24.9,69.7,61
	S2113.7-505.1,2077.6-502.7z"/>
<path class="st14" d="M1676.1,1002.6c-36.1,2.4-67.3-24.9-69.7-61c-2.4-36.1,24.9-67.3,61-69.7c36.1-2.4,67.3,24.9,69.7,61
	C1739.5,968.9,1712.2,1000.1,1676.1,1002.6z"/>
<path class="st15" d="M2432.4-467c-25.5,1.7-47.5-17.6-49.2-43c-1.7-25.5,17.6-47.5,43-49.2c25.5-1.7,47.5,17.6,49.2,43
	C2477.2-490.7,2457.9-468.7,2432.4-467z"/>
<path class="st16" d="M1967.7,917.5c-25.5,1.7-47.5-17.6-49.2-43c-1.7-25.5,17.6-47.5,43-49.2c25.5-1.7,47.5,17.6,49.2,43
	C2012.4,893.8,1993.1,915.8,1967.7,917.5z"/>
<path class="st17" d="M1621.4-510.9c-25.5,1.7-47.5-17.6-49.2-43c-1.7-25.5,17.6-47.5,43-49.2c25.5-1.7,47.5,17.6,49.2,43
	C1666.2-534.6,1646.9-512.6,1621.4-510.9z"/>
<ellipse transform="matrix(0.894 -0.448 0.448 0.894 -232.0694 810.5692)" class="st6" cx="1597.4" cy="895.9" rx="46.2" ry="46.2"/>
<path class="st7" d="M1627.8-314c-49.1,3.3-91.5-33.9-94.8-82.9c-3.3-49.1,33.9-91.5,82.9-94.8c49.1-3.3,91.5,33.9,94.8,82.9
	C1714-359.7,1676.8-317.3,1627.8-314z"/>
<path class="st18" d="M1585.7,719.7c-63.7,4.3-118.8-44-123.1-107.7c-4.3-63.7,44-118.8,107.7-123.1c63.7-4.3,118.9,44,123.1,107.7
	C1697.6,660.3,1649.4,715.4,1585.7,719.7z"/>
<ellipse transform="matrix(0.7071 -0.7071 0.7071 0.7071 -551.8802 212.1584)" class="st0" cx="-19.8" cy="772.3" rx="616.2" ry="616.2"/>
<ellipse transform="matrix(0.7071 -0.7071 0.7071 0.7071 -397.9731 270.9396)" class="st1" cx="128.1" cy="615.9" rx="398.8" ry="398.8"/>
<path class="st2" d="M-817.6,722.3c24.9,111,99.6,197.8,195.3,242.4c67.4-81.2,97.9-191.7,72.9-302.6
	c-24.9-111-99.6-197.8-195.3-242.4C-812.1,500.9-842.6,611.4-817.6,722.3z"/>
<path class="st3" d="M-489,1342.7C-619.4,1193-664.5,998.1-628.4,817.4c183.9-11,370.8,60.3,501.2,209.9
	C3.3,1177,48.3,1371.9,12.2,1552.6C-171.7,1563.7-358.6,1492.4-489,1342.7z"/>
<path class="st4" d="M589.6,1112.1c-42.2-26.1-92.1-29.4-135.2-13.2c4.7,45.8,29.8,89.1,72.1,115.2c42.2,26.1,92.1,29.4,135.2,13.2
	C656.9,1181.4,631.8,1138.2,589.6,1112.1z"/>
<path class="st5" d="M432.8,354c-69,12.7-124.3,56.6-154.1,114.5c48.4,43.5,115.7,64.9,184.7,52.3c69-12.7,124.3-56.6,154.1-114.5
	C569.1,362.7,501.8,341.3,432.8,354z"/>
<path class="st6" d="M280.4,1219.6c-58.5,59.8-82.3,140.8-71.5,217.7c77.2,9.1,157.6-16.3,216.1-76.2
	c58.5-59.8,82.3-140.8,71.5-217.7C419.4,1134.3,339,1159.7,280.4,1219.6z"/>
<path class="st7" d="M592.4,842.8c-107.8-20.6-222.4-12.8-332.6,28.8c-223.4,84.2-369.2,284.2-394.9,506
	c107.8,20.6,222.4,12.8,332.6-28.8C420.8,1264.7,566.6,1064.6,592.4,842.8z"/>
<path class="st6" d="M-43.4,156.4c-30.6,91.9-31.1,194.5,5.7,292.2c85.2,226,337.4,340.1,563.4,255c22-8.3,43-18.2,62.8-29.5
	c-6.5-39.9-17-79.8-31.8-119.1C460.8,300.3,214.3,146.5-43.4,156.4z"/>
<path class="st8" d="M76.6,385.7C43.1,296.7-8.9,220-73.3,158.3c-54.8,4.8-109.9,17.1-163.9,37.4
	c-318.4,120-479.3,475.5-359.3,793.9c33.6,89,85.5,165.7,149.9,227.4c54.8-4.8,109.9-17.1,163.9-37.4
	C35.8,1059.6,196.7,704.1,76.6,385.7z"/>
<ellipse transform="matrix(0.7071 -0.7071 0.7071 0.7071 -149.8354 164.0168)" class="st9" cx="123.1" cy="262.9" rx="143.7" ry="143.7"/>
<ellipse transform="matrix(0.838 -0.5457 0.5457 0.838 -703.4228 -143.3436)" class="st10" cx="-593.1" cy="1113" rx="76.6" ry="76.6"/>
<ellipse transform="matrix(0.4564 -0.8898 0.8898 0.4564 -110.5063 1616.374)" class="st11" cx="1267.5" cy="898.6" rx="76.6" ry="76.6"/>
<path class="st19" d="M740.1,854.3c-39.6,14.9-83.8-5.1-98.7-44.6c-14.9-39.6,5.1-83.8,44.7-98.7c39.6-14.9,83.8,5.1,98.7,44.7
	C799.6,795.2,779.7,839.3,740.1,854.3z"/>
<path class="st12" d="M421.8,1092.1c-39.6,14.9-83.8-5.1-98.7-44.7c-14.9-39.6,5.1-83.7,44.7-98.7c39.6-14.9,83.8,5.1,98.7,44.6
	C481.3,1033,461.3,1077.2,421.8,1092.1z"/>
<path class="st13" d="M1349.6,1015.9c-11.1,30.4-44.9,46.1-75.3,34.9c-30.4-11.1-46.1-44.9-34.9-75.3c11.1-30.4,44.9-46.1,75.3-34.9
	C1345.1,951.8,1360.7,985.5,1349.6,1015.9z"/>
<path class="st20" d="M636.2,910.3c-30.3,11.4-64.2-3.9-75.6-34.2c-11.4-30.3,3.9-64.2,34.2-75.6c30.3-11.4,64.2,3.9,75.6,34.2
	C681.9,865,666.6,898.9,636.2,910.3z"/>
<path class="st14" d="M-96.6,1592.5c-30.3,11.4-64.2-3.9-75.6-34.2c-11.4-30.3,3.9-64.2,34.2-75.6c30.3-11.4,64.2,3.9,75.6,34.2
	C-50.9,1547.2-66.3,1581-96.6,1592.5z"/>
<path class="st15" d="M170.7,135.6c-21.4,8.1-45.3-2.7-53.3-24.1c-8.1-21.4,2.7-45.3,24.1-53.3c21.4-8.1,45.3,2.7,53.3,24.1
	S192.1,127.6,170.7,135.6z"/>
<path class="st16" d="M131.4,1443.8c-21.4,8.1-45.3-2.7-53.3-24.1c-8.1-21.4,2.7-45.3,24.1-53.3s45.3,2.7,53.3,24.1
	C163.6,1411.8,152.8,1435.7,131.4,1443.8z"/>
<path class="st17" d="M-636.6,447.1c-19.2,12.5-44.8,7.1-57.3-12.1c-12.5-19.2-7.1-44.8,12.1-57.3c19.2-12.5,44.8-7.1,57.3,12.1
	C-612,408.9-617.4,434.6-636.6,447.1z"/>
<ellipse transform="matrix(0.7071 -0.7071 0.7071 0.7071 -1131.9082 310.0125)" class="st6" cx="-191.7" cy="1521.3" rx="41.4" ry="41.4"/>
<path class="st7" d="M-545.4,598.3c-36.9,24-86.4,13.6-110.4-23.3c-24-36.9-13.6-86.4,23.3-110.4c36.9-24,86.4-13.6,110.4,23.3
	C-498,524.8-508.4,574.2-545.4,598.3z"/>
<path class="st18" d="M-247.5,1373.3c-53.6,20.2-113.4-6.9-133.5-60.4c-20.2-53.6,6.9-113.4,60.4-133.5
	c53.6-20.2,113.4,6.9,133.5,60.4C-166.9,1293.3-194,1353.1-247.5,1373.3z"/>
</svg>
